Player,Price
Harry Kane,12
Mohamed Salah,11.6
Christian Eriksen,9.8
Riyad Mahrez,9.5
Roberto Firmino,9.1
Sadio Mane,9
James Ward-Prowse,8.3
Marko Arnautovic,8.2
Xherdan Shaqiri,8.1
Theo Walcott,8
Son Heung-Min,8
Johann Berg Gudmundsson,7.9
Marc Albrighton,7.8
Gylfi Sigurdsson,7.6
Fernando Llorente,7.6
Alex Oxlade-Chamberlain,7.5
Dominic Solanke,7.4
Manuel Lanzini,7.2
Jamie Vardy,7.2
Dele Alli,7.1
Charlie Austin,7.1
Joao Mario,7
Danny Ings,7
James Milner,6.8
Lucas Moura,6.6
Joshua King,6.6
Gerard Deulofeu,6.5
Richarlison,6.4
Demarai Gray,6.4
Erik Lamela,6.3
Ben Davies,6.3
Shinji Okazaki,6.3
Danny Rose,6.2
Kelechi Iheanacho,6.2
Kieran Trippier,6.1
Callum Wilson,6.1
Jordon Ibe,6.1
Serge Aurier,6
Hugo Lloris,6
Chicharito,6
Junior Stanislas,6
Chris Brunt,5.9
Michel Vorm,5.9
Paulo Gazzaniga,5.9
Jordan Ayew,5.9
Michail Antonio,5.9
Wayne Rooney,5.8
Andy Carroll,5.8
Adam Lallana,5.8
Loris Karius,5.8
Ryan Fraser,5.8
Oumar Niasse,5.7
Matt Phillips,5.7
Jose Holebas,5.7
Sofiane Boufal,5.7
Emre Can,5.7
Simon Mignolet,5.7
Cenk Tosun,5.6
James McClean,5.6
Andre Ayew,5.6
Dusan Tadic,5.6
Trent Alexander-Arnold,5.6
Will Hughes,5.5
Tammy Abraham,5.5
Alberto Moreno,5.5
Ashley Barnes,5.4
Aaron Mooy,5.4
Guido Carrillo,5.4
Andrew Robertson,5.4
Tom Cleverley,5.3
Shane Long,5.3
Jeremy Pied,5.3
Alex McCarthy,5.3
Kenedy,5.3
Aaron Cresswell,5.2
Fraser Forster,5.2
Kasper Schmeichel,5.2
Stefano Okaka,5.1
Abdoulaye Doucoure,5.1
Orestis Karnezis,5.1
Manolo Gabbiadini,5.1
Nathaniel Clyne,5.1
Ben Hamer,5.1
Eldin Jakupovic,5.1
Nick Pope,5
Salomon Rondon,5
Daniel Bachmann,5
Heurelho Gomes,5
Kyle Walker-Peters,5
Jordan Hugill,5
Arthur Masuaku,5
Matt Ritchie,5
Dominic Calvert-Lewin,4.9
Georges-Kevin N’koudou,4.9
Anders Lindegaard,4.9
Tom Heaton,4.9
Troy Deeney,4.9
Daryl Janmaat,4.9
Alex Pritchard,4.9
Lukasz Fabianski,4.9
Nathan Redmond,4.9
Christian Fuchs,4.9
Chris Wood,4.8
Jordan Pickford,4.8
Jay Rodriguez,4.8
Andre Gray,4.8
Kristoffer Nordfeldt,4.8
Eric Maxim Choupo-Moting,4.8
Ben Chilwell,4.8
Sam Vokes,4.7
Joel Robles,4.7
Maarten Stekelenburg,4.7
Daniel Sturridge,4.7
Luciano Narsingh,4.7
Adrian,4.7
Badou Ndiaye,4.7
Ryan Bertrand,4.7
Dwight Gayle,4.7
Joseph Gomez,4.7
Leighton Baines,4.6
Nacer Chadli,4.6
Rajiv van La Parra,4.6
Joe Hart,4.6
Josh Sims,4.6
Cedric Soares,4.6
Fousseni Diabate,4.6
Jonathan Walters,4.5
Seamus Coleman,4.5
Hal Robson-Kanu,4.5
Mame Biram Diouf,4.5
Sam McQueen,4.5
Lys Mousset,4.5
Harvey Barnes,4.5
Adam Smith,4.5
Nahki Wells,4.4
Yannick Bolasie,4.4
Stephen Ward,4.4
Ben Foster,4.4
Ki Sung-yueng,4.4
Ayoze Perez,4.4
Georginio Wijnaldum,4.4
Harry Maguire,4.4
Charlie Daniels,4.4
Scott Arfield,4.3
Marvin Zeegelaar,4.3
Boaz Myhill,4.3
Steve Mounie,4.3
Sam Clucas,4.3
Patrice Evra,4.3
Christian Atsu,4.3
Jermain Defoe,4.3
Simon Francis,4.3
Nikola Vlasic,4.2
Aaron Lennon,4.2
Jonjoe Kenny,4.2
Jerome Sinclair,4.2
Andre Carrillo,4.2
Allan Nyom,4.2
Collin Quaner,4.2
Tom Ince,4.2
Jan Vertonghen,4.2
Tom Carroll,4.2
Sam Byram,4.2
Kyle Naughton,4.2
Jese,4.2
Asmir Begovic,4.2
Craig Dawson,4.1
Kiko,4.1
Mark Noble,4.1
Martin Olsson,4.1
Jack Butland,4.1
Joselu,4.1
Jacob Murphy,4.1
Virgil van Dijk,4.1
Artur Boruc,4.1
Cuco Martina,4
Laurent Depoitre,4
Scott Malone,4
Josh Cullen,4
Renato Sanches,4
Charlie Adam,4
Erik Pieters,4
Moritz Bauer,4
Lee Grant,4
Islam Slimani,4
Matthew Lowton,3.9
Luke Garbutt,3.9
Elias Kachunga,3.9
Toby Alderweireld,3.9
Chris Lowe,3.9
Peter Crouch,3.9
Thomas Edwards,3.9
Jesus Gamez,3.9
Idrissa Gueye,3.8
Terence Kongolo,3.8
Nathan Dyer,3.8
Pablo Zabaleta,3.8
Saido Berahino,3.8
Wilfred Ndidi,3.8
Aleksandar Dragovic,3.8
Shayne Lavery,3.7
Rayhaan Tulloch,3.7
Kieran Gibbs,3.7
Kazaiah Sterling,3.7
Sean Scannell,3.7
Davinson Sanchez,3.7
Florent Hadergjonaj,3.7
Wilfried Bony,3.7
Wayne Routledge,3.7
Michael Obafemi,3.7
Tyrese Campbell,3.7
Joe Allen,3.7
Konstantinos Stafylidis,3.7
Rhian Brewster,3.7
Martin Dubravka,3.7
George Thomas,3.7
Mikael Ndjoli,3.7
Phil Bardsley,3.6
Jonas Lossl,3.6
Steven Davis,3.6
Ramadan Sobhi,3.6
Joel Matip,3.6
Karl Darlow,3.6
Robert Elliot,3.6
Danny Simpson,3.6
Rhoys Wiggins,3.6
Charlie Taylor,3.5
Adam Legzdins,3.5
Mateusz Hewelt,3.5
Alex Palmer,3.5
Moussa Sissoko,3.5
Tommy Smith,3.5
Alfie Whiteman,3.5
Robert Green,3.5
Joel Coleman,3.5
Angel Rangel,3.5
Nathan Trott,3.5
Erwin Mulder,3.5
Maya Yoshida,3.5
Stuart Taylor,3.5
Jakob Haugaard,3.5
Jonjo Shelvey,3.5
DeAndre Yedlin,3.5
Dejan Lovren,3.5
Danny Ward,3.5
Adam Bogdan,3.5
Adrien Silva,3.5
Yohan Benalouane,3.5
Brad Smith,3.5
Adam Federici,3.5
Mason Holgate,3.4
Victor Wanyama,3.4
Mario Lemina,3.4
Jack Stephens,3.4
Jordan Henderson,3.4
Massadio Haidara,3.4
Ragnar Klavan,3.4
Robert Huth,3.4
Wes Morgan,3.4
Roberto Pereyra,3.3
Miguel Britos,3.3
Eric Dier,3.3
Wesley Hoedt,3.3
Chancel Mbemba,3.3
Aiden O'Neill,3.2
Brad Jackson,3.2
Robbie Brady,3.2
Jeff Hendrick,3.2
Ashley Westwood,3.2
Jack Cork,3.2
Steven Defour,3.2
Dean Marney,3.2
Fraser Hornby,3.2
Anthony Gordon,3.2
Stephen Duke-McKenna,3.2
Alex Denny,3.2
Beni Baningime,3.2
Nathan Broadhead,3.2
Tom Davies,3.2
Davy Klaassen,3.2
James McCarthy,3.2
Morgan Schneiderlin,3.2
Kevin Long,3.2
Ashley Williams,3.2
Jonathan Leko,3.2
Rekeem Harper,3.2
James Morrison,3.2
Jake Livermore,3.2
Claudio Yacob,3.2
Gareth Barry,3.2
Oliver Burke,3.2
Sam Field,3.2
Grzegorz Krychowiak,3.2
Dodi Lukebakio,3.2
Carl Stewart,3.2
Didier Ndong,3.2
Etienne Capoue,3.2
Nathaniel Chalobah,3.2
Jonny Evans,3.2
Molla Wague,3.2
Christian Kabasele,3.2
Tashan Oakley-Boothe,3.2
Anthony Georgiou,3.2
Mousa Dembele,3.2
Harry Winks,3.2
Lewis O'Brien,3.2
Dean Whitehead,3.2
Jonathan Hogg,3.2
Philip Billing,3.2
Danny Williams,3.2
Abdelhamid Sabiri,3.2
Juan Foyth,3.2
Ben Johnson,3.2
Domingos Quina,3.2
Sead Haksabanovic,3.2
Nathan Holland,3.2
Grady Diangana,3.2
Declan Rice,3.2
Edimilson Fernandes,3.2
Cheikhou Kouyate,3.2
Pedro Obiang,3.2
Leon Britton,3.2
Daniel James,3.2
Adnan Maric,3.2
Courtney Baker-Richardson,3.2
Andy King,3.2
Leroy Fer,3.2
Angelo Ogbonna,3.2
Jake Hesketh,3.2
Oriol Romeu,3.2
Pierre-Emile Højbjerg,3.2
Oliver Shenton,3.2
Stephen Ireland,3.2
Ibrahim Afellay,3.2
Darren Fletcher,3.2
Jan Bednarek,3.2
Isaac Hayden,3.2
Mohamed Diame,3.2
Mikel Merino,3.2
Paulinho,3.2
Ben Woodburn,3.2
Paul Dummett,3.2
Hamza Choudhury,3.2
Daniel Amartey,3.2
Matty James,3.2
Vicente Iborra,3.2
Kyle Taylor,3.2
Matt Butcher,3.2
Emerson Hyndman,3.2
Harry Arter,3.2
Lewis Cook,3.2
Dan Gosling,3.2
Marc Pugh,3.2
Andrew Surman,3.2
Ben Mee,3
Morgan Feeney,3
Michael Keane,3
Ahmed Hegazi,3
Adrian Mariappa,3
Winston Reid,3
Mike van der Hoorn,3
Kurt Zouma,3
Javier Manquillo,3
Nathan Ake,3
James Tarkowski,2.9
Eliaquim Mangala,2.9
Phil Jagielka,2.9
Gareth McAuley,2.9
Sebastian Prodl,2.9
James Collins,2.9
Federico Fernandez,2.9
Ryan Shawcross,2.9
Steve Cook,2.9
Ramiro Funes Mori,2.8
Ali Gabr,2.8
Younes Kaboul,2.8
Alfie Mawson,2.8
Connor Roberts,2.8
Glen Johnson,2.8
Jamaal Lascelles,2.8
Tommie Hoban,2.7
Craig Cathcart,2.7
Christopher Schindler,2.7
Kyle Bartley,2.7
Bruno Martins Indi,2.7
Geoff Cameron,2.7
Ciaran Clark,2.7
Tyrone Mings,2.7
Jack Simpson,2.7
Michael Collins,2.6
Kyle Jameson,2.6
Nathan Ferguson,2.6
Joy Mukena,2.6
Jordan Williams,2.6
Michael Hefele,2.6
Jon Gorenc Stankovic,2.6
Zanka,2.6
Vashon Neufville,2.6
Kevin Wimmer,2.6
Florian Lejeune,2.6
Josh Knight,2.6
Sergio Aguero,9.9
Kevin De Bruyne,9.8
Raheem Sterling,8.3
Leroy Sane,8.1
Henrikh Mkhitaryan,8
Willian,7.9
Eden Hazard,7.8
Gabriel Jesus,7.7
Pierre-Emerick Aubameyang,7.6
Mesut Ozil,7.4
Alexandre Lacazette,7
David Silva,6.9
Aaron Ramsey,6.6
Bernardo Silva,6.3
Alvaro Morata,6.2
Olivier Giroud,6.1
Pascal Gross,6
Danny Welbeck,5.8
Alex Iwobi,5.7
Ederson Ederson,5.6
Pedro,5.5
Claudio Bravo,5.5
Ilkay Gundogan,5.4
Petr Cech,5.4
Jack Wilshere,5.3
David Ospina,5.3
Matt Macey,5.3
Phil Foden,5.2
Cesc Fabregas,5.2
Jurgen Locadia,5.1
Granit Xhaka,5
Marcos Alonso,4.9
Glenn Murray,4.9
Nacho Monreal,4.8
Yaya Toure,4.7
Kyle Walker,4.7
Victor Moses,4.6
Hector Bellerin,4.6
Ross Barkley,4.5
Danilo,4.5
Solly March,4.5
Anthony Knockaert,4.4
Sead Kolasinac,4.4
Davide Zappacosta,4.3
Nicolas Otamendi,4.3
Jose Izquierdo,4.3
Emerson,4.2
Oleksandr Zinchenko,4.2
Tomer Hemed,4.2
Fernandinho,4.1
Fabian Delph,4.1
Leonardo Ulloa,4.1
Mat Ryan,4.1
Reiss Nelson,4
Markus Suttner,4
Tim Krul,4
Thibaut Courtois,3.9
Cesar Azpilicueta,3.8
Willy Caballero,3.8
Shkodran Mustafi,3.6
Lukas Nmecha,3.5
John Stones,3.5
Eduardo,3.5
Daniel Grimshaw,3.5
Eddie Nketiah,3.5
Josh Da Silva,3.5
Aaron Connolly,3.5
James Tilley,3.5
Sam Baldock,3.5
Gaetan Bong,3.5
Dejan Iliev,3.5
Niki Maenpaa,3.5
Laurent Koscielny,3.4
Ales Mateju,3.4
Ezequiel Schelotto,3.4
Aymeric Laporte,3.3
Per Mertesacker,3.3
Connor Goldson,3.3
Vincent Kompany,3.2
Mohamed Elneny,3.2
Rob Holding,3.2
Liam Rosenior,3.2
Tiemoue Bakayoko,3.1
Ainsley Maitland-Niles,3.1
Calum Chambers,3.1
Bruno,3.1
Callum Hudson-Odoi,3
Dujon Sterling,3
Kyle Scott,3
N'Golo Kante,3
Daniel Drinkwater,3
Brahim Diaz,3
Tom Dele-Bashiru,3
Vlad Dragomir,3
Charlie Gilmour,3
Santiago Cazorla,3
Joe Willock,3
Jayson Molumby,3
Des Hutchinson,3
Steve Sidwell,3
Dale Stephens,3
Davy Propper,3
Beram Kayal,3
Jiri Skalak,3
Konstantinos Mavropanos,3
Antonio Rudiger,2.9
David Luiz,2.8
Uwe Hunemeier,2.8
Gary Cahill,2.7
Andreas Christensen,2.7
Lewis Dunk,2.7
Tosin Adarabioyo,2.6
Shane Duffy,2.6
Trevoh Chalobah,2.5
Ethan Ampadu,2.5
Demeaco Duhaney,2.5
Benjamin Mendy,2.5
Jordi Osei-Tutu ,2.5
