RotoWire ID,Site,First Name,Last Name,Nickname,Injury Status,Injury Detail,Lineup,Position,Team,Home Team,Away Team,Opponent,Salary,FPTS,Value,Ceiling,Floor,
17352,DraftKings,Harry,Kane,,No,,S,F,TOT,CRY,TOT,@CRY,12,0,21.4,1.78,29.16,12.3
17384,DraftKings,Mohamed,Salah,,No,,S,M,LIV,LIV,WHU,WHU,11,600,20.3,1.75,27.53,12.7
17199,DraftKings,Roberto,Firmino,,No,,S,M,LIV,LIV,WHU,WHU,9,100,17.4,1.91,24.17,10.7
18529,DraftKings,Sadio,Mane,,No,,S,M,LIV,LIV,WHU,WHU,9,0,16.3,1.81,23.41,10.3
18629,DraftKings,Dele,Alli,,No,,S,M,TOT,CRY,TOT,@CRY,7,100,16.2,2.29,22.01,9.1
16585,DraftKings,Alex,Oxlade-Chamberlain,,No,,S,M,LIV,LIV,WHU,WHU,7,500,14.1,1.88,18.36,8.1
1153,DraftKings,James,Milner,,No,,S,M,LIV,LIV,WHU,WHU,6,800,13.7,2.01,17.98,8.4
17660,DraftKings,Riyad,Mahrez,,No,,S,M,LEI,LEI,STK,STK,9,500,13.5,1.42,18.32,8.2
24036,DraftKings,Richarlison,,Richarlison,No,,S,F,WAT,WAT,EVE,EVE,6,400,13.1,2.05,18.25,7.5
19165,DraftKings,Joshua,King,,No,,S,F,BOU,BOU,NEW,NEW,6,600,12.8,1.94,16.67,6.6
17224,DraftKings,Christian,Eriksen,,No,,S,M,TOT,CRY,TOT,@CRY,9,800,12.8,1.3,18.01,7.8
20866,DraftKings,Demarai,Gray,,No,,S,M,LEI,LEI,STK,STK,6,400,12.6,1.97,17.04,7.2
16970,DraftKings,James,Ward-Prowse,,No,,S,M,SOU,BUR,SOU,@BUR,8,300,12.6,1.51,16.88,6.6
19048,DraftKings,Callum,Wilson,,No,,S,F,BOU,BOU,NEW,NEW,6,100,12.5,2.05,16.87,7.1
686,DraftKings,Ryan,Fraser,,No,,S,M,BOU,BOU,NEW,NEW,5,800,12.4,2.15,16.18,6.8
17838,DraftKings,Jamie,Vardy,,No,,S,F,LEI,LEI,STK,STK,7,200,12.3,1.71,17.24,7
1647,DraftKings,Theo,Walcott,,No,,S,M,EVE,WAT,EVE,@WAT,8,0,12.3,1.53,18.35,6.2
21420,DraftKings,Johann Berg,Gudmundsson,,No,,S,M,BUR,BUR,SOU,SOU,7,900,12.2,1.54,16.28,7
16699,DraftKings,James,McClean,,No,,S,M,WBA,WBA,HUD,HUD,5,600,12.2,2.17,15.82,6.6
24499,DraftKings,Rajiv,van La Parra,,No,,S,M,HUD,WBA,HUD,@WBA,4,600,12.2,2.65,16.91,4.1
16341,DraftKings,Xherdan,Shaqiri,,No,,S,M,STK,LEI,STK,@LEI,8,100,12.1,1.49,18.53,7.4
17857,DraftKings,Ashley,Barnes,,No,,S,F,BUR,BUR,SOU,SOU,5,400,11.9,2.21,15.89,6.9
16912,DraftKings,Jay,Rodriguez,,No,,S,M,WBA,WBA,HUD,HUD,4,800,11.9,2.47,15.53,6.6
16722,DraftKings,Roberto,Pereyra,,No,,S,M,WAT,WAT,EVE,EVE,3,300,11.7,3.56,15.42,6.1
8368,DraftKings,Salomon,Rondon,,No,,S,F,WBA,WBA,HUD,HUD,5,0,11.6,2.32,15.25,6.4
16999,DraftKings,Ben,Davies,,No,,S,D,TOT,CRY,TOT,@CRY,6,300,11.6,1.83,16.56,7.1
19061,DraftKings,Matt,Ritchie,,No,,S,M,NEW,BOU,NEW,@BOU,5,0,11.5,2.31,16.48,6.7
24504,DraftKings,Collin,Quaner,,No,,S,F,HUD,WBA,HUD,@WBA,4,200,11.5,2.73,15.67,6.3
16502,DraftKings,Marc,Albrighton,,No,,S,M,LEI,LEI,STK,STK,7,800,11.4,1.47,15.81,6.5
16497,DraftKings,Matthew,Phillips,,No,,S,M,WBA,WBA,HUD,HUD,5,700,11.3,1.99,15.14,6.7
17542,DraftKings,Emre,Can,,No,,S,M,LIV,LIV,WHU,WHU,5,700,11.3,1.98,14.94,6.8
17250,DraftKings,Marko,Arnautovic,,No,,S,M,WHU,LIV,WHU,@LIV,8,200,11.3,1.37,16.26,5.9
2152,DraftKings,Hugo,Lloris,,No,,S,GK,TOT,CRY,TOT,@CRY,6,0,11.2,1.87,16.62,6.1
16213,DraftKings,Junior,Stanislas,,No,,S,M,BOU,BOU,NEW,NEW,6,0,10.9,1.82,16.32,6.5
17366,DraftKings,Jordan,Ayew,,No,,S,F,SWA,BHA,SWA,@BHA,5,900,10.9,1.85,15.09,6.7
17335,DraftKings,Loris,Karius,,No,,S,GK,LIV,LIV,WHU,WHU,5,800,10.8,1.87,16.64,6.5
16669,DraftKings,Erik,Lamela,,No,,S,M,TOT,CRY,TOT,@CRY,6,300,10.8,1.71,14.41,6.1
19131,DraftKings,Manuel,Lanzini,,No,,S,M,WHU,LIV,WHU,@LIV,7,200,10.5,1.46,15.45,6.5
16843,DraftKings,Gylfi,Sigurdsson,,No,,S,M,EVE,WAT,EVE,@WAT,7,600,10.5,1.38,15.63,6.7
23133,DraftKings,Trent,Alexander-Arnold,,No,,S,D,LIV,LIV,WHU,WHU,5,600,10.4,1.86,14.23,6.4
17179,DraftKings,Troy,Deeney,,No,,S,M,WAT,WAT,EVE,EVE,4,900,10.3,2.09,15.29,5.8
17829,DraftKings,Dusan,Tadic,,No,,S,M,SOU,BUR,SOU,@BUR,5,600,10.2,1.82,15.72,5.7
17127,DraftKings,Dwight,Gayle,,GTD,Hamstring,S,F,NEW,BOU,NEW,@BOU,4,700,10.1,2.15,15.42,6.2
17446,DraftKings,Serge,Aurier,,No,,S,D,TOT,CRY,TOT,@CRY,6,0,10,1.66,15.96,6.6
17945,DraftKings,Andrew,Robertson,,No,,S,D,LIV,LIV,WHU,WHU,5,400,9.8,1.82,15.06,6.2
20948,DraftKings,Oumar,Niasse,,No,,S,F,EVE,WAT,EVE,@WAT,5,700,9.8,1.72,15.45,6.3
17136,DraftKings,Gerard,Deulofeu,,GTD,Foot,S,M,WAT,WAT,EVE,EVE,6,500,9.8,1.5,15.04,5.8
17334,DraftKings,Eric Maxim,Choupo-Moting,,No,,S,M,STK,LEI,STK,@LEI,4,800,9.7,2.02,14.85,5.7
991,DraftKings,Wayne,Rooney,,No,,S,M,EVE,WAT,EVE,@WAT,5,800,9.7,1.67,15.87,6.4
17512,DraftKings,Alex,Pritchard,,No,,S,M,HUD,WBA,HUD,@WBA,4,900,9.5,1.94,12.34,4.8
20286,DraftKings,Guido,Carrillo,,No,,S,F,SOU,BUR,SOU,@BUR,5,400,9.4,1.75,16,6.3
17616,DraftKings,Jose,Holebas,,No,,S,D,WAT,WAT,EVE,EVE,5,700,9.4,1.65,13.28,5.9
19190,DraftKings,Kenedy,,Kenedy,No,,S,M,NEW,BOU,NEW,@BOU,5,300,9.4,1.77,12.22,5
17701,DraftKings,Ayoze,Perez,,No,,S,F,NEW,BOU,NEW,@BOU,4,400,9.3,2.11,14.1,5.1
21408,DraftKings,Jeff,Hendrick,,No,,S,M,BUR,BUR,SOU,SOU,3,200,9.3,2.89,13.03,5.5
1567,DraftKings,Aaron,Lennon,,No,,S,M,BUR,BUR,SOU,SOU,4,200,9.1,2.17,11.86,5.3
16462,DraftKings,Mame,Diouf,,No,,S,M,STK,LEI,STK,@LEI,4,500,9.1,2.01,13.63,5.9
17125,DraftKings,Nathan,Redmond,,No,,S,M,SOU,BUR,SOU,@BUR,4,900,8.9,1.82,13.27,5.4
17760,DraftKings,Daryl,Janmaat,,No,,S,D,WAT,WAT,EVE,EVE,4,900,8.7,1.77,12,5.1
1841,DraftKings,Ben,Foster,,No,,S,GK,WBA,WBA,HUD,HUD,4,400,8.4,1.9,11.22,4.1
17150,DraftKings,Etienne,Capoue,,No,,S,M,WAT,WAT,EVE,EVE,3,200,8.3,2.58,11,4.8
20398,DraftKings,Abdoulaye,Doucoure,,No,,S,M,WAT,WAT,EVE,EVE,5,100,8.2,1.62,11.19,5
23304,DraftKings,Wilfred,Ndidi,,No,,S,M,LEI,LEI,STK,STK,3,800,8.2,2.15,10.79,4.9
21958,DraftKings,Steve,Mounie,,No,,S,F,HUD,WBA,HUD,@WBA,4,300,8.2,1.9,15.83,5.5
19577,DraftKings,Ben,Chilwell,,No,,S,D,LEI,LEI,STK,STK,4,800,8.2,1.7,11.24,4.7
19080,DraftKings,Charlie,Daniels,,No,,S,D,BOU,BOU,NEW,NEW,4,400,8.1,1.85,11.51,5
17106,DraftKings,Victor,Wanyama,,No,,S,M,TOT,CRY,TOT,@CRY,3,400,8.1,2.39,10.57,5.3
2011,DraftKings,Dan,Gosling,,No,,S,M,BOU,BOU,NEW,NEW,3,200,7.9,2.48,11.08,4.8
19493,DraftKings,Grzegorz,Krychowiak,,No,,S,M,WBA,WBA,HUD,HUD,3,200,7.7,2.39,11.08,4.8
16702,DraftKings,Joe,Allen,,No,,S,M,STK,LEI,STK,@LEI,3,700,7.6,2.07,10.95,4.9
25424,DraftKings,Badou,Ndiaye,,No,,S,M,STK,LEI,STK,@LEI,4,700,7.6,1.61,9.84,4.4
16750,DraftKings,Mohamed,Diame,,No,,S,M,NEW,BOU,NEW,@BOU,3,200,7.5,2.35,10.63,4
17611,DraftKings,Orestis,Karnezis,,No,,S,GK,WAT,WAT,EVE,EVE,5,100,7.4,1.45,9.65,3.2
21483,DraftKings,Lewis,Cook,,No,,S,M,BOU,BOU,NEW,NEW,3,200,7.4,2.32,10.26,4.5
1938,DraftKings,Asmir,Begovic,,No,,S,GK,BOU,BOU,NEW,NEW,4,200,7.4,1.76,11.36,3.3
34,DraftKings,Gareth,Barry,,No,,S,M,WBA,WBA,HUD,HUD,3,200,7.4,2.31,9.75,4.4
19065,DraftKings,Idrissa,Gueye,,No,,S,M,EVE,WAT,EVE,@WAT,3,800,7.4,1.94,10.55,2.5
17307,DraftKings,Ryan,Bertrand,,No,,S,D,SOU,BUR,SOU,@BUR,4,700,7.4,1.57,11.77,4.9
1528,DraftKings,Kasper,Schmeichel,,No,,S,GK,LEI,LEI,STK,STK,5,200,7.2,1.39,10.82,3.6
16639,DraftKings,Nathan,Dyer,,No,,S,M,SWA,BHA,SWA,@BHA,3,800,7.2,1.89,13.25,3.9
17894,DraftKings,Eric,Dier,,No,,S,M,TOT,CRY,TOT,@CRY,3,300,7.2,2.17,9.32,4
18511,DraftKings,Cedric,Soares,,No,,S,D,SOU,BUR,SOU,@BUR,4,600,7.2,1.56,10.54,4.6
1584,DraftKings,Mark,Noble,,No,,S,M,WHU,LIV,WHU,@LIV,4,100,7.2,1.75,10.2,4.6
21479,DraftKings,Samuel,Clucas,,No,,S,M,SWA,BHA,SWA,@BHA,4,300,7.2,1.66,10.31,4.5
19358,DraftKings,Mario,Lemina,,No,,S,M,SOU,BUR,SOU,@BUR,3,400,7.1,2.1,10.17,4
16754,DraftKings,Kyle,Naughton,,No,,S,D,SWA,BHA,SWA,@BHA,4,200,7.1,1.68,9.28,4.3
17766,DraftKings,Terence,Kongolo,,No,,S,D,HUD,WBA,HUD,@WBA,3,800,7.1,1.86,9.31,3.8
17962,DraftKings,Tom,Carroll,,No,,S,M,SWA,BHA,SWA,@BHA,4,200,7.1,1.68,10.55,4.7
17042,DraftKings,Matthew,Lowton,,No,,S,D,BUR,BUR,SOU,SOU,3,900,7,1.8,9.2,4.2
2808,DraftKings,Stephen,Ward,,No,,S,D,BUR,BUR,SOU,SOU,4,400,7,1.59,9.77,4.6
16493,DraftKings,Mousa,Dembele,,No,,S,M,TOT,CRY,TOT,@CRY,3,200,7,2.17,9.38,3.7
17355,DraftKings,Adrian,,Adrian,No,,S,GK,WHU,LIV,WHU,@LIV,4,700,6.9,1.48,10.41,4.1
16941,DraftKings,Jack,Cork,,No,,S,M,BUR,BUR,SOU,SOU,3,200,6.7,2.11,9.69,4.3
17810,DraftKings,Cheikhou,Kouyate,,No,,S,M,WHU,LIV,WHU,@LIV,3,200,6.7,2.1,9.67,4.1
16412,DraftKings,Ki,Sung-yueng,,No,,S,M,SWA,BHA,SWA,@BHA,4,400,6.7,1.51,9.29,3.5
22645,DraftKings,Florent,Hadergjonaj,,No,,S,D,HUD,WBA,HUD,@WBA,3,700,6.7,1.8,10.24,4
21762,DraftKings,Nick,Pope,,No,,S,GK,BUR,BUR,SOU,SOU,5,0,6.6,1.33,9.56,3.1
12891,DraftKings,Pablo,Zabaleta,,No,,S,D,WHU,LIV,WHU,@LIV,3,800,6.6,1.74,9.94,4.3
16820,DraftKings,Craig,Dawson,,No,,S,D,WBA,WBA,HUD,HUD,4,100,6.6,1.61,9.08,3.9
19070,DraftKings,Cuco,Martina,,No,,S,D,EVE,WAT,EVE,@WAT,4,0,6.6,1.65,10.87,4
16734,DraftKings,Martin,Olsson,,No,,S,D,SWA,BHA,SWA,@BHA,4,100,6.5,1.59,11.96,4.3
21116,DraftKings,Tom,Davies,,No,,S,M,EVE,WAT,EVE,@WAT,3,200,6.4,2.01,9.76,4.1
17837,DraftKings,Matty,James,,No,,S,M,LEI,LEI,STK,STK,3,200,6.3,1.97,8.19,3.9
16696,DraftKings,Oriol,Romeu,,No,,S,M,SOU,BUR,SOU,@BUR,3,200,6.2,1.93,9.21,3.5
24610,DraftKings,Danny,Williams,,No,,S,M,HUD,WBA,HUD,@WBA,3,200,6.1,1.91,8.75,3.8
17526,DraftKings,DeAndre,Yedlin,,No,,S,D,NEW,BOU,NEW,@BOU,3,500,6.1,1.75,8.84,3.7
24494,DraftKings,Jonathan,Hogg,,No,,S,M,HUD,WBA,HUD,@WBA,3,200,6.1,1.9,8.94,3.8
25344,DraftKings,Moritz,Bauer,,No,,S,D,STK,LEI,STK,@LEI,4,0,6.1,1.52,8.67,3.5
16051,DraftKings,Kieran,Gibbs,,No,,S,D,WBA,WBA,HUD,HUD,3,700,6.1,1.64,8.98,4
25426,DraftKings,Martin,Dubravka,,No,,S,GK,NEW,BOU,NEW,@BOU,3,700,6.1,1.64,9.98,3.6
1834,DraftKings,Lukasz,Fabianski,,No,,S,GK,SWA,BHA,SWA,@BHA,4,900,6,1.23,9.16,3
19035,DraftKings,Jordan,Pickford,,No,,S,GK,EVE,WAT,EVE,@WAT,4,800,5.9,1.22,10.21,3.4
16917,DraftKings,Alex,McCarthy,,No,,S,GK,SOU,BUR,SOU,@BUR,5,300,5.8,1.1,10.32,3.5
17311,DraftKings,Paul,Dummett,,No,,S,D,NEW,BOU,NEW,@BOU,3,200,5.7,1.78,8.67,3.7
17822,DraftKings,Aaron,Cresswell,,No,,S,D,WHU,LIV,WHU,@LIV,5,200,5.6,1.09,11.32,3.8
20028,DraftKings,Jonas,Lossl,,No,,S,GK,HUD,WBA,HUD,@WBA,3,600,5.6,1.55,10.41,2.3
749,DraftKings,Danny,Simpson,,No,,S,D,LEI,LEI,STK,STK,3,600,5.5,1.54,7.33,3.2
19194,DraftKings,Virgil,van Dijk,,No,,S,D,LIV,LIV,WHU,WHU,4,100,5.4,1.33,7.31,3
17893,DraftKings,Harry,Maguire,,No,,S,D,LEI,LEI,STK,STK,4,400,5.4,1.22,7.32,3.2
17628,DraftKings,Joel,Matip,,No,,S,D,LIV,LIV,WHU,WHU,3,600,5.3,1.47,7.17,3.1
61,DraftKings,Ashley,Westwood,,No,,S,M,BUR,BUR,SOU,SOU,3,200,5.2,1.63,6.79,3.2
23617,DraftKings,Jonjoe,Kenny,,No,,S,D,EVE,WAT,EVE,@WAT,4,200,5.2,1.24,7.91,3.2
1842,DraftKings,Jonny,Evans,,No,,S,D,WBA,WBA,HUD,HUD,3,200,5,1.57,6.76,3
16965,DraftKings,Jack,Stephens,,No,,S,D,SOU,BUR,SOU,@BUR,3,400,4.9,1.44,6.68,2.9
19888,DraftKings,Kostas,Stafylidis,,No,,S,D,STK,LEI,STK,@LEI,3,700,4.9,1.32,6.36,3
17158,DraftKings,Kurt,Zouma,,No,,S,D,STK,LEI,STK,@LEI,3,0,4.9,1.63,7.12,3.3
24649,DraftKings,Ahmed,Hegazi,,No,,S,D,WBA,WBA,HUD,HUD,3,0,4.8,1.6,6.44,2.8
19843,DraftKings,Wesley,Hoedt,,No,,S,D,SOU,BUR,SOU,@BUR,3,300,4.7,1.43,6.98,2.8
17510,DraftKings,Nathan,Ake,,No,,S,D,BOU,BOU,NEW,NEW,3,0,4.7,1.56,6.21,2.7
24928,DraftKings,Davinson,Sanchez,,No,,S,D,TOT,CRY,TOT,@CRY,3,700,4.6,1.26,6.37,2.9
16320,DraftKings,Geoff,Cameron,,No,,S,D,STK,LEI,STK,@LEI,2,700,4.5,1.66,6.63,3
19073,DraftKings,Simon,Francis,,No,,S,D,BOU,BOU,NEW,NEW,4,300,4.4,1.02,5.81,2.6
24492,DraftKings,Christopher,Schindler,,No,,S,D,HUD,WBA,HUD,@WBA,2,700,4.3,1.58,6.33,2.7
21894,DraftKings,Florian,Lejeune,,No,,S,D,NEW,BOU,NEW,@BOU,2,600,4.2,1.6,6.16,2.5
1729,DraftKings,Adrian,Mariappa,,No,,S,D,WAT,WAT,EVE,EVE,3,0,4.2,1.38,5.96,2.5
18099,DraftKings,Mike,van der Hoorn,,No,,S,D,SWA,BHA,SWA,@BHA,3,0,4.1,1.38,6.05,2.6
19074,DraftKings,Steve,Cook,,No,,S,D,BOU,BOU,NEW,NEW,2,900,4.1,1.41,5.53,2.3
17851,DraftKings,Ben,Mee,,No,,S,D,BUR,BUR,SOU,SOU,3,0,4,1.35,5.95,2.5
17852,DraftKings,Kevin,Long,,No,,S,D,BUR,BUR,SOU,SOU,3,200,4,1.24,5.91,2.4
19303,DraftKings,Jamaal,Lascelles,,No,,S,D,NEW,BOU,NEW,@BOU,2,800,3.9,1.41,5.96,2.3
16521,DraftKings,Federico,Fernandez,,No,,S,D,SWA,BHA,SWA,@BHA,2,900,3.9,1.35,5.62,2.3
22850,DraftKings,Alfie,Mawson,,No,,S,D,SWA,BHA,SWA,@BHA,2,800,3.9,1.39,6.04,2.4
19110,DraftKings,Sebastian,Prodl,,No,,S,D,WAT,WAT,EVE,EVE,2,900,3.9,1.33,5.7,2.3
17761,DraftKings,Bruno,Martins Indi,,No,,S,D,STK,LEI,STK,@LEI,2,700,3.8,1.43,5.6,2.6
17824,DraftKings,Wes,Morgan,,No,,S,D,LEI,LEI,STK,STK,3,400,3.8,1.13,5.21,2.3
16003,DraftKings,Angelo,Ogbonna,,No,,S,D,WHU,LIV,WHU,@LIV,3,200,3.8,1.19,5.37,2.3
17514,DraftKings,Michael,Keane,,No,,S,D,EVE,WAT,EVE,@WAT,3,0,3.7,1.22,5.26,2.3
1577,DraftKings,James,Collins,,No,,S,D,WHU,LIV,WHU,@LIV,2,900,3.6,1.25,5.3,2.2
22916,DraftKings,Zanka,,Zanka,No,,S,D,HUD,WBA,HUD,@WBA,2,600,3.6,1.4,5.67,2.3
16634,DraftKings,Ashley,Williams,,No,,S,D,EVE,WAT,EVE,@WAT,3,200,3.6,1.12,5.12,2.2
16872,DraftKings,Jack,Butland,,No,,S,GK,STK,LEI,STK,@LEI,4,100,3.2,0.79,7.94,2.2
17326,DraftKings,Son,Heung-Min,,No,,-,M,TOT,CRY,TOT,@CRY,8,0,0,0,0,0
16805,DraftKings,Fernando,Llorente,,No,,-,F,TOT,CRY,TOT,@CRY,7,600,0,0,0,0
18544,DraftKings,Dominic,Solanke,,No,,-,F,LIV,LIV,WHU,WHU,7,400,0,0,0,0
17863,DraftKings,Charlie,Austin,,OUT,Hamstring,-,F,SOU,BUR,SOU,@BUR,7,100,0,0,0,0
17856,DraftKings,Danny,Ings,,OUT,Illness,-,F,LIV,LIV,WHU,WHU,7,0,0,0,0,0
18538,DraftKings,Joao,Mario,,No,,-,M,WHU,LIV,WHU,@LIV,7,0,0,0,0,0
16902,DraftKings,Lucas,Moura,,No,,-,M,TOT,CRY,TOT,@CRY,6,600,0,0,0,0
17318,DraftKings,Shinji,Okazaki,,GTD,Knee,-,M,LEI,LEI,STK,STK,6,300,0,0,0,0
19169,DraftKings,Kelechi,Iheanacho,,No,,-,F,LEI,LEI,STK,STK,6,200,0,0,0,0
16317,DraftKings,Danny,Rose,,No,,-,D,TOT,CRY,TOT,@CRY,6,200,0,0,0,0
17848,DraftKings,Kieran,Trippier,,No,,-,D,TOT,CRY,TOT,@CRY,6,100,0,0,0,0
17406,DraftKings,Jordon,Ibe,,No,,-,M,BOU,BOU,NEW,NEW,6,100,0,0,0,0
16309,DraftKings,Chicharito,,Chicharito,No,,-,F,WHU,LIV,WHU,@LIV,6,0,0,0,0,0
16924,DraftKings,Michail,Antonio,,No,,-,M,WHU,LIV,WHU,@LIV,5,900,0,0,0,0
16698,DraftKings,Michel,Vorm,,No,,-,GK,TOT,CRY,TOT,@CRY,5,900,0,0,0,0
15754,DraftKings,Chris,Brunt,,No,,-,M,WBA,WBA,HUD,HUD,5,900,0,0,0,0
16906,DraftKings,Paulo,Gazzaniga,,No,,-,GK,TOT,CRY,TOT,@CRY,5,900,0,0,0,0
17043,DraftKings,Adam,Lallana,,No,,-,M,LIV,LIV,WHU,WHU,5,800,0,0,0,0
16471,DraftKings,Andy,Carroll,,OUT,Ankle,-,F,WHU,LIV,WHU,@LIV,5,800,0,0,0,0
20071,DraftKings,Sofiane,Boufal,,No,,-,M,SOU,BUR,SOU,@BUR,5,700,0,0,0,0
16743,DraftKings,Simon,Mignolet,,No,,-,GK,LIV,LIV,WHU,WHU,5,700,0,0,0,0
21400,DraftKings,Cenk,Tosun,,No,,-,F,EVE,WAT,EVE,@WAT,5,600,0,0,0,0
17301,DraftKings,Andre,Ayew,,No,,-,F,SWA,BHA,SWA,@BHA,5,600,0,0,0,0
17917,DraftKings,Alberto,Moreno,,No,,-,D,LIV,LIV,WHU,WHU,5,500,0,0,0,0
17306,DraftKings,Will,Hughes,,GTD,Hamstring,-,M,WAT,WAT,EVE,EVE,5,500,0,0,0,0
21957,DraftKings,Tammy,Abraham,,No,,-,F,SWA,BHA,SWA,@BHA,5,500,0,0,0,0
24496,DraftKings,Aaron,Mooy,,OUT,Knee,-,M,HUD,WBA,HUD,@WBA,5,400,0,0,0,0
20365,DraftKings,Jeremy,Pied,,No,,-,D,SOU,BUR,SOU,@BUR,5,300,0,0,0,0
1696,DraftKings,Shane,Long,,GTD,Hamstring,-,F,SOU,BUR,SOU,@BUR,5,300,0,0,0,0
16586,DraftKings,Tom,Cleverley,,OUT,Hamstring,-,M,WAT,WAT,EVE,EVE,5,300,0,0,0,0
17584,DraftKings,Fraser,Forster,,No,,-,GK,SOU,BUR,SOU,@BUR,5,200,0,0,0,0
16781,DraftKings,Nathaniel,Clyne,,OUT,Back,-,D,LIV,LIV,WHU,WHU,5,100,0,0,0,0
17105,DraftKings,Manolo,Gabbiadini,,No,,-,F,SOU,BUR,SOU,@BUR,5,100,0,0,0,0
17428,DraftKings,Eldin,Jakupovic,,No,,-,GK,LEI,LEI,STK,STK,5,100,0,0,0,0
17843,DraftKings,Ben,Hamer,,No,,-,GK,LEI,LEI,STK,STK,5,100,0,0,0,0
16012,DraftKings,Stefano,Okaka,,No,,-,F,WAT,WAT,EVE,EVE,5,100,0,0,0,0
24835,DraftKings,Kyle,Walker-Peters,,No,,-,D,TOT,CRY,TOT,@CRY,5,0,0,0,0,0
2280,DraftKings,Heurelho,Gomes,,No,,-,GK,WAT,WAT,EVE,EVE,5,0,0,0,0,0
17980,DraftKings,Arthur,Masuaku,,SUS,Suspension,-,D,WHU,LIV,WHU,@LIV,5,0,0,0,0,0
25425,DraftKings,Jordan,Hugill,,No,,-,F,WHU,LIV,WHU,@LIV,5,0,0,0,0,0
19589,DraftKings,Daniel,Bachmann,,No,-,-,GK,WAT,WAT,EVE,EVE,5,0,0,0,0,0
18468,DraftKings,Christian,Fuchs,,No,,-,D,LEI,LEI,STK,STK,4,900,0,0,0,0
16513,DraftKings,Anders,Lindegaard,,No,,-,GK,BUR,BUR,SOU,SOU,4,900,0,0,0,0
23240,DraftKings,Dominic,Calvert-Lewin,,No,,-,F,EVE,WAT,EVE,@WAT,4,900,0,0,0,0
1840,DraftKings,Tom,Heaton,,GTD,Shoulder,-,GK,BUR,BUR,SOU,SOU,4,900,0,0,0,0
20128,DraftKings,Georges-Kevin,Nkoudou,,No,,-,M,BUR,BUR,SOU,SOU,4,900,0,0,0,0
17846,DraftKings,Chris,Wood,,No,,-,F,BUR,BUR,SOU,SOU,4,800,0,0,0,0
19164,DraftKings,Kristoffer,Nordfeldt,,No,,-,GK,SWA,BHA,SWA,@BHA,4,800,0,0,0,0
21462,DraftKings,Andre,Gray,,No,,-,F,WAT,WAT,EVE,EVE,4,800,0,0,0,0
1921,DraftKings,Daniel,Sturridge,,OUT,Leg,-,F,WBA,WBA,HUD,HUD,4,700,0,0,0,0
19467,DraftKings,Luciano,Narsingh,,No,,-,M,SWA,BHA,SWA,@BHA,4,700,0,0,0,0
19162,DraftKings,Joe,Gomez,,No,,-,D,LIV,LIV,WHU,WHU,4,700,0,0,0,0
17134,DraftKings,Joel,Robles,,No,,-,GK,EVE,WAT,EVE,@WAT,4,700,0,0,0,0
2812,DraftKings,Sam,Vokes,,No,,-,F,BUR,BUR,SOU,SOU,4,700,0,0,0,0
16692,DraftKings,Maarten,Stekelenburg,,OUT,Groin,-,GK,EVE,WAT,EVE,@WAT,4,700,0,0,0,0
1596,DraftKings,Leighton,Baines,,GTD,Calf,-,D,EVE,WAT,EVE,@WAT,4,600,0,0,0,0
23557,DraftKings,Fousseni,Diabate,,No,,-,F,LEI,LEI,STK,STK,4,600,0,0,0,0
23254,DraftKings,Josh,Sims,,No,,-,M,SOU,BUR,SOU,@BUR,4,600,0,0,0,0
1662,DraftKings,Joe,Hart,,No,,-,GK,WHU,LIV,WHU,@LIV,4,600,0,0,0,0
17146,DraftKings,Nacer,Chadli,,OUT,Thigh,-,M,WBA,WBA,HUD,HUD,4,600,0,0,0,0
16931,DraftKings,Hal,Robson-Kanu,,OUT,Hamstring,-,M,WBA,WBA,HUD,HUD,4,500,0,0,0,0
18447,DraftKings,Sam,McQueen,,OUT,Hamstring,-,D,SOU,BUR,SOU,@BUR,4,500,0,0,0,0
17198,DraftKings,Seamus,Coleman,,GTD,Thigh,-,D,EVE,WAT,EVE,@WAT,4,500,0,0,0,0
18448,DraftKings,Adam,Smith,,No,,-,D,BOU,BOU,NEW,NEW,4,500,0,0,0,0
21459,DraftKings,Lys,Mousset,,No,,-,F,BOU,BOU,NEW,NEW,4,500,0,0,0,0
16501,DraftKings,Jonathan,Walters,,OUT,Knee,-,M,BUR,BUR,SOU,SOU,4,500,0,0,0,0
24503,DraftKings,Nahki,Wells,,No,,-,F,BUR,BUR,SOU,SOU,4,400,0,0,0,0
17154,DraftKings,Yannick,Bolasie,,No,,-,M,EVE,WAT,EVE,@WAT,4,400,0,0,0,0
17768,DraftKings,Georginio,Wijnaldum,,OUT,Illness,-,M,LIV,LIV,WHU,WHU,4,400,0,0,0,0
1651,DraftKings,Patrice,Evra,,OUT,Leg,S,D,WHU,LIV,WHU,@LIV,4,300,0,0,0,0
2749,DraftKings,Boaz,Myhill,,No,,-,GK,WBA,WBA,HUD,HUD,4,300,0,0,0,0
17102,DraftKings,Christian,Atsu,,No,,-,M,NEW,BOU,NEW,@BOU,4,300,0,0,0,0
17855,DraftKings,Scott,Arfield,,GTD,Calf,-,M,BUR,BUR,SOU,SOU,4,300,0,0,0,0
1117,DraftKings,Jermain,Defoe,,No,,-,F,BOU,BOU,NEW,NEW,4,300,0,0,0,0
22974,DraftKings,Marvin,Zeegelaar,,No,,-,D,WAT,WAT,EVE,EVE,4,300,0,0,0,0
17606,DraftKings,Allan,Nyom,,No,,-,D,WBA,WBA,HUD,HUD,4,200,0,0,0,0
15904,DraftKings,Jan,Vertonghen,,OUT,Ankle,-,D,TOT,CRY,TOT,@CRY,4,200,0,0,0,0
25063,DraftKings,Nikola,Vlasic,,No,,-,F,EVE,WAT,EVE,@WAT,4,200,0,0,0,0
17123,DraftKings,Tom,Ince,,No,,-,M,HUD,WBA,HUD,@WBA,4,200,0,0,0,0
17910,DraftKings,Jerome,Sinclair,,No,,-,M,WAT,WAT,EVE,EVE,4,200,0,0,0,0
20927,DraftKings,Sam,Byram,,No,,-,D,WHU,LIV,WHU,@LIV,4,200,0,0,0,0
17468,DraftKings,Jese,,Jese,No,,-,F,STK,LEI,STK,@LEI,4,200,0,0,0,0
18519,DraftKings,Andre,Carrillo,,No,,-,M,WAT,WAT,EVE,EVE,4,200,0,0,0,0
17724,DraftKings,Joselu,,Joselu,No,,-,F,NEW,BOU,NEW,@BOU,4,100,0,0,0,0
19122,DraftKings,Jacob,Murphy,,No,,-,M,NEW,BOU,NEW,@BOU,4,100,0,0,0,0
16448,DraftKings,Artur,Boruc,,No,,-,GK,BOU,BOU,NEW,NEW,4,100,0,0,0,0
21808,DraftKings,Kiko,,Kiko,No,,-,D,WAT,WAT,EVE,EVE,4,100,0,0,0,0
24611,DraftKings,Scott,Malone,,No,,-,D,HUD,WBA,HUD,@WBA,4,0,0,0,0,0
19237,DraftKings,Laurent,Depoitre,,No,,-,F,HUD,WBA,HUD,@WBA,4,0,0,0,0,0
17661,DraftKings,Islam,Slimani,,GTD,Thigh,-,F,NEW,BOU,NEW,@BOU,4,0,0,0,0,0
19579,DraftKings,Renato,Sanches,,OUT,Hamstring,-,M,SWA,BHA,SWA,@BHA,4,0,0,0,0,0
17110,DraftKings,Erik,Pieters,,No,,-,D,STK,LEI,STK,@LEI,4,0,0,0,0,0
16494,DraftKings,Charlie,Adam,,No,,-,M,STK,LEI,STK,@LEI,4,0,0,0,0,0
22837,DraftKings,Lee,Grant,,No,,-,GK,STK,LEI,STK,@LEI,4,0,0,0,0,0
18735,DraftKings,Josh,Cullen,,No,,-,M,WHU,LIV,WHU,@LIV,4,0,0,0,0,0
899,DraftKings,Peter,Crouch,,OUT,Ankle,-,F,STK,LEI,STK,@LEI,3,900,0,0,0,0
23469,DraftKings,Thomas,Edwards,,No,,-,D,STK,LEI,STK,@LEI,3,900,0,0,0,0
17921,DraftKings,Jesus,Gamez,,OUT,Ankle,-,D,NEW,BOU,NEW,@BOU,3,900,0,0,0,0
19919,DraftKings,Elias,Kachunga,,OUT,Knee,-,F,HUD,WBA,HUD,@WBA,3,900,0,0,0,0
24491,DraftKings,Chris,Lowe,,GTD,Hamstring,-,D,HUD,WBA,HUD,@WBA,3,900,0,0,0,0
17129,DraftKings,Luke,Garbutt,,No,,-,D,EVE,WAT,EVE,@WAT,3,900,0,0,0,0
17096,DraftKings,Toby,Alderweireld,,OUT,Hamstring,-,D,TOT,CRY,TOT,@CRY,3,900,0,0,0,0
19342,DraftKings,Aleksandar,Dragovic,,No,,-,D,LEI,LEI,STK,STK,3,800,0,0,0,0
17320,DraftKings,Saido,Berahino,,No,,-,F,STK,LEI,STK,@LEI,3,800,0,0,0,0
25486,DraftKings,Tyrese,Campbell,,No,,-,F,STK,LEI,STK,@LEI,3,700,0,0,0,0
23816,DraftKings,Rhian,Brewster,,OUT,Ankle,-,F,LIV,LIV,WHU,WHU,3,700,0,0,0,0
1361,DraftKings,Wayne,Routledge,,No,,-,M,SWA,BHA,SWA,@BHA,3,700,0,0,0,0
24495,DraftKings,Sean,Scannell,,OUT,Groin,-,M,HUD,WBA,HUD,@WBA,3,700,0,0,0,0
17133,DraftKings,Wilfried,Bony,,OUT,Knee,-,F,SWA,BHA,SWA,@BHA,3,700,0,0,0,0
1534,DraftKings,Phil,Bardsley,,No,,-,D,BUR,BUR,SOU,SOU,3,600,0,0,0,0
20947,DraftKings,Rhoys,Wiggins,,No,,-,D,BOU,BOU,NEW,NEW,3,600,0,0,0,0
1486,DraftKings,Steven,Davis,,GTD,Undisclosed,-,M,SOU,BUR,SOU,@BUR,3,600,0,0,0,0
17044,DraftKings,Robert,Elliot,,OUT,Undisclosed,-,GK,NEW,BOU,NEW,@BOU,3,600,0,0,0,0
23101,DraftKings,Ramadan,Sobhi,,No,,-,M,STK,LEI,STK,@LEI,3,600,0,0,0,0
19167,DraftKings,Karl,Darlow,,No,,-,GK,NEW,BOU,NEW,@BOU,3,600,0,0,0,0
17120,DraftKings,Dejan,Lovren,,No,,-,D,LIV,LIV,WHU,WHU,3,500,0,0,0,0
16251,DraftKings,Maya,Yoshida,,OUT,Knee,-,D,SOU,BUR,SOU,@BUR,3,500,0,0,0,0
18598,DraftKings,Danny,Ward,,No,,-,GK,LIV,LIV,WHU,WHU,3,500,0,0,0,0
23540,DraftKings,Alex,Palmer,,No,,-,GK,WBA,WBA,HUD,HUD,3,500,0,0,0,0
4,DraftKings,Stuart,Taylor,,No,,-,GK,SOU,BUR,SOU,@BUR,3,500,0,0,0,0
19135,DraftKings,Adam,Bogdan,,No,,-,GK,LIV,LIV,WHU,WHU,3,500,0,0,0,0
18514,DraftKings,Adrien,Silva,,No,,-,M,LEI,LEI,STK,STK,3,500,0,0,0,0
16326,DraftKings,Jonjo,Shelvey,,OUT,Knee,S,M,NEW,BOU,NEW,@BOU,3,500,0,0,0,0
24852,DraftKings,Charlie,Taylor,,No,,-,D,BUR,BUR,SOU,SOU,3,500,0,0,0,0
17407,DraftKings,Brad,Smith,,OUT,Groin,-,D,BOU,BOU,NEW,NEW,3,500,0,0,0,0
1875,DraftKings,Adam,Legzdins,,No,,-,GK,BUR,BUR,SOU,SOU,3,500,0,0,0,0
24457,DraftKings,Tommy,Smith,,No,,-,D,HUD,WBA,HUD,@WBA,3,500,0,0,0,0
19152,DraftKings,Yohan,Benalouane,,No,,-,D,LEI,LEI,STK,STK,3,500,0,0,0,0
23244,DraftKings,Mateusz,Hewelt,,No,-,-,GK,EVE,WAT,EVE,@WAT,3,500,0,0,0,0
1378,DraftKings,Robert,Green,,No,,-,GK,HUD,WBA,HUD,@WBA,3,500,0,0,0,0
24488,DraftKings,Joel,Coleman,,No,,-,GK,HUD,WBA,HUD,@WBA,3,500,0,0,0,0
19056,DraftKings,Jakob,Haugaard,,No,,-,GK,STK,LEI,STK,@LEI,3,500,0,0,0,0
16645,DraftKings,Angel,Rangel,,OUT,Thigh,-,D,SWA,BHA,SWA,@BHA,3,500,0,0,0,0
17030,DraftKings,Moussa,Sissoko,,No,,-,M,TOT,CRY,TOT,@CRY,3,500,0,0,0,0
24576,DraftKings,Erwin,Mulder,,No,,-,GK,SWA,BHA,SWA,@BHA,3,500,0,0,0,0
975,DraftKings,Robert,Huth,,No,,-,D,LEI,LEI,STK,STK,3,400,0,0,0,0
19196,DraftKings,Mason,Holgate,,No,,-,D,EVE,WAT,EVE,@WAT,3,400,0,0,0,0
19886,DraftKings,Ragnar,Klavan,,OUT,Quadriceps,-,D,LIV,LIV,WHU,WHU,3,400,0,0,0,0
17041,DraftKings,Massadio,Haidara,,No,,-,D,NEW,BOU,NEW,@BOU,3,400,0,0,0,0
16186,DraftKings,Jordan,Henderson,,No,,-,M,LIV,LIV,WHU,WHU,3,400,0,0,0,0
19149,DraftKings,Chancel,Mbemba,,No,,-,D,NEW,BOU,NEW,@BOU,3,300,0,0,0,0
7920,DraftKings,Miguel,Britos,,No,,-,D,WAT,WAT,EVE,EVE,3,300,0,0,0,0
16992,DraftKings,Jake,Livermore,,No,,-,M,WBA,WBA,HUD,HUD,3,200,0,0,0,0
22835,DraftKings,Sam,Field,,No,,-,M,WBA,WBA,HUD,HUD,3,200,0,0,0,0
17031,DraftKings,Leroy,Fer,,OUT,Achilles,-,M,SWA,BHA,SWA,@BHA,3,200,0,0,0,0
16909,DraftKings,Claudio,Yacob,,No,,-,M,WBA,WBA,HUD,HUD,3,200,0,0,0,0
19053,DraftKings,Pedro,Obiang,,OUT,Knee,-,M,WHU,LIV,WHU,@LIV,3,200,0,0,0,0
22836,DraftKings,Oliver,Burke,,No,,-,M,WBA,WBA,HUD,HUD,3,200,0,0,0,0
25445,DraftKings,Sead,Haksabanovic,,No,,-,M,WHU,LIV,WHU,@LIV,3,200,0,0,0,0
25019,DraftKings,Tashan,Oakley-Boothe,,No,,-,M,TOT,CRY,TOT,@CRY,3,200,0,0,0,0
23245,DraftKings,Daniel,James,,No,-,-,M,SWA,BHA,SWA,@BHA,3,200,0,0,0,0
23542,DraftKings,Declan,Rice,,No,,-,M,WHU,LIV,WHU,@LIV,3,200,0,0,0,0
23325,DraftKings,Domingos,Quina,,No,,-,M,WHU,LIV,WHU,@LIV,3,200,0,0,0,0
22877,DraftKings,Dodi,Lukebakio,,No,,-,M,WAT,WAT,EVE,EVE,3,200,0,0,0,0
23541,DraftKings,Rekeem,Harper,,No,,-,M,WBA,WBA,HUD,HUD,3,200,0,0,0,0
25054,DraftKings,Juan,Foyth,,No,,-,D,TOT,CRY,TOT,@CRY,3,200,0,0,0,0
21402,DraftKings,Christian,Kabasele,,OUT,Hamstring,-,D,WAT,WAT,EVE,EVE,3,200,0,0,0,0
17967,DraftKings,Nathaniel,Chalobah,,OUT,Knee,-,M,WAT,WAT,EVE,EVE,3,200,0,0,0,0
17839,DraftKings,Andy,King,,No,,-,M,SWA,BHA,SWA,@BHA,3,200,0,0,0,0
18196,DraftKings,Pierre-Emile,Hojbjerg,,No,,-,M,SOU,BUR,SOU,@BUR,3,200,0,0,0,0
1058,DraftKings,Darren,Fletcher,,No,,-,M,STK,LEI,STK,@LEI,3,200,0,0,0,0
16945,DraftKings,Leon,Britton,,OUT,Thigh,-,M,SWA,BHA,SWA,@BHA,3,200,0,0,0,0
24487,DraftKings,Isaac,Hayden,,No,,-,M,NEW,BOU,NEW,@BOU,3,200,0,0,0,0
21441,DraftKings,Mikel,Merino,,No,,-,M,NEW,BOU,NEW,@BOU,3,200,0,0,0,0
15915,DraftKings,Ibrahim,Afellay,,No,,-,M,STK,LEI,STK,@LEI,3,200,0,0,0,0
23256,DraftKings,Ben,Woodburn,,OUT,Illness,-,M,LIV,LIV,WHU,WHU,3,200,0,0,0,0
24851,DraftKings,Jan,Bednarek,,No,,-,D,SOU,BUR,SOU,@BUR,3,200,0,0,0,0
18580,DraftKings,Jake,Hesketh,,No,,-,M,SOU,BUR,SOU,@BUR,3,200,0,0,0,0
18575,DraftKings,Oliver,Shenton,,No,-,-,M,STK,LEI,STK,@LEI,3,200,0,0,0,0
1609,DraftKings,Stephen,Ireland,,OUT,Calf,-,M,STK,LEI,STK,@LEI,3,200,0,0,0,0
17187,DraftKings,Vicente,Iborra,,No,,-,M,LEI,LEI,STK,STK,3,200,0,0,0,0
18723,DraftKings,Molla,Wague,,OUT,Hamstring,-,D,WAT,WAT,EVE,EVE,3,200,0,0,0,0
23191,DraftKings,Edimilson,Fernandes,,OUT,Ankle,-,M,WHU,LIV,WHU,@LIV,3,200,0,0,0,0
23538,DraftKings,Carl,Stewart,,No,,-,M,WAT,WAT,EVE,EVE,3,200,0,0,0,0
1536,DraftKings,James,Morrison,,OUT,Achilles,-,M,WBA,WBA,HUD,HUD,3,200,0,0,0,0
23812,DraftKings,Nathan,Holland,,No,,-,M,WHU,LIV,WHU,@LIV,3,200,0,0,0,0
20095,DraftKings,Didier,Ndong,,No,,-,M,WAT,WAT,EVE,EVE,3,200,0,0,0,0
17478,DraftKings,Harry,Winks,,No,,-,M,TOT,CRY,TOT,@CRY,3,200,0,0,0,0
25305,DraftKings,Beni,Baningime,,No,,-,M,EVE,WAT,EVE,@WAT,3,200,0,0,0,0
16957,DraftKings,Morgan,Schneiderlin,,No,,-,M,EVE,WAT,EVE,@WAT,3,200,0,0,0,0
16122,DraftKings,James,McCarthy,,OUT,Leg,-,M,EVE,WAT,EVE,@WAT,3,200,0,0,0,0
25254,DraftKings,Abdelhamid,Sabiri,,No,,-,M,HUD,WBA,HUD,@WBA,3,200,0,0,0,0
24458,DraftKings,Philip,Billing,,No,,-,M,HUD,WBA,HUD,@WBA,3,200,0,0,0,0
20977,DraftKings,Daniel,Amartey,,No,,-,M,LEI,LEI,STK,STK,3,200,0,0,0,0
1558,DraftKings,Dean,Whitehead,,No,,-,M,HUD,WBA,HUD,@WBA,3,200,0,0,0,0
17214,DraftKings,Robbie,Brady,,OUT,Knee,-,M,BUR,BUR,SOU,SOU,3,200,0,0,0,0
23060,DraftKings,Aiden,O'Neill,,No,,-,M,BUR,BUR,SOU,SOU,3,200,0,0,0,0
15933,DraftKings,Steven,Defour,,OUT,Knee,-,M,BUR,BUR,SOU,SOU,3,200,0,0,0,0
21495,DraftKings,Emerson,Hyndman,,No,,-,M,BOU,BOU,NEW,NEW,3,200,0,0,0,0
16621,DraftKings,Andrew,Surman,,No,,-,M,BOU,BOU,NEW,NEW,3,200,0,0,0,0
18254,DraftKings,Davy,Klaassen,,No,,-,M,EVE,WAT,EVE,@WAT,3,200,0,0,0,0
19077,DraftKings,Harry,Arter,,No,,-,M,BOU,BOU,NEW,NEW,3,200,0,0,0,0
19076,DraftKings,Marc,Pugh,,No,,-,M,BOU,BOU,NEW,NEW,3,200,0,0,0,0
20430,DraftKings,Matt,Butcher,,No,,-,M,BOU,BOU,NEW,NEW,3,200,0,0,0,0
2757,DraftKings,Dean,Marney,,GTD,Knee,-,M,BUR,BUR,SOU,SOU,3,200,0,0,0,0
17901,DraftKings,Javier,Manquillo,,No,,-,D,NEW,BOU,NEW,@BOU,3,0,0,0,0,0
16461,DraftKings,Winston,Reid,,No,,-,D,WHU,LIV,WHU,@LIV,3,0,0,0,0,0
16824,DraftKings,Gareth,McAuley,,No,,-,D,WBA,WBA,HUD,HUD,2,900,0,0,0,0
17587,DraftKings,Eliaquim,Mangala,,OUT,Knee,-,D,EVE,WAT,EVE,@WAT,2,900,0,0,0,0
21464,DraftKings,James,Tarkowski,,GTD,Groin,-,D,BUR,BUR,SOU,SOU,2,900,0,0,0,0
1708,DraftKings,Phil,Jagielka,,No,,-,D,EVE,WAT,EVE,@WAT,2,900,0,0,0,0
16039,DraftKings,Ryan,Shawcross,,GTD,Ankle,-,D,STK,LEI,STK,@LEI,2,900,0,0,0,0
23795,DraftKings,Connor,Roberts,,No,,-,D,SWA,BHA,SWA,@BHA,2,800,0,0,0,0
25407,DraftKings,Ali,Gabr,,No,,-,D,WBA,WBA,HUD,HUD,2,800,0,0,0,0
1255,DraftKings,Glen,Johnson,,No,,-,D,STK,LEI,STK,@LEI,2,800,0,0,0,0
19193,DraftKings,Ramiro,Funes Mori,,OUT,Knee,-,D,EVE,WAT,EVE,@WAT,2,800,0,0,0,0
1958,DraftKings,Younes,Kaboul,,OUT,Leg,-,D,WAT,WAT,EVE,EVE,2,800,0,0,0,0
1843,DraftKings,Craig,Cathcart,,OUT,Knee,-,D,WAT,WAT,EVE,EVE,2,700,0,0,0,0
19105,DraftKings,Tommie,Hoban,,OUT,Knee,-,D,WAT,WAT,EVE,EVE,2,700,0,0,0,0
25330,DraftKings,Jack,Simpson,,No,,-,D,BOU,BOU,NEW,NEW,2,700,0,0,0,0
19134,DraftKings,Tyrone,Mings,,OUT,Back,-,D,BOU,BOU,NEW,NEW,2,700,0,0,0,0
16214,DraftKings,Ciaran,Clark,,No,,-,D,NEW,BOU,NEW,@BOU,2,700,0,0,0,0
16647,DraftKings,Kyle,Bartley,,No,,-,D,SWA,BHA,SWA,@BHA,2,700,0,0,0,0
19041,DraftKings,Kevin,Wimmer,,No,,-,D,STK,LEI,STK,@LEI,2,600,0,0,0,0
18612,DraftKings,Jordan,Williams,,No,-,-,D,LIV,LIV,WHU,WHU,2,600,0,0,0,0
24493,DraftKings,Michael,Hefele,,GTD,Illness,-,D,HUD,WBA,HUD,@WBA,2,600,0,0,0,0
18567,DraftKings,Jon,Stankovic,,OUT,Knee,-,D,HUD,WBA,HUD,@WBA,2,600,0,0,0,0
25463,DraftKings,Joy,Mukena,,No,,-,D,WAT,WAT,EVE,EVE,2,600,0,0,0,0
25457,DraftKings,Kyle,Jameson,,No,,-,D,WBA,WBA,HUD,HUD,2,600,0,0,0,0
