Id,Name,Position,Team,Salary,Projected,Scored,Override,OppRank,OppRankTotal,Alerts
1869710,Carlos Estevez,RP,COL,4000,0,0,0,23,30,Injured:1
1869758,Drew Rucinski,RP,MIA,4000,0,0.75,0,13,30,
1869760,Kyle Barraclough,RP,MIA,4000,0,0,0,13,30,
1870023,Josh Lucas,RP,OAK,4000,0,0,0,5,30,
1870025,Reymin Guduan,RP,HOU,4000,0,7.9,0,17,30,
1870032,Pat Neshek,RP,PHI,4000,0,0,0,11,30,Injured:1
1870034,Wade Davis,RP,COL,4000,0,0,0,23,30,
1870087,Kenley Jansen,RP,LAD,4000,0,1.65,0,14,30,
1870093,Jake Diekman,RP,TEX,4000,0,8.25,0,4,30,
1869228,David Dahl,OF,COL,4000,0,0,0,120,284,Injured:1
1869251,Tyler O'Neill,OF,STL,3600,0,0,0,255,284,
1869256,Odubel Herrera,OF,PHI,3600,0,0,0,162,284,
1869258,Melky Cabrera,OF,CLE,3500,7.41,3,0,165,284,Starter:1|LineupSpot6:1|VegasGood:2
1869519,Dexter Fowler,OF,STL,3300,0,0,0,255,284,
1869542,Victor Robles,OF,WAS,3200,0,0,0,121,284,
1869544,Monte Harrison,OF,MIA,3200,0,0,0,229,284,
1869494,Miguel Andujar,3B,NYY,4200,10.15,0,0,283,284,Starter:1|LineupSpot6:1|PlayerMatchupIsGreat:2|VegasGood:1
1869496,Christian Villanueva,3B,SD,4000,6.66,4,0,111,284,Starter:1|LineupSpot4:1|PlayerMatchupIsHorribad:2|VegasBad:1|ThumbDown:1
1869503,Evan Longoria,3B,SF,3600,7.4,5,0,70,284,Starter:1|LineupSpot4:1|PlayerMatchupIsHorribad:2|PlayerMatchupIsGreat:2|VegasBad:2|ThumbUp:1
1869505,Matt Chapman,3B,OAK,3500,7.73,2,0,79,284,Starter:1|LineupSpot6:1|PlayerMatchupIsHorribad:1|PlayerMatchupIsGreat:2|PlayerIsHot:1|VegasBad:2|ThumbUp:1
1869578,Colton Welker,3B,COL,2500,0,0,0,211,284,
1869580,Will Middlebrooks,3B,PHI,2100,0,0,0,154,284,
1869589,Joey Votto,1B,CIN,4600,10.04,0,0,172,284,Starter:1|LineupSpot3:1|PlayerMatchupIsGreat:1|PlayerMatchupIsHorribad:1|PlayerIsHot:1|VegasGood:1
1869722,Logan Morrison,1B,MIN,3100,6,8,0,44,284,Starter:1|LineupSpot6:1|WindHelping:1|PlayerMatchupIsHorribad:1|PlayerMatchupIsGreat:2|VegasGood:1
1869724,Tommy Joseph,1B,TEX,3100,0,0,0,61,284,
1869747,Didi Gregorius,SS,NYY,4100,9.98,4,0,198,284,Starter:1|LineupSpot3:1|PlayerMatchupIsGreat:1
1869420,Trayce Thompson,OF,CWS,2700,5.9,2,0,52,284,Starter:1|LineupSpot9:1|PlayerMatchupIsHorribad:2|PlayerIsCold:1
1869552,Leury Garcia,OF,CWS,3100,0,0,0,89,284,Injured:1
1869559,Jorge Bonifacio,OF,KC,3100,0,0,0,34,284,Injured:1
1869626,Jim Adduci,OF,DET,3000,0,0,0,130,284,
1869628,Zack Granite,OF,MIN,3000,0,0,0,44,284,
1869635,Brandon Guyer,OF,CLE,2900,0,0,0,30,284,Injured:1
1869059,Freddy Galvis,SS,SD,2700,6.41,9,0,71,284,Starter:1|LineupSpot5:1|PlayerMatchupIsHorribad:2|VegasGood:2|ThumbUp:1
1869066,Orlando Calixte,SS,SF,2500,0,0,0,70,284,
1869068,Alex Mejia,SS,STL,2200,0,0,0,255,284,
1869278,Starlin Castro,2B,MIA,3700,8.11,2,0,229,284,Starter:1|LineupSpot1:1|PlayerMatchupIsGreat:2|PlayerMatchupIsHorribad:1|VegasBad:1
1869301,Taylor Featherston,2B,MIN,2700,0,0,0,136,284,
1869303,Ryan Goins,2B,KC,2600,0,0,0,217,284,
1869310,Matt Adams,1B/OF,WAS,3800,8.47,11,0,49,284,Starter:1|LineupSpot6:1|PlayerMatchupIsHorribad:1|PlayerMatchupIsGreat:1|PlayerIsCold:1|VegasBad:1|ThumbUp:1
1869757,Marcus Semien,SS,OAK,3300,6.05,7,0,79,284,Starter:1|LineupSpot7:1|PlayerMatchupIsHorribad:1|PlayerMatchupIsGreat:1|PlayerIsCold:1|VegasGood:1|ThumbDown:1
1869808,Yovani Gallardo,SP,TEX,5100,0,0,0,4,30,
1869961,Bartolo Colon,SP,TEX,5800,0,0,0,4,30,
1869098,Eduardo Escobar,3B/SS,MIN,4400,7.36,15,0,136,284,Starter:1|LineupSpot3:1|WindHelping:1|PlayerMatchupIsGreat:2
1869100,Yairo Munoz,3B/SS,STL,3500,8.84,0,0,255,284,Starter:1|LineupSpot7:1|PlayerMatchupIsGreat:2|PlayerMatchupIsHorribad:2|VegasBad:2
1869125,Willie Calhoun,2B/OF,TEX,3300,0,0,0,150,284,
1869133,Howie Kendrick,2B/OF,WAS,2500,0,0,0,121,284,Injured:1
1869135,Steve Lombardozzi,2B/OF,OAK,2300,0,0,0,61,284,
1869158,Darwin Barney,2B/SS,TEX,2600,0,0,0,61,284,
1869160,Kelby Tomlinson,2B/SS,SF,2600,0,0,0,70,284,
1869167,Grant Green,2B/SS,MIA,2300,0,0,0,229,284,
1869169,Andres Blanco,2B/SS,SF,2100,0,0,0,70,284,
1869389,Chris Iannetta,C,COL,3200,0,0,0,211,284,
1869396,A.J. Ellis,C,SD,3000,0,0,0,111,284,
1869674,Jordan Zimmermann,SP,DET,4400,0,0,0,21,30,Injured:1
1869681,Ben Lively,SP,PHI,4400,0,0,0,11,30,
1869187,Rob Segedin,3B/OF,LAD,3100,0,0,0,168,284,
1869196,Jedd Gyorko,2B/3B,STL,3400,8.17,6,0,255,284,Starter:1|LineupSpot6:1|PlayerMatchupIsGreat:2|PlayerMatchupIsHorribad:2|VegasBad:2
1869323,Alfredo Gonzalez,C,CWS,2700,0,0,0,52,284,
1869345,Steven Baron,C,STL,2600,0,0,0,255,284,
1869347,Carlos Perez,C,TEX,2600,0,0,0,61,284,
1869410,Austin Hedges,C,SD,2800,0,0,0,111,284,Injured:1
1869417,Roberto Perez,C,CLE,2700,5.45,3,0,30,284,Starter:1|LineupSpot8:1|PlayerMatchupIsHorribad:3
1869419,Omar Narvaez,C,CWS,2700,0,0,0,89,284,
1871081,Nick Gardewine,RP,TEX,4000,0,0,0,4,30,
1871082,Joaquin Benoit,RP,WAS,4000,0,0,0,2,30,Injured:1
1871089,Sammy Solis,RP,WAS,4000,0,0.75,0,2,30,
1871091,Justin Miller,RP,WAS,4000,0,15.15,0,2,30,
1870743,Giancarlo Stanton,OF,NYY,5100,10.65,11,0,283,284,Starter:1|LineupSpot4:1|PlayerMatchupIsGreat:2|PlayerIsCold:1|VegasBad:1|ThumbUp:1
1870745,Michael Brantley,OF,CLE,4800,9.67,11,0,165,284,Starter:1|LineupSpot2:1|PlayerMatchupIsHorribad:1|PlayerMatchupIsGreat:1|VegasGood:1|StarBad:1
1869980,James Shields,SP,CWS,5300,0,0,0,3,30,
1869773,Mikie Mahtook,OF,DET,2700,0,0,0,84,284,
1869775,Ryan Rua,OF,TEX,2700,0,0,0,61,284,
1869780,Nick Martini,OF,OAK,2700,0,0,0,61,284,
1869804,Jake Smolinski,OF,OAK,2300,0,0,0,79,284,
1869806,Yordan Alvarez,OF,HOU,2300,0,0,0,18,284,
1870003,Travis Wood,RP,DET,4000,0,0,0,21,30,
1870054,Matt Magill,RP,MIN,4000,0,0,0,19,30,
1869451,Perci Garner,RP,CLE,4000,0,0,0,22,30,Injured:1
1869453,Jace Fry,RP,CWS,4000,0,5.05,0,3,30,
1869844,Adam Plutko,RP,CLE,8300,0,0,0,22,30,
1869846,Frankie Montas,RP,OAK,7900,0,0,0,5,30,
1869851,Brad Peacock,RP,HOU,5800,0,0,0,17,30,
1869853,Austin Gomber,RP,STL,5300,0,4.4,0,26,30,
1871315,Brady Rodgers,RP,HOU,4200,0,0,0,17,30,
1869823,Jonathon Niese,SP,NYY,4000,0,0,0,20,30,Injured:1
1869825,Chad Green,SP,NYY,4000,0,0,0,20,30,
1869830,Odrisamer Despaigne,SP,MIA,4000,0,0,0,13,30,
1869832,Raul Alcantara,SP,OAK,4000,0,0,0,5,30,
1870161,Robbie Erlin,SP,SD,4000,0,0,0,25,30,
1870166,Walker Lockett,SP,SD,4000,0,0,0,25,30,
1870168,Dakota Hudson,SP,STL,4000,0,0,0,26,30,
1871242,Michael Pineda,SP,MIN,6300,0,0,0,19,30,Injured:1
1871244,Jose Urena,SP,MIA,6300,0,0,0,13,30,
1870774,Nicholas Castellanos,OF,DET,4000,8.24,0,0,84,284,Starter:1|LineupSpot2:1|WindHelping:1|PlayerMatchupIsHorribad:2|PlayerMatchupIsGreat:2|PlayerIsCold:1|ThumbUp:1
1873317,David Hernandez,RP,CIN,4000,0,0,0,27,30,
1873324,Michael Lorenzen,RP,CIN,4000,0,0,0,27,30,
1873326,Wandy Peralta,RP,CIN,4000,0,0.75,0,27,30,
1873251,Dereck Rodriguez,SP,SF,5000,0,0,0,30,30,
1873253,Kendall Graveman,SP,OAK,5000,0,0,0,5,30,
1873258,A.J. Puk,SP,OAK,4900,0,0,0,5,30,
1873283,John Gant,SP,STL,4500,0,0,0,26,30,
1870876,Cole Hamels,SP,TEX,8300,12.57,18.1,0,4,30,Starter:1|VegasBad:1|StarGood:2|PlayerMatchupIsHorribad:3|CrowdPositive:1|ThumbDown:2
1870883,Jon Gray,SP,COL,8000,0,0,0,23,30,
1870885,Chris Stratton,SP,SF,7900,0,0,0,30,30,
1870908,Matthew Boyd,SP,DET,7300,16.86,13.65,0,21,30,Starter:1|WindHurting:1|VegasBad:1|PlayerMatchupIsHorribad:1|PlayerMatchupIsGreat:2|PlayerMatchupIsGood:1
1870910,Dan Straily,SP,MIA,7300,0,0,0,13,30,
1870915,Andrew Suarez,SP,SF,7100,14.53,9.05,0,30,30,Starter:1|PlayerMatchupIsGreat:2|CrowdNegative:2|VegasGood:2|StarBad:1
1870917,Tanner Roark,SP,WAS,7000,0,0,0,2,30,
1871217,Sonny Gray,SP,NYY,6900,11.73,-0.15,0,20,30,Starter:1|VegasGood:1|CrowdPositive:2|PlayerMatchupIsHorribad:3|CrowdNegative:1|PlayerIsHot:1|StarBad:1
1871219,Zach Eflin,SP,PHI,6900,0,0,0,11,30,
1871402,Trevor Bauer,SP,CLE,11500,27.67,31.65,0,22,30,Starter:1|VegasGood:1|CrowdPositive:1|PlayerMatchupIsGreat:1|PlayerMatchupIsGood:2|ThumbDown:1
1871404,Jose Berrios,SP,MIN,11200,22.91,20.1,0,19,30,Starter:1|WindHurting:1|VegasGood:1|PlayerMatchupIsHorribad:1|PlayerMatchupIsGreat:2|CrowdNegative:1|StarBad:1
1871413,Jack Flaherty,SP,STL,10200,0,0,0,26,30,
1869614,Shawn Tolleson,RP,TEX,4000,0,0,0,4,30,Injured:1
1870004,Drew Steckenrider,RP,MIA,4000,0,7.05,0,13,30,
1870006,Chris O'Grady,RP,MIA,4000,0,0,0,13,30,Injured:1
1870019,Will Harris,RP,HOU,4000,0,8.25,0,17,30,
1870021,Liam Hendriks,RP,OAK,4000,0,7.3,0,5,30,
1870036,Adam Ottavino,RP,COL,4000,0,0,0,23,30,Injured:1
1870038,Tommy Hunter,RP,PHI,4000,0,0,0,11,30,
1870095,Daniel Corcino,RP,LAD,4000,0,0,0,14,30,
1869245,Jorge Soler,OF,KC,3700,6.35,10,0,34,284,Starter:1|LineupSpot4:1|PlayerMatchupIsHorribad:2|PlayerIsCold:1|ThumbUp:2
1869260,Brian Goodwin,OF,WAS,3500,0,0,0,49,284,
1869262,Daniel Palka,OF,CWS,3400,7.88,0,0,89,284,Starter:1|LineupSpot4:1|PlayerMatchupIsGreat:1|ThumbUp:1
1869523,Tony Kemp,OF,HOU,3300,0,0,0,18,284,
1869538,Delino DeShields,OF,TEX,3200,7.3,2,0,61,284,Starter:1|LineupSpot2:1|PlayerMatchupIsHorribad:1|PlayerMatchupIsGreat:1|PlayerIsHot:1|StarBad:1
1869540,Rafael Bautista,OF,WAS,3200,0,0,0,121,284,Injured:1
1869507,Yolmer Sanchez,3B,CWS,3300,7.67,2,0,89,284,Starter:1|LineupSpot2:1|PlayerMatchupIsGreat:1|PlayerIsHot:1
1869576,Nolan Jones,3B,CLE,2500,0,0,0,165,284,
1869591,Eric Hosmer,1B,SD,4200,9.46,6,0,71,284,Starter:1|LineupSpot3:1|PlayerMatchupIsHorribad:2|PlayerMatchupIsGreat:1|ThumbUp:1
1869728,Victor Martinez,1B,DET,2900,6.43,0,0,130,284,Starter:1|LineupSpot4:1|WindHelping:1|PlayerMatchupIsHorribad:2|PlayerMatchupIsGreat:1
1869743,Trevor Story,SS,COL,4600,8.1,19,0,211,284,Starter:1|LineupSpot5:1|PlayerMatchupIsGreat:3|StarBad:1|ThumbUp:2
1869745,Trea Turner,SS,WAS,4400,9.37,11,0,121,284,Starter:1|LineupSpot2:1|PlayerMatchupIsHorribad:1|PlayerMatchupIsGreat:1|PlayerIsCold:1
1869624,Alex Gordon,OF,KC,3000,6.85,2,0,217,284,Starter:1|LineupSpot5:1|PlayerMatchupIsGreat:1|PlayerMatchupIsHorribad:1|ThumbDown:1
1869639,Matt Szczur,OF,SD,2900,0,0,0,111,284,
1869641,Abraham Almonte,OF,KC,2900,0,0,0,217,284,
1869655,Cameron Maybin,OF,MIA,2800,6.62,5,0,229,284,Starter:1|LineupSpot4:1|PlayerMatchupIsGreat:2|PlayerMatchupIsHorribad:1|PlayerIsCold:1|VegasGood:1
1869657,Matt Joyce,OF,OAK,2800,0,0,0,61,284,Injured:1
1869038,Fernando Tatis Jr.,SS,SD,3200,0,0,0,111,284,
1869070,Delvin Perez,SS,STL,2000,0,0,0,255,284,
1869072,Carter Kieboom,SS,WAS,2000,0,0,0,121,284,
1869086,Max Muncy,1B/3B,LAD,4500,0,2,0,60,284,
1869088,Matt Davidson,1B/3B,CWS,3500,0,0,0,52,284,
1869280,Yoan Moncada,2B,CWS,3600,8.49,0,0,89,284,Starter:1|LineupSpot1:1|PlayerMatchupIsGreat:2|ThumbUp:1
1869282,Jed Lowrie,2B,OAK,3600,7.55,5,0,61,284,Starter:1|LineupSpot3:1|PlayerMatchupIsHorribad:2|PlayerMatchupIsGreat:1|PlayerIsCold:1|VegasBad:1|StarBad:1|VegasGood:1
1869297,Chase Utley,2B,LAD,2800,0,0,0,60,284,Injured:1
1869299,Carlos Asuaje,2B,SD,2700,0,0,0,71,284,
1869314,J.D. Davis,1B/OF,HOU,3300,0,0,0,122,284,
1869316,O'Koyea Dickson,1B/OF,LAD,3200,0,0,0,168,284,Injured:1
1869753,Jurickson Profar,SS,TEX,3500,6.98,10,0,150,284,Starter:1|LineupSpot5:1|PlayerMatchupIsGreat:1|PlayerIsCold:1
1869886,Craig Stammen,RP,SD,4000,0,0,0,25,30,
1869888,Luke Gregerson,RP,STL,4000,0,0,0,26,30,Injured:1
1869104,Scott Kingery,3B/SS,PHI,3200,7.07,0,0,154,284,Starter:1|LineupSpot3:1|PlayerMatchupIsGreat:2|OptimalPick:1|PlayerIsHot:1
1869121,Whit Merrifield,2B/OF,KC,3800,7.96,10,0,34,284,Starter:1|LineupSpot1:1|PlayerMatchupIsHorribad:2|PlayerMatchupIsGreat:1
1869171,J.T. Realmuto,C,MIA,4000,7.62,10,0,229,284,Starter:1|LineupSpot3:1|PlayerMatchupIsGreat:2|PlayerMatchupIsHorribad:1|VegasBad:1|ThumbUp:1|ThumbDown:1
1869398,Robinson Chirinos,C,TEX,3000,6.57,0,0,61,284,Starter:1|LineupSpot7:1|PlayerMatchupIsHorribad:1|PlayerMatchupIsGreat:1
1869400,Jorge Alfaro,C,PHI,3000,5.03,14,0,154,284,Starter:1|LineupSpot8:1|PlayerMatchupIsGreat:2|PlayerMatchupIsHorribad:1|PlayerIsCold:1
1869668,Josh Tomlin,SP,CLE,4400,0,0,0,22,30,
1869670,Carson Fulmer,SP,CWS,4400,0,0,0,3,30,
1869685,Eric Lauer,SP,SD,4300,6.87,11.95,0,25,30,Starter:1|VegasBad:1|PlayerMatchupIsGreat:1|PlayerMatchupIsBad:1|PlayerMatchupIsHorribad:2|PlayerIsHot:1
1869183,Jhonatan Solano,C,WAS,2000,0,0,0,121,284,Injured:1
1869201,Isiah Kiner-Falefa,2B/3B,TEX,3100,0,0,0,61,284,
1869218,Buster Posey,1B/C,SF,3900,8.03,22,0,70,284,Starter:1|LineupSpot2:1|PlayerMatchupIsHorribad:2|PlayerMatchupIsGreat:2|StarBad:1|VegasGood:1|ThumbUp:1
1869325,Raffy Lopez,C,SD,2700,6.05,5,0,71,284,Starter:1|LineupSpot8:1|PlayerMatchupIsHorribad:2|PlayerIsCold:1|VegasGood:2|StarBad:1|ThumbDown:1
1869339,Tom Murphy,C,COL,2700,7.21,3,0,211,284,Starter:1|LineupSpot8:1|PlayerMatchupIsGreat:2
1869355,Drew Butera,C,KC,2500,0,0,0,34,284,
1869357,Juan Centeno,C,TEX,2500,0,0,0,150,284,
1871071,Adam Liberatore,RP,LAD,4000,0,7.65,0,14,30,
1871093,Adam Warren,RP,NYY,4000,0,0,0,20,30,
1871095,Matt Grace,RP,WAS,4000,0,0,0,2,30,
1871110,Jose Valdez,RP,SF,4000,0,0,0,30,30,Injured:1
1871112,Severino Gonzalez,RP,MIA,4000,0,0,0,13,30,
1870740,Bryce Harper,OF,WAS,5400,9.74,0,0,49,284,Starter:1|LineupSpot3:1|PlayerMatchupIsHorribad:1|PlayerMatchupIsGreat:1|VegasGood:1|ThumbUp:1
1869984,Stephen Gonsalves,SP,MIN,5300,0,0,0,19,30,
1869769,Tyler Collins,OF,KC,2700,0,0,0,217,284,Injured:1
1869771,Robbie Grossman,OF,MIN,2700,5.52,2,0,136,284,Starter:1|LineupSpot5:1|WindHelping:1|PlayerMatchupIsGreat:2|StarGood:1
1869786,Hunter Pence,OF,SF,2600,0,0,0,70,284,
1869788,Danny Ortiz,OF,PHI,2600,0,0,0,162,284,
1869801,Alejandro De Aza,OF,WAS,2400,0,0,0,49,284,
1870056,Louis Coleman,RP,DET,4000,0,0,0,21,30,
1870058,Zack Jones,RP,MIN,4000,0,0,0,19,30,Injured:1
1869447,Luis Avilan,RP,CWS,4000,0,0,0,3,30,
1869449,Bruce Rondon,RP,CWS,4000,0,0,0,3,30,
1869839,Sixto Sanchez,SP,PHI,4000,0,0,0,11,30,
1869841,JoJo Romero,SP,PHI,4000,0,0,0,11,30,
1869855,Merandy Gonzalez,RP,MIA,5300,0,0,0,13,30,
1871311,Jackson Stephens,RP,CIN,4300,0,0,0,27,30,
1871313,Buck Farmer,RP,DET,4200,0,5.65,0,21,30,
1869819,Chi Chi Gonzalez,SP,TEX,4000,0,0,0,4,30,Injured:1
1869821,Brett Martin,SP,TEX,4000,0,0,0,4,30,
1869834,Jesus Luzardo,SP,OAK,4000,0,0,0,5,30,
1869836,Antonio Senzatela,SP,COL,4000,0,0,0,23,30,Injured:1
1870170,Vance Worley,SP,CIN,4000,0,0,0,27,30,
1870172,Jesse Hahn,SP,KC,4000,0,0,0,24,30,
1870187,Spencer Turnbull,SP,DET,4000,0,0,0,21,30,
1871246,Michael Kopech,SP,CWS,6200,0,0,0,3,30,
1871248,Jharel Cotton,SP,OAK,6200,0,0,0,5,30,
1870763,Andrew McCutchen,OF,SF,4200,8.71,21,0,70,284,Starter:1|LineupSpot3:1|PlayerMatchupIsHorribad:2|PlayerMatchupIsGreat:2
1873328,Robert Stephenson,RP,CIN,4000,0,0,0,27,30,
1873330,Tim Hill,RP,KC,4000,0,-3.1,0,24,30,
1873249,Mike Minor,SP,TEX,5000,0,0,0,4,30,
1873262,Danny Duffy,SP,KC,4800,0,0,0,24,30,
1873264,Scott Barlow,SP,KC,4800,0,0,0,24,30,
1873279,Justus Sheffield,SP,NYY,4600,0,0,0,20,30,
1870889,Kyle Gibson,SP,MIN,7800,0,0,0,19,30,
1871230,CC Sabathia,SP,NYY,6600,0,0,0,20,30,
1871398,Aaron Nola,SP,PHI,12000,0,0,0,11,30,OptimalPick:1
1871400,Clayton Kershaw,SP,LAD,11800,0,0,0,14,30,Injured:1
1871415,Carlos Carrasco,SP,CLE,10000,0,0,0,22,30,
1871417,Gio Gonzalez,SP,WAS,9800,0,0,0,2,30,
1871430,Jake Arrieta,SP,PHI,9100,0,0,0,11,30,
1871432,Danny Salazar,SP,CLE,8800,0,0,0,22,30,Injured:1
1869711,Sam Howard,RP,COL,4000,0,0,0,23,30,
1870011,Sandy Alcantara,RP,MIA,4000,0,0,0,13,30,
1870012,Santiago Casilla,RP,OAK,4000,0,0,0,5,30,
1870029,Francis Martes,RP,HOU,4000,0,0,0,17,30,
1870030,Emilio Pagan,RP,OAK,4000,0,10.8,0,5,30,
1870044,Zac Rosscup,RP,COL,4000,0,0,0,23,30,Injured:1
1870047,Hector Neris,RP,PHI,4000,0,8.25,0,11,30,
1870090,Edward Paredes,RP,LAD,4000,0,6.25,0,14,30,
1869237,Clint Frazier,OF,NYY,3900,0,0,0,283,284,
1869254,Gorkys Hernandez,OF,SF,3600,6.18,3,0,70,284,Starter:1|LineupSpot8:1|PlayerMatchupIsHorribad:2|PlayerMatchupIsGreat:2|VegasGood:1
1869267,Jesse Winker,OF,CIN,3400,7.53,2,0,172,284,Starter:1|LineupSpot6:1|PlayerMatchupIsHorribad:1|PlayerIsCold:1|VegasGood:1
1869270,Dylan Cozens,OF,PHI,3400,0,0,0,162,284,Injured:1
1869271,Tyler Naquin,OF,CLE,3300,0,0,0,165,284,Injured:1
1869484,Lazaro Armenteros,OF,OAK,2000,0,0,0,79,284,
1869485,Austin Beck,OF,OAK,2000,0,0,0,79,284,
1869498,Anthony Rendon,3B,WAS,4000,8.72,2,0,121,284,Starter:1|LineupSpot4:1|PlayerMatchupIsHorribad:1|PlayerMatchupIsGreat:1|PlayerIsCold:1|VegasBad:2
1869566,Trevor Plouffe,3B,TEX,2900,0,0,0,61,284,
1869567,Ryder Jones,3B,SF,2900,0,0,0,119,284,
1869584,Jose Martinez,1B,STL,5000,12.3,5,0,255,284,Starter:1|LineupSpot3:1|PlayerMatchupIsGreat:2|PlayerMatchupIsHorribad:2
1869602,Yonder Alonso,1B,CLE,3600,8.1,10,0,165,284,Starter:1|LineupSpot5:1|PlayerMatchupIsHorribad:1
1869717,Ryan McMahon,1B,COL,3200,0,0,0,120,284,
1869735,AJ Reed,1B,HOU,2300,0,0,0,18,284,
1869371,Jacoby Ellsbury,OF,NYY,3100,0,0,0,198,284,
1869475,Khalil Lee,OF,KC,2100,0,0,0,217,284,
1869476,Chris Heisey,OF,MIN,2100,0,0,0,136,284,Injured:1
1869558,Billy Hamilton,OF,CIN,3100,6.76,5,0,172,284,Starter:1|LineupSpot9:1|PlayerMatchupIsGreat:1|PlayerMatchupIsHorribad:1|VegasGood:1|ThumbDown:1
1869615,Estevan Florial,OF,NYY,3100,0,0,0,198,284,
1869616,Austin Jackson,OF,SF,3100,6.92,7,0,70,284,Starter:1|LineupSpot7:1|PlayerMatchupIsHorribad:2|PlayerMatchupIsGreat:2|VegasGood:2|StarBad:1
1869632,Roman Quinn,OF,PHI,3000,0,0,0,154,284,
1869647,Andrew Stevenson,OF,WAS,2900,0,0,0,49,284,
1869060,Alcides Escobar,SS,KC,2700,5.45,3,0,34,284,Starter:1|LineupSpot7:1|PlayerMatchupIsHorribad:3|PlayerIsCold:1
1869063,Pedro Florimon,SS,PHI,2600,0,0,0,154,284,Injured:1
1869077,DJ LeMahieu,2B,COL,4300,7.63,5,0,211,284,Starter:1|LineupSpot1:1|PlayerMatchupIsGreat:2|PlayerIsCold:1|VegasGood:1
1869078,Brian Dozier,2B,MIN,4100,10.18,6,0,136,284,Starter:1|LineupSpot1:1|WindHelping:1|PlayerMatchupIsGreat:4|PlayerIsCold:1|VegasBad:1|StarGood:1
1869096,Cheslor Cuthbert,1B/3B,KC,2800,0,0,0,34,284,Injured:1
1869274,Sal Romano,SP,CIN,4500,0,0,0,27,30,
1869288,Johnny Giavotella,2B,MIA,3100,0,0,0,229,284,
1869306,Max Schrock,2B,OAK,2100,0,0,0,61,284,
1869958,Rogelio Armenteros,SP,HOU,5900,0,0,0,17,30,
1869959,Chad Bettis,SP,COL,5900,0,0,0,23,30,
1869972,A.J. Cole,SP,NYY,5600,0,0,0,20,30,
1869894,Kirby Yates,RP,SD,4000,0,4.25,0,25,30,
1869897,Ryan Sherriff,RP,STL,4000,0,0,0,26,30,
1869097,Chase Headley,1B/3B,SD,2400,0,0,0,71,284,
1869112,Mitch Walding,3B/SS,PHI,2700,0,0,0,162,284,
1869131,Drew Robinson,2B/OF,TEX,2700,0,0,0,150,284,
1869145,Greg Garcia,2B/SS,STL,2900,0,0,0,187,284,
1869163,Cliff Pennington,2B/SS,TEX,2500,0,0,0,150,284,
1869376,Yadier Molina,C,STL,3500,8.5,2,0,255,284,Starter:1|LineupSpot5:1|PlayerMatchupIsGreat:2|PlayerMatchupIsHorribad:2|VegasGood:1
1869393,Brian McCann,C,HOU,3100,0,0,0,18,284,
1869408,Kevan Smith,C,CWS,2800,6.27,5,0,52,284,Starter:1|LineupSpot5:1|PlayerMatchupIsHorribad:2
1869678,Martin Perez,SP,TEX,4400,0,0,0,4,30,Injured:1
1869679,Adam Conley,SP,MIA,4400,0,0,0,13,30,
1869192,Patrick Kivlehan,3B/OF,CIN,2300,0,0,0,206,284,
1869208,Ramon Torres,2B/3B,KC,2700,5.51,0,0,217,284,Starter:1|LineupSpot9:1|PlayerMatchupIsGreat:1|PlayerMatchupIsHorribad:2|VegasBad:1|VegasGood:1
1869331,Pedro Severino,C,WAS,2700,0,0,0,121,284,
1869332,Tomas Telis,C,MIA,2700,0,0,0,229,284,
1869363,Stuart Turner,C,CIN,2400,0,0,0,206,284,
1869366,Tony Cruz,C,CIN,2300,0,0,0,206,284,
1869367,Cam Gallagher,C,KC,2300,0,0,0,34,284,
1869412,James McCann,C,DET,2800,0,0,0,84,284,Injured:1
1870732,Seranthony Dominguez,RP,PHI,4000,0,0,0,11,30,
1871075,Jose Leclerc,RP,TEX,4000,0,7.65,0,4,30,
1871076,Tony Cingrani,RP,LAD,4000,0,0,0,14,30,Injured:1
1871084,Brandon Kintzler,RP,WAS,4000,0,0,0,2,30,Injured:1
1871085,Dellin Betances,RP,NYY,4000,0,0,0,20,30,
1871088,Sean Doolittle,RP,WAS,4000,0,4.25,0,2,30,
1871102,Koda Glover,RP,WAS,4000,0,0,0,2,30,Injured:1
1871103,Brad Ziegler,RP,MIA,4000,0,0,0,13,30,
1870746,Eddie Rosario,OF,MIN,4700,7.78,7,0,44,284,Starter:1|LineupSpot2:1|WindHelping:1|PlayerMatchupIsHorribad:1|PlayerMatchupIsGreat:2|PlayerIsCold:1|ThumbDown:1
1869777,Magneuris Sierra,OF,MIA,2700,0,0,0,42,284,
1869778,Braxton Lee,OF,MIA,2700,0,0,0,42,284,
1869794,Shane Robinson,OF,NYY,2500,0,0,0,283,284,
1869795,Moises Sierra,OF,WAS,2500,0,0,0,121,284,
1870002,Matt Belisle,RP,MIN,4000,0,0.75,0,19,30,
1870065,Joe Jimenez,RP,DET,4000,0,7.65,0,21,30,
1870066,Trevor Hildenberger,RP,MIN,4000,0,0,0,19,30,
1869438,Joakim Soria,RP,CWS,4000,0,3.05,0,3,30,
1869441,Zach McAllister,RP,CLE,4000,0,0,0,22,30,
1869455,Nick Goody,RP,CLE,4000,0,0,0,22,30,Injured:1
1869456,Tyler Olson,RP,CLE,4000,0,0,0,22,30,
1869848,Blaine Hardy,RP,DET,6800,0,0,0,21,30,
1871305,Shawn Morimando,RP,CLE,4500,0,0,0,22,30,
1869694,Jake Thompson,SP,PHI,4200,0,0,0,11,30,
1869695,Lucas Giolito,SP,CWS,4100,0,0,0,3,30,
1869708,Dylan Cease,SP,CWS,4000,0,0,0,3,30,
1869827,Matt Cain,SP,SF,4000,0,0,0,30,30,
1869828,Chris Heston,SP,SF,4000,0,0,0,30,30,
1870162,Bryan Mitchell,SP,SD,4000,0,0,0,25,30,
1870165,Luis Perdomo,SP,SD,4000,0,0,0,25,30,
1870179,Hunter Greene,SP,CIN,4000,0,0,0,27,30,
1870180,Jacob Turner,SP,DET,4000,0,0,0,21,30,
1871254,Mike Fiers,SP,DET,6100,0,0,0,21,30,
1870771,Wil Myers,OF,SD,4000,0,0,0,111,284,Injured:1
1870772,Marcell Ozuna,OF,STL,4000,7.5,19,0,255,284,Starter:1|LineupSpot4:1|PlayerMatchupIsGreat:1|PlayerMatchupIsHorribad:2
1873287,Jose Castillo,RP,SD,4000,0,11,0,25,30,
1873288,Jordan Hicks,RP,STL,4000,0,0,0,26,30,
1873319,Justin Grimm,RP,KC,4000,0,0,0,24,30,
1873320,Brian Flynn,RP,KC,4000,0,0,0,24,30,
1873255,Phil Hughes,SP,SD,4900,0,0,0,25,30,
1873256,Ryan Helsley,SP,STL,4900,0,0,0,26,30,
1870880,Jakob Junis,SP,KC,8100,0,0,0,24,30,
1870895,Dallas Keuchel,SP,HOU,7700,0,0,0,17,30,
1870913,Jake Odorizzi,SP,MIN,7200,0,0,0,19,30,
1871238,Nate Karns,SP,KC,6400,0,0,0,24,30,
1871424,Carlos Martinez,SP,STL,9300,0,0,0,26,30,
1871425,Walker Buehler,SP,LAD,9300,0,0,0,14,30,Injured:1
1870008,Julian Fernandez,RP,SF,4000,0,0,0,30,30,Injured:1
1870015,Tony Sipp,RP,HOU,4000,0,0,0,17,30,
1870026,Blake Treinen,RP,OAK,4000,0,0,0,5,30,
1870033,Jake McGee,RP,COL,4000,0,3.65,0,23,30,
1870040,Chris Rusin,RP,COL,4000,0,0,0,23,30,
1870088,Tony Barnette,RP,TEX,4000,0,0,0,4,30,
1870092,Pedro Baez,RP,LAD,4000,0,0,0,14,30,
1869229,Rhys Hoskins,OF,PHI,4000,9.42,5,0,154,284,Starter:1|LineupSpot2:1|PlayerMatchupIsGreat:3|PlayerIsCold:1
1869234,Yasiel Puig,OF,LAD,3900,7.03,13,0,168,284,Starter:1|LineupSpot6:1|PlayerMatchupIsGreat:1
1869241,Bradley Zimmer,OF,CLE,3700,0,0,0,165,284,
1869534,Adam Duvall,OF,CIN,3200,6.48,20,0,206,284,Starter:1|LineupSpot7:1|PlayerMatchupIsGreat:2|PlayerMatchupIsHorribad:1|VegasBad:1
1869541,Billy McKinney,OF,NYY,3200,0,0,0,198,284,
1869545,Gerardo Parra,OF,COL,3200,7.67,9,0,120,284,Starter:1|LineupSpot6:1|PlayerMatchupIsGreat:3|ThumbUp:1
1869481,Alex Kirilloff,OF,MIN,2000,0,0,0,44,284,
1869488,Nolan Arenado,3B,COL,4900,8.92,8,0,211,284,Starter:1|LineupSpot3:1|PlayerMatchupIsGreat:3|PlayerIsCold:1
1869495,Mike Moustakas,3B,KC,4100,9,0,0,217,284,Starter:1|LineupSpot2:1|PlayerMatchupIsGreat:2|PlayerMatchupIsHorribad:1|PlayerIsCold:1
1869513,Nick Senzel,3B,CIN,3200,0,0,0,206,284,
1869595,Miguel Cabrera,1B,DET,3900,0,0,0,84,284,Injured:1
1869714,Luke Voit,1B,STL,3200,0,0,0,255,284,
1869732,Brock Stassi,1B,MIN,2600,0,0,0,44,284,
1869739,Francisco Lindor,SS,CLE,5200,10.46,8,0,165,284,Starter:1|LineupSpot1:1|PlayerMatchupIsGreat:1|VegasGood:1
1869746,Brandon Crawford,SS,SF,4200,7.32,7,0,119,284,Starter:1|LineupSpot5:1|PlayerMatchupIsHorribad:1|PlayerIsCold:1|VegasBad:1
1869551,Rajai Davis,OF,CLE,3100,0,0,0,30,284,
1869562,Alex Verdugo,OF,LAD,3100,0,0,0,60,284,
1869629,Mark Canha,OF,OAK,3000,6.45,0,0,79,284,Starter:1|LineupSpot2:1|PlayerMatchupIsHorribad:1|PlayerMatchupIsGreat:1|VegasGood:1
1869636,Jacob May,OF,CWS,2900,0,0,0,89,284,
1869643,Victor Reyes,OF,DET,2900,5.87,10,0,130,284,Starter:1|LineupSpot9:1|WindHelping:1|PlayerMatchupIsHorribad:2|PlayerMatchupIsGreat:1|VegasGood:1|StarGood:1
1869653,Byron Buxton,OF,MIN,2800,0,0,0,136,284,Injured:1
1869049,Franklin Barreto,SS,OAK,3000,0,0,0,79,284,
1869074,Scooter Gennett,2B,CIN,4700,9.43,10,0,172,284,Starter:1|LineupSpot4:1|PlayerMatchupIsGreat:1|PlayerMatchupIsHorribad:1|VegasBad:1
1869295,Kolten Wong,2B,STL,2800,5.68,0,0,187,284,Starter:1|LineupSpot8:1|PlayerMatchupIsGreat:1|PlayerMatchupIsHorribad:1|PlayerIsCold:1|StarGood:1|VegasBad:1
1869309,Joey Gallo,1B/OF,TEX,3800,8.83,5,0,150,284,Starter:1|LineupSpot6:1|PlayerMatchupIsGreat:1|PlayerIsCold:1|ThumbUp:1
1869749,Paul DeJong,SS,STL,3600,0,0,0,255,284,Injured:1
1869756,Jose Peraza,SS,CIN,3400,7.32,12,0,206,284,Starter:1|LineupSpot2:1|PlayerMatchupIsGreat:2|PlayerMatchupIsHorribad:1|PlayerIsCold:1|ThumbDown:1
1869955,Fernando Romero,SP,MIN,5900,0,0,0,19,30,
1869962,German Marquez,SP,COL,5800,0,0,0,23,30,
1869890,Greg Holland,RP,STL,4000,0,0,0,26,30,Injured:1
1869901,Matt Bowman,RP,STL,4000,0,0,0,26,30,Injured:1
1869101,Taylor Motter,3B/SS,MIN,3300,0,0,0,136,284,
1869134,Michael Martinez,2B/OF,CLE,2400,0,0,0,165,284,
1869141,Adalberto Mondesi,2B/SS,KC,3200,0,0,0,217,284,
1869152,Matt Reynolds,2B/SS,WAS,2700,0,0,0,121,284,
1869159,Adrian Sanchez,2B/SS,WAS,2600,0,0,0,121,284,
1869386,Tucker Barnhart,C,CIN,3200,0,0,0,172,284,
1869397,Derek Norris,C,DET,3000,0,0,0,84,284,
1869565,Adam Wainwright,SP,STL,6900,0,0,0,26,30,Injured:1
1869675,Artie Lewicki,SP,DET,4400,0,0,0,21,30,
1869181,Luis Torrens,C,SD,2000,0,0,0,111,284,
1869195,Matt Carpenter,2B/3B,STL,3800,0,0,0,187,284,
1869205,Ronald Torreyes,2B/3B,NYY,2900,0,0,0,283,284,
1869328,Mitch Garver,C,MIN,2700,0,0,0,136,284,
1869335,Jonathan Lucroy,C,OAK,2700,6.12,3,0,79,284,Starter:1|LineupSpot9:1|PlayerMatchupIsHorribad:1|PlayerMatchupIsGreat:1|VegasGood:2|CakeGood:1
1869346,Jason Castro,C,MIN,2600,0,0,0,44,284,Injured:1
1869353,Carson Kelly,C,STL,2500,0,0,0,255,284,
1869359,Bruce Maxwell,C,OAK,2500,0,0,0,61,284,
1869409,Francisco Pena,C,STL,2800,0,0,0,255,284,
1871072,Alex Claudio,RP,TEX,4000,0,0,0,4,30,
1871074,Chris Martin,RP,TEX,4000,0,0,0,4,30,
1871077,Keone Kela,RP,TEX,4000,0,0,0,4,30,
1871092,Aaron Barrett,RP,WAS,4000,0,0,0,2,30,Injured:1
1871099,Trevor Gott,RP,WAS,4000,0,0,0,2,30,
1871106,Sam Dyson,RP,SF,4000,0,2.15,0,30,30,
1870756,Brett Gardner,OF,NYY,4400,9.32,10,0,198,284,Starter:1|LineupSpot1:1|PlayerMatchupIsGreat:1|PlayerIsCold:1
1869997,Jason Hammel,SP,KC,5100,9.39,14.3,0,24,30,Starter:1|PlayerMatchupIsGreat:1|CrowdNegative:3|PlayerMatchupIsBad:1|VegasGood:1|ThumbDown:1
1869774,Franklin Gutierrez,OF,LAD,2700,0,0,0,168,284,Injured:1
1869803,Shane Peterson,OF,SD,2300,0,0,0,71,284,
1870055,Alex Wilson,RP,DET,4000,0,0,0,21,30,
1870062,Drew VerHagen,RP,DET,4000,0,2.25,0,21,30,
1869445,Robbie Ross Jr.,RP,CWS,4000,0,0,0,3,30,Injured:1
1869452,Cody Allen,RP,CLE,4000,0,0,0,22,30,
1869469,Austin Barnes,2B/C,LAD,3000,7.4,0,0,168,284,Starter:1|LineupSpot8:1|PlayerMatchupIsGreat:2
1869852,Adalberto Mejia,RP,MIN,5600,0,0,0,19,30,
1871314,Austin Voth,RP,WAS,4200,0,0,0,2,30,
1869691,Homer Bailey,SP,CIN,4200,0,0,0,27,30,Injured:1
1869705,Cody Anderson,SP,CLE,4000,0,0,0,22,30,Injured:1
1869817,Adrian Sampson,SP,TEX,4000,0,0,0,4,30,Injured:1
1869824,Tommy Milone,SP,WAS,4000,0,0,0,2,30,Injured:1
1869831,Brett Anderson,SP,OAK,4000,0,0,0,5,30,Injured:1
1870169,Wily Peralta,SP,KC,4000,0,0,0,24,30,
1870176,Scott Blewett,SP,KC,4000,0,0,0,24,30,
1870183,Victor Alcantara,SP,DET,4000,0,0,0,21,30,
1871250,Tyler Anderson,SP,COL,6200,11.14,26.15,0,23,30,Starter:1|PlayerMatchupIsHorribad:1|CrowdNegative:2|PlayerMatchupIsGreat:3|PlayerMatchupIsBad:1|VegasGood:1
1870775,Shin-soo Choo,OF,TEX,4000,9.5,11,0,150,284,Starter:1|LineupSpot1:1|PlayerMatchupIsGreat:1|ThumbUp:1
1873316,Blaine Boyer,RP,KC,4000,0,0,0,24,30,Injured:1
1873323,Jason Adam,RP,KC,4000,0,-0.95,0,24,30,
1873241,Chance Adams,SP,NYY,5100,0,0,0,20,30,
1873252,Dillon Peters,SP,MIA,5000,0,0,0,13,30,
1873259,Jeff Hoffman,SP,COL,4900,0,0,0,23,30,
1873266,Cody Reed,SP,CIN,4800,0,0,0,27,30,
1873277,Matt Moore,SP,TEX,4600,0,0,0,4,30,
1870877,Vince Velasquez,SP,PHI,8300,0,0,0,11,30,
1870909,Alex Wood,SP,LAD,7300,0,0,0,14,30,Injured:1
1870916,Kyle Freeland,SP,COL,7100,0,0,0,23,30,
1871220,Luis Castillo,SP,CIN,6800,0,0,0,27,30,
1871227,Tyler Mahle,SP,CIN,6700,14.38,17.25,0,27,30,Starter:1|PlayerMatchupIsGreat:3|CrowdNegative:3|StarBad:2|PlayerMatchupIsBad:1|ThumbUp:1
1871234,Jordan Lyles,SP,SD,6500,0,0,0,25,30,
1871396,Justin Verlander,SP,HOU,12400,0,0,0,17,30,
1871410,Stephen Strasburg,SP,WAS,10800,0,0,0,2,30,Injured:1
1871428,Tyson Ross,SP,SD,9100,0,0,0,25,30,
1869612,Scott Alexander,RP,LAD,4000,0,3.65,0,14,30,
1869709,Adam Morgan,RP,PHI,4000,0,0,0,11,30,
1869759,Brett Graves,RP,MIA,4000,0,0,0,13,30,Injured:1
1870010,Ben Meyer,RP,MIA,4000,0,0,0,13,30,
1870017,Joe Smith,RP,HOU,4000,0,0,0,17,30,Injured:1
1870024,Ken Giles,RP,HOU,4000,0,0,0,17,30,
1870035,Mike Dunn,RP,COL,4000,0,0,0,23,30,Injured:1
1870042,Bryan Shaw,RP,COL,4000,0,0,0,23,30,
1870089,Austin Bibens-Dirkx,RP,TEX,4000,0,0,0,4,30,
1869227,Joc Pederson,OF,LAD,4000,0,0,0,60,284,
1869236,Michael A. Taylor,OF,WAS,3900,0,0,0,121,284,
1869243,Franchy Cordero,OF,SD,3700,0,0,0,71,284,Injured:1
1869272,Greg Allen,OF,CLE,3300,6.17,0,0,165,284,Starter:1|LineupSpot9:1|PlayerMatchupIsHorribad:1|PlayerIsCold:1
1869543,Austin Slater,OF,SF,3200,0,0,0,70,284,
1869486,Mickey Moniak,OF,PHI,2000,0,0,0,162,284,
1869497,Jeimer Candelario,3B,DET,4000,7.55,2,0,130,284,Starter:1|LineupSpot3:1|WindHelping:1|PlayerMatchupIsHorribad:1|PlayerMatchupIsGreat:1|PlayerIsCold:1|VegasGood:1|ThumbDown:1
1869511,Maikel Franco,3B,PHI,3300,7.25,0,0,154,284,Starter:1|LineupSpot6:1|PlayerMatchupIsGreat:2|PlayerIsCold:1|VegasGood:1
1869597,Matt Olson,1B,OAK,3900,8.53,0,0,61,284,Starter:1|LineupSpot5:1|PlayerMatchupIsHorribad:2|PlayerMatchupIsGreat:2|PlayerIsCold:1|VegasBad:1|VegasGood:1|ThumbUp:2
1869604,Lucas Duda,1B,KC,3600,0,0,0,217,284,Injured:1
1869712,Tyler Austin,1B,NYY,3300,0,0,0,283,284,
1869723,Kennys Vargas,1B,MIN,3100,0,0,0,136,284,
1869730,Tyler White,1B,HOU,2700,0,0,0,122,284,
1869737,Nick Pratto,1B,KC,2100,0,0,0,217,284,
1869477,Ryan Raburn,OF,WAS,2100,0,0,0,121,284,Injured:1
1869553,Ryan Cordell,OF,CWS,3100,0,0,0,52,284,
1869560,Taylor Trammell,OF,CIN,3100,0,0,0,172,284,
1869627,JaCoby Jones,OF,DET,3000,0,0,0,84,284,
1869651,Willy Garcia,OF,CWS,2800,0,0,0,52,284,Injured:1
1869051,Ehire Adrianza,SS,MIN,2900,8.31,0,0,136,284,Starter:1|LineupSpot7:1|WindHelping:1|PlayerMatchupIsGreat:3|OptimalPick:1|PlayerIsHot:1|VegasGood:1
1869065,Corey Seager,SS,LAD,2500,0,0,0,60,284,Injured:1
1869084,Michael Morse,1B/OF,SF,2400,0,0,0,70,284,Injured:1
1869279,Jason Kipnis,2B,CLE,3600,6.69,3,0,165,284,Starter:1|LineupSpot7:1|PlayerMatchupIsHorribad:1|PlayerIsCold:1
1869286,Joe Panik,2B,SF,3200,6.55,3,0,119,284,Starter:1|LineupSpot1:1|PlayerMatchupIsHorribad:1|PlayerIsCold:1|VegasGood:1
1869311,Ian Desmond,1B/OF,COL,3700,6.48,16,0,211,284,Starter:1|LineupSpot7:1|PlayerMatchupIsGreat:2|VegasGood:1
1869751,Tim Anderson,SS,CWS,3500,6.72,9,0,52,284,Starter:1|LineupSpot6:1|PlayerMatchupIsHorribad:1|PlayerIsCold:1|StarBad:1
1869807,Lance Lynn,SP,MIN,5100,0,0,0,19,30,
1869960,Francisco Liriano,SP,DET,5800,0,0,0,21,30,Injured:1
1869971,Amir Garrett,SP,CIN,5600,0,0.75,0,27,30,
1869892,Tyler Lyons,RP,STL,4000,0,0,0,26,30,Injured:1
1869899,Dominic Leone,RP,STL,4000,0,0,0,26,30,Injured:1
1869106,Jorge Polanco,3B/SS,MIN,3000,0,0,0,136,284,Injured:1
1869124,Kike Hernandez,2B/OF,LAD,3300,8.49,7,0,168,284,Starter:1|LineupSpot4:1|PlayerMatchupIsGreat:2
1869143,Dilson Herrera,2B/SS,CIN,3100,0,0,0,206,284,Injured:1
1869150,Pete Kozma,2B/SS,DET,2700,0,0,0,84,284,
1869161,Gregorio Petit,2B/SS,MIN,2500,0,0,0,136,284,
1869168,Jesmuel Valentin,2B/SS,PHI,2300,4.66,24,0,154,284,Starter:1|LineupSpot7:1|PlayerMatchupIsGreat:1|PlayerIsHot:1
1869388,Raudy Read,C,WAS,3200,0,0,0,121,284,Injured:1
1869666,Grant Holmes,SP,OAK,4500,0,0,0,5,30,
1869673,Kyle Lloyd,SP,SD,4400,0,0,0,25,30,
1869179,Jarrod Saltalamacchia,C,DET,2100,0,0,0,130,284,
1869190,Cody Asche,3B/OF,KC,2900,0,0,0,217,284,
1869197,Erik Gonzalez,2B/3B,CLE,3300,0,0,0,30,284,
1869203,Logan Forsythe,2B/3B,LAD,3000,6.4,10,0,168,284,Starter:1|LineupSpot7:1|PlayerMatchupIsGreat:1
1869214,Josh Rutledge,2B/3B,SF,2500,0,0,0,70,284,Injured:1
1869221,John Hicks,1B/C,DET,3000,6.29,9,0,84,284,Starter:1|LineupSpot5:1|WindHelping:1|PlayerMatchupIsHorribad:2|PlayerMatchupIsGreat:1
1869337,Tony Wolters,C,COL,2700,0,0,0,120,284,
1869344,Zack Collins,C,CWS,2600,0,0,0,89,284,
1869361,Welington Castillo,C,CWS,2400,0,0,0,52,284,Injured:1
1869368,Kyle Higashioka,C,NYY,2300,0,0,0,283,284,
1869411,Curt Casali,C,CIN,2800,6.1,3,0,206,284,Starter:1|LineupSpot8:1|PlayerMatchupIsGreat:3|PlayerMatchupIsHorribad:1|PlayerIsCold:1
1869418,Dustin Garneau,C,CWS,2700,0,0,0,52,284,
1871083,Ryan Madson,RP,WAS,4000,0,3.05,0,2,30,
1871090,Tim Collins,RP,WAS,4000,0,0,0,2,30,
1871097,Chasen Shreve,RP,NYY,4000,0,5.9,0,20,30,
1871108,Hunter Strickland,RP,SF,4000,0,2.9,0,30,30,
1870744,George Springer,OF,HOU,4900,11.03,7,0,122,284,Starter:1|LineupSpot1:1|PlayerMatchupIsHorribad:1|PlayerMatchupIsGreat:2
1870750,Adam Eaton,OF,WAS,4500,8.54,13,0,49,284,Starter:1|LineupSpot1:1|PlayerMatchupIsHorribad:1|PlayerMatchupIsGreat:1|VegasBad:1
1870754,Leonys Martin,OF,DET,4400,8.8,15,0,130,284,Starter:1|LineupSpot1:1|WindHelping:1|PlayerMatchupIsHorribad:1|PlayerMatchupIsGreat:2|ThumbUp:1
1869981,Hector Santiago,SP,CWS,5300,0,0,0,3,30,
1869988,Miguel Gonzalez,SP,CWS,5200,0,0,0,3,30,Injured:1
1869999,Rookie Davis,SP,CIN,5100,0,0,0,27,30,Injured:1
1869772,Ryan LaMarre,OF,MIN,2700,3.81,0,0,136,284,Starter:1|LineupSpot8:1|WindHelping:1|PlayerMatchupIsGreat:2|PlayerMatchupIsHorribad:1|VegasBad:2|StarBad:1
1869796,JB Shuck,OF,MIA,2500,0,3,0,42,284,
1869805,Kyle Tucker,OF,HOU,2300,0,0,0,18,284,
1870053,Ryan Pressly,RP,MIN,4000,0,4.25,0,19,30,
1870060,Addison Reed,RP,MIN,4000,0,-7.5,0,19,30,
1870064,Daniel Stumpf,RP,DET,4000,0,0,0,21,30,Injured:1
1869443,Nate Jones,RP,CWS,4000,0,0,0,3,30,
1869454,Ryan Merritt,RP,CLE,4000,0,0,0,22,30,Injured:1
1869843,Domingo German,RP,NYY,8500,0,0,0,20,30,
1869854,Jarlin Garcia,RP,MIA,5300,0,0,0,13,30,
1871300,Luis Cessa,RP,NYY,4900,0,0,0,20,30,Injured:1
1869696,Elieser Hernandez,SP,MIA,4100,0,0,0,13,30,
1869707,Dane Dunning,SP,CWS,4000,0,0,0,3,30,
1869815,Paolo Espino,SP,TEX,4000,0,0,0,4,30,
1869822,Edwin Jackson,SP,WAS,4000,0,0,0,2,30,
1869833,Franklin Perez,SP,HOU,4000,0,0,0,17,30,
1869904,Masahiro Tanaka,SP,NYY,8400,0,0,0,20,30,Injured:1
1870167,Conner Greene,SP,STL,4000,0,0,0,26,30,
1870174,Daniel Wright,SP,CIN,4000,0,0,0,27,30,
1870185,Tyler Alexander,SP,DET,4000,0,0,0,21,30,
1871245,Sean Manaea,SP,OAK,6300,0,0,0,5,30,
1870766,Carlos Gonzalez,OF,COL,4100,8.97,14,0,120,284,Starter:1|LineupSpot4:1|PlayerMatchupIsGreat:3|PlayerIsCold:1|VegasBad:1|StarBad:1
1873318,Jared Hughes,RP,CIN,4000,0,1.05,0,27,30,
1873325,Austin Brice,RP,CIN,4000,0,0,0,27,30,
1873243,Ty Blach,SP,SF,5100,0,0,0,30,30,
1873250,Jeff Samardzija,SP,SF,5000,0,0,0,30,30,Injured:1
1873268,Chris Bassitt,SP,OAK,4800,0,0,0,5,30,
1873275,Josh Staumont,SP,KC,4600,0,0,0,24,30,
1870893,Luke Weaver,SP,STL,7700,17.26,6,0,26,30,Starter:1|VegasGood:2|PlayerMatchupIsGreat:2|PlayerMatchupIsGood:1|StarGood:1|ThumbDown:1
1870900,Jeremy Hellickson,SP,WAS,7500,0,0,0,2,30,Injured:1
1870907,Clayton Richard,SP,SD,7300,0,0,0,25,30,
1870918,Collin McHugh,SP,HOU,7000,0,0,0,17,30,
1871114,Max Scherzer,SP,WAS,14400,0,0,0,2,30,
1871218,Trevor Cahill,SP,OAK,6900,0,0,0,5,30,Injured:1
1871225,Alex Reyes,SP,STL,6700,0,0,0,26,30,Injured:1
1871401,Johnny Cueto,SP,SF,11800,0,0,0,30,30,Injured:1
1871412,Charlie Morton,SP,HOU,10400,0,0,0,17,30,
1871419,Michael Wacha,SP,STL,9700,0,0,0,26,30,
1870013,Chris Smith,RP,OAK,4000,0,0,0,5,30,
1870014,Yusmeiro Petit,RP,OAK,4000,0,0,0,5,30,
1870027,Jandel Gustave,RP,HOU,4000,0,0,0,17,30,Injured:1
1870028,Chris Devenski,RP,HOU,4000,0,0,0,17,30,
1870031,Lou Trivino,RP,OAK,4000,0,0,0,5,30,
1870045,Scott Oberg,RP,COL,4000,0,0,0,23,30,Injured:1
1870046,Edubray Ramos,RP,PHI,4000,0,0,0,11,30,
1870091,Josh Fields,RP,LAD,4000,0,3.65,0,14,30,
1869239,Nomar Mazara,OF,TEX,3800,8.61,0,0,150,284,Starter:1|LineupSpot3:1|ThumbUp:1
1869240,Dustin Fowler,OF,OAK,3800,8.84,0,0,61,284,Starter:1|LineupSpot1:1|PlayerMatchupIsHorribad:2|PlayerMatchupIsGreat:2|VegasGood:1|StarBad:1|VegasBad:1
1869252,Phillip Ervin,OF,CIN,3600,0,0,0,206,284,
1869255,Derek Fisher,OF,HOU,3600,0,0,0,18,284,
1869268,Mac Williamson,OF,SF,3400,0,0,0,70,284,
1869269,Josh Reddick,OF,HOU,3400,7.43,5,0,18,284,Starter:1|LineupSpot5:1|PlayerMatchupIsHorribad:2|PlayerMatchupIsGreat:2|VegasGood:1
1869546,Aaron Altherr,OF,PHI,3200,7.85,0,0,154,284,Starter:1|LineupSpot5:1|PlayerMatchupIsGreat:3|PlayerIsCold:1
1869547,Nick Williams,OF,PHI,3200,0,3,0,162,284,
1869482,Leody Taveras,OF,TEX,2000,0,0,0,150,284,
1869483,Heliot Ramos,OF,SF,2000,0,0,0,70,284,
1869501,Justin Turner,3B,LAD,3700,10.94,16,0,168,284,Starter:1|LineupSpot2:1|PlayerMatchupIsGreat:2|PlayerIsHot:1
1869583,Edwin Encarnacion,1B,CLE,5100,9.46,5,0,30,284,Starter:1|LineupSpot4:1|PlayerMatchupIsHorribad:2|PlayerMatchupIsGreat:1|PlayerIsCold:1|ThumbUp:2
1869600,Carlos Santana,1B,PHI,3800,8.38,3,0,154,284,Starter:1|LineupSpot4:1|PlayerMatchupIsGreat:2|PlayerIsCold:1|ThumbDown:1
1869601,Ryan Zimmerman,1B,WAS,3700,0,0,0,121,284,Injured:1
1869716,Justin Bour,1B,MIA,3200,6.75,12,0,42,284,Starter:1|LineupSpot5:1|PlayerMatchupIsHorribad:2|PlayerMatchupIsGreat:1|ThumbDown:1
1869719,Bobby Bradley,1B,CLE,3100,0,0,0,165,284,
1869556,Alex Dickerson,OF,SD,3100,0,0,0,71,284,Injured:1
1869557,Manuel Margot,OF,SD,3100,6.06,18,0,111,284,Starter:1|LineupSpot7:1|PlayerMatchupIsHorribad:2
1869617,Boog Powell,OF,OAK,3100,0,0,0,61,284,Injured:1
1869618,Mike Tauchman,OF,COL,3100,0,0,0,120,284,
1869630,Chad Pinder,OF,OAK,3000,0,0,0,79,284,
1869631,Noel Cuevas,OF,COL,3000,0,0,0,211,284,
1869648,Steven Duggar,OF,SF,2900,0,0,0,119,284,
1869044,Jose Iglesias,SS,DET,3100,6.63,5,0,84,284,Starter:1|LineupSpot8:1|WindHelping:1|PlayerMatchupIsHorribad:2|PlayerMatchupIsGreat:1|ThumbDown:1
1869061,Erick Aybar,SS,MIN,2700,0,0,0,136,284,
1869062,JT Riddle,SS,MIA,2700,0,0,0,42,284,
1869080,Gleyber Torres,2B,NYY,4000,9.17,14,0,283,284,Starter:1|LineupSpot9:1|PlayerMatchupIsGreat:2|PlayerIsCold:1
1869095,Matt Skole,1B/3B,CWS,2900,0,0,0,89,284,
1869289,Tim Locastro,2B,LAD,3000,0,0,0,168,284,
1869308,Cody Bellinger,1B/OF,LAD,4100,8.23,9,0,60,284,Starter:1|LineupSpot5:1|PlayerMatchupIsHorribad:2|PlayerMatchupIsGreat:1
1869664,Brock Stewart,SP,LAD,4500,0,0,0,14,30,
1869957,Erick Fedde,SP,WAS,5900,5.49,5.05,0,2,30,Starter:1|VegasBad:1|CrowdPositive:2|StarBad:1|PlayerMatchupIsGreat:1|PlayerMatchupIsHorribad:2
1869974,Dylan Covey,SP,CWS,5500,10.05,19.75,0,3,30,Starter:1|VegasBad:1|CrowdPositive:2|PlayerMatchupIsBad:1|PlayerMatchupIsHorribad:1|PlayerMatchupIsGood:1|ThumbDown:1|ThumbUp:1
1869895,Sam Tuivailala,RP,STL,4000,0,0,0,26,30,
1869896,Daniel Poncedeleon,RP,STL,4000,0,0,0,26,30,
1869110,Miguel Rojas,3B/SS,MIA,2800,5.22,5,0,229,284,Starter:1|LineupSpot7:1|PlayerMatchupIsGreat:2|PlayerMatchupIsHorribad:1|PlayerIsCold:1|VegasBad:1
1869113,Dusty Coleman,3B/SS,SD,2600,0,0,0,111,284,
1869114,Yadiel Rivera,3B/SS,MIA,2600,5.67,4,0,229,284,Starter:1|LineupSpot8:1|PlayerMatchupIsGreat:2|PlayerMatchupIsHorribad:1
1869127,Jose Pirela,2B/OF,SD,3000,0,0,0,111,284,
1869146,Breyvic Valera,2B/SS,LAD,2900,0,0,0,168,284,
1869147,Rosell Herrera,2B/SS,KC,2800,0,0,0,217,284,
1869164,Cristhian Adames,2B/SS,MIA,2500,0,0,0,229,284,
1869373,Austin Romine,C,NYY,3600,7.93,0,0,283,284,Starter:1|LineupSpot8:1|PlayerMatchupIsGreat:1|PlayerIsCold:1|VegasGood:1
1869374,Max Stassi,C,HOU,3600,7.24,7,0,122,284,Starter:1|LineupSpot8:1|PlayerMatchupIsHorribad:1|PlayerMatchupIsGreat:1|StarGood:1|VegasBad:1
1869676,Jesse Chavez,SP,TEX,4400,0,4.85,0,4,30,
1869677,Edinson Volquez,SP,TEX,4400,0,0,0,4,30,Injured:1
1869680,Tyler Beede,SP,SF,4400,0,0,0,30,30,
1869224,Neil Walker,1B/2B,NYY,3500,0,0,0,198,284,
1869333,Bryan Holaday,C,MIA,2700,0,0,0,229,284,
1869334,Chad Wallach,C,MIA,2700,0,0,0,229,284,
1869348,Sean Murphy,C,OAK,2600,0,0,0,79,284,
1869364,Miguel Montero,C,WAS,2400,0,0,0,49,284,
1869365,Hector Sanchez,C,SF,2400,0,0,0,70,284,
1869414,Cameron Rupp,C,TEX,2800,0,0,0,61,284,
1869415,Tim Federowicz,C,HOU,2800,0,0,0,122,284,
1870733,Victor Arano,RP,PHI,4000,0,1.05,0,11,30,
1870734,Jerry Vasto,RP,COL,4000,0,0,0,23,30,
1871086,David Robertson,RP,NYY,4000,0,3.65,0,20,30,
1871087,Shawn Kelley,RP,WAS,4000,0,0,0,2,30,
1871101,Ben Heller,RP,NYY,4000,0,0,0,20,30,Injured:1
1871104,Mark Melancon,RP,SF,4000,0,-0.95,0,30,30,
1870748,Tommy Pham,OF,STL,4600,8.43,3,0,255,284,Starter:1|LineupSpot2:1|PlayerMatchupIsGreat:2|PlayerMatchupIsHorribad:2|PlayerIsCold:1
1870759,Scott Schebler,OF,CIN,4300,9.11,7,0,172,284,Starter:1|LineupSpot1:1|PlayerMatchupIsGreat:1|PlayerMatchupIsHorribad:1|VegasBad:1|ThumbDown:1
1870760,Matt Kemp,OF,LAD,4300,8.68,3,0,168,284,Starter:1|LineupSpot3:1|PlayerMatchupIsGreat:2|PlayerIsCold:1
1869978,Ryan Carpenter,SP,DET,5400,0,0,0,21,30,Injured:1
1869761,Charlie Tilson,OF,CWS,2700,5.47,15,0,89,284,Starter:1|LineupSpot7:1|PlayerMatchupIsGreat:1|PlayerMatchupIsHorribad:1|ThumbDown:1
1869762,Adam Engel,OF,CWS,2700,5.3,0,0,52,284,Starter:1|LineupSpot8:1|PlayerMatchupIsHorribad:2|PlayerIsCold:1
1869776,Gregor Blanco,OF,SF,2700,0,0,0,119,284,
1869779,Jake Marisnick,OF,HOU,2700,7.47,25,0,122,284,Starter:1|LineupSpot9:1|PlayerMatchupIsHorribad:1|PlayerMatchupIsGreat:1|PlayerIsCold:1|VegasBad:1
1870000,Fernando Rodney,RP,MIN,4000,0,0,0,19,30,
1870001,Zach Duke,RP,MIN,4000,0,0,0,19,30,
1870067,Alex Faedo,RP,DET,4000,0,0,0,21,30,
1869439,Xavier Cedeno,RP,CWS,4000,0,0,0,3,30,
1869440,Andrew Miller,RP,CLE,4000,0,0,0,22,30,Injured:1
1869457,Tyler Danish,RP,CWS,4000,0,0,0,3,30,Injured:1
1869692,Brad Keller,SP,KC,4200,0,0,0,24,30,
1869693,Gregory Soto,SP,DET,4200,0,0,0,21,30,
1869826,Albert Abreu,SP,NYY,4000,0,0,0,20,30,
1869829,Jordan Johnson,SP,SF,4000,0,0,0,30,30,
1870163,Dillon Overton,SP,SD,4000,0,0,0,25,30,
1870164,Colin Rea,SP,SD,4000,0,0,0,25,30,Injured:1
1870178,Richard Lovelady,SP,KC,4000,0,0,0,24,30,
1870181,Felix Jorge,SP,MIN,4000,0,0,0,19,30,
1871255,Caleb Ferguson,SP,LAD,6100,0,0,0,14,30,
1871256,Joe Ross,SP,WAS,6100,0,0,0,2,30,Injured:1
1873285,Mike Mayers,RP,STL,4000,0,2.75,0,26,30,
1873286,Adam Cimber,RP,SD,4000,0,0,0,25,30,
1873289,Phil Maton,RP,SD,4000,0,0,0,25,30,Injured:1
1873321,Kelvin Herrera,RP,KC,4000,0,0,0,24,30,
1873322,Dylan Floro,RP,CIN,4000,0,0,0,27,30,
1873240,Tim Lincecum,SP,TEX,5100,0,0,0,4,30,Injured:1
1873257,Julio Urias,SP,LAD,4900,0,0,0,14,30,Injured:1
1873272,Brandon Finnegan,SP,CIN,4700,0,0,0,27,30,
1870879,Joey Lucchesi,SP,SD,8100,0,0,0,25,30,Injured:1
1870911,Daniel Mengden,SP,OAK,7300,0,0,0,5,30,
1871405,Mike Clevinger,SP,CLE,11100,0,0,0,22,30,
1871409,Miles Mikolas,SP,STL,10900,0,0,0,26,30,
1871422,Kenta Maeda,SP,LAD,9400,16.1,3.85,0,14,30,Starter:1|VegasGood:1|PlayerMatchupIsGreat:1|PlayerMatchupIsBad:1|CrowdPositive:1|ThumbUp:1
1869613,Erik Goeddel,RP,LAD,4000,0,5.05,0,14,30,
1870005,Nick Wittgren,RP,MIA,4000,0,0,0,13,30,Injured:1
1870020,Hector Rondon,RP,HOU,4000,0,0,0,17,30,
1870022,Danny Coulombe,RP,OAK,4000,0,-2.15,0,5,30,
1870037,Pedro Beato,RP,PHI,4000,0,0,0,11,30,Injured:1
1870039,Luis Garcia,RP,PHI,4000,0,0,0,11,30,
1870086,Matt Bush,RP,TEX,4000,0,-0.6,0,4,30,
1870094,Daniel Hudson,RP,LAD,4000,0,0,0,14,30,
1869232,Travis Jankowski,OF,SD,3900,8.22,0,0,71,284,Starter:1|LineupSpot1:1|PlayerMatchupIsHorribad:2|PlayerMatchupIsGreat:1|StarBad:1|ThumbDown:1
1869247,Derek Dietrich,OF,MIA,3700,0,0,0,42,284,
1869522,Max Kepler,OF,MIN,3300,0,0,0,44,284,
1869524,Raimel Tapia,OF,COL,3300,0,0,0,120,284,
1869539,Yusniel Diaz,OF,LAD,3200,0,0,0,168,284,
1869493,Alex Bregman,3B,HOU,4300,0,0,0,122,284,
1869510,Adrian Beltre,3B,TEX,3300,8.02,15,0,61,284,Starter:1|LineupSpot4:1|PlayerMatchupIsHorribad:1|PlayerMatchupIsGreat:2|PlayerIsHot:1|StarBad:1
1869577,Kyle Farmer,3B,LAD,2500,0,0,0,168,284,
1869590,Brandon Belt,1B,SF,4300,0,0,0,119,284,Injured:1
1869607,Joe Mauer,1B,MIN,3400,0,0,0,44,284,Injured:1
1869609,Ronald Guzman,1B,TEX,3400,0,0,0,150,284,
1869725,Garrett Cooper,1B,MIA,3100,0,0,0,229,284,Injured:1
1869727,Hunter Dozier,1B,KC,2900,5.22,0,0,34,284,Starter:1|LineupSpot6:1|PlayerMatchupIsHorribad:3|VegasGood:1|ThumbUp:1
1869744,Carlos Correa,SS,HOU,4500,9.62,20,0,122,284,Starter:1|LineupSpot3:1|PlayerMatchupIsHorribad:1|PlayerMatchupIsGreat:2|ThumbDown:1
1869625,Ben Revere,OF,CIN,3000,0,0,0,172,284,
1869642,Mason Williams,OF,CIN,2900,0,0,0,172,284,
1869654,Carlos Tocci,OF,TEX,2800,0,0,0,61,284,
1869656,Lewis Brinson,OF,MIA,2800,7.25,5,0,229,284,Starter:1|LineupSpot6:1|PlayerMatchupIsGreat:2|PlayerMatchupIsHorribad:1
1869658,Stephen Piscotty,OF,OAK,2800,6.05,18,0,79,284,Starter:1|LineupSpot8:1|PlayerMatchupIsHorribad:1|PlayerMatchupIsGreat:1|VegasBad:1
1869052,Thairo Estrada,SS,NYY,2900,0,0,0,283,284,
1869069,Allen Cordoba,SS,SD,2000,0,0,0,111,284,Injured:1
1869071,Royce Lewis,SS,MIN,2000,0,0,0,136,284,
1869087,Miguel Sano,1B/3B,MIN,3900,8.84,0,0,136,284,Starter:1|LineupSpot4:1|WindHelping:1|PlayerMatchupIsGreat:3
1869089,Pablo Sandoval,1B/3B,SF,3300,0,0,0,70,284,
1869281,Alen Hanson,2B,SF,3600,0,2,0,70,284,
1869283,Tyler Wade,2B,NYY,3400,0,0,0,198,284,
1869298,Daniel Castro,2B,COL,2800,0,0,0,211,284,
1869300,Dixon Machado,2B,DET,2700,0,0,0,84,284,
1869313,Niko Goodrum,1B/OF,DET,3300,7.26,24,0,130,284,Starter:1|LineupSpot6:1|WindHelping:1|PlayerMatchupIsHorribad:1|PlayerMatchupIsGreat:1|VegasBad:1
1869317,Marwin Gonzalez,1B/OF,HOU,3200,7.14,19,0,18,284,Starter:1|LineupSpot7:1|PlayerMatchupIsHorribad:2|PlayerMatchupIsGreat:2|PlayerIsCold:1
1869752,Elvis Andrus,SS,TEX,3500,0,0,0,61,284,Injured:1
1869964,Michael Fulmer,SP,DET,5700,0,0,0,21,30,
1869966,Reynaldo Lopez,SP,CWS,5600,0,0,0,3,30,
1869885,Chris Young,RP,SD,4000,0,0,0,25,30,
1869887,Bud Norris,RP,STL,4000,0,0,0,26,30,
1869103,J.P. Crawford,3B/SS,PHI,3200,0,0,0,162,284,
1869153,Chase d'Arnaud,2B/SS,SF,2700,0,0,0,70,284,
1869170,Gary Sanchez,C,NYY,4100,0,0,0,283,284,
1869172,Salvador Perez,C,KC,3800,7.22,0,0,34,284,Starter:1|LineupSpot3:1|PlayerMatchupIsHorribad:2|ThumbUp:1
1869382,Francisco Mejia,C,CLE,3200,0,0,0,165,284,
1869399,Matt Wieters,C,WAS,3000,0,0,0,49,284,Injured:1
1869669,Tim Cooney,SP,CLE,4400,0,0,0,22,30,Injured:1
1869686,Dietrich Enns,SP,MIN,4300,0,0,0,19,30,
1869688,Jeff Locke,SP,MIA,4300,0,0,0,13,30,
1869182,Keibert Ruiz,C,LAD,2000,0,0,0,168,284,
1869184,Brian Anderson,3B/OF,MIA,4000,8.48,10,0,229,284,Starter:1|LineupSpot2:1|PlayerMatchupIsGreat:2|PlayerMatchupIsHorribad:1|VegasBad:1|ThumbUp:1
1869186,Cory Spangenberg,3B/OF,SD,3300,8.47,13,0,71,284,Starter:1|LineupSpot2:1|PlayerMatchupIsHorribad:2|PlayerMatchupIsGreat:1|VegasBad:3|StarBad:1|ThumbUp:1
1869217,Adam Rosales,2B/3B,PHI,2200,0,0,0,154,284,
1869358,Spencer Kieboom,C,WAS,2500,5.46,0,0,121,284,Starter:1|LineupSpot9:1|PlayerMatchupIsHorribad:2|VegasGood:1|StarBad:1
1871079,Ronald Herrera,RP,TEX,4000,0,0,0,4,30,
1871080,Dennis Santana,RP,LAD,4000,0,0,0,14,30,
1871094,Aroldis Chapman,RP,NYY,4000,0,0,0,20,30,
1871096,Wander Suero,RP,WAS,4000,0,0,0,2,30,
1871109,Will Smith,RP,SF,4000,0,2.9,0,30,30,
1871111,Tayron Guerrero,RP,MIA,4000,0,-1.4,0,13,30,
1871113,Reyes Moronta,RP,SF,4000,0,-3.2,0,30,30,
1870739,Aaron Judge,OF,NYY,5500,12.22,9,0,283,284,Starter:1|LineupSpot2:1|PlayerMatchupIsGreat:2|PlayerIsCold:1|StarGood:1|ThumbUp:1
1870741,Charlie Blackmon,OF,COL,5300,9.88,6,0,120,284,Starter:1|LineupSpot2:1|PlayerMatchupIsGreat:3|PlayerIsCold:1|VegasGood:1
1869768,Bubba Starling,OF,KC,2700,0,0,0,34,284,
1869770,Chad Huffman,OF,DET,2700,0,0,0,84,284,
1869785,Andrew Toles,OF,LAD,2600,0,0,0,60,284,Injured:1
1869787,Jarrett Parker,OF,SF,2600,0,0,0,119,284,
1869800,Paulo Orlando,OF,KC,2400,5.12,0,0,34,284,Starter:1|LineupSpot8:1|PlayerMatchupIsHorribad:3|VegasGood:1|StarGood:1
1870057,Shane Greene,RP,DET,4000,0,6.25,0,21,30,
1870059,Taylor Rogers,RP,MIN,4000,0,0,0,19,30,
1869448,Adam Wilk,RP,CLE,4000,0,0,0,22,30,
1869450,Lisalverto Bonilla,RP,CLE,4000,0,0,0,22,30,Injured:1
1869840,Peter Lambert,SP,COL,4000,0,0,0,23,30,
1869842,Ross Stripling,RP,LAD,9200,0,0,0,14,30,
1869856,David Paulino,RP,HOU,5200,0,0,0,17,30,
1871299,Chris Volstad,RP,CWS,4900,0,0,0,3,30,
1871312,Mark Leiter Jr.,RP,PHI,4300,0,5.3,0,11,30,
1869818,Clayton Blackburn,SP,TEX,4000,0,0,0,4,30,Injured:1
1869820,Ariel Jurado,SP,TEX,4000,0,0,0,4,30,
1869835,Cionel Perez,SP,HOU,4000,0,0,0,17,30,
1869837,Yency Almonte,SP,COL,4000,0,0,0,23,30,
1870171,Burch Smith,SP,KC,4000,0,0,0,24,30,
1870173,Kyle Zimmer,SP,KC,4000,0,0,0,24,30,
1871247,Anthony DeSclafani,SP,CIN,6200,0,0,0,27,30,
1871249,Jerad Eickhoff,SP,PHI,6200,0,0,0,11,30,Injured:1
1870762,Juan Soto,OF,WAS,4200,6.29,34,0,49,284,Starter:1|LineupSpot7:1|PlayerMatchupIsHorribad:1|PlayerIsCold:1|VegasBad:1|VegasGood:1|ThumbDown:1
1870764,Khris Davis,OF,OAK,4200,8.67,33,0,79,284,Starter:1|LineupSpot4:1|PlayerMatchupIsHorribad:1|PlayerMatchupIsGreat:2|PlayerIsCold:1|VegasBad:2|ThumbUp:2
1873327,Miguel Almonte,RP,KC,4000,0,0,0,24,30,
1873329,Kevin McCarthy,RP,KC,4000,0,0,0,24,30,
1873248,Daniel Norris,SP,DET,5000,0,0,0,21,30,Injured:1
1873263,Matt Harvey,SP,CIN,4800,0,0,0,27,30,
1873265,Eric Skoglund,SP,KC,4800,0,0,0,24,30,Injured:1
1870903,Dinelson Lamet,SP,SD,7400,0,0,0,25,30,Injured:1
1870905,Shane Bieber,SP,CLE,7300,0,0,0,22,30,
1871117,Gerrit Cole,SP,HOU,13200,27.11,16.7,0,17,30,Starter:1|VegasGood:1|PlayerMatchupIsHorribad:3|PlayerMatchupIsGood:1
1871231,Andrew Triggs,SP,OAK,6600,0,0,0,5,30,Injured:1
1871397,Luis Severino,SP,NYY,12300,0,0,0,20,30,
1871414,Madison Bumgarner,SP,SF,10100,0,0,0,30,30,
1871431,Hyun-Jin Ryu,SP,LAD,8900,0,0,0,14,30,Injured:1
1869611,Yimi Garcia,RP,LAD,4000,0,0,0,14,30,
1870007,Brian Ellington,RP,MIA,4000,0,0,0,13,30,Injured:1
1870009,Tyler Kinley,RP,MIA,4000,0,0,0,13,30,
1870016,Ryan Buchter,RP,OAK,4000,0,0,0,5,30,Injured:1
1870018,Chris Hatcher,RP,OAK,4000,0,5.05,0,5,30,
1870041,Rayan Gonzalez,RP,COL,4000,0,0,0,23,30,Injured:1
1870043,Brooks Pounders,RP,COL,4000,0,0,0,23,30,
1869235,Aaron Hicks,OF,NYY,3900,8.61,0,0,198,284,Starter:1|LineupSpot5:1|StarBad:1
1869242,Hunter Renfroe,OF,SD,3700,0,0,0,111,284,
1869244,Harrison Bader,OF,STL,3700,9.39,3,0,255,284,Starter:1|LineupSpot1:1|PlayerMatchupIsGreat:2|PlayerMatchupIsHorribad:2|VegasBad:1|StarBad:1
1869266,Franmil Reyes,OF,SD,3400,6.32,7,0,111,284,Starter:1|LineupSpot6:1|PlayerMatchupIsHorribad:2|PlayerIsCold:1|VegasBad:3|StarBad:1
1869273,Eloy Jimenez,OF,CWS,3300,0,0,0,52,284,
1869528,Lonnie Chisenhall,OF,CLE,3200,0,3,0,165,284,
1869225,Yandy Diaz,3B,CLE,2900,0,0,0,30,284,
1869487,Jose Ramirez,3B,CLE,5600,10.45,6,0,165,284,Starter:1|LineupSpot3:1|PlayerMatchupIsGreat:1|PlayerIsCold:1|VegasGood:1|ThumbUp:1
1869489,Eugenio Suarez,3B,CIN,4800,8.16,5,0,206,284,Starter:1|LineupSpot5:1|PlayerMatchupIsGreat:3|PlayerMatchupIsHorribad:1
1869571,Martin Prado,3B,MIA,2800,0,0,0,229,284,Injured:1
1869594,Mark Reynolds,1B,WAS,4000,0,0,0,121,284,
1869596,Greg Bird,1B,NYY,3900,7.56,19,0,198,284,Starter:1|LineupSpot7:1|PlayerMatchupIsGreat:1|VegasBad:1
1869598,Jose Abreu,1B,CWS,3800,8.51,7,0,52,284,Starter:1|LineupSpot3:1|PlayerMatchupIsHorribad:1|PlayerMatchupIsGreat:1|PlayerIsCold:1|ThumbDown:1
1869605,Yuli Gurriel,1B,HOU,3600,8.57,17,0,122,284,Starter:1|LineupSpot4:1|PlayerMatchupIsHorribad:1|PlayerMatchupIsGreat:2|PlayerIsHot:1|VegasGood:1|ThumbUp:1
1869729,Chris Shaw,1B,SF,2900,0,0,0,119,284,
1869738,Mike Napoli,1B,CLE,2000,0,0,0,30,284,Injured:1
1869471,Blake Rutherford,OF,CWS,2100,0,0,0,89,284,
1869621,Nicky Delmonico,OF,CWS,3000,0,0,0,89,284,Injured:1
1869646,Brett Eibner,OF,TEX,2900,0,0,0,61,284,Injured:1
1869650,Avisail Garcia,OF,CWS,2800,0,0,0,52,284,Injured:1
1869652,Jake Cave,OF,MIN,2800,0,0,0,44,284,
1869048,Jorge Mateo,SS,OAK,3000,0,0,0,79,284,
1869073,Jose Altuve,2B,HOU,5000,10.98,11,0,122,284,Starter:1|LineupSpot2:1|PlayerMatchupIsHorribad:1|PlayerMatchupIsGreat:2|StarGood:1
1869075,Daniel Murphy,2B,WAS,4500,8.79,4,0,49,284,Starter:1|LineupSpot5:1|PlayerMatchupIsHorribad:1|PlayerMatchupIsGreat:1|VegasGood:1|StarBad:1
1869082,Cesar Hernandez,2B,PHI,3900,8.94,0,0,154,284,Starter:1|LineupSpot1:1|PlayerMatchupIsGreat:2
1869085,Scott Van Slyke,1B/OF,MIA,2200,0,0,0,229,284,
1869285,Luis Urias,2B,SD,3200,0,0,0,111,284,
1869287,Rougned Odor,2B,TEX,3100,7.12,7,0,150,284,Starter:1|LineupSpot8:1|ThumbDown:1
1869296,Brandon Dixon,2B,CIN,2800,0,0,0,206,284,
1869321,Stephen Cardullo,1B/OF,COL,2600,0,0,0,211,284,
1869970,Ian Kennedy,SP,KC,5600,0,0,0,24,30,
1869889,Brett Cecil,RP,STL,4000,0,0,0,26,30,
1869891,Brad Hand,RP,SD,4000,0,1.65,0,25,30,
1869893,Trevor Rosenthal,RP,STL,4000,0,0,0,26,30,Injured:1
1869898,John Brebbia,RP,STL,4000,0,10.5,0,26,30,
1869900,Miguel Diaz,RP,SD,4000,0,0,0,25,30,
1869109,Ronny Rodriguez,3B/SS,DET,2800,0,0,0,84,284,
1869116,Chris Taylor,OF/SS,LAD,4300,8.66,5,0,168,284,Starter:1|LineupSpot1:1|PlayerMatchupIsGreat:2
1869118,Alexi Amarista,OF/SS,DET,2400,0,0,0,130,284,
1869142,Jose Rondon,2B/SS,CWS,3100,0,0,0,52,284,
1869151,Hanser Alberto,2B/SS,TEX,2700,0,0,0,61,284,
1869174,Yasmani Grandal,C,LAD,3800,0,0,0,168,284,
1869176,Evan Gattis,C,HOU,3700,8.73,36,0,122,284,Starter:1|LineupSpot6:1|PlayerMatchupIsHorribad:1|PlayerMatchupIsGreat:2|OptimalPick:1|StarGood:1|VegasBad:1
1869378,Nick Hundley,C,SF,3400,8.21,3,0,70,284,Starter:1|LineupSpot6:1|PlayerMatchupIsHorribad:2|PlayerMatchupIsGreat:2|VegasBad:1
1869380,Yan Gomes,C,CLE,3300,0,0,0,30,284,
1869405,Brett Nicholas,C,TEX,2900,0,0,0,150,284,
1869665,Joan Gregorio,SP,SF,4500,0,0,0,30,30,Injured:1
1869180,Rocky Gale,C,LAD,2100,0,0,0,168,284,
1869202,Brandon Drury,2B/3B,NYY,3100,0,0,0,283,284,
1869204,Miguel Gomez,2B/3B,SF,3000,0,0,0,70,284,
1869206,Wilmer Difo,2B/3B,WAS,2900,6.29,0,0,49,284,Starter:1|LineupSpot8:1|PlayerMatchupIsHorribad:2|PlayerIsCold:1|VegasBad:1|ThumbDown:1
1869211,Alex Blandino,2B/3B,CIN,2600,0,0,0,206,284,
1869327,Bobby Wilson,C,MIN,2700,5.43,2,0,136,284,Starter:1|LineupSpot9:1|WindHelping:1|PlayerMatchupIsGreat:2|PlayerMatchupIsHorribad:1|PlayerIsCold:1|VegasGood:1|StarBad:1
1869329,Grayson Greiner,C,DET,2700,5.23,7,0,84,284,Starter:1|LineupSpot7:1|WindHelping:1|PlayerMatchupIsHorribad:3|PlayerMatchupIsGreat:1|VegasGood:1|StarGood:1
1869336,Josh Phegley,C,OAK,2700,0,0,0,79,284,
1869338,Andrew Knapp,C,PHI,2700,0,0,0,154,284,
1871073,Jesen Therrien,RP,LAD,4000,0,0,0,14,30,Injured:1
1871078,Yohander Mendez,RP,TEX,4000,0,0,0,4,30,
1871098,Branden Pinder,RP,NYY,4000,0,0,0,20,30,Injured:1
1871100,Jonathan Holder,RP,NYY,4000,0,1.65,0,20,30,
1871105,Tony Watson,RP,SF,4000,0,7.65,0,30,30,
1871107,Cory Gearrin,RP,SF,4000,0,0,0,30,30,
1869989,Ricky Nolasco,SP,KC,5200,0,0,0,24,30,
1869998,Justin Nicolino,SP,CIN,5100,0,0,0,27,30,
1869790,Luis Robert,OF,CWS,2500,0,0,0,52,284,
1870061,Myles Jaye,RP,MIN,4000,0,0,0,19,30,
1870063,Warwick Saupold,RP,DET,4000,0,0,0,21,30,
1869437,Oliver Perez,RP,CLE,4000,0,0,0,22,30,
1869442,Dan Otero,RP,CLE,4000,0,0.75,0,22,30,
1869444,Neil Ramirez,RP,CLE,4000,0,0,0,22,30,
1869446,Danny Farquhar,RP,CWS,4000,0,0,0,3,30,Injured:1
1869468,Pat Valaika,1B/2B,COL,2500,0,0,0,211,284,
1869838,Franklyn Kilome,SP,PHI,4000,0,0,0,11,30,
1871309,Matt Strahm,RP,SD,4400,0,0,0,25,30,
1869706,Ian Clarkin,SP,CWS,4000,0,0,0,3,30,
1869814,Doug Fister,SP,TEX,4000,0,0,0,4,30,Injured:1
1869816,Connor Sadzeck,SP,TEX,4000,0,0,0,4,30,
1869903,Jordan Montgomery,SP,NYY,8500,0,0,0,20,30,Injured:1
1870175,Foster Griffin,SP,KC,4000,0,0,0,24,30,
1870177,Trevor Oaks,SP,KC,4000,0,0,0,24,30,
1870182,Tyler Duffey,SP,MIN,4000,0,0,0,19,30,
1870184,Zack Littell,SP,MIN,4000,0,0,0,19,30,
1870186,Kyle Funkhouser,SP,DET,4000,0,0,0,21,30,
1871258,Rich Hill,SP,LAD,6000,0,0,0,14,30,Injured:1
1873331,Raisel Iglesias,RP,CIN,4000,0,1.65,0,27,30,
1873242,Wei-Yin Chen,SP,MIA,5100,0,0,0,13,30,
1873244,Daniel Gossett,SP,OAK,5100,0,0,0,5,30,Injured:1
1873267,Derek Holland,SP,SF,4800,0,0,0,30,30,
1873269,Paul Blackburn,SP,OAK,4800,6.52,-19,0,5,30,Starter:1|VegasBad:1|PlayerMatchupIsHorribad:1|PlayerMatchupIsGreat:1|PlayerMatchupIsBad:1
1873276,Aaron Slegers,SP,MIN,4600,0,0,0,19,30,
1873278,Tom Koehler,SP,LAD,4600,0,0,0,14,30,Injured:1
1870892,Carlos Rodon,SP,CWS,7700,0,0,0,3,30,
1870899,Trevor Richards,SP,MIA,7600,0,0,0,13,30,
1870901,Nick Pivetta,SP,PHI,7500,15.84,2.65,0,11,30,Starter:1|PlayerMatchupIsHorribad:3|CrowdNegative:2|PlayerMatchupIsGreat:1|CrowdPositive:1|PlayerIsCold:1|VegasGood:1|StarGood:1
1871115,Corey Kluber,SP,CLE,13600,0,0,0,22,30,
1871233,Alec Hansen,SP,CWS,6500,0,0,0,3,30,
1871235,Cal Quantrill,SP,SD,6500,0,0,0,25,30,
1871420,Lance McCullers Jr.,SP,HOU,9600,0,0,0,17,30,
1871427,Ervin Santana,SP,MIN,9200,0,0,0,19,30,Injured:1
1871429,Caleb Smith,SP,MIA,9100,15.72,10.85,0,13,30,Starter:1|PlayerMatchupIsGreat:1|CrowdNegative:2|PlayerMatchupIsHorribad:2|ThumbDown:2
