Player,Team,Position,BatOrder,Opp,VAL,Trend,OWNPerc,MoneyLine,OverUnder,TeamTotalPts,Weather
Gerrit Cole (R) ,HOU ,P (SP) ,- ,@OAK (R) ,1.7,0,42.93,-210,7.5,3,W 7 MPH Out 
Trevor Bauer (R) ,CLE ,P (SP) ,- ,@CWS (R) ,1.67,0,25.09,-200,8.5,3.5,W 4 MPH L-R 
Jose Berrios (R) ,MIN ,P (SP) ,- ,@DET (L) ,1.59,0,22.93,-150,8.5,3.5,W 13 MPH Out 
Luke Weaver (R) ,STL ,P (SP) ,- ,SD (L) ,2.31,0,10.34,-200,8.5,3.5,W 8 MPH In 
Nick Pivetta (R) ,PHI ,P (SP) ,- ,COL (L) ,2.28,0,11.91,-130,8.5,3.5,W 10 MPH Out 
Sonny Gray (R) ,NYY ,P (SP) ,- ,WAS (R) ,2.44,0,2.5,-185,9.5,4,W 9 MPH R-L 
Tyler Mahle (R) ,CIN ,P (SP) ,- ,@KC (R) ,2.5,0,2.26,-125,9.5,5.5,W 8 MPH R-L 
Kenta Maeda (R) ,LAD ,P (SP) ,- ,TEX (L) ,1.75,0,0,-180,7.5,3,W 2 MPH Out 
Cole Hamels (L) ,TEX ,P (SP) ,- ,@LAD (R) ,1.94,0,0,150,7.5,4.5,W 2 MPH Out 
Tyler Anderson (L) ,COL ,P (SP) ,- ,@PHI (R) ,2.34,0,1.15,110,8.5,5,W 10 MPH Out 
Jason Hammel (R) ,KC ,P (SP) ,- ,CIN (R) ,2.54,0,2.61,105,9.5,4,W 8 MPH R-L 
Caleb Smith (L) ,MIA ,P (SP) ,- ,SF (L) ,1.41,0,9.18,-110,7.5,3,In Dome 
Matt Boyd (L) ,DET ,P (SP) ,- ,MIN (R) ,1.7,0,4.39,130,8.5,5,W 13 MPH Out 
Jose Ramirez (B) ,CLE ,3B ,3,@CWS (R) ,2.16,0.71,1.22,-200,8.5,5,W 4 MPH L-R 
Brian Dozier (R) ,MIN ,2B ,1,@DET (L) ,2.78,0.04,1.22,-150,8.5,5,W 13 MPH Out 
Francisco Lindor (B) ,CLE ,SS ,1,@CWS (R) ,2.16,0.58,1.22,-200,8.5,5,W 4 MPH L-R 
Tommy Pham (R) ,STL ,OF ,2,SD (L) ,2.39,-0.23,1.22,-200,8.5,5,W 8 MPH In 
Michael Brantley (L) ,CLE ,OF ,2,@CWS (R) ,2.25,0.68,1.22,-200,8.5,5,W 4 MPH L-R 
Edwin Encarnacion (R) ,CLE ,1B ,4,@CWS (R) ,2.1,0.95,1.22,-200,8.5,5,W 4 MPH L-R 
Rhys Hoskins (R) ,PHI ,OF ,2,COL (L) ,2.67,-0.13,1.22,-130,8.5,5,W 10 MPH Out 
Erick Fedde (R) ,WAS ,P (SP) ,- ,@NYY (R) ,1.77,0,4.17,155,9.5,5.5,W 9 MPH R-L 
Jose Martinez (R) ,STL ,1B ,3,SD (L) ,2.06,0.51,1.22,-200,8.5,5,W 8 MPH In 
Aaron Judge (R) ,NYY ,OF ,2,WAS (R) ,1.85,0.65,1.22,-185,9.5,5.5,W 9 MPH R-L 
Joey Votto (L) ,CIN ,1B ,3,@KC (R) ,2.19,0.45,1.22,-125,9.5,4,W 8 MPH R-L 
Andrew Suarez (L) ,SF ,P (SP) ,- ,@MIA (L) ,1.41,0,3.87,-110,7.5,4.5,In Dome 
Giancarlo Stanton (R) ,NYY ,OF ,4,WAS (R) ,1.94,0.7,1.22,-185,9.5,5.5,W 9 MPH R-L 
Charlie Blackmon (L) ,COL ,OF ,2,@PHI (R) ,1.83,0.03,1.22,110,8.5,3.5,W 10 MPH Out 
Yonder Alonso (L) ,CLE ,1B ,5,@CWS (R) ,2.65,0.65,1.22,-200,8.5,5,W 4 MPH L-R 
Marcell Ozuna (R) ,STL ,OF ,4,SD (L) ,2.36,0.51,1.22,-200,8.5,5,W 8 MPH In 
Eric Lauer (L) ,SD ,P (SP) ,- ,@STL (R) ,2.19,0,1.22,170,8.5,5,W 8 MPH In 
Trea Turner (R) ,WAS ,SS ,2,@NYY (R) ,2.14,-0.88,1.22,155,9.5,4,W 9 MPH R-L 
Bryce Harper (L) ,WAS ,OF ,3,@NYY (R) ,1.74,-0.82,1.22,155,9.5,4,W 9 MPH R-L 
Eddie Rosario (L) ,MIN ,OF ,2,@DET (L) ,1.99,0.22,1.22,-150,8.5,5,W 13 MPH Out 
Jose Altuve (R) ,HOU ,2B ,? ,@OAK (R) ,1.86,0.51,1.22,-210,7.5,4.5,W 7 MPH Out 
Jason Kipnis (L) ,CLE ,2B ,7,@CWS (R) ,2.58,0.19,1.22,-200,8.5,5,W 4 MPH L-R 
Miguel Sano (R) ,MIN ,1B (1B/3B) ,4,@DET (L) ,2.37,-0.27,1.22,-150,8.5,5,W 13 MPH Out 
Joey Gallo (L) ,TEX ,1B (1B/OF) ,? ,@LAD (R) ,2.42,-0.14,0,150,7.5,3,W 2 MPH Out 
Paul Blackburn (R) ,OAK ,P (SP) ,- ,HOU (R) ,1.91,0,7.94,175,7.5,4.5,W 7 MPH Out 
Didi Gregorius (L) ,NYY ,SS ,3,WAS (R) ,2.23,0.29,1.22,-185,9.5,5.5,W 9 MPH R-L 
Jedd Gyorko (R) ,STL ,2B (2B/3B) ,6,SD (L) ,2.66,-0.13,1.22,-200,8.5,5,W 8 MPH In 
Lewis Brinson (R) ,MIA ,OF ,6,SF (L) ,3.22,-0.26,1.22,-110,7.5,4.5,In Dome 
Nolan Arenado (R) ,COL ,3B ,3,@PHI (R) ,1.84,0.09,1.22,110,8.5,3.5,W 10 MPH Out 
Scott Schebler (L) ,CIN ,OF ,1,@KC (R) ,2.09,0.51,1.22,-125,9.5,4,W 8 MPH R-L 
Eduardo Escobar (B) ,MIN ,3B (3B/SS) ,3,@DET (L) ,2.03,0.46,1.22,-150,8.5,5,W 13 MPH Out 
Yoan Moncada (B) ,CWS ,2B ,1,CLE (R) ,2.47,-0.26,1.22,170,8.5,3.5,W 4 MPH L-R 
Carlos Correa (R) ,HOU ,SS ,? ,@OAK (R) ,1.97,0.01,1.22,-210,7.5,4.5,W 7 MPH Out 
Matt Olson (L) ,OAK ,1B ,? ,HOU (R) ,2.26,0.16,1.22,175,7.5,3,W 7 MPH Out 
Aaron Altherr (R) ,PHI ,OF ,5,COL (L) ,2.73,-0.23,1.22,-130,8.5,5,W 10 MPH Out 
Melky Cabrera (B) ,CLE ,OF ,6,@CWS (R) ,2.49,0.19,1.22,-200,8.5,5,W 4 MPH L-R 
Shin-Soo Choo (L) ,TEX ,OF ,? ,@LAD (R) ,2.17,0.45,0,150,7.5,3,W 2 MPH Out 
Ehire Adrianza (B) ,MIN ,SS ,7,@DET (L) ,2.99,0.22,1.22,-150,8.5,5,W 13 MPH Out 
Brett Gardner (L) ,NYY ,OF ,1,WAS (R) ,1.96,0.81,1.22,-185,9.5,5.5,W 9 MPH R-L 
Scooter Gennett (L) ,CIN ,2B ,4,@KC (R) ,1.83,0.51,1.22,-125,9.5,4,W 8 MPH R-L 
Chris Taylor (R) ,LAD ,OF (OF/SS) ,1,TEX (L) ,2,0.15,1.22,-180,7.5,4.5,W 2 MPH Out 
Khris Davis (R) ,OAK ,OF ,? ,HOU (R) ,2.04,0.2,1.22,175,7.5,3,W 7 MPH Out 
Alex Bregman (R) ,HOU ,3B ,? ,@OAK (R) ,1.99,0.51,1.22,-210,7.5,4.5,W 7 MPH Out 
Buster Posey (R) ,SF ,1B (1B/C) ,2,@MIA (L) ,2.19,0.16,1.22,-110,7.5,3,In Dome 
George Springer (R) ,HOU ,OF ,? ,@OAK (R) ,1.74,0.51,1.22,-210,7.5,4.5,W 7 MPH Out 
Adam Duvall (R) ,CIN ,OF ,7,@KC (R) ,2.65,0.01,1.22,-125,9.5,4,W 8 MPH R-L 
Greg Bird (L) ,NYY ,1B ,7,WAS (R) ,2.15,0.33,1.22,-185,9.5,5.5,W 9 MPH R-L 
Andrew McCutchen (R) ,SF ,OF ,3,@MIA (L) ,1.99,0.46,1.22,-110,7.5,3,In Dome 
Logan Morrison (L) ,MIN ,1B ,6,@DET (L) ,2.7,-0.26,1.22,-150,8.5,5,W 13 MPH Out 
Scott Kingery (R) ,PHI ,3B (3B/SS) ,3,COL (L) ,2.59,-0.39,1.22,-130,8.5,5,W 10 MPH Out 
Justin Turner (R) ,LAD ,3B ,2,TEX (L) ,2.24,-0.28,1.22,-180,7.5,4.5,W 2 MPH Out 
Jesse Winker (L) ,CIN ,OF ,6,@KC (R) ,2.43,0.17,1.22,-125,9.5,4,W 8 MPH R-L 
Jose Abreu (R) ,CWS ,1B ,3,CLE (R) ,2.17,0.21,1.22,170,8.5,3.5,W 4 MPH L-R 
Cesar Hernandez (B) ,PHI ,2B ,1,COL (L) ,2.11,0.14,1.22,-130,8.5,5,W 10 MPH Out 
Starlin Castro (R) ,MIA ,2B ,1,SF (L) ,2.22,0.06,1.22,-110,7.5,4.5,In Dome 
Carlos Santana (B) ,PHI ,1B ,4,COL (L) ,2.14,0.41,1.22,-130,8.5,5,W 10 MPH Out 
Eugenio Suarez (R) ,CIN ,3B ,5,@KC (R) ,1.69,0.41,1.22,-125,9.5,4,W 8 MPH R-L 
Cody Bellinger (L) ,LAD ,1B (1B/OF) ,5,TEX (L) ,1.97,0.31,1.22,-180,7.5,4.5,W 2 MPH Out 
Josh Reddick (L) ,HOU ,OF ,? ,@OAK (R) ,2.36,-0.28,1.22,-210,7.5,4.5,W 7 MPH Out 
Adrian Beltre (R) ,TEX ,3B ,? ,@LAD (R) ,2.42,0.07,0,150,7.5,3,W 2 MPH Out 
Carlos Gonzalez (L) ,COL ,OF ,4,@PHI (R) ,1.94,0.11,1.22,110,8.5,3.5,W 10 MPH Out 
Harrison Bader (R) ,STL ,OF ,1,SD (L) ,2.15,-0.06,1.22,-200,8.5,5,W 8 MPH In 
Delino DeShields Jr. (R) ,TEX ,OF ,? ,@LAD (R) ,2.48,-0.28,0,150,7.5,3,W 2 MPH Out 
Aaron Hicks (B) ,NYY ,OF ,5,WAS (R) ,2.03,0.64,1.22,-185,9.5,5.5,W 9 MPH R-L 
Yadier Molina (R) ,STL ,C ,5,SD (L) ,2.26,-0.17,1.22,-200,8.5,5,W 8 MPH In 
Matt Kemp (R) ,LAD ,OF ,3,TEX (L) ,1.84,0.19,1.22,-180,7.5,4.5,W 2 MPH Out 
Billy Hamilton (B) ,CIN ,OF ,9,@KC (R) ,2.54,-0.39,1.22,-125,9.5,4,W 8 MPH R-L 
Daniel Murphy (L) ,WAS ,2B ,5,@NYY (R) ,1.74,-0.78,1.22,155,9.5,4,W 9 MPH R-L 
Dustin Fowler (L) ,OAK ,OF ,? ,HOU (R) ,2.06,0.01,1.22,175,7.5,3,W 7 MPH Out 
Rougned Odor (L) ,TEX ,2B ,? ,@LAD (R) ,2.52,-0.39,0,150,7.5,3,W 2 MPH Out 
J.T. Realmuto (R) ,MIA ,C ,3,SF (L) ,1.95,0.45,1.22,-110,7.5,4.5,In Dome 
Jose Peraza (R) ,CIN ,SS ,2,@KC (R) ,2.28,-0.3,1.22,-125,9.5,4,W 8 MPH R-L 
Matt Adams (L) ,WAS ,1B (1B/OF) ,6,@NYY (R) ,2.03,-0.53,1.22,155,9.5,4,W 9 MPH R-L 
Eric Hosmer (L) ,SD ,1B ,3,@STL (R) ,1.83,0.2,1.22,170,8.5,3.5,W 8 MPH In 
Robbie Grossman (B) ,MIN ,OF ,5,@DET (L) ,2.85,-0.15,1.22,-150,8.5,5,W 13 MPH Out 
Yasiel Puig (R) ,LAD ,OF ,6,TEX (L) ,1.97,0.35,1.22,-180,7.5,4.5,W 2 MPH Out 
Cameron Maybin (R) ,MIA ,OF ,4,SF (L) ,2.74,-0.45,1.22,-110,7.5,4.5,In Dome 
Anthony Rendon (R) ,WAS ,3B ,4,@NYY (R) ,1.91,-0.67,1.22,155,9.5,4,W 9 MPH R-L 
Maikel Franco (R) ,PHI ,3B ,6,COL (L) ,2.32,-0.34,1.22,-130,8.5,5,W 10 MPH Out 
Trevor Story (R) ,COL ,SS ,5,@PHI (R) ,1.66,0.45,1.22,110,8.5,3.5,W 10 MPH Out 
Yulieski Gurriel (R) ,HOU ,1B ,? ,@OAK (R) ,2.1,-0.01,1.22,-210,7.5,4.5,W 7 MPH Out 
Marcus Semien (R) ,OAK ,SS ,? ,HOU (R) ,2.28,-0.45,1.22,175,7.5,3,W 7 MPH Out 
Brian Anderson (R) ,MIA ,3B (3B/OF) ,2,SF (L) ,1.88,0.45,1.22,-110,7.5,4.5,In Dome 
DJ LeMahieu (R) ,COL ,2B ,1,@PHI (R) ,1.74,-0.05,1.22,110,8.5,3.5,W 10 MPH Out 
Adam Eaton (L) ,WAS ,OF ,1,@NYY (R) ,1.66,-0.54,1.22,155,9.5,4,W 9 MPH R-L 
Justin Bour (L) ,MIA ,1B ,5,SF (L) ,2.33,0.21,1.22,-110,7.5,4.5,In Dome 
Evan Longoria (R) ,SF ,3B ,4,@MIA (L) ,2.07,-0.17,1.22,-110,7.5,3,In Dome 
Mike Moustakas (L) ,KC ,3B ,2,CIN (R) ,1.81,0.5,1.22,105,9.5,5.5,W 8 MPH R-L 
Bobby Wilson (R) ,MIN ,C ,9,@DET (L) ,2.73,0,1.22,-150,8.5,5,W 13 MPH Out 
Enrique Hernandez (R) ,LAD ,2B (2B/OF) ,4,TEX (L) ,2.23,-0.17,1.22,-180,7.5,4.5,W 2 MPH Out 
Greg Allen (B) ,CLE ,OF ,9,@CWS (R) ,2.23,0.1,1.22,-200,8.5,5,W 4 MPH L-R 
Stephen Piscotty (R) ,OAK ,OF ,? ,HOU (R) ,2.6,-0.32,1.22,175,7.5,3,W 7 MPH Out 
Whit Merrifield (R) ,KC ,2B (2B/OF) ,1,CIN (R) ,1.92,0.65,1.22,105,9.5,5.5,W 8 MPH R-L 
Austin Barnes (R) ,LAD ,2B (2B/C) ,8,TEX (L) ,2.42,-0.13,1.22,-180,7.5,4.5,W 2 MPH Out 
Juan Soto (L) ,WAS ,OF ,7,@NYY (R) ,1.72,-0.25,1.22,155,9.5,4,W 9 MPH R-L 
Logan Forsythe (R) ,LAD ,2B (2B/3B) ,7,TEX (L) ,2.41,-0.26,1.22,-180,7.5,4.5,W 2 MPH Out 
Gerardo Parra (L) ,COL ,OF ,6,@PHI (R) ,2.24,0.06,1.22,110,8.5,3.5,W 10 MPH Out 
Nick Castellanos (R) ,DET ,OF ,2,MIN (R) ,1.79,0.1,1.22,130,8.5,3.5,W 13 MPH Out 
Evan Gattis (R) ,HOU ,C ,? ,@OAK (R) ,1.93,0.08,1.22,-210,7.5,4.5,W 7 MPH Out 
Jed Lowrie (B) ,OAK ,2B ,? ,HOU (R) ,1.98,-0.22,1.22,175,7.5,3,W 7 MPH Out 
Roberto Perez (R) ,CLE ,C ,8,@CWS (R) ,2.64,0.1,1.22,-200,8.5,5,W 4 MPH L-R 
Travis Jankowski (L) ,SD ,OF ,1,@STL (R) ,1.82,-0.09,1.22,170,8.5,3.5,W 8 MPH In 
Brian McCann (L) ,HOU ,C ,? ,@OAK (R) ,2.28,-0.39,1.22,-210,7.5,4.5,W 7 MPH Out 
Ian Desmond (R) ,COL ,1B (1B/OF) ,7,@PHI (R) ,1.9,0.13,1.22,110,8.5,3.5,W 10 MPH Out 
Austin Jackson (R) ,SF ,OF ,7,@MIA (L) ,2.27,-0.08,1.22,-110,7.5,3,In Dome 
Jurickson Profar (B) ,TEX ,SS ,? ,@LAD (R) ,2,0.2,0,150,7.5,3,W 2 MPH Out 
Cory Spangenberg (L) ,SD ,3B (3B/OF) ,2,@STL (R) ,2.11,-0.02,1.22,170,8.5,3.5,W 8 MPH In 
Gleyber Torres (R) ,NYY ,2B ,9,WAS (R) ,1.74,0.68,1.22,-185,9.5,5.5,W 9 MPH R-L 
Yolmer Sanchez (B) ,CWS ,3B ,2,CLE (R) ,2.11,-0.05,1.22,170,8.5,3.5,W 4 MPH L-R 
Robinson Chirinos (R) ,TEX ,C ,? ,@LAD (R) ,2.31,-0.13,0,150,7.5,3,W 2 MPH Out 
Leonys Martin (L) ,DET ,OF ,1,MIN (R) ,1.57,0.28,1.22,130,8.5,3.5,W 13 MPH Out 
Christian Villanueva (R) ,SD ,3B ,4,@STL (R) ,1.72,-0.27,1.22,170,8.5,3.5,W 8 MPH In 
Tim Anderson (R) ,CWS ,SS ,6,CLE (R) ,1.96,-0.12,1.22,170,8.5,3.5,W 4 MPH L-R 
Miguel Andujar (R) ,NYY ,3B ,6,WAS (R) ,1.63,1,1.22,-185,9.5,5.5,W 9 MPH R-L 
Brandon Crawford (L) ,SF ,SS ,5,@MIA (L) ,1.61,0.51,1.22,-110,7.5,3,In Dome 
Mark Canha (R) ,OAK ,OF ,? ,HOU (R) ,2.25,-0.02,1.22,175,7.5,3,W 7 MPH Out 
Yairo Munoz (R) ,STL ,3B (3B/SS) ,7,SD (L) ,1.92,-0.07,1.22,-200,8.5,5,W 8 MPH In 
Joe Panik (L) ,SF ,2B ,1,@MIA (L) ,2.08,-0.31,1.22,-110,7.5,3,In Dome 
Miguel Rojas (R) ,MIA ,3B (3B/SS) ,7,SF (L) ,2.34,-0.45,1.22,-110,7.5,4.5,In Dome 
Gorkys Hernandez (R) ,SF ,OF ,8,@MIA (L) ,1.81,0.33,1.22,-110,7.5,3,In Dome 
Manuel Margot (R) ,SD ,OF ,7,@STL (R) ,2.1,-0.09,1.22,170,8.5,3.5,W 8 MPH In 
Tom Murphy (R) ,COL ,C ,8,@PHI (R) ,2.41,0,1.22,110,8.5,3.5,W 10 MPH Out 
Jorge Alfaro (R) ,PHI ,C ,8,COL (L) ,2.17,-0.25,1.22,-130,8.5,5,W 10 MPH Out 
Kolten Wong (L) ,STL ,2B ,8,SD (L) ,2.31,-0.15,1.22,-200,8.5,5,W 8 MPH In 
Salvador Perez (R) ,KC ,C ,3,CIN (R) ,1.69,0.42,1.22,105,9.5,5.5,W 8 MPH R-L 
Jonathan Lucroy (R) ,OAK ,C ,? ,HOU (R) ,2.37,-0.13,1.22,175,7.5,3,W 7 MPH Out 
Niko Goodrum (B) ,DET ,1B (1B/OF) ,6,MIN (R) ,1.93,-0.08,1.22,130,8.5,3.5,W 13 MPH Out 
Hunter Dozier (R) ,KC ,1B ,6,CIN (R) ,2.2,0.16,1.22,105,9.5,5.5,W 8 MPH R-L 
Jeimer Candelario (B) ,DET ,3B ,3,MIN (R) ,1.58,0.16,1.22,130,8.5,3.5,W 13 MPH Out 
Freddy Galvis (B) ,SD ,SS ,5,@STL (R) ,2.33,-0.25,1.22,170,8.5,3.5,W 8 MPH In 
Jorge Soler (R) ,KC ,OF ,4,CIN (R) ,1.69,0.47,1.22,105,9.5,5.5,W 8 MPH R-L 
Daniel Palka (L) ,CWS ,OF ,4,CLE (R) ,1.82,-0.08,1.22,170,8.5,3.5,W 4 MPH L-R 
Charlie Tilson (L) ,CWS ,OF ,7,CLE (R) ,2.25,-0.37,1.22,170,8.5,3.5,W 4 MPH L-R 
Kevan Smith (R) ,CWS ,C ,5,CLE (R) ,2.17,0.35,1.22,170,8.5,3.5,W 4 MPH L-R 
Nick Hundley (R) ,SF ,C ,6,@MIA (L) ,1.78,0.29,1.22,-110,7.5,3,In Dome 
Franmil Reyes (R) ,SD ,OF ,6,@STL (R) ,1.77,-0.19,1.22,170,8.5,3.5,W 8 MPH In 
Alex Gordon (L) ,KC ,OF ,5,CIN (R) ,2,0.35,1.22,105,9.5,5.5,W 8 MPH R-L 
Victor Martinez (B) ,DET ,1B ,4,MIN (R) ,2.07,-0.39,1.22,130,8.5,3.5,W 13 MPH Out 
Wilmer Difo (B) ,WAS ,2B (2B/3B) ,8,@NYY (R) ,2.04,-1.09,1.22,155,9.5,4,W 9 MPH R-L 
Ronald Guzman (L) ,TEX ,1B ,? ,@LAD (R) ,1.71,0.11,0,150,7.5,3,W 2 MPH Out 
Trayce Thompson (R) ,CWS ,OF ,9,CLE (R) ,2.14,-0.37,1.22,170,8.5,3.5,W 4 MPH L-R 
Grayson Greiner (R) ,DET ,C ,7,MIN (R) ,2.14,0,1.22,130,8.5,3.5,W 13 MPH Out 
Curt Casali (R) ,CIN ,C ,8,@KC (R) ,2.06,0.51,1.22,-125,9.5,4,W 8 MPH R-L 
Paulo Orlando (R) ,KC ,OF ,8,CIN (R) ,2.38,0.1,1.22,105,9.5,5.5,W 8 MPH R-L 
Austin Romine (R) ,NYY ,C ,8,WAS (R) ,1.59,1,1.22,-185,9.5,5.5,W 9 MPH R-L 
Adam Engel (R) ,CWS ,OF ,8,CLE (R) ,2.12,0.07,1.22,170,8.5,3.5,W 4 MPH L-R 
John Hicks (R) ,DET ,1B (1B/C) ,5,MIN (R) ,1.89,0.04,1.22,130,8.5,3.5,W 13 MPH Out 
Ryan LaMarre (R) ,MIN ,OF ,8,@DET (L) ,2.07,-0.3,1.22,-150,8.5,5,W 13 MPH Out 
Dylan Covey (R) ,CWS ,P (SP) ,- ,CLE (R) ,1.01,0,1.79,170,8.5,5,W 4 MPH L-R 
Spencer Kieboom (R) ,WAS ,C ,9,@NYY (R) ,2.21,0,1.22,155,9.5,4,W 9 MPH R-L 
Tony Kemp (L) ,HOU ,OF ,? ,@OAK (R) ,1.65,0.09,1.22,-210,7.5,4.5,W 7 MPH Out 
Jose Iglesias (R) ,DET ,SS ,8,MIN (R) ,1.75,-0.04,1.22,130,8.5,3.5,W 13 MPH Out 
Alcides Escobar (R) ,KC ,SS ,7,CIN (R) ,2,0.1,1.22,105,9.5,5.5,W 8 MPH R-L 
Victor Reyes (B) ,DET ,OF ,9,MIN (R) ,1.84,0.03,1.22,130,8.5,3.5,W 13 MPH Out 
Jesmuel Valentin (B) ,PHI ,2B (2B/SS) ,7,COL (L) ,2.3,-0.39,1.22,-130,8.5,5,W 10 MPH Out 
Ramon Torres (B) ,KC ,2B (2B/3B) ,9,CIN (R) ,1.93,0.1,1.22,105,9.5,5.5,W 8 MPH R-L 
Raffy Lopez (L) ,SD ,C ,8,@STL (R) ,1.9,-0.32,1.22,170,8.5,3.5,W 8 MPH In 
Yadiel Rivera (R) ,MIA ,3B (3B/SS) ,8,SF (L) ,1.85,-0.25,1.22,-110,7.5,4.5,In Dome 
Marwin Gonzalez (B) ,HOU ,1B (1B/OF) ,? ,@OAK (R) ,0.69,0.1,1.22,-210,7.5,4.5,W 7 MPH Out 
Chad Pinder (R) ,OAK ,OF ,? ,HOU (R) ,0.73,-0.27,1.22,175,7.5,3,W 7 MPH Out 
Max Stassi (R) ,HOU ,C ,? ,@OAK (R) ,0.59,-0.03,1.22,-210,7.5,4.5,W 7 MPH Out 
Isiah Kiner-Falefa (R) ,TEX ,2B (2B/3B) ,? ,@LAD (R) ,0.68,-0.37,0,150,7.5,3,W 2 MPH Out 
Carlos Perez (R) ,TEX ,C ,? ,@LAD (R) ,0.8,-0.36,0,150,7.5,3,W 2 MPH Out 
Jake Marisnick (R) ,HOU ,OF ,? ,@OAK (R) ,0.54,-0.39,1.22,-210,7.5,4.5,W 7 MPH Out 
Josh Phegley (R) ,OAK ,C ,? ,HOU (R) ,0.52,-0.45,1.22,175,7.5,3,W 7 MPH Out 
Carlos Tocci (R) ,TEX ,OF ,? ,@LAD (R) ,0.41,-0.45,0,150,7.5,3,W 2 MPH Out 
Jake Smolinski (R) ,OAK ,OF ,? ,HOU (R) ,0.27,-0.39,1.22,175,7.5,3,W 7 MPH Out 
Matt Carpenter (L) ,STL ,2B (2B/3B) ,OUT ,SD (L) ,0,0.33,0,-200,8.5,5,W 8 MPH In 
Dexter Fowler (B) ,STL ,OF ,OUT ,SD (L) ,0,-0.39,0,-200,8.5,5,W 8 MPH In 
Max Kepler (L) ,MIN ,OF ,OUT ,@DET (L) ,0,-0.06,0,-150,8.5,5,W 13 MPH Out 
Rajai Davis (R) ,CLE ,OF ,OUT ,@CWS (R) ,0,0.32,0,-200,8.5,5,W 4 MPH L-R 
Gary Sanchez (R) ,NYY ,C ,OUT ,WAS (R) ,0,0.21,0,-185,9.5,5.5,W 9 MPH R-L 
Lonnie Chisenhall (L) ,CLE ,OF ,OUT ,@CWS (R) ,0,0.7,0,-200,8.5,5,W 4 MPH L-R 
Yan Gomes (R) ,CLE ,C ,OUT ,@CWS (R) ,0,0.63,0,-200,8.5,5,W 4 MPH L-R 
Ryan McMahon (L) ,COL ,1B ,OUT ,@PHI (R) ,0,-0.45,0,110,8.5,3.5,W 10 MPH Out 
Neil Walker (B) ,NYY ,1B (1B/2B) ,OUT ,WAS (R) ,0,0.19,0,-185,9.5,5.5,W 9 MPH R-L 
Jose Pirela (R) ,SD ,2B (2B/OF) ,OUT ,@STL (R) ,0,-0.08,0,170,8.5,3.5,W 8 MPH In 
Brandon Dixon (R) ,CIN ,2B ,OUT ,@KC (R) ,0,-0.33,0,-125,9.5,4,W 8 MPH R-L 
Brian Goodwin (L) ,WAS ,OF ,OUT ,@NYY (R) ,0,-1.06,0,155,9.5,4,W 9 MPH R-L 
Abraham Almonte (B) ,KC ,OF ,OUT ,CIN (R) ,0,0.1,0,105,9.5,5.5,W 8 MPH R-L 
Chris Iannetta (R) ,COL ,C ,OUT ,@PHI (R) ,0,-0.05,0,110,8.5,3.5,W 10 MPH Out 
Joc Pederson (L) ,LAD ,OF ,OUT ,TEX (L) ,0,0.43,1.22,-180,7.5,4.5,W 2 MPH Out 
Tyler Austin (R) ,NYY ,1B ,OUT ,WAS (R) ,0,0.22,0,-185,9.5,5.5,W 9 MPH R-L 
Francisco Pena (R) ,STL ,C ,OUT ,SD (L) ,0,-0.33,0,-200,8.5,5,W 8 MPH In 
Ronny Rodriguez (R) ,DET ,3B (3B/SS) ,OUT ,MIN (R) ,0,0,0,130,8.5,3.5,W 13 MPH Out 
JaCoby Jones (R) ,DET ,OF ,OUT ,MIN (R) ,0,-0.39,0,130,8.5,3.5,W 13 MPH Out 
Derek Dietrich (L) ,MIA ,OF ,OUT ,SF (L) ,0,0.45,0,-110,7.5,4.5,In Dome 
Dixon Machado (R) ,DET ,2B ,OUT ,MIN (R) ,0,-0.39,0,130,8.5,3.5,W 13 MPH Out 
Pedro Severino (R) ,WAS ,C ,OUT ,@NYY (R) ,0,-1.15,0,155,9.5,4,W 9 MPH R-L 
Breyvic Valera (B) ,LAD ,2B (2B/SS) ,OUT ,TEX (L) ,0,-0.33,1.22,-180,7.5,4.5,W 2 MPH Out 
Ronald Torreyes (R) ,NYY ,2B (2B/3B) ,OUT ,WAS (R) ,0,0.52,0,-185,9.5,5.5,W 9 MPH R-L 
Yasmani Grandal (B) ,LAD ,C ,OUT ,TEX (L) ,0,-0.02,1.22,-180,7.5,4.5,W 2 MPH Out 
Mitch Garver (R) ,MIN ,C ,OUT ,@DET (L) ,0,-0.26,0,-150,8.5,5,W 13 MPH Out 
Odubel Herrera (L) ,PHI ,OF ,OUT ,COL (L) ,0,-0.12,0,-130,8.5,5,W 10 MPH Out 
Michael Taylor (R) ,WAS ,OF ,OUT ,@NYY (R) ,0,-0.62,0,155,9.5,4,W 9 MPH R-L 
Max Muncy (L) ,LAD ,1B (1B/3B) ,OUT ,TEX (L) ,0,0.51,1.22,-180,7.5,4.5,W 2 MPH Out 
Jake Cave (L) ,MIN ,OF ,OUT ,@DET (L) ,0,0,0,-150,8.5,5,W 13 MPH Out 
Matt Davidson (R) ,CWS ,1B (1B/3B) ,OUT ,CLE (R) ,0,0.05,0,170,8.5,3.5,W 4 MPH L-R 
Erik Gonzalez (R) ,CLE ,2B (2B/3B) ,OUT ,@CWS (R) ,0,1,0,-200,8.5,5,W 4 MPH L-R 
Mark Reynolds (R) ,WAS ,1B ,OUT ,@NYY (R) ,0,-0.67,0,155,9.5,4,W 9 MPH R-L 
Nick Williams (L) ,PHI ,OF ,OUT ,COL (L) ,0,-0.1,0,-130,8.5,5,W 10 MPH Out 
J.P. Crawford (L) ,PHI ,3B (3B/SS) ,OUT ,COL (L) ,0,-0.15,0,-130,8.5,5,W 10 MPH Out 
Hunter Pence (R) ,SF ,OF ,OUT ,@MIA (L) ,0,-0.15,0,-110,7.5,3,In Dome 
Tucker Barnhart (B) ,CIN ,C ,OUT ,@KC (R) ,0,-0.19,0,-125,9.5,4,W 8 MPH R-L 
Matt Chapman (R) DTD ,OAK ,3B ,? ,HOU (R) ,0,0.23,0,175,7.5,3,W 7 MPH Out 
Nomar Mazara (L) DTD ,TEX ,OF ,? ,@LAD (R) ,0,0.07,0,150,7.5,3,W 2 MPH Out 
Hunter Renfroe (R) ,SD ,OF ,OUT ,@STL (R) ,0,0.11,0,170,8.5,3.5,W 8 MPH In 
Alex Blandino (R) ,CIN ,2B (2B/3B) ,OUT ,@KC (R) ,0,-0.25,0,-125,9.5,4,W 8 MPH R-L 
Noel Cuevas (R) ,COL ,OF ,OUT ,@PHI (R) ,0,-0.14,0,110,8.5,3.5,W 10 MPH Out 
JT Riddle (L) ,MIA ,SS ,OUT ,SF (L) ,0,-0.39,0,-110,7.5,4.5,In Dome 
Jose Rondon (R) ,CWS ,2B (2B/SS) ,OUT ,CLE (R) ,0,0.14,0,170,8.5,3.5,W 4 MPH L-R 
Alen Hanson (B) ,SF ,2B ,OUT ,@MIA (L) ,0,0.51,0,-110,7.5,3,In Dome 
Bryan Holaday (R) ,MIA ,C ,OUT ,SF (L) ,0,-0.45,0,-110,7.5,4.5,In Dome 
Chase Utley (L) DL-10 ,LAD ,2B ,OUT ,TEX (L) ,0,-0.26,0,-180,7.5,4.5,W 2 MPH Out 
J.B. Shuck (L) ,MIA ,OF ,OUT ,SF (L) ,0,-0.35,0,-110,7.5,4.5,In Dome 
Greg Garcia (L) ,STL ,2B (2B/SS) ,OUT ,SD (L) ,0,-0.04,0,-200,8.5,5,W 8 MPH In 
Tony Wolters (L) ,COL ,C ,OUT ,@PHI (R) ,0,-0.39,0,110,8.5,3.5,W 10 MPH Out 
Ryan Goins (L) ,KC ,2B ,OUT ,CIN (R) ,0,0.1,0,105,9.5,5.5,W 8 MPH R-L 
Matt Szczur (R) ,SD ,OF ,OUT ,@STL (R) ,0,-0.28,0,170,8.5,3.5,W 8 MPH In 
Andrew Knapp (B) ,PHI ,C ,OUT ,COL (L) ,0,-0.36,0,-130,8.5,5,W 10 MPH Out 
Mac Williamson (R) ,SF ,OF ,OUT ,@MIA (L) ,0,-0.14,0,-110,7.5,3,In Dome 
A.J. Ellis (R) ,SD ,C ,OUT ,@STL (R) ,0,0.21,0,170,8.5,3.5,W 8 MPH In 
Drew Butera (R) ,KC ,C ,OUT ,CIN (R) ,0,0.1,0,105,9.5,5.5,W 8 MPH R-L 
Omar Narvaez (L) ,CWS ,C ,OUT ,CLE (R) ,0,-0.34,0,170,8.5,3.5,W 4 MPH L-R 
Pablo Sandoval (B) ,SF ,1B (1B/3B) ,OUT ,@MIA (L) ,0,0.45,0,-110,7.5,3,In Dome 
