Id,Name,Position,Team,Salary,Projected,Scored,Override,OppRank,OppRankTotal,Alerts
1800066,Jesse Winker,OF,CIN,3700,0,0,0,78,283,
1800067,Adam Jones,OF,BAL,3700,7.77,8,0,64,283,Starter:1|LineupSpot2:1|PlayerMatchupIsHorribad:1|VegasGood:1
1800080,Brett Phillips,OF,MIL,3600,0,0,0,54,283,
1800081,Hunter Renfroe,OF,SD,3600,9.63,5,0,73,283,Starter:1|LineupSpot4:1|PlayerMatchupIsHorribad:2|PlayerMatchupIsGreat:2|VegasGood:1|StarGood:1
1800098,Billy Hamilton,OF,CIN,3400,6.72,3,0,78,283,Starter:1|LineupSpot9:1|PlayerMatchupIsHorribad:1|PlayerMatchupIsGreat:1|ThumbDown:1
1800099,Dwight Smith Jr.,OF,TOR,3400,0,0,0,22,283,
1800413,Nelson Cruz,OF,SEA,4200,8.76,5,0,167,283,Starter:1|LineupSpot4:1|PlayerMatchupIsGreat:2|PlayerMatchupIsHorribad:1
1800414,Nicholas Castellanos,OF,DET,4200,10.09,7,0,177,283,Starter:1|LineupSpot2:1|PlayerMatchupIsGreat:3|PlayerIsCold:1
1800427,Nomar Mazara,OF,TEX,4000,7.97,0,0,206,283,Starter:1|LineupSpot4:1|PlayerMatchupIsGreat:1|PlayerMatchupIsHorribad:2|PlayerIsCold:1
1800428,Ian Happ,OF,CHC,4000,0,0,0,155,283,Injured:1
1800431,Brandon Nimmo,OF,NYM,3900,6.04,4,0,38,283,Starter:1|LineupSpot1:1|PlayerMatchupIsHorribad:1|VegasGood:1
1800447,Austin Hays,OF,BAL,3300,0,0,0,64,283,
1800465,Yasmany Tomas,OF,ARI,3100,0,0,0,234,283,
1800466,Taylor Trammell,OF,CIN,3100,0,0,0,78,283,
1800624,Corey Knebel,RP,MIL,4000,0,0,0,23,30,
1800625,Taylor Williams,RP,MIL,4000,0,4.25,0,23,30,
1800641,Miguel Diaz,RP,SD,4000,0,0,0,30,30,
1800644,Brian Ellington,RP,MIA,4000,0,0,0,29,30,Injured:1
1800676,Enny Romero,RP,PIT,4000,0,0,0,4,30,Injured:1
1800677,Felipe Vazquez,RP,PIT,4000,0,0,0,4,30,Injured:1
1800743,David Robertson,RP,NYY,4000,0,0,0,3,30,
1800746,Ken Giles,RP,HOU,4000,0,3.65,0,1,30,
1800760,Sergio Romo,RP,TB,4000,0,2.9,0,17,30,
1800761,Chaz Roe,RP,TB,4000,0,0,0,17,30,
1800778,Mookie Betts,OF,BOS,6000,0,0,0,157,283,Injured:1
1800779,Mike Trout,OF,LAA,5800,12.72,14,0,147,283,Starter:1|LineupSpot2:1|PlayerMatchupIsHorribad:1|PlayerMatchupIsGreat:2|VegasGood:1
1800360,Daniel Gossett,SP,OAK,4300,0,0,0,12,30,
1800361,Homer Bailey,SP,CIN,4200,2.87,-1.2,0,25,30,Starter:1|PlayerMatchupIsHorribad:1|CrowdNegative:1|CrowdPositive:2|PlayerMatchupIsGood:1|PlayerMatchupIsGreat:1|PlayerIsCold:1|VegasBad:1|StarGood:1|ThumbDown:2
1800375,Kyle Wright,SP,ATL,4000,0,0,0,24,30,
1800378,Brian Johnson,SP,BOS,4000,0,0,0,13,30,
1800392,Asher Wojciechowski,SP,BAL,4000,0,0,0,10,30,
1800393,Matthias Dietz,SP,BAL,4000,0,0,0,10,30,
1800553,Cionel Perez,SP,HOU,4000,0,0,0,1,30,
1800554,Brett Anderson,SP,OAK,4000,0,0,0,12,30,Injured:1
1800935,Austin Bibens-Dirkx,SP,TEX,4000,0,0,0,9,30,
1800967,Colin Rea,SP,SD,4000,0,0,0,30,30,Injured:1
1800968,Luis Perdomo,SP,SD,4000,0,0,0,30,30,Injured:1
1800986,Alex Avila,C,ARI,2600,0,0,0,201,283,
1800990,Carson Kelly,C,STL,2600,0,0,0,137,283,
1801003,Roberto Perez,C,CLE,2400,0,0,0,44,283,
1800117,Cameron Maybin,OF,MIA,3000,7.13,20,0,255,283,Starter:1|LineupSpot5:1|PlayerMatchupIsGreat:1|PlayerMatchupIsHorribad:2|StarGood:1
1800135,Estevan Florial,OF,NYY,2900,0,0,0,13,283,
1800136,Kevin Kiermaier,OF,TB,2900,0,0,0,171,283,Injured:1
1800150,Chad Huffman,OF,DET,2800,0,0,0,177,283,
1800489,Mason Williams,OF,CIN,3000,0,0,0,78,283,
1800490,Socrates Brito,OF,ARI,3000,7.43,7,0,201,283,Starter:1|LineupSpot7:1|PlayerMatchupIsGreat:2|PlayerMatchupIsHorribad:2
1800843,Peter Bourjos,OF,ATL,2600,0,0,0,49,283,
1800844,Juan Lagares,OF,NYM,2600,0,0,0,201,283,Injured:1
1800858,Chris Young,OF,LAA,2400,5.82,10,0,147,283,Starter:1|LineupSpot9:1|PlayerMatchupIsHorribad:1|PlayerMatchupIsGreat:1|VegasBad:1
1800861,Ichiro Suzuki,OF,SEA,2300,0,0,0,159,283,
1800876,Eric Young Jr.,OF,LAA,2000,0,0,0,147,283,
1800597,Drew VerHagen,RP,DET,4000,0,0,0,8,30,
1800598,Noe Ramirez,RP,LAA,4000,0,0,0,22,30,
1800612,Dan Jennings,RP,MIL,4000,0,0,0,23,30,
1800702,Ronald Herrera,RP,TEX,4000,0,0,0,9,30,Injured:1
1800703,Edwin Diaz,RP,SEA,4000,0,3.65,0,20,30,
1800229,Doug Fister,SP,TEX,5200,6.78,8.7,0,9,30,Starter:1|VegasBad:1|PlayerMatchupIsGreat:1|CrowdNegative:1|CrowdPositive:1|PlayerMatchupIsHorribad:1|StarGood:1|ThumbDown:1
1800244,Daniel Norris,SP,DET,5000,0,0,0,8,30,Injured:1
1800247,Brent Honeywell,SP,TB,5000,0,0,0,17,30,Injured:1
1800262,Dominic Smith,1B,NYM,3200,0,0,0,38,283,
1800263,Kendrys Morales,1B,TOR,3200,8.11,5,0,117,283,Starter:1|LineupSpot7:1|PlayerMatchupIsHorribad:1|PlayerMatchupIsGreat:1|PlayerIsCold:1|StarGood:1
1800280,Evan White,1B,SEA,2500,0,0,0,167,283,
1800292,Yoan Moncada,2B,CWS,4200,8.98,9,0,141,283,Starter:1|LineupSpot1:1|PlayerMatchupIsGreat:1|PlayerIsCold:1|ThumbUp:1
1800294,Jed Lowrie,2B,OAK,4100,8.59,10,0,166,283,Starter:1|LineupSpot3:1|PlayerMatchupIsHorribad:1|PlayerMatchupIsGreat:1|PlayerIsCold:1|ThumbDown:1
1800335,Hector Santiago,SP,CWS,6100,0,3.65,0,5,30,
1800336,Mike Fiers,SP,DET,6100,0,0,0,8,30,
1800506,Alex Mejia,SS,STL,2500,0,0,0,137,283,
1800795,Matt Chapman,3B,OAK,4400,7.62,0,0,125,283,Starter:1|LineupSpot6:1|PlayerMatchupIsHorribad:1|PlayerMatchupIsGreat:1|StarBad:1|ThumbUp:1
1800064,Austin Meadows,OF,PIT,3800,9.56,0,0,67,283,Starter:1|LineupSpot2:1|PlayerMatchupIsHorribad:2|PlayerMatchupIsGreat:1
1800065,Dustin Fowler,OF,OAK,3800,7.8,0,0,166,283,Starter:1|LineupSpot8:1|PlayerMatchupIsGreat:2|PlayerIsCold:1|VegasBad:1|StarBad:1|ThumbUp:1
1800082,Franchy Cordero,OF,SD,3600,0,0,0,83,283,Injured:1
1800083,Brett Gardner,OF,NYY,3600,8.09,0,0,13,283,Starter:1|LineupSpot1:1|PlayerMatchupIsHorribad:2|PlayerMatchupIsGreat:2|VegasBad:1
1800097,Mallex Smith,OF,TB,3500,9.1,10,0,171,283,Starter:1|LineupSpot1:1|PlayerMatchupIsHorribad:1|PlayerMatchupIsGreat:1
1800100,Leury Garcia,OF,CWS,3400,0,0,0,141,283,Injured:1
1800411,Lorenzo Cain,OF,MIL,4400,9.14,2,0,111,283,Starter:1|LineupSpot1:1|PlayerMatchupIsGreat:2|PlayerIsHot:1
1800412,Giancarlo Stanton,OF,NYY,4400,0,0,0,17,283,
1800429,Aaron Hicks,OF,NYY,4000,7.52,2,0,13,283,Starter:1|LineupSpot6:1|PlayerMatchupIsHorribad:3|PlayerMatchupIsGreat:1|PlayerIsCold:1|StarBad:1
1800430,Ender Inciarte,OF,ATL,3900,8.03,0,0,66,283,Starter:1|LineupSpot1:1|PlayerMatchupIsHorribad:1|VegasGood:1
1800446,Cedric Mullins,OF,BAL,3300,0,0,0,64,283,
1800463,Cesar Puello,OF,ARI,3100,0,0,0,234,283,
1800464,Rey Fuentes,OF,ARI,3100,0,0,0,201,283,
1800622,Josh Hader,RP,MIL,4000,0,0,0,23,30,
1800623,Mike Mayers,RP,STL,4000,0,4.1,0,14,30,
1800642,Chris O'Grady,RP,MIA,4000,0,0,0,29,30,Injured:1
1800643,Elieser Hernandez,RP,MIA,4000,0,0,0,29,30,
1800674,Justin Wilson,RP,CHC,4000,0,2.25,0,7,30,
1800675,Bo Schultz,RP,PIT,4000,0,0,0,4,30,
1800744,Hector Rondon,RP,HOU,4000,0,0,0,1,30,
1800745,Adam Warren,RP,NYY,4000,0,0,0,3,30,Injured:1
1800762,Ryan Buchter,RP,OAK,4000,0,0,0,12,30,Injured:1
1800763,Chris Hatcher,RP,OAK,4000,0,4.7,0,12,30,
1800776,Lou Trivino,RP,OAK,4000,0,3.65,0,12,30,
1800777,Chih-Wei Hu,RP,TB,4000,0,0,0,17,30,
1800358,Jeff Locke,SP,MIA,4300,0,0,0,29,30,
1800359,Jen-Ho Tseng,SP,CHC,4300,0,0,0,7,30,
1800362,Keegan Akin,SP,BAL,4200,0,0,0,10,30,
1800376,Nick Tepesch,SP,TOR,4000,0,0,0,2,30,
1800377,Joe Kelly,SP,BOS,4000,0,0,0,13,30,
1800394,Cody Anderson,SP,CLE,4000,0,0,0,15,30,Injured:1
1800395,Ian Clarkin,SP,CWS,4000,0,0,0,5,30,
1800551,Albert Abreu,SP,NYY,4000,0,0,0,3,30,
1800552,Franklin Perez,SP,HOU,4000,0,0,0,1,30,
1800555,Vidal Nuno,SP,TB,4000,0,0,0,17,30,
1800934,Paolo Espino,SP,TEX,4000,0,0,0,9,30,
1800966,Dillon Overton,SP,SD,4000,0,0,0,30,30,
1800969,Odrisamer Despaigne,SP,MIA,4000,0,0,0,29,30,
1800987,Miguel Montero,C,WAS,2600,0,0,0,157,283,
1800988,Carlos Perez,C,TEX,2600,0,0,0,183,283,
1801005,Kyle Higashioka,C,NYY,2400,0,0,0,17,283,
1800133,Matt Szczur,OF,SD,2900,0,0,0,73,283,
1800134,Lane Adams,OF,CHC,2900,0,0,0,91,283,
1800151,Rymer Liriano,OF,LAA,2800,0,0,0,147,283,
1800152,Kole Calhoun,OF,LAA,2800,0,2,0,41,283,
1800488,Jarrod Dyson,OF,ARI,3000,8.51,9,0,201,283,Starter:1|LineupSpot1:1|PlayerMatchupIsGreat:2|PlayerMatchupIsHorribad:1|PlayerIsCold:1|VegasGood:1|ThumbDown:1
1800491,Jaff Decker,OF,ATL,3000,0,0,0,66,283,
1800841,Mark Zagunis,OF,CHC,2700,0,0,0,91,283,
1800842,Jake Marisnick,OF,HOU,2700,7.91,0,0,276,283,Starter:1|LineupSpot9:1|PlayerMatchupIsGreat:1|PlayerMatchupIsHorribad:1
1800859,Jahmai Jones,OF,LAA,2400,0,0,0,147,283,
1800860,Jake Smolinski,OF,OAK,2400,0,0,0,125,283,
1800874,Leody Taveras,OF,TEX,2000,0,0,0,183,283,
1800595,Cam Bedrosian,RP,LAA,4000,0,3.65,0,22,30,
1800596,Parker Bridwell,RP,LAA,4000,0,0,0,22,30,
1800613,Tyler Lyons,RP,STL,4000,0,0,0,14,30,
1800700,Keone Kela,RP,TEX,4000,0,0,0,9,30,
1800701,Yohander Mendez,RP,TEX,4000,0,0,0,9,30,
1800213,Zach Davies,SP,MIL,5500,0,0,0,23,30,
1800214,Trevor Richards,SP,MIA,5500,0,0,0,29,30,
1800227,Marcos Molina,SP,NYM,5200,0,0,0,6,30,
1800228,Miguel Gonzalez,SP,CWS,5200,0,0,0,5,30,Injured:1
1800245,Dillon Peters,SP,MIA,5000,0,0,0,29,30,
1800246,Kendall Graveman,SP,OAK,5000,0,0,0,12,30,
1800264,Christian Walker,1B,ARI,3100,0,0,0,234,283,
1800265,Tommy Joseph,1B,TEX,3100,0,0,0,183,283,
1800278,Tyler White,1B,HOU,2700,0,0,0,276,283,
1800279,AJ Reed,1B,HOU,2600,0,0,0,51,283,
1800282,Mike Ford,1B,SEA,2200,0,0,0,159,283,Injured:1
1800337,Michael Fulmer,SP,DET,6100,0,0,0,8,30,
1800338,Jose De Leon,SP,TB,6100,0,0,0,17,30,
1800796,Eugenio Suarez,3B,CIN,4200,8.18,18,0,227,283,Starter:1|LineupSpot5:1|PlayerMatchupIsGreat:2|PlayerIsCold:1
1800810,J.D. Davis,3B,HOU,3500,6.35,18,0,276,283,Starter:1|LineupSpot7:1|PlayerMatchupIsGreat:1|PlayerMatchupIsHorribad:1
1800811,Jedd Gyorko,3B,STL,3400,9.94,5,0,137,283,Starter:1|LineupSpot4:1|PlayerMatchupIsGreat:2|VegasBad:1
1800828,Pete Kozma,3B,DET,2800,0,0,0,177,283,
1800829,Lucas Erceg,3B,MIL,2800,0,0,0,54,283,
1800063,Albert Almora Jr.,OF,CHC,3800,6.58,5,0,91,283,Starter:1|LineupSpot9:1|VegasGood:1
1800077,Scott Schebler,OF,CIN,3600,7.53,6,0,78,283,Starter:1|LineupSpot6:1|PlayerMatchupIsHorribad:1|PlayerMatchupIsGreat:3|PlayerIsCold:1|ThumbUp:1
1800084,Jacoby Ellsbury,OF,NYY,3600,0,0,0,13,283,
1800088,Melky Cabrera,OF,CLE,3500,7.57,2,0,238,283,Starter:1|LineupSpot6:1|PlayerMatchupIsGreat:2
1800095,Josh Reddick,OF,HOU,3500,0,0,0,51,283,Injured:1
1800102,Leonys Martin,OF,DET,3400,8.06,14,0,85,283,Starter:1|LineupSpot1:1|PlayerMatchupIsGreat:2|PlayerIsCold:1
1800406,Aaron Judge,OF,NYY,4600,9.22,0,0,17,283,Starter:1|LineupSpot2:1|PlayerMatchupIsHorribad:2|PlayerMatchupIsGreat:1|VegasBad:1|StarGood:1|ThumbUp:2
1800417,Ronald Acuna Jr.,OF,ATL,4100,0,0,0,49,283,Injured:1
1800442,Phillip Ervin,OF,CIN,3800,0,0,0,227,283,
1800451,Monte Harrison,OF,MIA,3300,0,0,0,255,283,
1800462,Ben Revere,OF,CIN,3100,0,0,0,78,283,
1800469,Rajai Davis,OF,CLE,3100,0,0,0,44,283,
1800621,Matt Bowman,RP,STL,4000,0,0,0,14,30,Injured:1
1800628,Brad Ziegler,RP,MIA,4000,0,0,0,29,30,
1800635,Drew Rucinski,RP,MIA,4000,0,0,0,29,30,
1800648,Sandy Alcantara,RP,MIA,4000,0,0,0,29,30,
1800673,Mike Montgomery,RP,CHC,4000,4.63,25.55,0,7,30,Starter:1|CrowdNegative:1|PlayerMatchupIsBad:1|PlayerMatchupIsHorribad:2|CrowdPositive:1|ThumbUp:1
1800680,Michael Feliz,RP,PIT,4000,0,0,0,4,30,
1800739,Tony Sipp,RP,HOU,4000,0,0,0,1,30,
1800750,Jandel Gustave,RP,HOU,4000,0,0,0,1,30,Injured:1
1800757,Chris Smith,RP,OAK,4000,0,0,0,12,30,
1800764,Evan Scribner,RP,TB,4000,0,0,0,17,30,Injured:1
1800775,Emilio Pagan,RP,OAK,4000,0,0,0,12,30,
1800371,Jesse Biddle,SP,ATL,4000,0,5.3,0,24,30,
1800382,Ty Buttrey,SP,BOS,4000,0,0,0,13,30,
1800389,Tim Melville,SP,BAL,4000,0,0,0,10,30,
1800396,Dane Dunning,SP,CWS,4000,0,0,0,5,30,
1800550,Chad Green,SP,NYY,4000,0,0,0,3,30,
1800557,Frankie Montas,SP,OAK,4000,0,0,0,12,30,
1800939,Clayton Blackburn,SP,TEX,4000,0,0,0,9,30,Injured:1
1800964,Robbie Erlin,SP,SD,4000,0,16.35,0,30,30,
1800982,Austin Hedges,C,SD,2700,0,0,0,73,283,Injured:1
1800993,Jose Lobaton,C,NYM,2500,0,0,0,201,283,
1801000,Jeff Mathis,C,ARI,2400,0,0,0,234,283,
1801007,Jarrod Saltalamacchia,C,DET,2200,0,0,0,177,283,
1800121,Jason Heyward,OF,CHC,3000,0,0,0,155,283,
1800128,Andrew Stevenson,OF,WAS,2900,0,0,0,157,283,
1800139,Danny Santana,OF,ATL,2800,0,0,0,66,283,Injured:1
1800146,Ben Gamel,OF,SEA,2800,0,0,0,159,283,
1800153,Mikie Mahtook,OF,DET,2800,0,0,0,177,283,
1800479,Mike Gerber,OF,DET,3100,0,0,0,85,283,
1800486,Billy McKinney,OF,NYY,3100,0,0,0,13,283,
1800493,Lewis Brinson,OF,MIA,2800,6.86,0,0,255,283,Starter:1|LineupSpot7:1|PlayerMatchupIsGreat:1|PlayerMatchupIsHorribad:2|PlayerIsCold:1
1800854,Daniel Nava,OF,PIT,2500,0,0,0,82,283,
1800865,Ryan Raburn,OF,WAS,2100,0,0,0,196,283,Injured:1
1800348,Juan Nicasio,RP,SEA,4000,0,0,0,20,30,
1800594,Vicente Campos,RP,LAA,4000,0,0,0,22,30,
1800601,Keynan Middleton,RP,LAA,4000,0,0,0,22,30,Injured:1
1800608,Bud Norris,RP,STL,4000,0,0,0,14,30,
1800688,David Phelps,RP,SEA,4000,0,0,0,20,30,Injured:1
1800699,Chasen Bradford,RP,SEA,4000,0,0,0,20,30,
1800706,Dan Altavilla,RP,SEA,4000,0,0,0,20,30,
1800731,Blaine Hardy,RP,DET,4000,0,0,0,8,30,
1800208,A.J. Cole,SP,NYY,5600,0,2.05,0,3,30,
1800215,Ryan Yarbrough,SP,TB,5500,0,0,0,17,30,
1800226,Scott Kazmir,SP,ATL,5200,0,0,0,24,30,Injured:1
1800233,Jalen Beeks,SP,BOS,5100,0,0,0,13,30,
1800240,Jaime Schultz,SP,TB,5100,0,0,0,17,30,
1800252,Mark Trumbo,1B,BAL,3500,7.31,2,0,64,283,Starter:1|LineupSpot7:1|PlayerMatchupIsHorribad:1|PlayerIsHot:1|VegasBad:1
1800266,Luke Voit,1B,STL,3100,0,0,0,137,283,
1800277,Daniel Vogelbach,1B,SEA,2800,0,0,0,159,283,
1800284,Mike Napoli,1B,CLE,2000,0,0,0,44,283,Injured:1
1800298,Jonathan Schoop,2B,BAL,3600,9.24,3,0,64,283,Starter:1|LineupSpot4:1|PlayerMatchupIsHorribad:1|PlayerMatchupIsGreat:1
1800332,Jharel Cotton,SP,OAK,6200,0,0,0,12,30,
1800339,Mike Soroka,SP,ATL,6000,0,0,0,24,30,Injured:1
1800495,Max Moroff,SS,PIT,2900,0,0,0,82,283,
1800502,Adeiny Hechavarria,SS,TB,2800,0,0,0,220,283,Injured:1
1800509,Zach Vincej,SS,SEA,2400,0,0,0,167,283,
1800520,Anthony Rizzo,1B,CHC,4500,9.45,26,0,155,283,Starter:1|LineupSpot4:1|PlayerMatchupIsGreat:2|VegasBad:1
1800798,Josh Donaldson,3B,TOR,4100,9.48,7,0,117,283,Starter:1|LineupSpot2:1|PlayerMatchupIsGreat:2|PlayerIsCold:1|StarGood:1
1800805,Adrian Beltre,3B,TEX,3700,0,0,0,183,283,Injured:1
1800816,Yolmer Sanchez,3B,CWS,3300,8.22,6,0,141,283,Starter:1|LineupSpot2:1
1800823,Austin Riley,3B,ATL,2900,0,0,0,49,283,
1800878,Martin Prado,3B,MIA,2800,0,0,0,255,283,Injured:1
1801370,Joe Rizzo,3B,SEA,2000,0,0,0,159,283,
1800022,Jared Hughes,RP,CIN,4000,0,0,0,25,30,
1800033,Wandy Peralta,RP,CIN,4000,0,-3.2,0,25,30,
1800040,Troy Scribner,RP,ARI,4000,0,0,0,26,30,
1800073,Tony Kemp,OF,HOU,3700,0,0,0,51,283,
1800075,David Peralta,OF,ARI,3600,0,0,0,201,283,
1800092,Delino DeShields,OF,TEX,3500,9.69,3,0,183,283,Starter:1|LineupSpot1:1|PlayerMatchupIsHorribad:2|PlayerMatchupIsGreat:1
1800105,Carlos Gomez,OF,TB,3400,8.39,7,0,220,283,Starter:1|LineupSpot7:1|PlayerMatchupIsGreat:3
1800107,Brian Goodwin,OF,WAS,3300,0,0,0,157,283,Injured:1
1800419,Tyler O'Neill,OF,STL,4100,0,0,0,137,283,
1800421,Nick Markakis,OF,ATL,4000,7.19,5,0,66,283,Starter:1|LineupSpot4:1|PlayerMatchupIsHorribad:1
1800436,Shin-soo Choo,OF,TEX,3900,8.65,5,0,206,283,Starter:1|LineupSpot2:1|PlayerMatchupIsGreat:2|PlayerMatchupIsHorribad:2
1800438,Justin Upton,OF,LAA,3900,10.17,7,0,147,283,Starter:1|LineupSpot3:1|PlayerMatchupIsHorribad:1|PlayerMatchupIsGreat:2
1800457,Brett Eibner,OF,TEX,3200,0,0,0,183,283,Injured:1
1800299,Kyle Barraclough,RP,MIA,4000,0,0,0,29,30,
1800630,Brad Hand,RP,SD,4000,0,0,0,30,30,
1800632,Tayron Guerrero,RP,MIA,4000,0,0,0,29,30,
1800649,Phil Maton,RP,SD,4000,0,0,0,30,30,Injured:1
1800668,Pedro Strop,RP,CHC,4000,0,2.25,0,7,30,
1800683,Justin Hancock,RP,CHC,4000,0,0,0,7,30,
1800737,Luke Farrell,RP,CHC,4000,0,4.25,0,7,30,
1800752,Chris Devenski,RP,HOU,4000,0,5.65,0,1,30,
1800754,Francis Martes,RP,HOU,4000,0,0,0,1,30,
1800769,Carlos Ramirez,RP,OAK,4000,0,0,0,12,30,
1800771,Andrew Kittredge,RP,TB,4000,0,0,0,17,30,
1800203,Eddie Butler,SP,CHC,4000,0,0,0,7,30,Injured:1
1800367,Vance Worley,SP,CIN,4000,0,0,0,25,30,
1800369,Daniel Wright,SP,CIN,4000,0,0,0,25,30,
1800384,Chris Rowley,SP,TOR,4000,0,0,0,2,30,
1800386,Nate Pearson,SP,TOR,4000,0,0,0,2,30,
1800544,Clay Holmes,SP,PIT,4000,0,0,0,4,30,
1800546,Adbert Alzolay,SP,CHC,4000,0,0,0,7,30,
1800561,Trevor Williams,RP,PIT,8600,0,0,0,4,30,
1800942,Brett Martin,SP,TEX,4000,0,0,0,9,30,
1800957,Spencer Turnbull,SP,DET,4000,0,0,0,8,30,
1800959,Conner Greene,SP,STL,4000,0,0,0,14,30,
1800978,Jose Briceno,C,LAA,2700,0,0,0,147,283,
1800980,Steven Baron,C,STL,2700,0,0,0,137,283,
1800995,Spencer Kieboom,C,WAS,2500,4.25,0,0,196,283,Starter:1|LineupSpot9:1|PlayerIsCold:1
1800997,David Freitas,C,SEA,2500,0,0,0,167,283,
1800108,Preston Tucker,OF,ATL,3000,6.55,2,0,66,283,Starter:1|LineupSpot6:1|PlayerMatchupIsHorribad:1|PlayerMatchupIsGreat:1|VegasGood:1
1800110,Jaycob Brugman,OF,BAL,3000,0,0,0,19,283,
1800125,Jackie Bradley Jr.,OF,BOS,2900,6.64,18,0,205,283,Starter:1|LineupSpot9:1|PlayerMatchupIsGreat:3|ThumbUp:1
1800127,Anthony Santander,OF,BAL,2900,0,0,0,64,283,
1800142,Avisail Garcia,OF,CWS,2800,0,0,0,141,283,Injured:1
1800144,Jacob May,OF,CWS,2800,0,0,0,141,283,
1800481,Alex Dickerson,OF,SD,3100,0,0,0,83,283,Injured:1
1800849,Alejandro De Aza,OF,WAS,2500,0,0,0,157,283,
1800851,Dariel Alvarez,OF,BAL,2500,0,0,0,64,283,Injured:1
1800866,Kirk Nieuwenhuis,OF,SEA,2100,0,0,0,159,283,
1800603,Justin Anderson,RP,LAA,4000,0,0,0,22,30,
1800605,Matt Albers,RP,MIL,4000,0,9.9,0,23,30,
1800692,Casey Lawrence,RP,SEA,4000,0,0,0,20,30,
1800694,Christian Bergman,RP,SEA,4000,0,0,0,20,30,
1800726,Jim Johnson,RP,LAA,4000,0,0,0,22,30,
1800728,Blake Wood,RP,LAA,4000,0,0,0,22,30,Injured:1
1800204,Sonny Gray,SP,NYY,5800,0,0,0,3,30,
1800219,Ryan Carpenter,SP,DET,5400,0,0,0,8,30,
1800221,Jason Vargas,SP,NYM,5300,0,0,0,6,30,
1800236,Andrew Albers,SP,SEA,5100,0,0,0,20,30,
1800238,Chance Adams,SP,NYY,5100,0,0,0,3,30,
1800254,Adrian Gonzalez,1B,NYM,3400,0,0,0,38,283,
1800256,Yuli Gurriel,1B,HOU,3400,8.15,8,0,276,283,Starter:1|LineupSpot4:1|PlayerMatchupIsGreat:2|PlayerMatchupIsHorribad:1
1800271,Victor Martinez,1B,DET,3000,0,0,0,177,283,
1800273,Sam Travis,1B,BOS,2900,0,0,0,157,283,
1800288,Scooter Gennett,2B,CIN,4700,10.25,11,0,78,283,Starter:1|LineupSpot4:1|PlayerMatchupIsHorribad:1|PlayerMatchupIsGreat:3|ThumbDown:1
1800328,Michael Kopech,SP,CWS,6200,0,0,0,5,30,
1800343,Marcus Stroman,SP,TOR,5900,0,0,0,2,30,Injured:1
1800345,Rogelio Armenteros,SP,HOU,5900,0,0,0,1,30,
1800497,Gio Urshela,SS,TOR,2800,0,2,0,117,283,
1800514,Allen Cordoba,SS,SD,2000,0,0,0,73,283,Injured:1
1800516,Jose Abreu,1B,CWS,5000,10.17,2,0,141,283,Starter:1|LineupSpot3:1|PlayerMatchupIsGreat:2|ThumbUp:2
1800804,Miguel Andujar,3B,NYY,3800,7.2,3,0,17,283,Starter:1|LineupSpot8:1|PlayerMatchupIsHorribad:2|PlayerMatchupIsGreat:1|VegasBad:1|ThumbUp:1
1800819,Nick Senzel,3B,CIN,3100,0,0,0,227,283,
1800821,Deven Marrero,3B,ARI,2900,0,0,0,234,283,
1800018,Steven Brault,RP,PIT,4200,0,-1.7,0,4,30,
1800020,Austin Pruitt,RP,TB,4100,0,0,0,17,30,
1800035,Archie Bradley,RP,ARI,4000,0,0,0,26,30,
1800037,Robert Stephenson,RP,CIN,4000,0,0,0,25,30,
1800050,AJ Ramos,RP,NYM,4000,0,0,0,6,30,Injured:1
1800052,Hansel Robles,RP,NYM,4000,0,0,0,6,30,Injured:1
1800054,Dan Winkler,RP,ATL,4000,0,0,0,24,30,
1800583,Seth Lugo,RP,NYM,4800,0,-1.4,0,6,30,
1800585,Rafael Montero,RP,NYM,4500,0,0,0,6,30,Injured:1
1801384,Andrelton Simmons,SS,LAA,3700,8.48,12,0,147,283,Starter:1|LineupSpot5:1|PlayerMatchupIsHorribad:1|PlayerMatchupIsGreat:2|ThumbDown:1
1801386,Troy Tulowitzki,SS,TOR,3500,0,0,0,117,283,Injured:1
1801401,Jordy Mercer,SS,PIT,3100,0,0,0,82,283,
1801403,Franklin Barreto,SS,OAK,3100,0,0,0,125,283,
1801428,Jonathan Lucroy,C,OAK,3000,6.45,3,0,125,283,Starter:1|LineupSpot9:1|PlayerMatchupIsHorribad:1|PlayerMatchupIsGreat:1
1801430,Kevin Plawecki,C,NYM,2900,0,0,0,201,283,Injured:1
1801445,Pedro Severino,C,WAS,2800,0,0,0,196,283,
1801447,Kevan Smith,C,CWS,2800,0,0,0,141,283,
1801469,Matt Reynolds,2B/SS,WAS,2800,0,0,0,196,283,
1801471,Nolan Fontana,2B/SS,LAA,2800,0,0,0,41,283,
1801486,Cristhian Adames,2B/SS,MIA,2500,0,0,0,255,283,
1801280,Ryan Merritt,RP,CLE,4000,0,0,0,15,30,Injured:1
1801282,Aaron Bummer,RP,CWS,4000,0,0,0,5,30,
1801135,Brandon Dixon,2B,CIN,2900,0,3,0,227,283,
1800072,Derek Fisher,OF,HOU,3700,0,0,0,51,283,Injured:1
1800074,Chad Pinder,OF,OAK,3700,8.17,0,0,125,283,Starter:1|LineupSpot5:1|PlayerMatchupIsHorribad:1|PlayerMatchupIsGreat:1|StarBad:1|ThumbUp:2
1800089,Bradley Zimmer,OF,CLE,3500,0,0,0,238,283,Injured:1
1800091,Dee Gordon,OF,SEA,3500,0,0,0,159,283,Injured:1
1800106,Michael A. Taylor,OF,WAS,3300,7.95,10,0,196,283,Starter:1|LineupSpot7:1|PlayerMatchupIsGreat:1|StarGood:1
1800422,Michael Conforto,OF,NYM,4000,7.9,2,0,38,283,Starter:1|LineupSpot3:1|PlayerMatchupIsHorribad:1|PlayerIsHot:1|StarGood:1
1800439,Corey Dickerson,OF,PIT,3900,6.91,3,0,67,283,Starter:1|LineupSpot5:1|PlayerMatchupIsHorribad:2|PlayerIsCold:1|VegasBad:1
1800454,Steven Souza Jr.,OF,ARI,3200,0,0,0,234,283,Injured:1
1800456,Jayson Werth,OF,SEA,3200,0,0,0,167,283,
1800458,Jabari Blash,OF,LAA,3200,0,0,0,147,283,
1800631,Kirby Yates,RP,SD,4000,0,0,0,30,30,
1800633,Kazuhisa Makita,RP,SD,4000,0,0,0,30,30,
1800669,Fernando Rodriguez Jr.,RP,CHC,4000,0,0,0,7,30,Injured:1
1800682,Kyle Crick,RP,PIT,4000,0,-0.8,0,4,30,
1800736,Carl Edwards Jr.,RP,CHC,4000,0,0,0,7,30,
1800738,Edgar Santana,RP,PIT,4000,0,0,0,4,30,
1800751,Branden Pinder,RP,NYY,4000,0,0,0,3,30,Injured:1
1800753,Jonathan Holder,RP,NYY,4000,0,0,0,3,30,
1800768,Josh Lucas,RP,OAK,4000,0,0,0,12,30,
1800770,Blake Treinen,RP,OAK,4000,0,2.25,0,12,30,
1800353,Kyle Lloyd,SP,SD,4400,0,0,0,30,30,
1800368,Sal Romano,SP,CIN,4000,0,0,0,25,30,
1800370,Hunter Greene,SP,CIN,4000,0,0,0,25,30,
1800383,Jon Harris,SP,TOR,4000,0,0,0,2,30,
1800385,Roniel Raudes,SP,BOS,4000,0,0,0,13,30,
1800387,Edwin Jackson,SP,WAS,4000,0,0,0,28,30,
1800543,Joe Musgrove,SP,PIT,4000,0,0,0,4,30,
1800545,Duane Underwood Jr.,SP,CHC,4000,0,0,0,7,30,
1800560,Jesus Luzardo,SP,OAK,4000,0,0,0,12,30,
1800732,Dustin Garneau,C,CWS,2700,0,0,0,141,283,
1800941,Ariel Jurado,SP,TEX,4000,0,0,0,9,30,
1800958,Artie Lewicki,SP,DET,4000,0,0,0,8,30,
1800960,Dakota Hudson,SP,STL,4000,0,0,0,14,30,
1800979,Grayson Greiner,C,DET,2700,0,0,0,177,283,
1800981,Bryan Holaday,C,MIA,2700,5.38,3,0,255,283,Starter:1|LineupSpot8:1|PlayerMatchupIsGreat:1|PlayerMatchupIsHorribad:2|PlayerIsCold:1
1800996,Juan Centeno,C,TEX,2500,0,0,0,206,283,
1801011,Tim Federowicz,C,HOU,2100,0,0,0,276,283,
1800109,Colby Rasmus,OF,BAL,3000,0,0,0,19,283,Injured:1
1800111,Joey Rickard,OF,BAL,3000,7.13,3,0,64,283,Starter:1|LineupSpot1:1|PlayerMatchupIsHorribad:1|PlayerIsCold:1|VegasBad:2|StarGood:1
1800124,Randal Grichuk,OF,TOR,2900,0,0,0,117,283,Injured:1
1800126,Rusney Castillo,OF,BOS,2900,0,0,0,157,283,
1800141,Brandon Guyer,OF,CLE,2800,0,0,0,44,283,Injured:1
1800143,Trayce Thompson,OF,CWS,2800,0,0,0,141,283,
1800480,Victor Reyes,OF,DET,3100,0,10,0,177,283,
1800482,Manuel Margot,OF,SD,3100,6.54,0,0,73,283,Starter:1|LineupSpot8:1|PlayerMatchupIsHorribad:2|PlayerMatchupIsGreat:2|PlayerIsHot:1|VegasGood:1|StarGood:1
1800833,Ezequiel Carrera,OF,ATL,2700,0,0,0,66,283,
1800850,Craig Gentry,OF,BAL,2500,5.65,2,0,64,283,Starter:1|LineupSpot8:1|PlayerMatchupIsHorribad:1|VegasBad:1|StarBad:1
1800852,Luis Robert,OF,CWS,2500,0,0,0,141,283,
1800869,Daniel Robertson,OF,ARI,2000,0,0,0,234,283,
1800604,Alex Faedo,RP,DET,4000,0,0,0,8,30,
1800606,Boone Logan,RP,MIL,4000,0,0,0,23,30,
1800693,Alex Claudio,RP,TEX,4000,0,0,0,9,30,
1800695,Tony Zych,RP,SEA,4000,0,0,0,20,30,Injured:1
1800727,Travis Wood,RP,DET,4000,0,0,0,8,30,
1800205,Marco Estrada,SP,TOR,5700,0,0,0,2,30,
1800220,Wade Miley,SP,MIL,5400,0,0,0,23,30,
1800222,James Shields,SP,CWS,5300,0,0,0,5,30,
1800237,Chase De Jong,SP,SEA,5100,0,0,0,20,30,
1800239,Matt Andriese,SP,TB,5100,0,10.75,0,17,30,
1800253,Tyler Austin,1B,NYY,3500,0,0,0,17,283,
1800255,Albert Pujols,1B,LAA,3400,6.62,9,0,147,283,Starter:1|LineupSpot4:1|PlayerMatchupIsHorribad:1|PlayerMatchupIsGreat:1|VegasGood:1
1800272,Brad Miller,1B,TB,3000,0,0,0,171,283,
1800287,Jose Altuve,2B,HOU,4800,11.54,14,0,276,283,Starter:1|LineupSpot2:1|PlayerMatchupIsGreat:2|PlayerMatchupIsHorribad:1|OptimalPick:1|PlayerIsHot:1|ThumbUp:1
1800327,Drew Pomeranz,SP,BOS,6200,0,0,0,13,30,
1800329,Eric Lauer,SP,SD,6200,6.48,-4.15,0,30,30,Starter:1|PlayerMatchupIsGreat:3|PlayerMatchupIsGood:1|StarBad:1|ThumbDown:3
1800344,Hisashi Iwakuma,SP,SEA,5900,0,0,0,20,30,Injured:1
1800346,Matt Harvey,SP,CIN,5800,0,0,0,25,30,
1800498,Richard Urena,SS,TOR,2800,0,0,0,117,283,
1800513,Delvin Perez,SS,STL,2000,0,0,0,137,283,
1800517,Eric Thames,1B,MIL,4900,0,0,0,54,283,Injured:1
1800801,Jake Lamb,3B,ARI,3900,10.14,9,0,201,283,Starter:1|LineupSpot3:1|PlayerMatchupIsGreat:3|PlayerMatchupIsHorribad:1|PlayerIsCold:1|VegasGood:1|ThumbUp:1
1800803,Jeimer Candelario,3B,DET,3800,9.95,7,0,177,283,Starter:1|LineupSpot3:1|PlayerMatchupIsGreat:3
1800818,Trevor Plouffe,3B,TEX,3200,0,0,0,183,283,
1800820,Kaleb Cowart,3B,LAA,3000,0,0,0,147,283,
1800017,Buck Farmer,RP,DET,4200,0,-4.9,0,8,30,
1800019,Brady Rodgers,RP,HOU,4200,0,0,0,1,30,
1800034,Tyler Pill,RP,ARI,4000,0,0,0,26,30,
1800036,Andrew Chafin,RP,ARI,4000,0,0,0,26,30,
1800051,Jose Ramirez,RP,ATL,4000,0,0,0,24,30,Injured:1
1800053,Grant Dayton,RP,ATL,4000,0,0,0,24,30,Injured:1
1800582,Luis Cessa,RP,NYY,4900,0,0,0,3,30,Injured:1
1800584,Yonny Chirinos,RP,TB,4700,0,0,0,17,30,Injured:1
1800586,Erasmo Ramirez,RP,SEA,4500,0,0,0,20,30,Injured:1
1801383,Paul DeJong,SS,STL,3800,0,0,0,137,283,Injured:1
1800076,Adam Duvall,OF,CIN,3600,6.84,16,0,227,283,Starter:1|LineupSpot7:1|PlayerMatchupIsGreat:2|PlayerIsCold:1
1800078,Kevin Pillar,OF,TOR,3600,7.19,14,0,117,283,Starter:1|LineupSpot5:1|PlayerMatchupIsGreat:1|PlayerIsCold:1
1800085,Jay Bruce,OF,NYM,3500,7.65,0,0,38,283,Starter:1|LineupSpot5:1|PlayerMatchupIsHorribad:1|PlayerIsHot:1
1800087,Anthony Alford,OF,TOR,3500,0,0,0,117,283,
1800407,Michael Brantley,OF,CLE,4500,10.12,7,0,238,283,Starter:1|LineupSpot2:1|PlayerMatchupIsGreat:3|VegasGood:1|StarGood:1
1800409,Khris Davis,OF,OAK,4500,0,0,0,125,283,Injured:1
1800416,Yoenis Cespedes,OF,NYM,4100,0,0,0,201,283,Injured:1
1800418,Adam Eaton,OF,WAS,4100,0,0,0,157,283,Injured:1
1800441,Clint Frazier,OF,NYY,3900,0,0,0,17,283,
1800443,Curtis Granderson,OF,TOR,3800,0,0,0,22,283,
1800450,Michael Hermosillo,OF,LAA,3300,0,0,0,147,283,
1800452,Jordan Luplow,OF,PIT,3300,0,0,0,82,283,
1800300,Tyler Webb,RP,SD,4000,0,0,0,30,30,
1800620,Dominic Leone,RP,STL,4000,0,0,0,14,30,Injured:1
1800627,Chris Young,RP,SD,4000,0,0,0,30,30,
1800629,Craig Stammen,RP,SD,4000,0,0,0,30,30,
1800740,Joe Smith,RP,HOU,4000,0,0,0,1,30,
1800742,Will Harris,RP,HOU,4000,0,2.75,0,1,30,
1800747,Aroldis Chapman,RP,NYY,4000,0,0,0,3,30,
1800749,Chasen Shreve,RP,NYY,4000,0,0,0,3,30,
1800772,Jose Alvarado,RP,TB,4000,0,3.8,0,17,30,
1800774,Hunter Wood,RP,TB,4000,0,0,0,17,30,
1800372,Matt Wisler,SP,ATL,4000,0,0,0,24,30,
1800374,P.J. Conlon,SP,NYM,4000,0,0,0,6,30,
1800379,Hector Velazquez,SP,BOS,4000,0,0,0,13,30,
1800381,Joe Biagini,SP,TOR,4000,0,0,0,2,30,
1800547,Oscar De La Cruz,SP,CHC,4000,0,0,0,7,30,
1800549,Jonathon Niese,SP,NYY,4000,0,0,0,3,30,Injured:1
1800556,Raul Alcantara,SP,OAK,4000,0,0,0,12,30,
1800558,Chris Bassitt,SP,OAK,4000,0,0,0,12,30,
1800954,Victor Alcantara,SP,DET,4000,0,0,0,8,30,
1800956,Kyle Funkhouser,SP,DET,4000,0,0,0,8,30,
1800985,Sean Murphy,C,OAK,2700,0,0,0,125,283,
1800992,Bruce Maxwell,C,OAK,2600,0,0,0,166,283,
1800994,Caleb Joseph,C,BAL,2500,0,0,0,64,283,
1800113,Adam Engel,OF,CWS,3000,5.62,15,0,141,283,Starter:1|LineupSpot7:1|PlayerMatchupIsGreat:1|PlayerMatchupIsHorribad:1
1800115,Guillermo Heredia,OF,SEA,3000,6.26,3,0,167,283,Starter:1|LineupSpot1:1|PlayerMatchupIsGreat:1|PlayerMatchupIsHorribad:2|ThumbDown:1
1800122,Matt Joyce,OF,OAK,3000,9.3,0,0,166,283,Starter:1|LineupSpot1:1|PlayerMatchupIsGreat:2
1800145,Charlie Tilson,OF,CWS,2800,5.14,10,0,141,283,Starter:1|LineupSpot8:1
1800147,Ryan Rua,OF,TEX,2800,6.36,5,0,183,283,Starter:1|LineupSpot6:1|PlayerMatchupIsHorribad:2|StarGood:1
1800154,Derek Dietrich,OF,MIA,2800,0,9,0,156,283,
1800478,JaCoby Jones,OF,DET,3100,5.98,12,0,177,283,Starter:1|LineupSpot7:1|PlayerMatchupIsGreat:2
1800839,Braxton Lee,OF,MIA,2700,0,0,0,156,283,
1800848,Rob Refsnyder,OF,TB,2600,0,0,0,220,283,
1800871,Blake Rutherford,OF,CWS,2000,0,0,0,141,283,
1800873,Cameron Perkins,OF,SEA,2000,0,0,0,167,283,
1800591,Louis Coleman,RP,DET,4000,0,7.15,0,8,30,
1800593,Shane Greene,RP,DET,4000,0,0,0,8,30,
1800600,Daniel Stumpf,RP,DET,4000,0,-0.6,0,8,30,
1800602,Joe Jimenez,RP,DET,4000,0,1.5,0,8,30,
1800687,Ryan Cook,RP,SEA,4000,0,0,0,20,30,
1800689,Alex Colome,RP,SEA,4000,0,5.65,0,20,30,
1800691,Shawn Tolleson,RP,TEX,4000,0,0,0,9,30,Injured:1
1800207,Ariel Miranda,SP,SEA,5600,0,0,0,20,30,
1800209,Jake Faria,SP,TB,5600,0,0,0,17,30,Injured:1
1800216,Chris Flexen,SP,NYM,5400,0,0,0,6,30,
1800241,Tyler Mahle,SP,CIN,5000,0,0,0,25,30,
1800248,Kolby Allard,SP,ATL,4900,0,0,0,24,30,
1800250,Ryan Helsley,SP,STL,4900,0,0,0,14,30,
1800274,Bobby Bradley,1B,CLE,2900,0,0,0,238,283,
1800276,Jake Bauers,1B,TB,2900,0,0,0,171,283,
1800285,Chris Carter,1B,LAA,2000,0,0,0,147,283,
1800333,Anthony DeSclafani,SP,CIN,6100,0,0,0,25,30,Injured:1
1800342,Shelby Miller,SP,ARI,5900,0,0,0,26,30,Injured:1
1800494,Nick Ahmed,SS,ARI,2900,6.32,25,0,234,283,Starter:1|LineupSpot8:1|PlayerMatchupIsGreat:3|PlayerMatchupIsHorribad:1|PlayerIsCold:1|VegasGood:1
1800496,Thairo Estrada,SS,NYY,2900,0,0,0,17,283,
1800519,Miguel Cabrera,1B,DET,4600,0,0,0,177,283,Injured:1
1800521,C.J. Cron,1B,TB,4400,8.98,3,0,220,283,Starter:1|LineupSpot2:1|PlayerMatchupIsGreat:4|ThumbDown:1
1800797,Alex Bregman,3B,HOU,4200,0,0,0,276,283,
1800799,Christian Villanueva,3B,SD,4100,10.07,9,0,73,283,Starter:1|LineupSpot3:1|PlayerMatchupIsHorribad:2|PlayerMatchupIsGreat:2|VegasGood:1
1800822,Rio Ruiz,3B,ATL,2900,0,0,0,66,283,
1800824,Michael Chavis,3B,BOS,2900,0,0,0,157,283,
1800879,Tim Beckham,3B,BAL,2700,0,0,0,64,283,Injured:1
1800021,David Hernandez,RP,CIN,4000,0,0,0,25,30,
1800023,Brad Boxberger,RP,ARI,4000,0,0,0,26,30,
1800030,Dylan Floro,RP,CIN,4000,0,0,0,25,30,
1800032,Austin Brice,RP,CIN,4000,0,0,0,25,30,Injured:1
1800055,Jacob Lindgren,RP,ATL,4000,0,0,0,24,30,Injured:1
1800057,Paul Sewald,RP,NYM,4000,0,0,0,6,30,
1800589,Jacob Rhame,RP,NYM,4000,0,0,0,6,30,
1801379,Tim Anderson,SS,CWS,4000,7.14,14,0,141,283,Starter:1|LineupSpot6:1|PlayerMatchupIsGreat:1
1801381,Marcus Semien,SS,OAK,3900,8.12,7,0,125,283,Starter:1|LineupSpot2:1|PlayerMatchupIsHorribad:1|PlayerMatchupIsGreat:1|PlayerIsCold:1|ThumbDown:1
1801404,Rosell Herrera,SS,CIN,3000,0,0,0,78,283,
1801406,Amed Rosario,SS,NYM,3000,7.79,8,0,201,283,Starter:1|LineupSpot8:1|PlayerMatchupIsGreat:2
1800062,Wil Myers,OF,SD,3800,0,0,0,73,283,Injured:1
1800071,Harrison Bader,OF,STL,3700,10.42,5,0,137,283,Starter:1|LineupSpot6:1|PlayerMatchupIsGreat:2|VegasGood:1|StarGood:1
1800096,Mark Canha,OF,OAK,3500,0,2,0,125,283,
1800101,John Andreoli,OF,SEA,3400,0,0,0,167,283,
1800103,Dexter Fowler,OF,STL,3400,0,0,0,137,283,Injured:1
1800425,Denard Span,OF,SEA,4000,8.32,2,0,159,283,Starter:1|LineupSpot2:1|PlayerMatchupIsGreat:1|PlayerMatchupIsHorribad:1
1800432,Teoscar Hernandez,OF,TOR,3900,8.27,15,0,117,283,Starter:1|LineupSpot1:1|PlayerMatchupIsGreat:1
1800434,Daniel Palka,OF,CWS,3900,8.83,3,0,141,283,Starter:1|LineupSpot4:1|PlayerMatchupIsGreat:1|PlayerIsHot:1|ThumbUp:2
1800459,Keon Broxton,OF,MIL,3200,0,0,0,111,283,
1800468,Victor Robles,OF,WAS,3100,0,0,0,196,283,
1800634,Severino Gonzalez,RP,MIA,4000,0,0,0,29,30,
1800636,Brett Graves,RP,MIA,4000,0,0,0,29,30,Injured:1
1800640,Nick Wittgren,RP,MIA,4000,0,-0.95,0,29,30,
1800645,Matt Strahm,RP,SD,4000,0,0,0,30,30,
1800647,Tyler Kinley,RP,MIA,4000,0,0,0,29,30,
1800670,Brian Duensing,RP,CHC,4000,0,0,0,7,30,
1800672,Steve Cishek,RP,CHC,4000,0,2.75,0,7,30,
1800679,Richard Rodriguez,RP,PIT,4000,0,-2.15,0,4,30,
1800681,Randy Rosario,RP,CHC,4000,0,0,0,7,30,
1800756,Santiago Casilla,RP,OAK,4000,0,0,0,12,30,Injured:1
1800758,Yusmeiro Petit,RP,OAK,4000,0,2.25,0,12,30,
1800765,Liam Hendriks,RP,OAK,4000,0,0,0,12,30,Injured:1
1800767,Danny Coulombe,RP,OAK,4000,0,0,0,12,30,
1800356,Braden Shipley,SP,ARI,4300,0,0,0,26,30,
1800363,Gregory Soto,SP,DET,4200,0,0,0,8,30,
1800365,Lucas Giolito,SP,CWS,4100,0,0,0,5,30,
1800388,Alex Cobb,SP,BAL,4000,4.29,10.95,0,10,30,Starter:1|CrowdNegative:3|PlayerMatchupIsHorribad:2|VegasGood:1|VegasBad:1|ThumbUp:1|ThumbDown:1
1800390,Tommy Milone,SP,WAS,4000,0,0,0,28,30,Injured:1
1800540,Dylan Cease,SP,CWS,4000,0,0,0,5,30,
1800735,Martin Maldonado,C,LAA,2700,5.74,0,0,147,283,Starter:1|LineupSpot8:1|PlayerMatchupIsHorribad:2|PlayerMatchupIsGreat:1|PlayerIsCold:1|VegasGood:1
1800936,Matt Moore,SP,TEX,4000,0,0,0,9,30,Injured:1
1800938,Adrian Sampson,SP,TEX,4000,0,0,0,9,30,Injured:1
1800940,Chi Chi Gonzalez,SP,TEX,4000,0,0,0,9,30,Injured:1
1800961,Marcos Diplan,SP,MIL,4000,0,0,0,23,30,
1800963,Jacob Turner,SP,MIA,4000,0,0,0,29,30,
1800965,Bryan Mitchell,SP,SD,4000,0,-2.15,0,30,30,
1800999,Jesus Sucre,C,TB,2500,5.68,6,0,220,283,Starter:1|LineupSpot9:1|PlayerMatchupIsGreat:3|PlayerMatchupIsHorribad:1|VegasBad:1
1801001,Tony Cruz,C,CIN,2400,0,0,0,227,283,
1801008,Tuffy Gosewisch,C,SEA,2100,0,0,0,167,283,
1801010,Chris Gimenez,C,CHC,2100,5.19,6,0,91,283,Starter:1|LineupSpot7:1|VegasBad:1|StarBad:1
1800129,Willy Garcia,OF,CWS,2900,0,0,0,141,283,Injured:1
1800138,Matt den Dekker,OF,NYM,2800,0,0,0,38,283,
1800140,Alex Presley,OF,BAL,2800,0,0,0,19,283,
1800487,Boog Powell,OF,OAK,3100,0,0,0,166,283,Injured:1
1800492,Franmil Reyes,OF,SD,2800,7.92,14,0,73,283,Starter:1|LineupSpot5:1|PlayerMatchupIsHorribad:2|PlayerMatchupIsGreat:2
1800853,JB Shuck,OF,MIA,2500,0,0,0,156,283,
1800855,Shane Robinson,OF,NYY,2500,0,0,0,17,283,
1800862,Shane Peterson,OF,SD,2300,0,0,0,83,283,
1800864,Yordan Alvarez,OF,HOU,2300,0,0,0,51,283,
1800349,Nick Vincent,RP,SEA,4000,0,0,0,20,30,Injured:1
1800607,Jeremy Jeffress,RP,MIL,4000,0,0,0,23,30,
1800609,Luke Gregerson,RP,STL,4000,0,0,0,14,30,Injured:1
1800611,Greg Holland,RP,STL,4000,0,0,0,14,30,Injured:1
1800696,Chris Martin,RP,TEX,4000,0,0,0,9,30,
1800698,Ricardo Rodriguez,RP,TEX,4000,0,0,0,9,30,Injured:1
1800705,Nick Gardewine,RP,TEX,4000,0,0,0,9,30,
1800730,Jose Alvarez,RP,LAA,4000,0,0,0,22,30,
1800225,Corbin Burnes,SP,MIL,5300,0,0,0,23,30,
1800232,Rookie Davis,SP,CIN,5100,0,0,0,25,30,Injured:1
1800234,Yovani Gallardo,SP,TEX,5100,0,0,0,9,30,
1800258,Ryon Healy,1B,SEA,3300,7.16,2,0,167,283,Starter:1|LineupSpot6:1|PlayerMatchupIsGreat:1|PlayerMatchupIsHorribad:1|StarBad:1
1800260,Justin Bour,1B,MIA,3300,7.6,10,0,156,283,Starter:1|LineupSpot4:1|PlayerMatchupIsHorribad:1
1800267,Garrett Cooper,1B,MIA,3100,0,0,0,255,283,Injured:1
1800297,Asdrubal Cabrera,2B,NYM,3800,9.53,3,0,201,283,Starter:1|LineupSpot2:1|PlayerMatchupIsGreat:2|VegasBad:1|ThumbUp:1
1800326,Steven Matz,SP,NYM,6200,0,0,0,6,30,
1800347,Jaime Garcia,SP,TOR,5800,0,0,0,2,30,
1800501,Orlando Arcia,SS,MIL,2800,0,0,0,111,283,
1800503,Tyler Smith,SS,ATL,2700,0,0,0,49,283,
1800510,Andres Gimenez,SS,NYM,2000,0,0,0,38,283,
1800806,Rafael Devers,3B,BOS,3600,7.5,8,0,205,283,Starter:1|LineupSpot5:1|PlayerMatchupIsGreat:2|PlayerIsCold:1
1800808,Kyle Seager,3B,SEA,3500,7.32,7,0,159,283,Starter:1|LineupSpot5:1|PlayerMatchupIsHorribad:1|PlayerMatchupIsGreat:1
1800815,Danny Valencia,3B,BAL,3300,7.79,6,0,64,283,Starter:1|LineupSpot5:1|PlayerMatchupIsHorribad:1|PlayerMatchupIsGreat:1|VegasBad:2|StarGood:1
1800817,Ke'Bryan Hayes,3B,PIT,3300,0,0,0,82,283,
1801369,Nolan Jones,3B,CLE,2000,0,0,0,238,283,
1800014,Andrew Moore,RP,SEA,4300,0,0,0,20,30,
1800086,Dalton Pompey,OF,TOR,3500,0,0,0,117,283,
1800093,Travis Jankowski,OF,SD,3500,0,3,0,83,283,
1800104,Domingo Santana,OF,MIL,3400,0,0,0,111,283,
1800415,Kyle Schwarber,OF,CHC,4200,8.97,4,0,155,283,Starter:1|LineupSpot6:1|PlayerMatchupIsGreat:1|VegasGood:2|ThumbUp:1
1800426,Mitch Haniger,OF,SEA,4000,8.59,5,0,167,283,Starter:1|LineupSpot3:1|PlayerMatchupIsGreat:2|PlayerMatchupIsHorribad:1|PlayerIsCold:1|ThumbUp:1
1800433,Juan Soto,OF,WAS,3900,6.78,8,0,157,283,Starter:1|LineupSpot6:1|PlayerMatchupIsGreat:1|StarBad:1
1800440,Gregory Polanco,OF,PIT,3900,0,0,0,67,283,
1800453,Johnny Field,OF,TB,3300,7.63,5,0,220,283,Starter:1|LineupSpot8:1|PlayerMatchupIsGreat:3|PlayerIsCold:1|VegasGood:1|StarGood:1
1800460,Marcell Ozuna,OF,STL,3200,7.75,3,0,137,283,Starter:1|LineupSpot5:1|PlayerMatchupIsGreat:1
1800467,Rafael Bautista,OF,WAS,3100,0,0,0,196,283,Injured:1
1800397,Nick Burdi,RP,PIT,4000,0,0,0,4,30,Injured:1
1800626,Jordan Hicks,RP,STL,4000,0,0,0,14,30,
1800639,Drew Steckenrider,RP,MIA,4000,0,2.25,0,29,30,
1800646,Adam Cimber,RP,SD,4000,0,0,0,30,30,
1800671,Brandon Morrow,RP,CHC,4000,0,0,0,7,30,
1800678,A.J. Schugel,RP,PIT,4000,0,0,0,4,30,Injured:1
1800741,Dellin Betances,RP,NYY,4000,0,0,0,3,30,
1800748,Tommy Kahnle,RP,NYY,4000,0,4.25,0,3,30,
1800755,Ben Heller,RP,NYY,4000,0,0,0,3,30,Injured:1
1800759,Jonny Venters,RP,TB,4000,0,2.75,0,17,30,
1800766,Ryan Weber,RP,TB,4000,0,0,0,17,30,
1800773,Ryan Dull,RP,OAK,4000,0,0,0,12,30,
1800355,Kris Medlen,SP,ARI,4300,0,0,0,26,30,
1800366,Jorge De La Rosa,SP,ARI,4000,0,1.05,0,26,30,
1800373,Ricardo Sanchez,SP,ATL,4000,0,0,0,24,30,
1800380,Taylor Guerrieri,SP,TOR,4000,0,0,0,2,30,
1800391,David Holmberg,SP,BAL,4000,0,0,0,10,30,
1800548,Jake Stinnett,SP,CHC,4000,0,0,0,7,30,
1800559,Paul Blackburn,SP,OAK,4000,0,0,0,12,30,Injured:1
1800937,Connor Sadzeck,SP,TEX,4000,0,0,0,9,30,
1800955,Tyler Alexander,SP,DET,4000,0,0,0,8,30,
1800962,Luis Ortiz,SP,MIL,4000,0,0,0,23,30,
1800973,Nik Turley,SP,PIT,4000,0,0,0,4,30,Injured:1
1800984,Curt Casali,C,TB,2700,0,0,0,220,283,
1800991,Raffy Lopez,C,SD,2600,0,0,0,83,283,
1801002,Stuart Turner,C,CIN,2400,0,0,0,227,283,
1800112,Lonnie Chisenhall,OF,CLE,3000,0,0,0,238,283,Injured:1
1800123,Stephen Piscotty,OF,OAK,3000,6.64,8,0,125,283,Starter:1|LineupSpot7:1|PlayerMatchupIsHorribad:1|PlayerMatchupIsGreat:1|PlayerIsCold:1
1800130,Greg Allen,OF,CLE,2900,6.1,12,0,238,283,Starter:1|LineupSpot9:1|PlayerMatchupIsGreat:2|PlayerMatchupIsHorribad:1|OptimalPick:1|VegasGood:1|VegasBad:1
1800137,Jeremy Hazelbaker,OF,ARI,2800,0,0,0,201,283,
1800148,Carlos Tocci,OF,TEX,2800,0,0,0,183,283,Injured:1
1800444,Jacob Hannemann,OF,CHC,2000,0,0,0,155,283,
1800838,Magneuris Sierra,OF,MIA,2700,0,0,0,156,283,
1800845,Moises Sierra,OF,WAS,2600,0,0,0,196,283,
1800856,Michael Saunders,OF,TOR,2400,0,0,0,22,283,
1800863,Kyle Tucker,OF,HOU,2300,0,0,0,51,283,
1800870,Marcus Wilson,OF,ARI,2000,0,0,0,234,283,
1800251,Alex Wilson,RP,DET,4000,0,0,0,8,30,Injured:1
1800592,Ian Krol,RP,LAA,4000,0,0,0,22,30,
1800599,Warwick Saupold,RP,DET,4000,0,-0.35,0,8,30,
1800610,Brett Cecil,RP,STL,4000,0,-3.55,0,14,30,
1800690,James Pazos,RP,SEA,4000,0,0.75,0,20,30,
1800697,Jose Leclerc,RP,TEX,4000,0,3.9,0,9,30,
1800704,Nick Rumbelow,RP,SEA,4000,0,0,0,20,30,Injured:1
1800729,Blake Parker,RP,LAA,4000,0,0,0,22,30,
1800206,Amir Garrett,SP,CIN,5600,0,0,0,25,30,
1800210,Clay Buchholz,SP,ARI,5500,0,0,0,26,30,
1800217,Aaron Sanchez,SP,TOR,5400,7.95,-0.75,0,2,30,Starter:1|VegasBad:1|CrowdNegative:2|PlayerMatchupIsHorribad:2|PlayerMatchupIsGood:1|CrowdPositive:1|ThumbDown:2
1800224,Jaime Barria,SP,LAA,5300,0,0,0,22,30,
1800231,Justin Nicolino,SP,CIN,5100,0,0,0,25,30,
1800235,Tim Lincecum,SP,TEX,5100,0,0,0,9,30,Injured:1
1800261,Neil Walker,1B,NYY,3300,6.32,3,0,13,283,Starter:1|LineupSpot9:1|PlayerMatchupIsHorribad:2
1800268,Chris Davis,1B,BAL,3000,0,0,0,19,283,
1800286,Ozzie Albies,2B,ATL,4900,8.51,8,0,66,283,Starter:1|LineupSpot2:1|PlayerMatchupIsHorribad:1|PlayerMatchupIsGreat:2|PlayerIsCold:1|StarBad:1|ThumbDown:1
1800296,Gleyber Torres,2B,NYY,3900,9.27,3,0,17,283,Starter:1|LineupSpot5:1|PlayerMatchupIsHorribad:2|PlayerMatchupIsGreat:1|PlayerIsCold:1|VegasBad:1|ThumbUp:2
1800334,Joe Ross,SP,WAS,6100,0,0,0,28,30,Injured:1
1800155,Jack Reinheimer,SS,ARI,2900,0,0,0,234,283,
1800504,Freddy Galvis,SS,SD,2700,6.76,5,0,73,283,Starter:1|LineupSpot6:1|PlayerMatchupIsHorribad:2|PlayerIsHot:1|VegasGood:1
1800511,Carter Kieboom,SS,WAS,2000,0,0,0,196,283,
1800518,Freddie Freeman,1B,ATL,4800,9.16,8,0,66,283,Starter:1|LineupSpot3:1|PlayerMatchupIsHorribad:1|PlayerMatchupIsGreat:1
1800800,Todd Frazier,3B,NYM,4000,0,0,0,201,283,Injured:1
1800807,Colin Moran,3B,PIT,3600,0,0,0,67,283,
1800814,Vladimir Guerrero Jr.,3B,TOR,3300,0,0,0,117,283,
1800880,Yandy Diaz,3B,CLE,2600,0,0,0,44,283,
1800013,Jackson Stephens,RP,CIN,4300,0,-0.95,0,25,30,
1800024,Neftali Feliz,RP,ARI,4000,0,0,0,26,30,Injured:1
1800031,Michael Lorenzen,RP,CIN,4000,0,5.9,0,25,30,
1800038,Steve Hathaway,RP,ARI,4000,0,0,0,26,30,
1800049,Jeurys Familia,RP,NYM,4000,0,0,0,6,30,
1800056,Max Fried,RP,ATL,4000,9.9,15.85,0,24,30,Starter:1|CrowdPositive:2|PlayerMatchupIsGreat:3
1800572,Jarlin Garcia,RP,MIA,5300,0,0,0,29,30,
1800579,JC Ramirez,RP,LAA,5000,0,0,0,22,30,Injured:1
1800588,Robert Gsellman,RP,NYM,4400,0,0,0,6,30,
1801433,Omar Narvaez,C,CWS,2900,0,7,0,141,283,
1801435,Francisco Mejia,C,CLE,2900,0,0,0,238,283,
1801442,Rob Brantly,C,ATL,2800,0,0,0,66,283,
1801444,Mike Ohlman,C,BOS,2800,0,0,0,157,283,
1801474,Christian Colon,2B/SS,ATL,2700,0,0,0,49,283,
1801476,Adrian Sanchez,2B/SS,WAS,2700,0,0,0,196,283,
1801481,Yadiel Rivera,2B/SS,MIA,2600,5.86,14,0,255,283,Starter:1|LineupSpot6:1|PlayerMatchupIsGreat:1|PlayerMatchupIsHorribad:2|PlayerIsHot:1
1801483,Gift Ngoepe,2B/SS,TOR,2500,0,0,0,117,283,
1801283,Shawn Morimando,RP,CLE,4000,0,0,0,15,30,
1801285,Tyler Danish,RP,CWS,4000,0,0,0,5,30,Injured:1
1801138,Kolten Wong,2B,STL,2900,0,0,0,28,283,
1801140,Christopher Bostick,2B,PIT,2900,0,0,0,82,283,
1801147,Jemile Weeks,2B,CHC,2600,0,0,0,155,283,Injured:1
1801149,Keston Hiura,2B,MIL,2000,0,0,0,111,283,
1801315,Yadier Molina,C,STL,3200,0,0,0,137,283,Injured:1
1801317,Jacob Nottingham,C,MIL,3200,0,0,0,111,283,
1801415,Raudy Read,C,WAS,3100,0,0,0,196,283,Injured:1
1801815,Wei-Yin Chen,SP,MIA,4700,0,0,0,29,30,
1801817,David Hess,SP,BAL,4600,0,0,0,10,30,
1801822,Justus Sheffield,SP,NYY,4600,0,0,0,3,30,
1801824,Ryne Stanek,SP,TB,4600,0,5.95,0,17,30,
1801826,Sean Reid-Foley,SP,TOR,4500,0,0,0,2,30,
1800977,Neil Ramirez,RP,CLE,4000,0,3.05,0,15,30,
1801188,Carson Smith,RP,BOS,4000,0,0,0,13,30,Injured:1
1801190,Ryan Madson,RP,WAS,4000,0,0,0,28,30,Injured:1
1801197,Tim Collins,RP,WAS,4000,0,0,0,28,30,
1801199,Richard Bleier,RP,BAL,4000,0,-5.5,0,10,30,
1801500,Daniel Descalso,2B/3B,ARI,3300,8.57,12,0,201,283,Starter:1|LineupSpot4:1|PlayerMatchupIsGreat:2|PlayerMatchupIsHorribad:1
1801505,T.J. Rivera,2B/3B,NYM,2900,0,0,0,201,283,
1801846,Hernan Perez,2B/OF,MIL,2900,0,0,0,111,283,
1802728,Niko Goodrum,3B/OF,DET,3800,8.12,5,0,177,283,Starter:1|LineupSpot5:1|PlayerMatchupIsGreat:3|VegasBad:1|StarGood:1
1802735,Cory Spangenberg,3B/OF,SD,2700,0,0,0,83,283,
1800470,Tyler Naquin,OF,CLE,3100,0,0,0,238,283,Injured:1
1800472,Ryan Cordell,OF,CWS,3100,0,0,0,141,283,
1800477,Jim Adduci,OF,DET,3100,0,0,0,85,283,
1800157,Max Scherzer,SP,WAS,14000,0,0,0,28,30,
1800159,Gerrit Cole,SP,HOU,12900,0,0,0,1,30,
1800164,James Paxton,SP,SEA,11900,0,0,0,20,30,
1800189,J.A. Happ,SP,TOR,9500,0,0,0,2,30,
1801841,Wade LeBlanc,SP,SEA,4400,0,0,0,20,30,
1801843,Mike Minor,SP,TEX,4400,0,0,0,9,30,
1800312,Andrew Triggs,SP,OAK,6600,0,0,0,12,30,Injured:1
1800314,Alec Hansen,SP,CWS,6500,0,0,0,5,30,
1800321,Ivan Nova,SP,PIT,6400,0,0,0,4,30,Injured:1
1800323,Erick Fedde,SP,WAS,6300,0,0,0,28,30,
1801512,Dallas Keuchel,SP,HOU,8200,0,0,0,1,30,
1801514,Eduardo Rodriguez,SP,BOS,8100,0,0,0,13,30,
1801519,Kyle Hendricks,SP,CHC,8100,0,0,0,7,30,
1801521,Jeremy Hellickson,SP,WAS,8000,0,0,0,28,30,Injured:1
1801523,Julio Teheran,SP,ATL,7900,0,0,0,24,30,
1801544,Lucas Sims,SP,ATL,7100,0,0,0,24,30,
1801546,Luis Castillo,SP,CIN,7000,0,0,0,25,30,
1801548,Chad Kuhl,SP,PIT,7000,13.46,16.7,0,4,30,Starter:1|CrowdNegative:1|PlayerMatchupIsHorribad:2|CrowdPositive:1|VegasGood:1|ThumbDown:3
1804711,Luis Valbuena,1B/3B,LAA,3100,0,2,0,41,283,
1800790,Kris Bryant,3B,CHC,5000,9.25,5,0,91,283,Starter:1|LineupSpot3:1|PlayerMatchupIsGreat:1
1801385,Jurickson Profar,SS,TEX,3600,6.8,0,0,183,283,Starter:1|LineupSpot5:1|PlayerMatchupIsHorribad:2|PlayerMatchupIsGreat:1
1801400,Isan Diaz,SS,MIL,3100,0,0,0,54,283,
1801402,Cole Tucker,SS,PIT,3100,0,0,0,82,283,
1801429,Kurt Suzuki,C,ATL,2900,0,0,0,49,283,
1801431,Matt Wieters,C,WAS,2900,0,0,0,157,283,Injured:1
1801446,Alfredo Gonzalez,C,CWS,2800,3.02,0,0,141,283,Starter:1|LineupSpot9:1|PlayerMatchupIsGreat:1
1801448,Mike Marjama,C,SEA,2800,0,0,0,167,283,
1801472,Greg Garcia,2B/SS,STL,2800,0,2,0,28,283,Injured:1
1801485,Grant Green,2B/SS,MIA,2500,0,0,0,255,283,
1801487,Engelb Vielma,2B/SS,BAL,2400,0,0,0,64,283,
1801279,Jace Fry,RP,CWS,4000,0,0.45,0,5,30,
1801281,Nick Goody,RP,CLE,4000,0,0,0,15,30,Injured:1
1800530,Edwin Encarnacion,1B,CLE,4000,10,27,0,44,283,Starter:1|LineupSpot4:1|PlayerMatchupIsHorribad:1|PlayerMatchupIsGreat:1|VegasGood:1|ThumbDown:1
1800686,Luis Escobar,SP,PIT,4900,0,0,0,4,30,
1801136,Devon Travis,2B,TOR,2900,7.32,10,0,117,283,Starter:1|LineupSpot9:1|PlayerMatchupIsGreat:2
1801152,J.T. Realmuto,C,MIA,4100,0,0,0,255,283,
1801167,Wilson Ramos,C,TB,3300,0,0,0,220,283,
1801417,Mike Zunino,C,SEA,3100,7.47,2,0,167,283,Starter:1|LineupSpot7:1|PlayerMatchupIsGreat:2|PlayerMatchupIsHorribad:1|StarBad:1
1801419,Brett Nicholas,C,TEX,3100,0,0,0,206,283,
1801811,Ryan Borucki,SP,TOR,4700,0,0,0,2,30,
1801828,John Lamb,SP,LAA,4500,0,0,0,22,30,Injured:1
1801830,Williams Perez,SP,CHC,4500,0,0,0,7,30,Injured:1
1801184,Heath Hembree,RP,BOS,4000,0,6.7,0,13,30,
1801186,Justin Haley,RP,BOS,4000,0,0,0,13,30,Injured:1
1801201,Aaron Barrett,RP,WAS,4000,0,0,0,28,30,Injured:1
1801203,Matt Grace,RP,WAS,4000,0,0,0,28,30,Injured:1
1801657,Gordon Beckham,2B/3B,SEA,2700,5.33,3,0,167,283,Starter:1|LineupSpot8:1|PlayerMatchupIsGreat:1|PlayerMatchupIsHorribad:2|VegasGood:1
1801659,Phil Gosselin,2B/3B,ATL,2400,0,0,0,49,283,
1801844,Drew Robinson,2B/OF,TEX,2900,0,0,0,206,283,
1802724,Sean Rodriguez,2B/OF,PIT,2900,7.91,3,0,82,283,Starter:1|LineupSpot7:1|PlayerMatchupIsHorribad:2|PlayerMatchupIsGreat:1|PlayerIsCold:1|VegasBad:2
1802726,Steve Lombardozzi,2B/OF,OAK,2400,0,0,0,166,283,
1802738,Alexi Amarista,OF/SS,DET,2500,0,0,0,85,283,
1802741,Jung Ho Kang,3B/SS,PIT,3600,0,0,0,82,283,Injured:1
1802755,Chris Herrmann,C/OF,SEA,2500,0,0,0,159,283,
1800059,J.D. Martinez,OF,BOS,5400,10.89,18,0,157,283,Starter:1|LineupSpot4:1|PlayerMatchupIsHorribad:1|PlayerMatchupIsGreat:1|VegasGood:1|StarGood:1|ThumbUp:2
1800168,Carlos Carrasco,SP,CLE,11600,0,0,0,15,30,
1800170,Robbie Ray,SP,ARI,11300,0,0,0,26,30,Injured:1
1800193,Mike Clevinger,SP,CLE,9200,0,0,0,15,30,
1800308,Alex Reyes,SP,STL,6700,0,0,0,14,30,Injured:1
1800310,Junior Guerra,SP,MIL,6600,0,0,0,23,30,
1800325,Dan Straily,SP,MIA,6300,0,0,0,29,30,
1800399,Andrew Benintendi,OF,BOS,5000,10.75,31,0,205,283,Starter:1|LineupSpot1:1|PlayerMatchupIsGreat:3|ThumbUp:1
1801413,Masahiro Tanaka,SP,NYY,8400,0,0,0,3,30,
1801510,Luke Weaver,SP,STL,8300,16.7,2.8,0,14,30,Starter:1|PlayerMatchupIsHorribad:3|PlayerMatchupIsGreat:1|PlayerIsHot:1|StarGood:1|ThumbUp:2
1801525,CC Sabathia,SP,NYY,7900,0,0,0,3,30,
1801527,Garrett Richards,SP,LAA,7800,0,0,0,22,30,
1801540,Trevor Cahill,SP,OAK,7300,15.17,27.6,0,12,30,Starter:1|VegasGood:2|PlayerMatchupIsHorribad:1|CrowdNegative:1|PlayerMatchupIsGreat:1|PlayerMatchupIsGood:1|PlayerIsCold:1|StarGood:1|ThumbUp:1
1804642,Marwin Gonzalez,1B/OF,HOU,3200,8.48,10,0,51,283,Starter:1|LineupSpot5:1|PlayerMatchupIsHorribad:1|PlayerMatchupIsGreat:1|PlayerIsCold:1|ThumbDown:1
1804713,Wilmer Flores,1B/3B,NYM,3000,0,0,0,201,283,Injured:1
1800445,Jesus Sanchez,OF,TB,2000,0,0,0,171,283,
1800786,Lazaro Armenteros,OF,OAK,2000,0,0,0,125,283,
1801153,Francisco Cervelli,C,PIT,4000,0,0,0,82,283,Injured:1
1801166,Austin Romine,C,NYY,3300,0,0,0,17,283,
1801168,Tucker Barnhart,C,CIN,3200,7.33,3,0,78,283,Starter:1|LineupSpot2:1|PlayerMatchupIsHorribad:1|PlayerMatchupIsGreat:1|ThumbDown:1
1801314,Derek Norris,C,DET,3200,0,0,0,177,283,
1801416,Robinson Chirinos,C,TEX,3100,8.1,4,0,183,283,Starter:1|LineupSpot8:1|PlayerMatchupIsHorribad:2|PlayerMatchupIsGreat:1|StarGood:1
1801418,Cameron Rupp,C,TEX,3100,0,0,0,183,283,
1801810,Anibal Sanchez,SP,ATL,4700,0,0,0,24,30,Injured:1
1801812,Dylan Covey,SP,CWS,4700,4.58,6.95,0,5,30,Starter:1|VegasBad:1|PlayerMatchupIsHorribad:1|ThumbUp:1
1801829,John Gant,SP,STL,4500,0,0,0,14,30,
1801185,Danny Barnes,RP,TOR,4000,0,-0.95,0,2,30,
1801187,Roberto Osuna,RP,TOR,4000,0,0,0,2,30,Injured:1
1801200,Brad Brach,RP,BAL,4000,0,0,0,10,30,
1801202,Mychal Givens,RP,BAL,4000,0,0,0,10,30,
1801204,Wander Suero,RP,WAS,4000,0,0,0,28,30,
1801553,Marco Hernandez,2B/3B,BOS,2900,0,0,0,205,283,Injured:1
1801555,David Bote,2B/3B,CHC,2900,0,0,0,91,283,
1801658,Tommy La Stella,2B/3B,CHC,2500,6.41,4,0,155,283,Starter:1|LineupSpot2:1|VegasGood:1
1801845,Nick Franklin,2B/OF,MIL,2900,0,0,0,54,283,Injured:1
1802725,Andrew Romine,2B/OF,SEA,2500,5.58,3,0,159,283,Starter:1|LineupSpot9:1|PlayerMatchupIsHorribad:2|PlayerIsCold:1|StarBad:1
1802739,Mike Freeman,OF/SS,CHC,2200,0,0,0,155,283,
1802754,Blake Swihart,C/OF,BOS,2900,0,0,0,205,283,
1800169,Tanner Roark,SP,WAS,11400,0,0,0,28,30,
1800171,Luis Severino,SP,NYY,11200,0,0,0,3,30,
1800186,Patrick Corbin,SP,ARI,9700,0,0,0,26,30,
1800194,Cole Hamels,SP,TEX,9200,0,0,0,9,30,
1800196,Tyler Skaggs,SP,LAA,9200,17.31,5.85,0,22,30,Starter:1|VegasGood:2|PlayerMatchupIsHorribad:1|CrowdPositive:4|PlayerMatchupIsGood:1|PlayerMatchupIsBad:2
1800307,Taijuan Walker,SP,ARI,6700,0,0,0,26,30,Injured:1
1800309,Matt Shoemaker,SP,LAA,6600,0,0,0,22,30,Injured:1
1800311,Tyler Chatwood,SP,CHC,6600,0,0,0,7,30,
1800398,George Springer,OF,HOU,5200,10.72,0,0,276,283,Starter:1|LineupSpot1:1|PlayerMatchupIsGreat:2|PlayerMatchupIsHorribad:1|ThumbUp:1
1801412,Danny Salazar,SP,CLE,8400,0,0,0,15,30,Injured:1
1801526,Blake Snell,SP,TB,7900,0,0,0,17,30,
1801541,Zack Wheeler,SP,NYM,7200,0,0,0,6,30,
1801543,Brandon McCarthy,SP,ATL,7100,0,0,0,24,30,
1804643,Jose Osuna,1B/OF,PIT,3100,0,0,0,82,283,
1804701,Efren Navarro,1B/OF,CHC,2400,0,0,0,155,283,
1804712,David Freese,1B/3B,PIT,3100,6.49,0,0,82,283,Starter:1|LineupSpot6:1|PlayerMatchupIsHorribad:2|VegasBad:1
1801269,Robbie Ross Jr.,RP,CWS,4000,0,0,0,5,30,Injured:1
1800785,Garrett Whitley,OF,TB,2000,0,0,0,220,283,
1800787,Austin Beck,OF,OAK,2000,0,0,0,125,283,
1801382,Jose Peraza,SS,CIN,3800,7.76,8,0,227,283,Starter:1|LineupSpot1:1|PlayerMatchupIsGreat:2|PlayerIsHot:1|ThumbDown:1
1801389,Aledmys Diaz,SS,TOR,3300,0,0,0,117,283,Injured:1
1801396,Yairo Munoz,SS,STL,3200,5.11,16,0,137,283,Starter:1|LineupSpot7:1|PlayerMatchupIsHorribad:1|PlayerMatchupIsGreat:1|PlayerIsHot:1
1801407,Fernando Tatis Jr.,SS,SD,3000,0,0,0,73,283,
1801425,Rene Rivera,C,LAA,3000,0,0,0,147,283,Injured:1
1801432,Andrew Susac,C,BAL,2900,6.94,0,0,64,283,Starter:1|LineupSpot9:1|PlayerMatchupIsHorribad:2|VegasGood:1
1801443,Sandy Leon,C,BOS,2800,0,0,0,205,283,
1801450,A.J. Ellis,C,SD,2800,5.98,0,0,73,283,Starter:1|LineupSpot7:1|PlayerMatchupIsHorribad:2|PlayerMatchupIsGreat:1
1801464,Tzu-Wei Lin,2B/SS,BOS,2900,0,0,0,205,283,
1801468,Lourdes Gurriel Jr.,2B/SS,TOR,2800,0,0,0,117,283,
1801475,Danny Espinosa,2B/SS,TOR,2700,0,0,0,117,283,
1801482,Kristopher Negron,2B/SS,ARI,2500,0,0,0,234,283,
1801493,Ryan Lavarnway,1B/C,PIT,2700,0,0,0,82,283,
1801277,Cody Allen,RP,CLE,4000,0,0,0,15,30,
1801284,Tyler Olson,RP,CLE,4000,0,5.5,0,15,30,
1801309,Matt Bush,RP,TEX,4000,0,0,0,9,30,
1800533,Greg Bird,1B,NYY,3900,7.29,17,0,13,283,Starter:1|LineupSpot4:1|PlayerMatchupIsHorribad:2|PlayerMatchupIsGreat:1
1800637,Dustin Pedroia,2B,BOS,3500,0,0,0,157,283,
1801130,Luis Urias,2B,SD,3100,0,0,0,73,283,
1801141,Micah Johnson,2B,TB,2900,0,0,0,171,283,
1801148,Max Schrock,2B,OAK,2300,0,0,0,166,283,
1801154,Willson Contreras,C,CHC,3900,0,0,0,91,283,
1801165,Chance Sisco,C,BAL,3300,0,0,0,19,283,
1801316,Stephen Vogt,C,MIL,3200,0,0,0,54,283,Injured:1
1801800,Mitch Keller,SP,PIT,4900,0,0,0,4,30,
1801807,Brent Suter,SP,MIL,4800,7.91,18.25,0,23,30,Starter:1|PlayerMatchupIsHorribad:3|PlayerMatchupIsGreat:1|PlayerMatchupIsGood:1|CrowdNegative:1|PlayerIsHot:1|ThumbDown:1
1801814,Brandon Woodruff,SP,MIL,4700,0,0,0,23,30,
1801825,A.J. Griffin,SP,NYM,4500,0,0,0,6,30,
1801832,Aaron Blair,SP,ATL,4400,0,0,0,24,30,
1801839,Jesse Chavez,SP,TEX,4400,0,0,0,9,30,
1801182,Tyler Thornburg,RP,BOS,4000,0,0,0,13,30,Injured:1
1801189,Joaquin Benoit,RP,WAS,4000,0,0,0,28,30,Injured:1
1801196,Sammy Solis,RP,WAS,4000,0,0,0,28,30,
1801207,Chris Lee,RP,BAL,4000,0,0,0,10,30,
1801214,Joakim Soria,RP,CWS,4000,0,0,0,5,30,
1801556,Ronald Torreyes,2B/3B,NYY,2900,0,0,0,17,283,
1801655,Alex Blandino,2B/3B,CIN,2700,0,0,0,227,283,
1802729,Jose Bautista,3B/OF,NYM,3300,7.38,7,0,201,283,Starter:1|LineupSpot4:1|PlayerMatchupIsGreat:1|PlayerIsHot:1|StarGood:1|VegasBad:1
1802736,Patrick Kivlehan,3B/OF,CIN,2000,0,0,0,227,283,
1802744,Taylor Motter,3B/SS,SEA,3200,0,0,0,167,283,
1802751,Dusty Coleman,3B/SS,SD,2700,0,0,0,73,283,
1800167,Trevor Bauer,SP,CLE,11700,0,0,0,15,30,OptimalPick:1
1800174,Lance McCullers Jr.,SP,HOU,11000,0,0,0,1,30,
1801840,Edinson Volquez,SP,TEX,4400,0,0,0,9,30,Injured:1
1800192,Michael Wacha,SP,STL,9300,0,0,0,14,30,
1800199,Jimmy Nelson,SP,MIL,8700,0,0,0,23,30,Injured:1
1800304,Nick Tropeano,SP,LAA,6800,0,0,0,22,30,
1800315,Alex Meyer,SP,LAA,6500,0,0,0,22,30,Injured:1
1800322,Drew Smyly,SP,CHC,6400,0,0,0,7,30,Injured:1
1800401,Starling Marte,OF,PIT,4800,6.47,0,0,82,283,Starter:1|LineupSpot3:1|PlayerMatchupIsHorribad:2
1801411,Jordan Montgomery,SP,NYY,8500,0,0,0,3,30,Injured:1
1801513,Sean Newcomb,SP,ATL,8100,0,0,0,24,30,
1801520,Zack Godley,SP,ARI,8000,0,0,0,26,30,
1801531,Kevin Gausman,SP,BAL,7600,0,0,0,10,30,
1801545,Felix Hernandez,SP,SEA,7100,0,0,0,20,30,
1804634,Matt Adams,1B/OF,WAS,4300,9.92,10,0,157,283,Starter:1|LineupSpot4:1|PlayerMatchupIsGreat:2|ThumbUp:1
1804639,Steve Pearce,1B/OF,TOR,3500,0,0,0,117,283,Injured:1
1804710,Jefry Marte,1B/3B,LAA,3200,7.92,0,0,147,283,Starter:1|LineupSpot6:1|PlayerMatchupIsHorribad:1|PlayerMatchupIsGreat:1|PlayerIsCold:1|VegasGood:1|StarGood:1
1804717,Willie Calhoun,2B/OF,TEX,3800,0,0,0,206,283,
1800791,Travis Shaw,3B,MIL,4700,9.85,3,0,54,283,Starter:1|LineupSpot4:1|PlayerMatchupIsHorribad:2|PlayerMatchupIsGreat:2|ThumbUp:1|ThumbDown:1
1800528,Mitch Moreland,1B,BOS,4100,9.13,3,0,205,283,Starter:1|LineupSpot3:1|PlayerMatchupIsGreat:3|ThumbUp:1
1801371,Manny Machado,SS,BAL,5400,10.16,3,0,64,283,Starter:1|LineupSpot3:1|PlayerMatchupIsHorribad:1|PlayerMatchupIsGreat:1|PlayerIsCold:1|StarGood:1|ThumbUp:2
1801372,Francisco Lindor,SS,CLE,4900,10.12,15,0,238,283,Starter:1|LineupSpot1:1|PlayerMatchupIsGreat:3
1800027,T.J. McFarland,RP,ARI,4000,0,2.7,0,26,30,
1800028,Michael Blazek,RP,ARI,4000,0,0,0,26,30,
1800042,Tanner Rainey,RP,CIN,4000,0,1.85,0,25,30,
1800045,Anthony Swarzak,RP,NYM,4000,0,0,0,6,30,Injured:1
1800575,Matt Koch,RP,ARI,5100,9.75,-2.55,0,26,30,Starter:1|PlayerMatchupIsHorribad:1|CrowdNegative:1|CrowdPositive:1|PlayerMatchupIsBad:1|VegasBad:1|VegasGood:1|StarBad:1|ThumbDown:2
1800576,Hunter Harvey,RP,BAL,5100,0,0,0,10,30,
1801378,Xander Bogaerts,SS,BOS,4200,8.29,5,0,157,283,Starter:1|LineupSpot2:1|PlayerMatchupIsHorribad:1|StarGood:1
1801392,Addison Russell,SS,CHC,3300,0,21,0,91,283,
1801393,Dansby Swanson,SS,ATL,3200,6.23,0,0,49,283,Starter:1|LineupSpot8:1|PlayerMatchupIsHorribad:1|PlayerMatchupIsGreat:1
1801014,Luis Torrens,C,SD,2000,0,0,0,73,283,
1801017,Daniel Robertson,2B/SS,TB,3700,7.45,0,0,220,283,Starter:1|LineupSpot5:1|PlayerMatchupIsGreat:3|VegasGood:1
1801018,Eduardo Nunez,2B/SS,BOS,3200,7.91,5,0,157,283,Starter:1|LineupSpot6:1|PlayerMatchupIsHorribad:1|PlayerMatchupIsGreat:1
1801439,Jacob Stallings,C,PIT,2900,0,0,0,82,283,
1801440,Josh Phegley,C,OAK,2900,0,0,0,125,283,
1801453,Chris Stewart,C,ATL,2700,0,0,0,49,283,
1801454,Tomas Nido,C,NYM,2700,0,0,0,201,283,
1801479,Darwin Barney,2B/SS,TEX,2600,0,0,0,183,283,
1801496,Yangervis Solarte,2B/3B,TOR,4000,6.63,2,0,117,283,Starter:1|LineupSpot4:1|PlayerMatchupIsHorribad:1|PlayerIsCold:1|VegasGood:1
1801497,Isiah Kiner-Falefa,2B/3B,TEX,3700,7.98,2,0,183,283,Starter:1|LineupSpot3:1|PlayerMatchupIsHorribad:2|PlayerIsCold:1
1801273,Chris Beck,RP,CWS,4000,0,1.2,0,5,30,
1801274,Bruce Rondon,RP,CWS,4000,0,0,0,5,30,
1800536,Ryan Zimmerman,1B,WAS,3700,0,0,0,196,283,Injured:1
1800537,Ronald Guzman,1B,TEX,3700,8.13,0,0,206,283,Starter:1|LineupSpot9:1|PlayerMatchupIsGreat:2|PlayerMatchupIsHorribad:2
1801126,Josh Harrison,2B,PIT,3400,8.6,0,0,82,283,Starter:1|LineupSpot1:1|PlayerMatchupIsHorribad:2|VegasGood:1
1801127,Tyler Wade,2B,NYY,3400,0,0,0,13,283,
1801144,Dixon Machado,2B,DET,2700,5.43,11,0,177,283,Starter:1|LineupSpot9:1|PlayerMatchupIsGreat:2|StarGood:1
1801145,Carlos Asuaje,2B,SD,2700,0,0,0,83,283,
1801158,John Ryan Murphy,C,ARI,3600,6.28,14,0,234,283,Starter:1|LineupSpot5:1|PlayerMatchupIsGreat:3|PlayerMatchupIsHorribad:1|PlayerIsHot:1|StarBad:1
1801803,Cody Reed,SP,CIN,4800,0,0,0,25,30,
1801804,Steven Wright,SP,BOS,4800,0,7.9,0,13,30,
1801835,Josh Tomlin,SP,CLE,4400,0,0,0,15,30,
1801836,Tim Cooney,SP,CLE,4400,0,0,0,15,30,Injured:1
1800974,Zach McAllister,RP,CLE,4000,0,0,0,15,30,
1800975,Dan Otero,RP,CLE,4000,0,0,0,15,30,
1801175,John Axford,RP,TOR,4000,0,0.45,0,2,30,
1801178,Ryan Tepera,RP,TOR,4000,0,0,0,2,30,
1801192,Darren O'Day,RP,BAL,4000,0,0,0,10,30,Injured:1
1801193,Zach Britton,RP,BAL,4000,0,0,0,10,30,
1801210,Trevor Gott,RP,WAS,4000,0,0,0,28,30,
1801211,Miguel Castro,RP,BAL,4000,0,6.4,0,10,30,
1801502,Wilmer Difo,2B/3B,WAS,3200,7.35,5,0,157,283,Starter:1|LineupSpot8:1|PlayerMatchupIsGreat:1|PlayerIsHot:1|VegasGood:1|ThumbDown:1
1801503,Erik Gonzalez,2B/3B,CLE,3200,0,0,0,44,283,
1802732,Brian Anderson,3B/OF,MIA,2900,7.7,10,0,255,283,Starter:1|LineupSpot2:1|PlayerMatchupIsGreat:1|PlayerMatchupIsHorribad:2
1802748,Charlie Culberson,3B/SS,ATL,2800,0,16,0,49,283,
1800160,Charlie Morton,SP,HOU,12800,0,0,0,1,30,
1800177,Carlos Martinez,SP,STL,10600,0,0,0,14,30,Injured:1
1800178,Noah Syndergaard,SP,NYM,10500,0,0,0,6,30,
1800568,Brad Peacock,RP,HOU,5800,0,0,0,1,30,
1800569,Domingo German,RP,NYY,5800,6.69,16.55,0,3,30,Starter:1|CrowdNegative:1|PlayerMatchupIsGreat:1|PlayerIsCold:1|StarGood:1|ThumbUp:2
1800350,Martin Perez,SP,TEX,4400,0,0,0,9,30,Injured:1
1800301,Marco Gonzales,SP,SEA,6900,12.72,22.2,0,20,30,Starter:1|VegasGood:1|PlayerMatchupIsGreat:2|CrowdNegative:1|CrowdPositive:1|PlayerMatchupIsHorribad:2|ThumbDown:1
1800404,A.J. Pollock,OF,ARI,4600,0,0,0,234,283,Injured:1
1800780,Bryce Harper,OF,WAS,5600,11.54,6,0,157,283,Starter:1|LineupSpot2:1|PlayerMatchupIsGreat:2|VegasGood:1
1801516,Freddy Peralta,SP,MIL,8100,0,0,0,23,30,
1801517,Joey Lucchesi,SP,SD,8100,0,0,0,30,30,Injured:1
1801534,Reynaldo Lopez,SP,CWS,7500,0,0,0,5,30,
1801549,Collin McHugh,SP,HOU,7000,0,0,0,1,30,
1804707,Matt Davidson,1B/3B,CWS,3700,0,0,0,141,283,Injured:1
1804721,Adam Frazier,2B/OF,PIT,3100,0,0,0,67,283,
1800616,Ryan Sherriff,RP,STL,4000,0,0,0,14,30,
1800619,Adrian Houser,RP,MIL,4000,0,0,0,23,30,
1800524,Jose Martinez,1B,STL,4200,10.74,0,0,137,283,Starter:1|LineupSpot2:1|PlayerMatchupIsGreat:2
1800525,Jesus Aguilar,1B,MIL,4200,10.16,0,0,111,283,Starter:1|LineupSpot3:1|PlayerMatchupIsGreat:2|OptimalPick:1|PlayerIsHot:1|VegasGood:2|ThumbUp:2
1800016,Austin Voth,RP,WAS,4200,0,0,0,28,30,
1800039,Silvino Bracho,RP,ARI,4000,0,0,0,26,30,
1800041,Raisel Iglesias,RP,CIN,4000,0,0,0,25,30,Injured:1
1800046,Sam Freeman,RP,ATL,4000,0,8.25,0,24,30,
1800048,Arodys Vizcaino,RP,ATL,4000,0,0,0,24,30,
1800571,Domingo Acevedo,RP,NYY,5400,0,0,0,3,30,
1800573,Merandy Gonzalez,RP,MIA,5300,0,0,0,29,30,
1800580,Aaron Wilkerson,RP,MIL,5000,0,0,0,23,30,
1800581,Chris Volstad,RP,CWS,4900,0,-2.6,0,5,30,
1801388,Willy Adames,SS,TB,3500,0,0,0,220,283,
1801390,Miguel Rojas,SS,MIA,3300,7.82,10,0,255,283,Starter:1|LineupSpot1:1|PlayerMatchupIsGreat:1|PlayerMatchupIsHorribad:2|PlayerIsCold:1
1801397,Domingo Leyba,SS,ARI,3100,0,0,0,201,283,
1801399,Mauricio Dubon,SS,MIL,3100,0,0,0,111,283,
1801013,Juan Graterol,C,LAA,2000,0,0,0,147,283,
1801020,Jose Rondon,2B/SS,CWS,3200,0,0,0,141,283,
1801424,Yan Gomes,C,CLE,3000,6.44,7,0,44,283,Starter:1|LineupSpot8:1|PlayerMatchupIsHorribad:1|PlayerIsCold:1
1801426,James McCann,C,DET,3000,8.54,24,0,177,283,Starter:1|LineupSpot4:1|PlayerMatchupIsGreat:2|PlayerIsCold:1
1801449,Jett Bandy,C,MIL,2800,0,0,0,111,283,
1801451,Tomas Telis,C,MIA,2800,0,0,0,255,283,
1801467,Luis Guillorme,2B/SS,NYM,2800,3.6,10,0,38,283,Starter:1|LineupSpot7:1|PlayerMatchupIsHorribad:2|PlayerIsCold:1
1801492,Victor Caratini,1B/C,CHC,2900,0,0,0,155,283,
1801276,Perci Garner,RP,CLE,4000,0,0,0,15,30,Injured:1
1801278,Evan Marshall,RP,CLE,4000,0,5.8,0,15,30,
1801310,Tony Barnette,RP,TEX,4000,0,0,0,9,30,
1801312,Jake Diekman,RP,TEX,4000,0,0,0,9,30,
1800539,Peter Alonso,1B,NYM,3600,0,0,0,201,283,
1800638,Jonathan Villar,2B,MIL,3500,7.22,22,0,54,283,Starter:1|LineupSpot6:1|PlayerMatchupIsHorribad:2|PlayerMatchupIsGreat:2|StarBad:1|ThumbUp:1
1801131,Joey Wendle,2B,TB,3100,8.39,5,0,171,283,Starter:1|LineupSpot3:1|PlayerMatchupIsHorribad:1|PlayerMatchupIsGreat:1|PlayerIsHot:1
1801157,Evan Gattis,C,HOU,3700,8.49,11,0,276,283,Starter:1|LineupSpot6:1|PlayerMatchupIsGreat:2|PlayerMatchupIsHorribad:1|OptimalPick:1|ThumbUp:1
1801162,Elias Diaz,C,PIT,3500,7.05,0,0,82,283,Starter:1|LineupSpot8:1|PlayerMatchupIsHorribad:2|PlayerMatchupIsGreat:1|PlayerIsCold:1|VegasGood:1|VegasBad:1
1801164,Brian McCann,C,HOU,3400,6.56,0,0,51,283,Starter:1|LineupSpot8:1|PlayerMatchupIsHorribad:1|PlayerMatchupIsGreat:1|PlayerIsCold:1
1801422,Travis d'Arnaud,C,NYM,3000,0,0,0,201,283,Injured:1
1801808,Anthony Banda,SP,TB,4800,0,0,0,17,30,
1801831,Grant Holmes,SP,OAK,4500,0,0,0,12,30,
1801833,Chris Tillman,SP,BAL,4400,0,0,0,10,30,Injured:1
1801172,Craig Breslow,RP,TOR,4000,0,0,0,2,30,
1801174,Seunghwan Oh,RP,TOR,4000,0,0,0,2,30,
1801179,Jake Petricka,RP,TOR,4000,0,2.25,0,2,30,
1801181,Matt Barnes,RP,BOS,4000,0,0,0,13,30,
1801183,Deck McGuire,RP,TOR,4000,0,0,0,2,30,
1801206,Jeff Ferrell,RP,BAL,4000,0,0,0,10,30,Injured:1
1801208,Jayson Aquino,RP,BAL,4000,0,0,0,10,30,
1801213,Koda Glover,RP,WAS,4000,0,0,0,28,30,Injured:1
1801215,Xavier Cedeno,RP,CWS,4000,0,0,0,5,30,Injured:1
1801656,Jace Peterson,2B/3B,BAL,2700,0,0,0,19,283,
1802742,Tyler Saladino,3B/SS,MIL,3500,5.89,2,0,111,283,Starter:1|LineupSpot8:1|PlayerMatchupIsHorribad:1|PlayerMatchupIsGreat:1|VegasGood:1
1802743,Jose Reyes,3B/SS,NYM,3400,0,0,0,201,283,
1802750,Johan Camargo,3B/SS,ATL,2800,6.12,7,0,66,283,Starter:1|LineupSpot7:1|PlayerMatchupIsHorribad:1|PlayerMatchupIsGreat:1|VegasGood:1
1802752,Ruben Tejada,3B/SS,BAL,2500,0,0,0,64,283,
1800173,Miles Mikolas,SP,STL,11000,0,0,0,14,30,
1800175,Jack Flaherty,SP,STL,10900,0,0,0,14,30,
1800562,Caleb Smith,RP,MIA,8100,15.32,22.75,0,29,30,Starter:1|PlayerMatchupIsGreat:1|PlayerMatchupIsGood:1|PlayerMatchupIsHorribad:2
1800564,Adam Plutko,RP,CLE,7200,11.37,5.05,0,15,30,Starter:1|VegasGood:1|PlayerMatchupIsGreat:2|PlayerMatchupIsGood:1
1800198,Mike Foltynewicz,SP,ATL,8800,0,0,0,24,30,
1800200,Yu Darvish,SP,CHC,8600,0,0,0,7,30,Injured:1
1800305,Jhoulys Chacin,SP,MIL,6800,0,0,0,23,30,
1800400,Tommy Pham,OF,STL,4900,11.23,0,0,137,283,Starter:1|LineupSpot3:1|PlayerMatchupIsGreat:2|PlayerIsCold:1|VegasGood:1
1800402,Shohei Ohtani,OF,LAA,4700,0,0,0,41,283,
1801410,Jon Lester,SP,CHC,8500,0,0,0,7,30,
1801528,Carlos Rodon,SP,CWS,7700,0,0,0,5,30,Injured:1
1801537,Dinelson Lamet,SP,SD,7400,0,0,0,30,30,Injured:1
1801539,Jameson Taillon,SP,PIT,7300,0,0,0,4,30,
1804635,Joey Gallo,1B/OF,TEX,4000,0,0,0,206,283,
1804638,Trey Mancini,1B/OF,BAL,3600,6.37,0,0,64,283,Starter:1|LineupSpot6:1|PlayerMatchupIsHorribad:1|PlayerIsCold:1
1804716,Chase Headley,1B/3B,SD,2500,0,0,0,73,283,
1804718,Ben Zobrist,2B/OF,CHC,3600,8.39,2,0,155,283,Starter:1|LineupSpot1:1|StarGood:1|VegasBad:1
1800615,Sam Tuivailala,RP,STL,4000,0,0,0,14,30,
1800522,Joey Votto,1B,CIN,4300,9.47,5,0,78,283,Starter:1|LineupSpot3:1|PlayerMatchupIsHorribad:1|PlayerMatchupIsGreat:3
1800812,Matt Duffy,3B,TB,3400,7.49,0,0,220,283,Starter:1|LineupSpot4:1|PlayerMatchupIsGreat:3
1800813,David Wright,3B,NYM,3300,0,0,0,201,283,Injured:1
1800826,Brandon Snyder,3B,TB,2900,0,0,0,220,283,
1800827,Ryan Flaherty,3B,ATL,2800,0,0,0,66,283,
1801373,Trea Turner,SS,WAS,4800,10.83,7,0,196,283,Starter:1|LineupSpot1:1|PlayerMatchupIsGreat:1
1800012,Corey Oswalt,RP,NYM,4400,0,0,0,6,30,
1800025,Fernando Salas,RP,ARI,4000,0,4.25,0,26,30,
1800026,Yoshihisa Hirano,RP,ARI,4000,0,0,0,26,30,
1800029,Randall Delgado,RP,ARI,4000,0,0,0,26,30,Injured:1
1800043,Peter Moylan,RP,ATL,4000,0,0,0,24,30,
1800044,Jerry Blevins,RP,NYM,4000,0,0,0,6,30,
1800577,Rob Whalen,RP,SEA,5100,0,0,0,20,30,
1800578,Sam Gaviglio,RP,TOR,5000,0,0,0,2,30,
1800590,Shane Carle,RP,ATL,4000,0,7.05,0,24,30,
1801376,Carlos Correa,SS,HOU,4700,10.49,0,0,276,283,Starter:1|LineupSpot3:1|PlayerMatchupIsGreat:2|PlayerMatchupIsHorribad:1
1801377,Jean Segura,SS,SEA,4600,0,0,0,167,283,
1801394,Bo Bichette,SS,TOR,3200,0,0,0,117,283,
1801395,Jose Iglesias,SS,DET,3200,6.84,10,0,177,283,Starter:1|LineupSpot8:1|PlayerMatchupIsGreat:2
1801409,Jorge Mateo,SS,OAK,3000,0,0,0,125,283,
1801016,Javier Baez,2B/SS,CHC,4500,9.05,8,0,91,283,Starter:1|LineupSpot5:1|PlayerMatchupIsGreat:1|PlayerIsHot:1|VegasGood:2|ThumbUp:1
1801423,Welington Castillo,C,CWS,3000,0,0,0,141,283,Injured:1
1801437,Erik Kratz,C,MIL,2900,0,0,0,111,283,
1801438,Manny Pina,C,MIL,2900,6.67,10,0,111,283,Starter:1|LineupSpot7:1|PlayerMatchupIsGreat:1|PlayerIsCold:1|VegasGood:1|StarBad:1
1801455,Christian Vazquez,C,BOS,2700,5.75,5,0,157,283,Starter:1|LineupSpot8:1|PlayerMatchupIsHorribad:2|VegasBad:1|ThumbUp:1
1801463,Hanser Alberto,2B/SS,TEX,3000,0,0,0,183,283,
1801477,Luis Sardinas,2B/SS,BAL,2700,0,0,0,64,283,Injured:1
1801480,Eric Sogard,2B/SS,MIL,2600,0,0,0,54,283,
1801494,Taylor Davis,1B/C,CHC,2300,0,0,0,91,283,
1801495,Daniel Murphy,2B/3B,WAS,4300,0,0,0,157,283,Injured:1
1801271,Luis Avilan,RP,CWS,4000,0,0.75,0,5,30,
1801272,Adam Wilk,RP,CLE,4000,0,0,0,15,30,
1800534,Yonder Alonso,1B,CLE,3800,8.92,18,0,238,283,Starter:1|LineupSpot5:1|PlayerMatchupIsGreat:3|PlayerIsHot:1|ThumbDown:1
1800535,Matt Olson,1B,OAK,3800,9.54,7,0,166,283,Starter:1|LineupSpot4:1|PlayerMatchupIsGreat:2|ThumbUp:1
1801128,Rougned Odor,2B,TEX,3200,5.43,13,0,206,283,Starter:1|LineupSpot7:1|PlayerMatchupIsGreat:1|PlayerMatchupIsHorribad:2
1801129,Ian Kinsler,2B,LAA,3100,7.93,3,0,147,283,Starter:1|LineupSpot7:1|PlayerMatchupIsHorribad:1|PlayerMatchupIsGreat:2|PlayerIsCold:1|VegasGood:1
1801142,Robinson Cano,2B,SEA,2800,0,0,0,159,283,Injured:1
1801160,Devin Mesoraco,C,NYM,3500,6.53,23,0,201,283,Starter:1|LineupSpot6:1|PlayerMatchupIsGreat:1|PlayerIsHot:1|StarBad:1|VegasBad:1
1801801,A.J. Puk,SP,OAK,4900,0,0,0,12,30,
1801802,Rubby De La Rosa,SP,ARI,4800,0,0,0,26,30,Injured:1
1801837,Carson Fulmer,SP,CWS,4400,0,0,0,5,30,
1800976,Nate Jones,RP,CWS,4000,0,0,0,5,30,
1801176,Craig Kimbrel,RP,BOS,4000,0,0,0,13,30,
1801177,Aaron Loup,RP,TOR,4000,0,0,0,2,30,
1801194,Shawn Kelley,RP,WAS,4000,0,2.4,0,28,30,
1801195,Sean Doolittle,RP,WAS,4000,0,0,0,28,30,
1801209,Pedro Araujo,RP,BAL,4000,0,0,0,10,30,
1801212,Tanner Scott,RP,BAL,4000,0,0,0,10,30,
1801501,Brandon Drury,2B/3B,NYY,3300,0,0,0,17,283,
1801504,Zack Cozart,2B/3B,LAA,3200,9.01,2,0,147,283,Starter:1|LineupSpot1:1|PlayerMatchupIsHorribad:1|PlayerMatchupIsGreat:2|StarGood:1|ThumbDown:1
1802731,Renato Nunez,3B/OF,BAL,2900,0,0,0,64,283,
1802734,Steve Selsky,3B/OF,BOS,2700,0,0,0,157,283,
1802746,Christian Arroyo,3B/SS,TB,3100,7.23,0,0,220,283,Starter:1|LineupSpot6:1|PlayerMatchupIsGreat:4|OptimalPick:1|VegasBad:1
1800161,Justin Verlander,SP,HOU,12600,25.27,23.4,0,1,30,Starter:1|CrowdNegative:1|PlayerMatchupIsGreat:1|PlayerMatchupIsHorribad:2|PlayerMatchupIsGood:1|ThumbUp:1
1800162,Chris Sale,SP,BOS,12500,0,0,0,13,30,
1800179,David Price,SP,BOS,10200,17.08,14.45,0,13,30,Starter:1|VegasGood:1|CrowdNegative:2|PlayerMatchupIsGreat:1|PlayerMatchupIsHorribad:2|PlayerMatchupIsGood:1|PlayerIsHot:1|ThumbUp:1
1800180,Rick Porcello,SP,BOS,10100,0,0,0,13,30,
1800566,Jordan Lyles,RP,SD,6600,0,0,0,30,30,
1800567,Wilmer Font,RP,TB,6000,0,0,0,17,30,
1800351,Jordan Zimmermann,SP,DET,4400,0,0,0,8,30,Injured:1
1800352,Adam Conley,SP,MIA,4400,0,0,0,29,30,
1800201,Sean Manaea,SP,OAK,8600,0,0,0,12,30,
1800302,Adam Wainwright,SP,STL,6900,0,0,0,14,30,Injured:1
1800316,Cal Quantrill,SP,SD,6500,0,0,0,30,30,
1800317,Luiz Gohara,SP,ATL,6400,0,0,0,24,30,Injured:1
1801515,Matthew Boyd,SP,DET,8100,13.38,19.65,0,8,30,Starter:1|VegasBad:1|PlayerMatchupIsHorribad:4|CrowdPositive:4|StarGood:1|ThumbUp:1
1801518,Jose Quintana,SP,CHC,8100,0,0,0,7,30,
1801533,Nick Kingham,SP,PIT,7600,0,0,0,4,30,
1801550,Daniel Mengden,SP,OAK,7000,0,0,0,12,30,
1801551,Dylan Bundy,SP,BAL,6900,0,0,0,10,30,
1804636,Ryan Braun,1B/OF,MIL,4000,7.88,26,0,111,283,Starter:1|LineupSpot5:1|PlayerMatchupIsGreat:1
1804705,Mark Reynolds,1B/3B,WAS,3800,8.83,2,0,196,283,Starter:1|LineupSpot5:1|PlayerMatchupIsGreat:1|VegasBad:1
1804706,Pedro Alvarez,1B/3B,BAL,3700,0,0,0,19,283,
1804722,Chris Owings,2B/OF,ARI,3000,7.21,24,0,234,283,Starter:1|LineupSpot6:1|PlayerMatchupIsGreat:3|PlayerIsCold:1|VegasGood:1|ThumbDown:1
1800792,Anthony Rendon,3B,WAS,4500,9.36,25,0,196,283,Starter:1|LineupSpot3:1|PlayerMatchupIsGreat:1|VegasBad:1|ThumbUp:1
1800617,John Brebbia,RP,STL,4000,0,4.25,0,14,30,
1800618,Jacob Barnes,RP,MIL,4000,0,3.65,0,23,30,
1800527,Paul Goldschmidt,1B,ARI,4100,8.78,10,0,234,283,Starter:1|LineupSpot2:1|PlayerMatchupIsGreat:3|PlayerIsCold:1|StarBad:1
1800047,Chad Bell,RP,ATL,4000,0,0,0,24,30,
1800058,A.J. Minter,RP,ATL,4000,0,0,0,24,30,
1800574,David Paulino,RP,HOU,5200,0,0,0,1,30,
1800587,Alec Asher,RP,MIL,4500,0,0,0,23,30,
1801380,Didi Gregorius,SS,NYY,3900,7.6,11,0,13,283,Starter:1|LineupSpot7:1|PlayerMatchupIsHorribad:2|PlayerMatchupIsGreat:1|PlayerIsCold:1|VegasBad:1
1801387,Elvis Andrus,SS,TEX,3500,0,0,0,183,283,Injured:1
1801398,Ryan Mountcastle,SS,BAL,3100,0,0,0,64,283,
1801405,Gavin Cecchini,SS,NYM,3000,0,0,0,201,283,
1801012,Jhonatan Solano,C,WAS,2000,0,0,0,196,283,Injured:1
1801019,Brock Holt,2B/SS,BOS,3200,6.75,6,0,205,283,Starter:1|LineupSpot7:1|PlayerMatchupIsGreat:2|PlayerMatchupIsHorribad:1|PlayerIsHot:1
1801219,Dilson Herrera,2B/SS,CIN,3000,0,0,0,227,283,Injured:1
1801427,Francisco Pena,C,STL,3000,5.03,0,0,137,283,Starter:1|LineupSpot8:1|PlayerMatchupIsHorribad:1|PlayerMatchupIsGreat:1|PlayerIsCold:1|VegasBad:1|StarBad:1
1801434,Zack Collins,C,CWS,2900,0,0,0,141,283,
1801441,Anthony Recker,C,ARI,2800,0,0,0,234,283,
1801452,Chad Wallach,C,MIA,2800,0,0,0,255,283,
1801466,Ketel Marte,2B/SS,ARI,2800,0,14,0,201,283,
1801473,JT Riddle,2B/SS,MIA,2800,0,0,0,156,283,
1801484,Cliff Pennington,2B/SS,TEX,2500,0,0,0,183,283,
1801491,John Hicks,1B/C,DET,3300,7.87,3,0,177,283,Starter:1|LineupSpot6:1|PlayerMatchupIsGreat:3|PlayerIsCold:1
1801275,Lisalverto Bonilla,RP,CLE,4000,0,0,0,15,30,Injured:1
1801286,Ben Taylor,RP,CLE,4000,0,1.05,0,15,30,
1801311,Marc Rzepczynski,RP,SEA,4000,0,0,0,20,30,
1800532,Eric Hosmer,1B,SD,3900,7.4,3,0,83,283,Starter:1|LineupSpot2:1|PlayerMatchupIsHorribad:2|PlayerIsCold:1
1800538,Josh Bell,1B,PIT,3700,7.76,0,0,82,283,Starter:1|LineupSpot4:1|PlayerMatchupIsHorribad:2|PlayerIsCold:1|VegasGood:1|VegasBad:1|ThumbUp:1
1800684,Jose Urena,SP,MIA,4900,0,0,0,29,30,
1801125,Starlin Castro,2B,MIA,3400,7.76,14,0,255,283,Starter:1|LineupSpot3:1|PlayerMatchupIsGreat:1|PlayerMatchupIsHorribad:2|PlayerIsCold:1
1801132,Jason Kipnis,2B,CLE,3000,7.14,5,0,238,283,Starter:1|LineupSpot7:1|PlayerMatchupIsGreat:2|PlayerIsHot:1|StarGood:1|ThumbUp:1
1801139,Johnny Giavotella,2B,MIA,2900,0,0,0,255,283,
1801150,Gary Sanchez,C,NYY,4600,8.16,0,0,17,283,Starter:1|LineupSpot3:1|PlayerMatchupIsHorribad:2|PlayerMatchupIsGreat:1|PlayerIsCold:1|VegasBad:1
1801156,Max Stassi,C,HOU,3800,0,0,0,276,283,
1801163,Luke Maile,C,TOR,3400,6.14,0,0,117,283,Starter:1|LineupSpot8:1|PlayerMatchupIsGreat:2|PlayerIsCold:1
1801414,Russell Martin,C,TOR,3100,5.79,2,0,117,283,Starter:1|LineupSpot6:1|PlayerMatchupIsGreat:1|VegasGood:1
1801421,Tyler Flowers,C,ATL,3000,7.05,16,0,49,283,Starter:1|LineupSpot5:1|PlayerMatchupIsHorribad:1|PlayerMatchupIsGreat:1|StarBad:1|VegasBad:1
1801809,Brandon Finnegan,SP,CIN,4700,0,0,0,25,30,
1801816,Taylor Clarke,SP,ARI,4600,0,0,0,26,30,
1801823,Nathan Eovaldi,SP,TB,4600,0,0,0,17,30,
1801834,Mike Wright Jr.,SP,BAL,4400,0,0,0,10,30,
1801173,Tyler Clippard,RP,TOR,4000,0,0,0,2,30,
1801180,Austin Maddox,RP,BOS,4000,0,0,0,13,30,Injured:1
1801191,Brandon Kintzler,RP,WAS,4000,0,0,0,28,30,
1801198,Justin Miller,RP,WAS,4000,0,0,0,28,30,
1801205,Gabriel Ynoa,RP,BAL,4000,0,0,0,10,30,Injured:1
1801216,Andrew Miller,RP,CLE,4000,0,0,0,15,30,Injured:1
1801498,Matt Carpenter,2B/3B,STL,3700,6.87,17,0,28,283,Starter:1|LineupSpot1:1|PlayerMatchupIsHorribad:2|PlayerMatchupIsGreat:1|PlayerIsHot:1|VegasGood:1
1801847,Jose Pirela,2B/OF,SD,2900,8.47,0,0,73,283,Starter:1|LineupSpot1:1|PlayerMatchupIsHorribad:2|PlayerMatchupIsGreat:2|PlayerIsHot:1|VegasGood:1
1802727,Michael Martinez,2B/OF,CLE,2000,0,0,0,238,283,
1802749,Phillip Evans,3B/SS,NYM,2800,0,0,0,201,283,
1800471,Nicky Delmonico,OF,CWS,3100,0,0,0,141,283,Injured:1
1800158,Stephen Strasburg,SP,WAS,13400,0,0,0,28,30,
1800165,Zack Greinke,SP,ARI,11800,0,0,0,26,30,
1800172,Jacob deGrom,SP,NYM,11100,24.44,24.95,0,6,30,Starter:1|CrowdPositive:2|PlayerMatchupIsHorribad:2
1800176,Corey Kluber,SP,CLE,10800,0,0,0,15,30,
1800183,Gio Gonzalez,SP,WAS,10000,20.3,22.45,0,28,30,Starter:1|VegasGood:2|CrowdNegative:3|StarBad:1|PlayerMatchupIsHorribad:2|ThumbUp:2
1800190,Chris Archer,SP,TB,9500,14.74,23.9,0,17,30,Starter:1|PlayerMatchupIsHorribad:3|CrowdNegative:2|PlayerMatchupIsGood:2|PlayerIsHot:1|VegasGood:1|ThumbDown:2
1800563,Tyler Glasnow,RP,PIT,8000,0,0,0,4,30,
1801842,Mike Leake,SP,SEA,4400,0,0,0,20,30,
1800306,Chase Anderson,SP,MIL,6800,0,0,0,23,30,
1800313,Andrew Cashner,SP,BAL,6500,0,0,0,10,30,
1800320,Clayton Richard,SP,SD,6400,0,0,0,30,30,
1800403,Christian Yelich,OF,MIL,4700,9.74,31,0,54,283,Starter:1|LineupSpot2:1|PlayerMatchupIsHorribad:2|PlayerMatchupIsGreat:2|PlayerIsHot:1|VegasGood:1|ThumbUp:1
1801511,Tyson Ross,SP,SD,8200,0,0,0,30,30,
1801522,Francisco Liriano,SP,DET,8000,0,0,0,8,30,
1801536,Bartolo Colon,SP,TEX,7400,0,0,0,9,30,
1801547,Andrew Heaney,SP,LAA,7000,0,0,0,22,30,
1804632,Ty Kelly,2B/3B,NYM,2200,0,0,0,201,283,
1804641,Ji-Man Choi,1B/OF,MIL,3300,0,0,0,54,283,
1804703,Scott Van Slyke,1B/OF,MIA,2200,0,0,0,255,283,
1804719,Howie Kendrick,2B/OF,WAS,3400,0,0,0,196,283,Injured:1
1801270,Danny Farquhar,RP,CWS,4000,0,0,0,5,30,Injured:1
1800789,Jose Ramirez,3B,CLE,5200,10.73,5,0,238,283,Starter:1|LineupSpot3:1|PlayerMatchupIsGreat:3|OptimalPick:1|VegasGood:1
1800614,Trevor Rosenthal,RP,STL,4000,0,0,0,14,30,Injured:1
1800523,Justin Smoak,1B,TOR,4200,7.75,7,0,117,283,Starter:1|LineupSpot3:1|PlayerMatchupIsHorribad:1|PlayerIsCold:1
