Id,Name,Position,Team,Salary,Projected,Scored,Override,OppRank,OppRankTotal,Alerts
1876981,Joe Kelly,SP,BOS,4000,0,0,0,7,30,
1876983,Trevor Oaks,SP,KC,4000,0,0,0,4,30,
1876998,Jordan Johnson,SP,SF,4000,0,0,0,5,30,
1877000,Chris Heston,SP,SF,4000,0,0,0,5,30,
1877015,Domingo German,RP,NYY,8500,0,0,0,13,30,
1877017,Tyler Glasnow,RP,PIT,8100,0,2.25,0,21,30,
1877127,Charlie Morton,SP,HOU,12100,25.37,24.7,0,27,30,Starter:1|VegasGood:3|PlayerMatchupIsGreat:2|CrowdNegative:1|PlayerIsCold:1|StarBad:1|ThumbDown:2
1877129,Mike Foltynewicz,SP,ATL,11800,0,0,0,26,30,Injured:1
1877144,Madison Bumgarner,SP,SF,10100,0,0,0,5,30,
1877146,Patrick Corbin,SP,ARI,9900,0,0,0,28,30,
1877161,Trevor Cahill,SP,OAK,8900,0,0,0,9,30,Injured:1
1877163,Danny Salazar,SP,CLE,8800,0,0,0,24,30,Injured:1
1877273,Chris Volstad,RP,CWS,4900,0,0,0,15,30,
1877275,Yonny Chirinos,RP,TB,4700,0,0,0,1,30,
1877277,Rafael Montero,RP,NYM,4500,0,0,0,14,30,Injured:1
1877290,Jacob Rhame,RP,NYM,4000,0,0,0,14,30,
1877292,Tim Peterson,RP,NYM,4000,0,0,0,14,30,
1877307,Randall Delgado,RP,ARI,4000,0,0,0,28,30,Injured:1
1877309,AJ Ramos,RP,NYM,4000,0,0,0,14,30,Injured:1
1877459,Chris Rowley,SP,TOR,4000,0,0,0,18,30,
1877461,Jose Castillo,RP,SD,4000,0,9.9,0,8,30,
1877476,Koda Glover,RP,WAS,4000,0,0,0,20,30,Injured:1
1877478,Roberto Osuna,RP,TOR,4000,0,0,0,18,30,Injured:1
1877493,Justin Miller,RP,WAS,4000,0,1.65,0,20,30,
1877495,Shawn Kelley,RP,WAS,4000,0,4.25,0,20,30,
1877510,Joan Gregorio,SP,SF,4500,0,0,0,5,30,Injured:1
1877512,Sal Romano,SP,CIN,4500,0,0,0,16,30,
1877525,Chris Tillman,SP,BAL,4400,0,0,0,30,30,Injured:1
1877527,Josh Tomlin,SP,CLE,4400,0,6.5,0,24,30,
1877529,Tyler Beede,SP,SF,4400,0,0,0,5,30,
1877542,Jake Thompson,SP,PHI,4200,0,0,0,10,30,
1877544,Lucas Giolito,SP,CWS,4100,0,0,0,15,30,
1877754,Ty Blach,SP,SF,5100,0,0,0,5,30,
1877756,Justin Nicolino,SP,CIN,5100,0,0,0,16,30,
1877771,Jeff Hoffman,SP,COL,4900,0,0,0,17,30,
1877773,Ryan Helsley,SP,STL,4900,0,0,0,6,30,
1877788,Taylor Clarke,SP,ARI,4600,0,0,0,28,30,
1877790,Aaron Slegers,SP,MIN,4600,0,0,0,3,30,
1877812,Chris Bassitt,SP,OAK,5800,9.32,5.6,0,9,30,Starter:1|WindHurting:1|PlayerMatchupIsHorribad:2|PlayerMatchupIsGreat:1|CrowdPositive:1
1877814,Aaron Sanchez,SP,TOR,5700,6.08,18.7,0,18,30,Starter:1|CrowdNegative:1|PlayerMatchupIsHorribad:3|PlayerIsHot:1|ThumbDown:1
1877829,Ryan Carpenter,SP,DET,5400,0,0,0,23,30,Injured:1
1877831,James Shields,SP,CWS,5300,0,0,0,15,30,
1877844,Aaron Blair,SP,ATL,5100,0,0,0,26,30,
1877846,Tim Lincecum,SP,TEX,5100,0,0,0,11,30,Injured:1
1877948,Jordan Montgomery,SP,NYY,8500,0,0,0,13,30,Injured:1
1877961,Yu Darvish,SP,CHC,7800,0,0,0,25,30,Injured:1
1877963,Garrett Richards,SP,LAA,7800,0,0,0,19,30,Injured:1
1877978,Mike Fiers,SP,DET,7300,10.32,8,0,23,30,Starter:1|PlayerMatchupIsGreat:1|PlayerIsHot:1|ThumbDown:2|CakeGood:1
1877980,Dan Straily,SP,MIA,7300,0,0,0,29,30,
1878047,Edwin Jackson,SP,WAS,4000,0,0,0,20,30,
1878049,Nick Tepesch,SP,TOR,4000,0,0,0,18,30,
1878064,Adrian Sampson,SP,TEX,4000,0,0,0,11,30,Injured:1
1878066,Connor Sadzeck,SP,TEX,4000,0,0,0,11,30,
1878081,Jake Stinnett,SP,CHC,4000,0,0,0,25,30,
1878083,Duane Underwood Jr.,SP,CHC,4000,0,0,0,25,30,
1881038,Mike Leake,SP,SEA,6700,0,0,0,2,30,
1881040,Tyler Mahle,SP,CIN,6700,0,0,0,16,30,
1881055,Jose Urena,SP,MIA,6300,14.65,27,0,29,30,Starter:1|VegasBad:1|CrowdNegative:1|CrowdPositive:1|StarBad:1|PlayerMatchupIsGreat:1|PlayerMatchupIsBad:1|PlayerMatchupIsHorribad:1|ThumbDown:1
1881057,Tyler Chatwood,SP,CHC,6300,0,0,0,25,30,
1881072,Jose De Leon,SP,TB,6100,0,0,0,1,30,
1881074,Rich Hill,SP,LAD,6000,0,0,0,12,30,Injured:1
1876595,Steve Selsky,3B/OF,BOS,2500,0,0,0,32,283,
1876597,Chris Taylor,OF/SS,LAD,4100,8.93,2,0,253,283,Starter:1|LineupSpot1:1|PlayerMatchupIsGreat:3
1876612,Adalberto Mondesi,2B/SS,KC,3200,0,0,0,31,283,
1876614,Dilson Herrera,2B/SS,CIN,3100,0,0,0,105,283,Injured:1
1876629,Darwin Barney,2B/SS,TEX,2600,0,0,0,201,283,
1876631,Kelby Tomlinson,2B/SS,SF,2600,0,0,0,21,283,
1876646,Alen Hanson,2B,SF,3500,7.94,0,0,18,283,Starter:1|LineupSpot2:1|PlayerMatchupIsHorribad:1|PlayerMatchupIsGreat:1|ThumbDown:1
1876648,Tyler Wade,2B,NYY,3400,0,0,0,125,283,
1876663,Dixon Machado,2B,DET,2700,4.91,0,0,35,283,Starter:1|LineupSpot9:1|PlayerMatchupIsHorribad:2|StarBad:1
1876665,Keston Hiura,2B,MIL,2700,0,0,0,70,283,
1876678,David Freese,1B/3B,PIT,3000,0,0,0,238,283,
1876680,Matt Skole,1B/3B,CWS,2900,0,0,0,222,283,
1876696,Nick Senzel,3B,CIN,3200,0,0,0,105,283,
1876698,Rio Ruiz,3B,ATL,3100,0,0,0,45,283,
1876713,Nolan Jones,3B,CLE,2500,0,0,0,60,283,
1876715,Michael Chavis,3B,BOS,2300,0,0,0,32,283,
1876730,Elvis Andrus,SS,TEX,3700,0,0,0,201,283,Injured:1
1876732,Andrelton Simmons,SS,LAA,3700,0,0,0,141,283,Injured:1
1876747,A.J. Ellis,C,SD,3000,0,0,0,184,283,
1876749,Robinson Chirinos,C,TEX,3000,0,0,0,201,283,
1876764,Austin Hedges,C,SD,2800,0,0,0,184,283,Injured:1
1876766,Cameron Rupp,C,TEX,2800,0,0,0,201,283,
1876781,Austin Jackson,OF,SF,3100,5.78,0,0,21,283,Starter:1|LineupSpot8:1|PlayerMatchupIsHorribad:1|VegasBad:2
1876783,Blake Wood,RP,LAA,4000,0,0,0,19,30,Injured:1
1876796,Khris Davis,OF,OAK,4900,10.5,0,0,164,283,Starter:1|LineupSpot4:1|WindHelping:1|PlayerMatchupIsGreat:3|PlayerIsHot:1
1876798,George Springer,OF,HOU,4800,10.29,0,0,144,283,Starter:1|LineupSpot1:1|PlayerMatchupIsGreat:2|PlayerMatchupIsHorribad:1|PlayerIsCold:1|ThumbDown:1
1876813,Justin Upton,OF,LAA,4400,9.33,9,0,141,283,Starter:1|LineupSpot3:1|WindHelping:1|PlayerMatchupIsHorribad:1|PlayerMatchupIsGreat:2|ThumbUp:2
1876815,Rhys Hoskins,OF,PHI,4300,11.03,0,0,134,283,Starter:1|LineupSpot2:1|PlayerMatchupIsHorribad:1|PlayerMatchupIsGreat:2|OptimalPick:1
1876831,Engelb Vielma,2B/SS,BAL,2400,0,0,0,166,283,
1876833,Grant Green,2B/SS,MIA,2300,0,0,0,148,283,
1876848,Michael Martinez,2B/OF,CLE,2400,0,0,0,60,283,
1876850,Daniel Descalso,2B/3B,ARI,3900,7.8,23,0,142,283,Starter:1|LineupSpot5:1|PlayerMatchupIsGreat:3
1876865,T.J. Rivera,2B/3B,NYM,2800,0,0,0,156,283,
1876867,Luis Guillorme,2B/3B,NYM,2600,0,0,0,81,283,
1876882,Steve Pearce,1B/OF,TOR,3500,0,0,0,73,283,Injured:1
1876884,Trey Mancini,1B/OF,BAL,3400,6.37,0,0,78,283,Starter:1|LineupSpot5:1|PlayerMatchupIsHorribad:1|PlayerMatchupIsGreat:1|PlayerIsCold:1|VegasGood:1
1876899,Tyler Saladino,3B/SS,MIL,3200,0,0,0,70,283,Injured:1
1876901,Jorge Polanco,3B/SS,MIN,3000,0,0,0,26,283,Injured:1
1876914,Willson Contreras,C,CHC,3700,8.16,4,0,114,283,Starter:1|LineupSpot4:1|PlayerMatchupIsHorribad:2|PlayerMatchupIsGreat:1|PlayerIsCold:1
1876916,Yasmani Grandal,C,LAD,3700,7.17,2,0,253,283,Starter:1|LineupSpot6:1|PlayerMatchupIsGreat:2
1876931,Christian Vazquez,C,BOS,2700,0,0,0,32,283,
1876933,Jett Bandy,C,MIL,2700,0,0,0,70,283,
1876948,Carson Kelly,C,STL,2500,0,0,0,158,283,
1876950,Mike Ohlman,C,BOS,2500,0,0,0,32,283,
1876965,Tuffy Gosewisch,C,SEA,2200,0,0,0,76,283,
1876967,Rocky Gale,C,LAD,2100,0,0,0,253,283,
1877027,Cameron Perkins,OF,SEA,2100,0,0,0,76,283,
1877029,Daniel Nava,OF,PIT,2100,0,0,0,246,283,
1877044,Jose Martinez,1B,STL,4900,0,0,0,158,283,
1877046,Joey Votto,1B,CIN,4800,10.29,7,0,133,283,Starter:1|LineupSpot3:1|PlayerMatchupIsGreat:2
1877061,Matt Olson,1B,OAK,3700,7.11,0,0,56,283,Starter:1|LineupSpot5:1|WindHelping:1|PlayerMatchupIsHorribad:1|PlayerMatchupIsGreat:2
1877063,Yonder Alonso,1B,CLE,3500,0,0,0,60,283,
1877076,Chad Pinder,OF,OAK,3100,6.99,9,0,164,283,Starter:1|LineupSpot2:1|WindHelping:1|PlayerMatchupIsGreat:2|PlayerIsCold:1
1877078,Jarrod Dyson,OF,ARI,3000,5.65,14,0,142,283,Starter:1|LineupSpot8:1|PlayerMatchupIsGreat:2
1877093,Matt Joyce,OF,OAK,3000,0,0,0,56,283,Injured:1
1877095,Preston Tucker,OF,ATL,2900,0,0,0,45,283,
1877110,Matt Szczur,OF,SD,2800,0,0,0,184,283,
1877112,Willy Garcia,OF,CWS,2800,0,0,0,160,283,Injured:1
1877175,Dexter Fowler,OF,STL,3300,0,0,0,158,283,
1877177,Josh Reddick,OF,HOU,3300,7.8,8,0,79,283,Starter:1|LineupSpot5:1|PlayerMatchupIsHorribad:2|PlayerMatchupIsGreat:1|VegasGood:2|ThumbDown:1
1877192,Jayson Werth,OF,SEA,3200,0,0,0,76,283,
1877194,Nick Williams,OF,PHI,3200,6.28,2,0,37,283,Starter:1|LineupSpot6:1|PlayerMatchupIsHorribad:2|PlayerMatchupIsGreat:1
1877209,Victor Reyes,OF,DET,3100,6.78,10,0,181,283,Starter:1|LineupSpot8:1|PlayerMatchupIsHorribad:1|StarBad:1
1877211,Greg Allen,OF,CLE,3100,0,0,0,60,283,
1877228,Daniel Vogelbach,1B,SEA,3000,0,0,0,198,283,
1877230,Victor Martinez,1B,DET,2900,6.34,9,0,181,283,Starter:1|LineupSpot4:1|PlayerMatchupIsHorribad:1
1877243,Jose Ramirez,3B,CLE,5300,9.36,7,0,60,283,Starter:1|LineupSpot3:1|PlayerMatchupIsHorribad:2|PlayerMatchupIsGreat:1|VegasGood:2|ThumbUp:1
1877245,Kris Bryant,3B,CHC,4700,8.8,23,0,114,283,Starter:1|LineupSpot2:1|PlayerMatchupIsHorribad:2|PlayerMatchupIsGreat:2|PlayerIsCold:1|ThumbDown:1
1877260,Danny Valencia,3B,BAL,3500,7.27,0,0,78,283,Starter:1|LineupSpot4:1|PlayerMatchupIsHorribad:1|PlayerMatchupIsGreat:1|VegasGood:1|StarGood:1|ThumbUp:1
1877262,Kelvin Herrera,RP,KC,4000,0,0,0,4,30,
1877326,Guillermo Heredia,OF,SEA,2700,4.87,0,0,76,283,Starter:1|LineupSpot8:1|PlayerMatchupIsHorribad:3|PlayerIsCold:1|ThumbDown:1
1877328,Tyler Collins,OF,KC,2700,0,0,0,31,283,Injured:1
1877343,Moises Sierra,OF,WAS,2500,0,0,0,129,283,
1877345,Craig Gentry,OF,BAL,2500,0,0,0,78,283,
1877365,Wandy Peralta,RP,CIN,4000,0,-0.6,0,16,30,
1877367,Austin Brice,RP,CIN,4000,0,0,0,16,30,
1877382,Jose Alvarado,RP,TB,4000,0,0,0,1,30,
1877384,Chasen Shreve,RP,NYY,4000,0,0,0,13,30,
1877397,Emilio Pagan,RP,OAK,4000,0,1.65,0,9,30,
1877399,Justin Anderson,RP,LAA,4000,0,0.45,0,19,30,
1877401,Blake Treinen,RP,OAK,4000,0,0,0,9,30,
1877414,Josh Hader,RP,MIL,4000,0,0,0,22,30,
1877416,Jacob Barnes,RP,MIL,4000,0,0,0,22,30,
1877431,Reyes Moronta,RP,SF,4000,0,0,0,5,30,
1877433,Jesen Therrien,RP,LAD,4000,0,0,0,12,30,Injured:1
1877448,Hunter Strickland,RP,SF,4000,0,0,0,5,30,
1877450,Edgar Santana,RP,PIT,4000,0,0,0,21,30,
1877613,Franchy Cordero,OF,SD,3800,0,0,0,175,283,Injured:1
1877615,Nicholas Castellanos,OF,DET,3800,7.83,7,0,35,283,Starter:1|LineupSpot3:1|PlayerMatchupIsHorribad:1|PlayerMatchupIsGreat:1|PlayerIsCold:1|ThumbUp:1
1877617,Harrison Bader,OF,STL,3800,9.6,0,0,158,283,Starter:1|LineupSpot2:1|PlayerMatchupIsHorribad:2|PlayerMatchupIsGreat:1|PlayerIsCold:1|VegasGood:1|StarBad:1
1877630,Mark Trumbo,OF,BAL,3600,6.36,0,0,78,283,Starter:1|LineupSpot7:1|PlayerMatchupIsHorribad:1|PlayerMatchupIsGreat:1|PlayerIsHot:1|VegasGood:1
1877632,Tyler O'Neill,OF,STL,3600,0,0,0,158,283,
1877647,Jason Heyward,OF,CHC,3400,0,0,0,25,283,
1877649,Johnny Field,OF,TB,3400,6.05,3,0,141,283,Starter:1|LineupSpot9:1|PlayerMatchupIsHorribad:1|PlayerIsCold:1|VegasGood:4|StarGood:1
1877670,Casey Lawrence,RP,SEA,4000,0,0,0,2,30,
1877672,Justin Haley,RP,BOS,4000,0,0,0,7,30,
1877687,Tim Hill,RP,KC,4000,0,3.5,0,4,30,
1877689,Chris Devenski,RP,HOU,4000,0,0,0,27,30,
1877709,Jose Peraza,SS,CIN,3200,5.69,8,0,105,283,Starter:1|LineupSpot8:1|ThumbDown:1
1877711,Freddy Galvis,SS,SD,3100,6.75,34,0,175,283,Starter:1|LineupSpot6:1|PlayerMatchupIsHorribad:1|ThumbUp:1
1877726,Tyler Smith,SS,ATL,2700,0,0,0,202,283,
1877728,JT Riddle,SS,MIA,2700,5.71,5,0,139,283,Starter:1|LineupSpot6:1|PlayerMatchupIsHorribad:1
1877741,Delvin Perez,SS,STL,2000,0,0,0,158,283,
1877743,Ozzie Albies,2B,ATL,4800,9.91,0,0,202,283,Starter:1|LineupSpot1:1|PlayerMatchupIsGreat:2|PlayerMatchupIsHorribad:1|StarBad:1
1877745,DJ LeMahieu,2B,COL,4600,10.35,12,0,141,283,Starter:1|LineupSpot1:1|WindHurting:1|PlayerMatchupIsGreat:3|PlayerIsCold:1|VegasGood:1
1877902,Tayron Guerrero,RP,MIA,4000,0,0,0,29,30,
1877904,Darren O'Day,RP,BAL,4000,0,3.65,0,30,30,
1877919,Fernando Rodney,RP,MIN,4000,0,2.75,0,3,30,
1877921,Zach Duke,RP,MIN,4000,0,0,0,3,30,
1877936,Dominic Leone,RP,STL,4000,0,0,0,6,30,Injured:1
1877938,Daniel Poncedeleon,RP,STL,4000,0,0,0,6,30,
1880996,Jose Leclerc,RP,TEX,4000,0,0,0,11,30,
1880998,Carlos Estevez,RP,COL,4000,0,0,0,17,30,Injured:1
1881013,Brooks Pounders,RP,COL,4000,0,0,0,17,30,
1881015,Jake Diekman,RP,TEX,4000,0,0,0,11,30,
1876829,Max Scherzer,SP,WAS,14400,0,0,0,20,30,
1876985,Scott Blewett,SP,KC,4000,0,0,0,4,30,
1876996,Franklyn Kilome,SP,PHI,4000,0,0,0,10,30,
1877003,Clay Holmes,SP,PIT,4000,0,0,0,21,30,
1877010,Ryne Stanek,SP,TB,4000,0,0,0,1,30,
1877014,Brett Anderson,SP,OAK,4000,0,0,0,9,30,Injured:1
1877021,Blaine Hardy,RP,DET,6800,0,0,0,23,30,
1877123,Gerrit Cole,SP,HOU,13200,0,0,0,27,30,
1877130,Johnny Cueto,SP,SF,11800,0,0,0,5,30,Injured:1
1877134,Jose Berrios,SP,MIN,11200,0,0,0,3,30,
1877141,James Paxton,SP,SEA,10700,21.63,-0.95,0,2,30,Starter:1|VegasGood:1|PlayerMatchupIsGreat:2|CrowdNegative:1|PlayerMatchupIsHorribad:1|PlayerMatchupIsBad:1
1877148,Lance McCullers Jr.,SP,HOU,9600,0,0,0,27,30,
1877155,Ervin Santana,SP,MIN,9200,0,0,0,3,30,Injured:1
1877159,Rick Porcello,SP,BOS,9100,16.55,18.7,0,7,30,Starter:1|VegasBad:1|PlayerMatchupIsGreat:1|CrowdNegative:1|PlayerMatchupIsHorribad:2|CrowdPositive:1
1877166,Jimmy Nelson,SP,MIL,8700,0,0,0,22,30,Injured:1
1877270,Rob Whalen,RP,SEA,5100,0,7.8,0,2,30,
1877281,Alec Asher,RP,MIL,4500,0,0,0,22,30,
1877288,Buck Farmer,RP,DET,4200,0,4.75,0,23,30,
1877295,Jamie Callahan,RP,NYM,4000,0,0,0,14,30,
1877306,Fernando Salas,RP,ARI,4000,0,0,0,28,30,
1877313,Williams Perez,SP,CHC,4500,0,0,0,25,30,Injured:1
1877455,Colin Rea,SP,SD,4000,0,0,0,8,30,Injured:1
1877466,Jacob Lindgren,RP,ATL,4000,0,0,0,26,30,Injured:1
1877473,Brad Hand,RP,SD,4000,0,0,0,8,30,
1877480,Deck McGuire,RP,TOR,4000,0,0,0,18,30,
1877491,Ryan Tepera,RP,TOR,4000,0,3.65,0,18,30,
1877498,Juan Minaya,RP,CWS,4000,0,9.3,0,15,30,
1877505,Drew VerHagen,RP,DET,4000,0,0,0,23,30,
1877516,Jordan Zimmermann,SP,DET,4400,0,0,0,23,30,Injured:1
1877523,Adam Conley,SP,MIA,4400,0,0,0,29,30,
1877530,Ivan Nova,SP,PIT,4400,0,0,0,21,30,
1877541,Brad Keller,SP,KC,4200,0,0,0,4,30,
1877548,Kolby Allard,SP,ATL,4000,0,0,0,26,30,
1877701,Lance Lynn,SP,MIN,5100,0,0,0,3,30,
1877761,Daniel Norris,SP,DET,5000,0,0,0,23,30,Injured:1
1877768,Brent Honeywell,SP,TB,5000,0,0,0,1,30,Injured:1
1877775,A.J. Puk,SP,OAK,4900,0,0,0,9,30,
1877786,Chase Anderson,SP,MIL,4700,0,0,0,22,30,
1877793,Justus Sheffield,SP,NYY,4600,0,0,0,13,30,
1877807,Rogelio Armenteros,SP,HOU,5900,0,0,0,27,30,
1877818,Ian Kennedy,SP,KC,5600,0,0,0,4,30,
1877825,Chad Bettis,SP,COL,5500,11.14,13.35,0,17,30,Starter:1|WindHelping:1|PlayerMatchupIsHorribad:1|CrowdPositive:3|StarBad:1|PlayerMatchupIsGood:1|PlayerMatchupIsBad:1|VegasGood:1|VegasBad:2|StarGood:1|ThumbDown:1
1877832,Hector Santiago,SP,CWS,5300,0,0,0,15,30,
1877843,Jason Vargas,SP,NYM,5100,0,0,0,14,30,
1877950,Cole Hamels,SP,TEX,8300,0,0,0,11,30,
1877957,Jon Gray,SP,COL,8000,0,0,0,17,30,
1877968,Jakob Junis,SP,KC,7600,12.95,1.2,0,4,30,Starter:1|VegasBad:2|PlayerMatchupIsGreat:1|PlayerMatchupIsBad:2|PlayerMatchupIsHorribad:1
1877975,Jake Arrieta,SP,PHI,7400,16.76,-4.5,0,10,30,Starter:1|PlayerMatchupIsHorribad:1|CrowdNegative:3|PlayerMatchupIsGood:2|PlayerMatchupIsBad:2|PlayerIsCold:1|StarBad:1|ThumbUp:1
1877982,Alex Wood,SP,LAD,7300,0,0,0,12,30,
1878045,Taylor Guerrieri,SP,TOR,4000,0,0,0,18,30,
1878052,Tyler Alexander,SP,DET,4000,0,0,0,23,30,
1878059,Peter Lambert,SP,COL,4000,0,0,0,17,30,
1878070,Odrisamer Despaigne,SP,MIA,4000,0,0,0,29,30,
1878077,Cody Anderson,SP,CLE,4000,0,0,0,24,30,Injured:1
1878084,Eddie Butler,SP,CHC,4000,0,0,0,25,30,Injured:1
1881036,Taijuan Walker,SP,ARI,6700,0,0,0,28,30,Injured:1
1881043,CC Sabathia,SP,NYY,6600,0,0,0,13,30,
1881050,Alex Meyer,SP,LAA,6500,0,0,0,19,30,Injured:1
1881061,Clayton Richard,SP,SD,6200,11.81,20.7,0,8,30,Starter:1|VegasBad:1|CrowdPositive:1|CrowdNegative:2|PlayerMatchupIsHorribad:3|PlayerMatchupIsGood:1|PlayerIsHot:1|ThumbDown:1|ThumbUp:1
1881068,Joe Ross,SP,WAS,6100,0,0,0,20,30,Injured:1
1881075,Shelby Miller,SP,ARI,5900,0,0,0,28,30,Injured:1
1876593,Charlie Culberson,3B/OF,ATL,2900,6.26,7,0,202,283,Starter:1|LineupSpot6:1|PlayerMatchupIsGreat:1|PlayerMatchupIsHorribad:1|PlayerIsCold:1|VegasGood:1|ThumbDown:1
1876600,Mike Freeman,OF/SS,CHC,2400,0,0,0,25,283,
1876607,Ketel Marte,2B/SS,ARI,4000,0,0,0,142,283,
1876618,Rosell Herrera,2B/SS,KC,2800,0,0,0,31,283,
1876625,Chase d'Arnaud,2B/SS,SF,2700,0,0,0,21,283,
1876632,Nolan Fontana,2B/SS,LAA,2600,5.54,2,0,141,283,Starter:1|LineupSpot9:1|WindHelping:1|PlayerMatchupIsHorribad:1|PlayerMatchupIsGreat:1
1876643,Rougned Odor,2B,TEX,3500,7.35,2,0,80,283,Starter:1|LineupSpot5:1|WindHurting:1|PlayerMatchupIsHorribad:1|PlayerMatchupIsGreat:1|VegasBad:1|ThumbDown:1
1876650,Jonathan Schoop,2B,BAL,3200,7,2,0,78,283,Starter:1|LineupSpot6:1|PlayerMatchupIsHorribad:1|PlayerMatchupIsGreat:1|ThumbDown:1
1876657,Kolten Wong,2B,STL,2800,0,5,0,51,283,
1876661,Micah Johnson,2B,TB,2800,0,0,0,141,283,
1876668,Robinson Cano,2B,SEA,2500,0,0,0,198,283,Injured:1
1876675,Pablo Sandoval,1B/3B,SF,3300,6.38,19,0,18,283,Starter:1|LineupSpot5:1|PlayerMatchupIsHorribad:1|VegasBad:3|StarBad:1
1876682,Chase Headley,1B/3B,SD,2400,0,0,0,175,283,
1876687,Pat Valaika,1B/2B,COL,2500,0,0,0,141,283,
1876694,Vladimir Guerrero Jr.,3B,TOR,3300,0,0,0,73,283,
1876701,Ryder Jones,3B,SF,3000,0,0,0,18,283,
1876712,Colton Welker,3B,COL,2500,0,0,0,141,283,
1876719,Manny Machado,SS,BAL,5000,8.98,3,0,78,283,Starter:1|LineupSpot3:1|PlayerMatchupIsHorribad:1|PlayerMatchupIsGreat:2|PlayerIsCold:1|VegasGood:1|StarGood:1|ThumbUp:2
1876726,Brandon Crawford,SS,SF,4100,7.32,2,0,18,283,Starter:1|LineupSpot4:1|PlayerMatchupIsHorribad:1|PlayerMatchupIsGreat:1|VegasGood:2
1876737,Francisco Mejia,C,CLE,3200,0,0,0,60,283,
1876744,Russell Martin,C,TOR,3100,5.45,2,0,73,283,Starter:1|LineupSpot6:1|PlayerMatchupIsHorribad:2|VegasGood:1
1876751,Chance Sisco,C,BAL,3000,6.36,2,0,166,283,Starter:1|LineupSpot9:1|PlayerIsCold:1|VegasGood:1|StarGood:1|ThumbDown:1
1876762,Kevin Plawecki,C,NYM,2800,6.31,2,0,156,283,Starter:1|LineupSpot7:1|PlayerMatchupIsGreat:3|VegasGood:1
1876769,Manny Pina,C,MIL,2800,5.82,12,0,70,283,Starter:1|LineupSpot7:1|PlayerMatchupIsHorribad:1|PlayerMatchupIsGreat:1|PlayerIsCold:1|StarBad:1|ThumbDown:1
1876776,Omar Narvaez,C,CWS,2700,5.65,23,0,222,283,Starter:1|LineupSpot6:1|PlayerMatchupIsGreat:2|PlayerIsHot:1|ThumbDown:1
1876787,Jose Alvarez,RP,LAA,4000,0,0,0,19,30,
1876794,Andrew Benintendi,OF,BOS,5100,0,0,0,134,283,
1876801,Shin-soo Choo,OF,TEX,4600,9.2,2,0,80,283,Starter:1|LineupSpot1:1|WindHurting:1|PlayerMatchupIsHorribad:1|PlayerMatchupIsGreat:2|PlayerIsHot:1|VegasGood:1|VegasBad:1|ThumbUp:1
1876812,Brett Gardner,OF,NYY,4400,10.1,3,0,125,283,Starter:1|LineupSpot1:1|PlayerMatchupIsHorribad:1|PlayerMatchupIsGreat:1
1876819,David Dahl,OF,COL,4200,0,0,0,141,283,Injured:1
1876826,Nick Markakis,OF,ATL,4100,7.68,5,0,45,283,Starter:1|LineupSpot4:1|PlayerMatchupIsHorribad:1|PlayerMatchupIsGreat:2|PlayerIsCold:1
1876838,Willie Calhoun,2B/OF,TEX,3300,0,0,0,80,283,
1876845,Drew Robinson,2B/OF,TEX,2700,0,0,0,80,283,
1876852,Matt Carpenter,2B/3B,STL,3700,6.94,21,0,51,283,Starter:1|LineupSpot1:1|PlayerMatchupIsHorribad:3|PlayerIsCold:1|VegasGood:1
1876863,Miguel Gomez,2B/3B,SF,3000,0,0,0,18,283,
1876870,Alex Blandino,2B/3B,CIN,2600,0,0,0,105,283,
1876877,Ryon Healy,1B,SEA,3400,7.19,5,0,76,283,Starter:1|LineupSpot6:1|PlayerMatchupIsHorribad:2
1876888,O'Koyea Dickson,1B/OF,LAD,3200,0,0,0,253,283,Injured:1
1876895,Jung Ho Kang,3B/SS,PIT,3800,0,0,0,238,283,Injured:1
1876902,Jose Reyes,3B/SS,NYM,2800,0,7,0,81,283,
1876913,Evan Gattis,C,HOU,3900,8.05,27,0,144,283,Starter:1|LineupSpot6:1|PlayerMatchupIsGreat:2|PlayerMatchupIsHorribad:1|StarGood:1
1876920,Chris Iannetta,C,COL,3500,8.02,2,0,141,283,Starter:1|LineupSpot8:1|WindHurting:1|PlayerMatchupIsGreat:2
1876927,Mitch Garver,C,MIN,2700,5.73,0,0,24,283,Starter:1|LineupSpot7:1|PlayerMatchupIsHorribad:1|VegasBad:2
1876938,Jeff Mathis,C,ARI,2600,0,0,0,139,283,
1876945,Spencer Kieboom,C,WAS,2500,0,0,0,129,283,
1876952,Drew Butera,C,KC,2500,0,0,0,154,283,
1876963,Tony Cruz,C,CIN,2300,0,0,0,105,283,
1876970,Jhonatan Solano,C,WAS,2000,0,0,0,129,283,Injured:1
1876977,Nick Ahmed,SS,ARI,3400,6.43,2,0,139,283,Starter:1|LineupSpot6:1|PlayerMatchupIsGreat:2
1877033,Leody Taveras,OF,TEX,2000,0,0,0,80,283,
1877040,Lazaro Armenteros,OF,OAK,2000,0,0,0,164,283,
1877047,Anthony Rizzo,1B,CHC,4700,8.75,20,0,25,283,Starter:1|LineupSpot3:1|PlayerMatchupIsHorribad:2|PlayerMatchupIsGreat:2|PlayerIsCold:1
1877058,Justin Bour,1B,MIA,3800,8.37,0,0,139,283,Starter:1|LineupSpot4:1|PlayerMatchupIsGreat:1
1877065,Josh Bell,1B,PIT,3500,7.91,3,0,246,283,Starter:1|LineupSpot6:1|PlayerMatchupIsGreat:1|PlayerIsHot:1|VegasGood:1
1877072,Brett Cecil,RP,STL,4000,0,2.1,0,6,30,
1877083,Zack Granite,OF,MIN,3000,0,0,0,26,283,
1877090,Kevin Kiermaier,OF,TB,3000,0,0,0,141,283,Injured:1
1877097,Jacob May,OF,CWS,2900,0,0,0,222,283,
1877108,Jordan Luplow,OF,PIT,2900,0,0,0,238,283,
1877115,Byron Buxton,OF,MIN,2800,0,0,0,24,283,Injured:1
1877170,Noel Cuevas,OF,COL,3300,5.75,5,0,141,283,Starter:1|LineupSpot9:1|WindHurting:1|PlayerMatchupIsGreat:2|PlayerIsCold:1|VegasBad:1|VegasGood:1
1877181,Jesse Winker,OF,CIN,3300,7.26,0,0,133,283,Starter:1|LineupSpot6:1|PlayerMatchupIsGreat:1|PlayerIsCold:1
1877188,Anthony Alford,OF,TOR,3200,0,0,0,73,283,
1877195,Yusniel Diaz,OF,LAD,3200,0,0,0,253,283,
1877206,Dalton Pompey,OF,TOR,3100,0,0,0,73,283,Injured:1
1877213,Jorge Bonifacio,OF,KC,3100,0,0,0,154,283,Injured:1
1877222,Peter Alonso,1B,NYM,3100,0,0,0,156,283,
1877226,Kendrys Morales,1B,TOR,3000,8.31,5,0,73,283,Starter:1|LineupSpot4:1|PlayerMatchupIsHorribad:1|PlayerMatchupIsGreat:1|ThumbUp:2
1877233,Tyler White,1B,HOU,2700,0,0,0,144,283,
1877240,Nick Pratto,1B,KC,2100,0,0,0,31,283,
1877247,Eugenio Suarez,3B,CIN,4500,7.54,5,0,105,283,Starter:1|LineupSpot5:1|PlayerMatchupIsGreat:1|PlayerIsCold:1
1877251,Travis Shaw,3B,MIL,4200,9.02,4,0,74,283,Starter:1|LineupSpot4:1|PlayerMatchupIsHorribad:1|PlayerMatchupIsGreat:2
1877258,Matt Chapman,3B,OAK,3700,0,0,0,164,283,Injured:1
1877265,Corey Knebel,RP,MIL,4000,0,0,0,22,30,
1877321,Braxton Lee,OF,MIA,2700,0,0,0,139,283,
1877325,Ryan LaMarre,OF,MIN,2700,4.06,0,0,24,283,Starter:1|LineupSpot9:1|PlayerMatchupIsHorribad:2|VegasGood:1|StarBad:1|ThumbUp:1
1877332,Gregor Blanco,OF,SF,2700,0,0,0,18,283,
1877339,Rob Refsnyder,OF,TB,2600,5.25,2,0,141,283,Starter:1|LineupSpot8:1|PlayerMatchupIsHorribad:2|PlayerIsCold:1
1877350,Marcus Wilson,OF,ARI,2400,0,0,0,139,283,
1877357,Kyle Tucker,OF,HOU,2300,0,0,0,79,283,
1877369,Enny Romero,RP,PIT,4000,0,0,0,21,30,Injured:1
1877380,Jonathan Holder,RP,NYY,4000,0,1.65,0,13,30,
1877387,Jonny Venters,RP,TB,4000,0,2.9,0,1,30,
1877394,Evan Scribner,RP,TB,4000,0,0,0,1,30,Injured:1
1877405,Cam Bedrosian,RP,LAA,4000,0,3.05,0,19,30,
1877412,Taylor Williams,RP,MIL,4000,0,0,0,22,30,
1877419,Edubray Ramos,RP,PHI,4000,0,4.25,0,10,30,
1877430,Tony Cingrani,RP,LAD,4000,0,0,0,12,30,Injured:1
1877437,Scott Alexander,RP,LAD,4000,0,0.75,0,12,30,
1877444,Josh Fields,RP,LAD,4000,0,5,0,12,30,
1877554,Brandon Nimmo,OF,NYM,4000,9.47,0,0,81,283,Starter:1|LineupSpot3:1|PlayerMatchupIsHorribad:1|PlayerMatchupIsGreat:3|VegasGood:1
1877611,Aaron Hicks,OF,NYY,3900,7.93,0,0,125,283,Starter:1|LineupSpot7:1|PlayerMatchupIsHorribad:1|VegasGood:1|StarBad:1
1877618,Derek Fisher,OF,HOU,3800,0,0,0,79,283,
1877629,Daniel Palka,OF,CWS,3600,8.23,8,0,222,283,Starter:1|LineupSpot4:1|PlayerMatchupIsGreat:2|PlayerIsCold:1|ThumbUp:1
1877636,Michael A. Taylor,OF,WAS,3500,0,0,0,129,283,
1877643,Franmil Reyes,OF,SD,3400,0,3,0,184,283,
1877660,Anthony Bass,RP,CHC,4000,0,0.45,0,25,30,
1877667,Carson Smith,RP,BOS,4000,0,0,0,7,30,Injured:1
1877674,Mike Morin,RP,SEA,4000,0,0,0,2,30,
1877685,Francis Martes,RP,HOU,4000,0,0,0,27,30,
1877692,Ken Giles,RP,HOU,4000,0,0,0,27,30,
1877699,Brian Flynn,RP,KC,4000,0,1.65,0,4,30,
1877715,Cole Tucker,SS,PIT,3100,0,0,0,246,283,
1877722,Ehire Adrianza,SS,MIN,2900,5.86,3,0,26,283,Starter:1|LineupSpot8:1|PlayerMatchupIsHorribad:1|PlayerMatchupIsGreat:1|PlayerIsCold:1|VegasBad:1|VegasGood:1|ThumbDown:1
1877729,Erick Aybar,SS,MIN,2700,0,0,0,26,283,
1877740,Royce Lewis,SS,MIN,2000,0,0,0,24,283,
1877747,Daniel Murphy,2B,WAS,4100,9.25,5,0,230,283,Starter:1|LineupSpot5:1|PlayerMatchupIsGreat:3|VegasBad:2|StarBad:1
1877908,Richard Bleier,RP,BAL,4000,0,0,0,30,30,Injured:1
1877915,Perci Garner,RP,CLE,4000,0,0,0,24,30,Injured:1
1877922,Matt Belisle,RP,MIN,4000,0,0,0,3,30,
1877933,Matt Bowman,RP,STL,4000,0,6.25,0,6,30,Injured:1
1877940,John Brebbia,RP,STL,4000,0,1.65,0,6,30,
1880994,Jerry Vasto,RP,COL,4000,0,0,0,17,30,
1881001,Scott Oberg,RP,COL,4000,0,0,0,17,30,Injured:1
1881008,Tony Barnette,RP,TEX,4000,0,4.7,0,11,30,
1881019,Tanner Scott,RP,BAL,4000,0,1.5,0,30,30,
1881026,Drew Rucinski,RP,MIA,4000,0,0,0,29,30,
1876982,Brandon Workman,SP,BOS,4000,0,0,0,7,30,
1876984,Franklin Perez,SP,HOU,4000,0,0,0,27,30,
1876999,Matt Cain,SP,SF,4000,0,0,0,5,30,
1877001,Daniel Wright,SP,CIN,4000,0,0,0,16,30,
1877016,Adam Plutko,RP,CLE,8300,0,0,0,24,30,
1877018,Frankie Montas,RP,OAK,7900,0,0,0,9,30,
1877126,Luis Severino,SP,NYY,12300,0,0,0,13,30,
1877128,Aaron Nola,SP,PHI,12000,0,0,0,10,30,
1877143,Jack Flaherty,SP,STL,10200,0,0,0,6,30,
1877145,Carlos Carrasco,SP,CLE,10000,0,0,0,24,30,
1877160,Hyun-Jin Ryu,SP,LAD,8900,0,0,0,12,30,Injured:1
1877162,Gio Gonzalez,SP,WAS,8800,20.46,2.9,0,20,30,Starter:1|VegasGood:1|CrowdNegative:1|StarBad:1|PlayerMatchupIsHorribad:1|PlayerMatchupIsGood:1|CrowdPositive:1
1877274,Luis Cessa,RP,NYY,4900,0,0,0,13,30,Injured:1
1877276,Steven Brault,RP,PIT,4600,0,0,0,21,30,
1877291,Troy Scribner,RP,ARI,4000,0,0,0,28,30,
1877293,Paul Sewald,RP,NYM,4000,0,0,0,14,30,
1877308,Jeurys Familia,RP,NYM,4000,0,0,0,14,30,Injured:1
1877310,T.J. McFarland,RP,ARI,4000,0,0,0,28,30,
1877460,Nate Pearson,SP,TOR,4000,0,0,0,18,30,
1877462,Phil Maton,RP,SD,4000,0,0,0,8,30,Injured:1
1877475,Chad Bell,RP,ATL,4000,0,0,0,26,30,
1877477,Danny Barnes,RP,TOR,4000,0,0,0,18,30,
1877492,Preston Guilmet,RP,TOR,4000,0,0,0,18,30,
1877494,Tim Collins,RP,WAS,4000,0,0,0,20,30,
1877509,Joe Musgrove,SP,PIT,8500,0,0,0,21,30,
1877511,Brock Stewart,SP,LAD,4500,0,0,0,12,30,
1877526,Tim Cooney,SP,CLE,4400,0,0,0,24,30,Injured:1
1877528,Ben Lively,SP,PHI,4400,0,0,0,10,30,
1877543,Homer Bailey,SP,CIN,4200,0,0,0,16,30,Injured:1
1877545,Elieser Hernandez,SP,MIA,4100,0,0,0,29,30,
1877755,Rookie Davis,SP,CIN,5100,0,0,0,16,30,Injured:1
1877757,Chance Adams,SP,NYY,5100,0,0,0,13,30,
1877770,Phil Hughes,SP,SD,4900,0,0,0,8,30,
1877772,David Hess,SP,BAL,4900,0,0,0,30,30,
1877774,Julio Urias,SP,LAD,4900,0,0,0,12,30,Injured:1
1877787,Brandon Finnegan,SP,CIN,4700,0,0,0,16,30,
1877789,Matt Moore,SP,TEX,4600,0,9.55,0,11,30,
1877811,Bartolo Colon,SP,TEX,5800,0,0,0,11,30,
1877813,Scott Kazmir,SP,ATL,5700,0,0,0,26,30,Injured:1
1877828,Marco Estrada,SP,TOR,5400,0,0,0,18,30,
1877830,Wade Miley,SP,MIL,5400,0,0,0,22,30,
1877845,Yovani Gallardo,SP,TEX,5100,0,0,0,11,30,
1877847,Wei-Yin Chen,SP,MIA,5100,0,0,0,29,30,
1877962,Felix Hernandez,SP,SEA,7800,0,0,0,2,30,
1877964,Carlos Rodon,SP,CWS,7700,0,0,0,15,30,
1877979,Matthew Boyd,SP,DET,7300,0,0,0,23,30,
1877981,Shane Bieber,SP,CLE,7300,0,0,0,24,30,
1878046,Joe Biagini,SP,TOR,4000,0,0,0,18,30,
1878048,Tommy Milone,SP,WAS,4000,0,0,0,20,30,Injured:1
1878050,Ian Clarkin,SP,CWS,4000,0,0,0,15,30,
1878063,Antonio Senzatela,SP,COL,4000,0,0,0,17,30,Injured:1
1878065,Clayton Blackburn,SP,TEX,4000,0,0,0,11,30,Injured:1
1878080,Conner Greene,SP,STL,4000,0,0,0,6,30,
1878082,Dakota Hudson,SP,STL,4000,0,0,0,6,30,
1881037,Alex Reyes,SP,STL,6700,0,0,0,6,30,Injured:1
1881039,Chad Kuhl,SP,PIT,6700,12.49,22.1,0,21,30,Starter:1|VegasGood:2|PlayerMatchupIsHorribad:2|CrowdPositive:1|ThumbDown:1
1881041,Chris Archer,SP,TB,6700,0,0,0,1,30,Injured:1
1881054,Jonathan Loaisiga,SP,NYY,6400,6.4,23.05,0,13,30,Starter:1|VegasGood:1|CrowdNegative:1|CrowdPositive:1|PlayerMatchupIsGreat:1|PlayerMatchupIsGood:2
1881056,Michael Pineda,SP,MIN,6300,0,0,0,3,30,Injured:1
1881071,Caleb Ferguson,SP,LAD,6100,0,0,0,12,30,
1881073,Brandon Woodruff,SP,MIL,6000,0,0,0,22,30,
1876596,Patrick Kivlehan,3B/OF,CIN,2300,0,0,0,105,283,
1876598,Sean Rodriguez,OF/SS,PIT,2600,0,0,0,238,283,
1876611,Eduardo Nunez,2B/SS,BOS,3200,5.65,4,0,32,283,Starter:1|LineupSpot7:1|PlayerMatchupIsHorribad:2|VegasGood:1|CakeGood:1
1876613,Brock Holt,2B/SS,BOS,3100,6.62,7,0,134,283,Starter:1|LineupSpot2:1|PlayerMatchupIsHorribad:1|PlayerIsHot:1|VegasGood:1
1876615,Breyvic Valera,2B/SS,LAD,3000,0,0,0,253,283,
1876628,Adrian Sanchez,2B/SS,WAS,2600,0,0,0,129,283,
1876630,Luis Sardinas,2B/SS,BAL,2600,0,0,0,166,283,Injured:1
1876645,Jonathan Villar,2B,MIL,3500,0,0,0,74,283,Injured:1
1876647,Jason Kipnis,2B,CLE,3400,6.21,2,0,60,283,Starter:1|LineupSpot5:1|PlayerMatchupIsHorribad:2|PlayerMatchupIsGreat:1|PlayerIsCold:1|StarGood:1
1876662,Carlos Asuaje,2B,SD,2700,0,0,0,175,283,
1876664,Taylor Featherston,2B,MIN,2700,0,0,0,24,283,
1876679,Jefry Marte,1B/3B,LAA,3000,0,0,0,141,283,Injured:1
1876681,Cheslor Cuthbert,1B/3B,KC,2800,0,0,0,154,283,Injured:1
1876697,Colin Moran,3B,PIT,3200,7.4,9,0,246,283,Starter:1|LineupSpot4:1|PlayerMatchupIsGreat:1|ThumbUp:1
1876699,Kaleb Cowart,3B,LAA,3100,0,0,0,141,283,Injured:1
1876714,Kyle Farmer,3B,LAD,2500,0,0,0,253,283,
1876716,Will Middlebrooks,3B,PHI,2100,0,0,0,134,283,
1876729,Marcus Semien,SS,OAK,3800,8.13,9,0,164,283,Starter:1|LineupSpot1:1|WindHelping:1|PlayerMatchupIsGreat:2
1876731,Paul DeJong,SS,STL,3700,0,0,0,158,283,Injured:1
1876733,Nick Hundley,C,SF,3400,5.81,0,0,21,283,Starter:1|LineupSpot6:1|PlayerMatchupIsHorribad:1|PlayerIsCold:1|VegasBad:2
1876746,Jorge Alfaro,C,PHI,3100,5.51,0,0,134,283,Starter:1|LineupSpot7:1|PlayerMatchupIsHorribad:1|PlayerMatchupIsGreat:1
1876748,Derek Norris,C,DET,3000,0,0,0,35,283,
1876763,Rob Brantly,C,ATL,2800,0,0,0,45,283,
1876765,Kevan Smith,C,CWS,2800,0,0,0,160,283,
1876780,Chad Wallach,C,MIA,2700,0,0,0,148,283,
1876782,Ryan Buchter,RP,OAK,4000,0,0,0,9,30,Injured:1
1876797,A.J. Pollock,OF,ARI,4800,0,0,0,139,283,Injured:1
1876799,Leonys Martin,OF,DET,4700,8.69,8,0,181,283,Starter:1|LineupSpot1:1|PlayerMatchupIsHorribad:1|PlayerMatchupIsGreat:1|ThumbUp:1
1876814,Nelson Cruz,OF,SEA,4300,8.22,2,0,76,283,Starter:1|LineupSpot4:1|PlayerMatchupIsHorribad:2|PlayerMatchupIsGreat:1|ThumbUp:2
1876816,Andrew McCutchen,OF,SF,4300,7.93,3,0,21,283,Starter:1|LineupSpot3:1|PlayerMatchupIsHorribad:1|PlayerMatchupIsGreat:1|OptimalPick:1|PlayerIsHot:1|VegasBad:2
1876832,Christian Colon,2B/SS,ATL,2300,0,0,0,202,283,
1876834,Andres Blanco,2B/SS,SF,2100,0,0,0,18,283,
1876847,Howie Kendrick,2B/OF,WAS,2500,0,0,0,129,283,Injured:1
1876849,Steve Lombardozzi,2B/OF,OAK,2300,0,0,0,164,283,
1876851,Yangervis Solarte,2B/3B,TOR,3800,7.04,35,0,73,283,Starter:1|LineupSpot3:1|PlayerMatchupIsHorribad:1|PlayerIsCold:1|VegasGood:1
1876864,Ronald Torreyes,2B/3B,NYY,2900,0,0,0,19,283,
1876866,Ramon Torres,2B/3B,KC,2700,0,0,0,31,283,
1876881,Ian Desmond,1B/OF,COL,3900,9.23,31,0,141,283,Starter:1|LineupSpot5:1|WindHurting:1|PlayerMatchupIsGreat:3
1876883,J.D. Davis,1B/OF,HOU,3500,0,0,0,144,283,
1876898,Johan Camargo,3B/SS,ATL,3200,6.97,7,0,202,283,Starter:1|LineupSpot8:1|PlayerMatchupIsGreat:2|PlayerMatchupIsHorribad:1
1876900,J.P. Crawford,3B/SS,PHI,3200,3.94,4,0,37,283,Starter:1|LineupSpot9:1|PlayerMatchupIsHorribad:3|PlayerMatchupIsGreat:1
1876915,Salvador Perez,C,KC,3700,7.53,0,0,154,283,Starter:1|LineupSpot3:1|PlayerMatchupIsHorribad:1|PlayerIsCold:1|VegasGood:2|StarBad:1|ThumbUp:1
1876917,Francisco Cervelli,C,PIT,3700,7.67,4,0,238,283,Starter:1|LineupSpot5:1|PlayerMatchupIsGreat:2|PlayerIsCold:1|VegasGood:1|StarBad:1
1876932,Andrew Knapp,C,PHI,2700,0,0,0,134,283,
1876934,Josh Phegley,C,OAK,2700,6.17,12,0,164,283,Starter:1|LineupSpot9:1|WindHelping:1|PlayerMatchupIsGreat:2|PlayerMatchupIsHorribad:1|PlayerIsCold:1
1876949,Chris Gimenez,C,CHC,2500,0,4,0,114,283,
1876951,David Freitas,C,SEA,2500,0,0,0,76,283,
1876964,Kyle Higashioka,C,NYY,2300,0,0,0,19,283,
1876966,Jarrod Saltalamacchia,C,DET,2100,0,0,0,181,283,
1876968,Juan Graterol,C,LAA,2100,0,0,0,141,283,
1877026,Chris Heisey,OF,MIN,2100,0,0,0,24,283,Injured:1
1877028,Khalil Lee,OF,KC,2100,0,0,0,31,283,
1877043,Edwin Encarnacion,1B,CLE,5000,10.51,0,0,96,283,Starter:1|LineupSpot4:1|PlayerMatchupIsHorribad:1|PlayerMatchupIsGreat:2|PlayerIsCold:1|ThumbUp:2
1877045,Eric Thames,1B,MIL,4900,0,0,0,74,283,
1877060,Justin Smoak,1B,TOR,3700,7.7,7,0,73,283,Starter:1|LineupSpot2:1|PlayerMatchupIsHorribad:1|PlayerIsCold:1
1877062,Ryan Zimmerman,1B,WAS,3500,0,0,0,129,283,Injured:1
1877077,Stephen Piscotty,OF,OAK,3100,6.34,10,0,164,283,Starter:1|LineupSpot7:1|WindHelping:1|PlayerMatchupIsGreat:2
1877079,Jim Adduci,OF,DET,3000,0,0,0,181,283,
1877094,Jeremy Hazelbaker,OF,ARI,2900,0,0,0,142,283,
1877096,Rafael Bautista,OF,WAS,2900,0,0,0,129,283,Injured:1
1877111,Jaff Decker,OF,ATL,2800,0,0,0,45,283,
1877113,Carlos Tocci,OF,TEX,2800,0,0,0,201,283,
1877174,Tyler Naquin,OF,CLE,3300,7.48,3,0,60,283,Starter:1|LineupSpot8:1|PlayerMatchupIsHorribad:2|PlayerIsHot:1
1877176,John Andreoli,OF,SEA,3300,0,0,0,76,283,
1877178,Aaron Altherr,OF,PHI,3300,0,0,0,134,283,
1877191,Lonnie Chisenhall,OF,CLE,3200,7.03,5,0,60,283,Starter:1|LineupSpot7:1|PlayerMatchupIsHorribad:2|PlayerIsCold:1|VegasGood:2|StarBad:1
1877193,Keon Broxton,OF,MIL,3200,0,0,0,70,283,
1877208,Leury Garcia,OF,CWS,3100,0,0,0,222,283,Injured:1
1877210,Anthony Santander,OF,BAL,3100,0,0,0,166,283,
1877227,Logan Morrison,1B,MIN,3000,7.13,7,0,26,283,Starter:1|LineupSpot4:1|PlayerMatchupIsHorribad:2|PlayerMatchupIsGreat:1|VegasBad:2
1877229,Sam Travis,1B,BOS,3000,0,0,0,32,283,
1877244,Nolan Arenado,3B,COL,4900,11.22,34,0,141,283,Starter:1|LineupSpot3:1|WindHurting:1|PlayerMatchupIsGreat:3
1877246,Alex Bregman,3B,HOU,4500,8.77,16,0,144,283,Starter:1|LineupSpot2:1|PlayerMatchupIsGreat:2|PlayerMatchupIsHorribad:1|PlayerIsCold:1|VegasGood:1
1877261,Kyle Seager,3B,SEA,3500,7.3,7,0,198,283,Starter:1|LineupSpot5:1|PlayerMatchupIsGreat:1|PlayerMatchupIsHorribad:1
1877263,Justin Grimm,RP,KC,4000,0,1.05,0,4,30,
1877327,Blake Swihart,OF,BOS,2700,0,0,0,32,283,
1877329,Jake Marisnick,OF,HOU,2700,0,3,0,144,283,
1877342,Juan Lagares,OF,NYM,2500,0,0,0,156,283,Injured:1
1877344,Luis Robert,OF,CWS,2500,0,0,0,160,283,
1877346,JB Shuck,OF,MIA,2500,5.25,0,0,139,283,Starter:1|LineupSpot9:1|PlayerMatchupIsHorribad:1|PlayerIsHot:1|StarBad:1|ThumbUp:1
1877359,Jake Smolinski,OF,OAK,2300,5.71,0,0,164,283,Starter:1|LineupSpot8:1|WindHelping:1|PlayerMatchupIsGreat:2|PlayerMatchupIsHorribad:1|PlayerIsCold:1|VegasGood:1
1877366,Michael Lorenzen,RP,CIN,4000,0,8.95,0,16,30,
1877381,Hunter Wood,RP,TB,4000,0,0,0,1,30,
1877383,Branden Pinder,RP,NYY,4000,0,0,0,13,30,Injured:1
1877398,Keynan Middleton,RP,LAA,4000,0,0,0,19,30,Injured:1
1877400,Noe Ramirez,RP,LAA,4000,0,0,0,19,30,
1877415,Seranthony Dominguez,RP,PHI,4000,0,0,0,10,30,
1877417,Hector Neris,RP,PHI,4000,0,0,0,10,30,
1877432,Adam Liberatore,RP,LAD,4000,0,0,0,12,30,
1877434,Yimi Garcia,RP,LAD,4000,0,0,0,12,30,
1877449,Robert Stephenson,RP,CIN,4000,0,0,0,16,30,
1877451,Raisel Iglesias,RP,CIN,4000,0,0,0,16,30,
1877614,Ender Inciarte,OF,ATL,3800,6.22,0,0,45,283,Starter:1|LineupSpot7:1|PlayerMatchupIsHorribad:1|PlayerMatchupIsGreat:1|ThumbDown:1
1877616,Derek Dietrich,OF,MIA,3800,8.51,2,0,139,283,Starter:1|LineupSpot1:1
1877631,Bradley Zimmer,OF,CLE,3600,0,0,0,60,283,Injured:1
1877633,Jorge Soler,OF,KC,3600,6.76,0,0,154,283,Starter:1|LineupSpot4:1|PlayerMatchupIsHorribad:1|ThumbUp:1
1877648,Dylan Cozens,OF,PHI,3400,0,0,0,37,283,Injured:1
1877656,Brandon Morrow,RP,CHC,4000,0,0,0,25,30,
1877671,Heath Hembree,RP,BOS,4000,0,-0.95,0,7,30,
1877673,Tony Zych,RP,SEA,4000,0,0,0,2,30,Injured:1
1877686,Kevin McCarthy,RP,KC,4000,0,0,0,4,30,
1877688,Miguel Almonte,RP,KC,4000,0,0,0,4,30,
1877690,Jason Adam,RP,KC,4000,0,0,0,4,30,
1877708,Bo Bichette,SS,TOR,3200,0,0,0,73,283,
1877710,Max Moroff,SS,PIT,3200,0,0,0,246,283,
1877725,Orlando Arcia,SS,MIL,2800,5.88,8,0,70,283,Starter:1|LineupSpot8:1|PlayerMatchupIsHorribad:1|PlayerMatchupIsGreat:1|PlayerIsCold:1|StarBad:1|ThumbDown:1
1877727,Richard Urena,SS,TOR,2700,0,0,0,73,283,
1877742,Jose Altuve,2B,HOU,5000,10.7,5,0,144,283,Starter:1|LineupSpot3:1|PlayerMatchupIsGreat:2|PlayerMatchupIsHorribad:1|PlayerIsHot:1|VegasGood:1|StarGood:1
1877744,Scooter Gennett,2B,CIN,4700,9.75,2,0,133,283,Starter:1|LineupSpot4:1|PlayerMatchupIsGreat:2
1877848,Jeff Ferrell,RP,BAL,4000,0,0,0,30,30,Injured:1
1877901,Jayson Aquino,RP,BAL,4000,0,0,0,30,30,
1877903,Brad Ziegler,RP,MIA,4000,0,0,0,29,30,
1877918,Addison Reed,RP,MIN,4000,0,0,0,3,30,
1877920,Oliver Perez,RP,CLE,4000,0,0,0,24,30,
1877935,Randy Rosario,RP,CHC,4000,0,0.9,0,25,30,
1877937,Carl Edwards Jr.,RP,CHC,4000,0,0,0,25,30,Injured:1
1880995,Ronald Herrera,RP,TEX,4000,0,0,0,11,30,
1880997,Keone Kela,RP,TEX,4000,0,0,0,11,30,
1881012,Bryan Shaw,RP,COL,4000,0,0,0,17,30,
1881014,Zac Rosscup,RP,COL,4000,0,0,0,17,30,Injured:1
1876990,Burch Smith,SP,KC,4000,0,0.45,0,4,30,
1876991,Jesse Hahn,SP,KC,4000,0,0,0,4,30,
1877008,Chad Green,SP,NYY,4000,0,0,0,13,30,
1877009,Vidal Nuno,SP,TB,4000,0,0,0,1,30,
1877023,Brad Peacock,RP,HOU,5800,0,4.25,0,27,30,
1877121,Corey Kluber,SP,CLE,13600,29.22,6.25,0,24,30,Starter:1|VegasGood:1|CrowdNegative:1|PlayerMatchupIsBad:1|PlayerMatchupIsHorribad:1|PlayerMatchupIsGood:1
1877135,Mike Clevinger,SP,CLE,11100,0,0,0,24,30,OptimalPick:1
1877136,Eduardo Rodriguez,SP,BOS,11100,0,0,0,7,30,
1877153,Walker Buehler,SP,LAD,9300,0,0,0,12,30,Injured:1
1877154,Tyler Skaggs,SP,LAA,9300,18.13,30.95,0,19,30,Starter:1|WindHurting:1|PlayerMatchupIsHorribad:3|PlayerIsHot:1|ThumbDown:1
1877216,Adam Cimber,RP,SD,4000,0,0,0,8,30,
1877268,Grant Dayton,RP,ATL,5100,0,0,0,26,30,Injured:1
1877282,Robert Gsellman,RP,NYM,4400,0,0,0,14,30,
1877283,Matt Strahm,RP,SD,4400,0,0,0,8,30,
1877300,Hansel Robles,RP,NYM,4000,0,0,0,14,30,
1877301,Anthony Swarzak,RP,NYM,4000,0,1.05,0,14,30,
1877360,Joakim Soria,RP,CWS,4000,0,0,0,15,30,
1877363,Adalberto Mejia,RP,MIN,5600,0,0,0,3,30,
1877467,Jose Ramirez,RP,ATL,4000,0,0,0,26,30,Injured:1
1877468,Kirby Yates,RP,SD,4000,0,0,0,8,30,
1877485,Brandon Kintzler,RP,WAS,4000,0,0,0,20,30,Injured:1
1877486,Tyler Clippard,RP,TOR,4000,0,0,0,18,30,
1877500,Joe Jimenez,RP,DET,4000,0,0,0,23,30,
1877503,Warwick Saupold,RP,DET,4000,0,0,0,23,30,
1877517,Artie Lewicki,SP,DET,4400,0,0,0,23,30,
1877518,Carson Fulmer,SP,CWS,4400,0,0,0,15,30,
1877535,Dietrich Enns,SP,MIN,4300,0,0,0,3,30,
1877536,Jen-Ho Tseng,SP,CHC,4300,0,0,0,25,30,
1877550,Ricardo Sanchez,SP,ATL,4000,0,0,0,26,30,
1877553,Dillon Overton,SP,SD,4000,0,0,0,8,30,
1877700,Alex Cobb,SP,BAL,5100,0,0,0,30,30,
1877762,Mike Minor,SP,TEX,5000,0,0,0,11,30,
1877763,Dillon Peters,SP,MIA,5000,0,0,0,29,30,
1877780,Matt Harvey,SP,CIN,4800,4.57,5.65,0,16,30,Starter:1|PlayerMatchupIsHorribad:2|PlayerMatchupIsBad:1|StarBad:1|ThumbDown:2
1877781,Cody Reed,SP,CIN,4800,0,0,0,16,30,
1877805,Fernando Romero,SP,MIN,5900,0,0,0,3,30,
1877806,Hisashi Iwakuma,SP,SEA,5900,0,0,0,2,30,Injured:1
1877819,Amir Garrett,SP,CIN,5600,0,0,0,16,30,
1877820,Ryan Yarbrough,SP,TB,5600,0,0,0,1,30,
1877837,Nathan Eovaldi,SP,TB,5300,6.43,11.1,0,1,30,Starter:1|VegasBad:1|CrowdNegative:1|CrowdPositive:1|PlayerMatchupIsHorribad:1|PlayerIsCold:1
1877838,Marcos Molina,SP,NYM,5200,0,0,0,14,30,
1877955,Joey Lucchesi,SP,SD,8100,0,0,0,8,30,Injured:1
1877956,Freddy Peralta,SP,MIL,8100,0,0,0,22,30,
1877969,Jameson Taillon,SP,PIT,7600,0,0,0,21,30,
1877970,Jeremy Hellickson,SP,WAS,7500,0,0,0,20,30,Injured:1
1877973,Dinelson Lamet,SP,SD,7400,0,0,0,8,30,Injured:1
1877987,Zack Wheeler,SP,NYM,7100,0,0,0,14,30,
1877988,Kyle Freeland,SP,COL,7100,0,0,0,17,30,
1878057,Jacob Turner,SP,DET,4000,0,0,0,23,30,
1878058,Ariel Jurado,SP,TEX,4000,0,0,0,11,30,
1878072,David Holmberg,SP,BAL,4000,0,0,0,30,30,
1878075,Felix Jorge,SP,MIN,4000,0,0,0,3,30,
1881030,Adam Wainwright,SP,STL,6900,0,0,0,6,30,Injured:1
1881031,Zach Eflin,SP,PHI,6900,0,0,0,10,30,
1881048,Alec Hansen,SP,CWS,6500,0,0,0,15,30,
1881049,Brent Suter,SP,MIL,6500,12.93,18.95,0,22,30,Starter:1|VegasGood:1|PlayerMatchupIsHorribad:1|CrowdNegative:3|PlayerMatchupIsGreat:3|PlayerIsHot:1|ThumbUp:1|ThumbDown:1
1881062,Michael Kopech,SP,CWS,6200,0,0,0,15,30,
1881063,Tyler Anderson,SP,COL,6200,0,0,0,17,30,
1881066,Jharel Cotton,SP,OAK,6200,0,0,0,9,30,
1876605,Taylor Davis,1B/C,CHC,2500,0,0,0,114,283,
1876606,Ryan Lavarnway,1B/C,PIT,2400,0,0,0,238,283,
1876620,Kristopher Negron,2B/SS,ARI,2700,0,0,0,139,283,
1876623,Pete Kozma,2B/SS,DET,2700,0,0,0,35,283,
1876637,Starlin Castro,2B,MIA,3800,7.45,0,0,148,283,Starter:1|LineupSpot5:1
1876638,Ian Kinsler,2B,LAA,3800,8.66,18,0,141,283,Starter:1|LineupSpot1:1|WindHelping:1|PlayerMatchupIsHorribad:1|PlayerMatchupIsGreat:1|PlayerIsHot:1|ThumbDown:1
1876655,Devon Travis,2B,TOR,2800,7.22,21,0,73,283,Starter:1|LineupSpot9:1|PlayerMatchupIsHorribad:1
1876656,Daniel Castro,2B,COL,2800,0,0,0,141,283,
1876670,Max Schrock,2B,OAK,2100,0,0,0,56,283,
1876673,Miguel Sano,1B/3B,MIN,3600,0,0,0,24,283,
1876688,Austin Barnes,2B/C,LAD,2800,0,0,0,253,283,
1876689,Chris Herrmann,C/OF,SEA,2600,0,0,0,198,283,Injured:1
1876706,Lucas Erceg,3B,MIL,2800,0,0,0,74,283,
1876707,Brandon Snyder,3B,TB,2800,0,0,0,141,283,
1876721,Jean Segura,SS,SEA,4700,7.9,17,0,76,283,Starter:1|LineupSpot2:1|PlayerMatchupIsHorribad:2|PlayerMatchupIsGreat:1
1876724,Trea Turner,SS,WAS,4300,9.77,10,0,129,283,Starter:1|LineupSpot2:1|PlayerMatchupIsHorribad:1|PlayerMatchupIsGreat:1
1876738,Mike Zunino,C,SEA,3200,6.88,19,0,76,283,Starter:1|LineupSpot9:1|PlayerMatchupIsHorribad:2|PlayerMatchupIsGreat:1|StarBad:1
1876739,Erik Kratz,C,MIL,3200,0,0,0,70,283,
1876756,Raudy Read,C,WAS,2900,0,0,0,129,283,Injured:1
1876757,Matt Wieters,C,WAS,2900,0,0,0,230,283,Injured:1
1876771,Anthony Recker,C,ARI,2700,0,0,0,139,283,
1876774,Dustin Garneau,C,CWS,2700,0,0,0,160,283,
1876788,Mike Trout,OF,LAA,6000,12.28,17,0,141,283,Starter:1|LineupSpot2:1|WindHelping:1|PlayerMatchupIsHorribad:1|PlayerMatchupIsGreat:2|ThumbUp:2
1876789,Mookie Betts,OF,BOS,5900,11.06,10,0,32,283,Starter:1|LineupSpot1:1|PlayerMatchupIsHorribad:2|PlayerMatchupIsGreat:1
1876806,Tommy Pham,OF,STL,4500,7.77,14,0,158,283,Starter:1|LineupSpot3:1|PlayerMatchupIsHorribad:2|PlayerMatchupIsGreat:2|PlayerIsCold:1|VegasBad:1
1876807,Lorenzo Cain,OF,MIL,4500,8.16,21,0,70,283,Starter:1|LineupSpot1:1|PlayerMatchupIsHorribad:1|PlayerMatchupIsGreat:1
1876821,Mitch Haniger,OF,SEA,4200,8.63,7,0,76,283,Starter:1|LineupSpot3:1|PlayerMatchupIsHorribad:2|PlayerMatchupIsGreat:1|ThumbUp:1
1876824,Shohei Ohtani,OF,LAA,4200,0,0,0,141,283,Injured:1
1876839,Kike Hernandez,2B/OF,LAD,3300,8.77,16,0,253,283,Starter:1|LineupSpot2:1|PlayerMatchupIsGreat:3
1876840,Adam Frazier,2B/OF,PIT,3200,0,0,0,246,283,
1876857,Brandon Drury,2B/3B,NYY,3200,0,0,0,19,283,
1876858,Zack Cozart,2B/3B,LAA,3200,0,0,0,141,283,Injured:1
1876872,Josh Rutledge,2B/3B,SF,2500,0,0,0,21,283,
1876875,Adam Rosales,2B/3B,PHI,2200,0,0,0,134,283,
1876876,Joe Mauer,1B,MIN,3400,7.27,0,0,26,283,Starter:1|LineupSpot1:1|PlayerMatchupIsHorribad:1|PlayerMatchupIsGreat:1
1876889,Jose Osuna,1B/OF,PIT,3200,0,0,0,238,283,
1876890,Efren Navarro,1B/OF,CHC,2900,0,0,0,25,283,
1876907,Dusty Coleman,3B/SS,SD,2600,0,0,0,184,283,
1876908,Miguel Rojas,3B/SS,MIA,2600,5,16,0,148,283,Starter:1|LineupSpot8:1|ThumbDown:1
1876925,Raimel Tapia,OF,COL,3300,0,0,0,141,283,
1876926,Bryan Holaday,C,MIA,2700,0,0,0,148,283,
1876939,Chris Stewart,C,ATL,2600,0,0,0,202,283,
1876940,Zack Collins,C,CWS,2600,0,0,0,222,283,
1876957,Miguel Montero,C,WAS,2400,0,0,0,230,283,
1876958,Welington Castillo,C,CWS,2400,0,0,0,160,283,Injured:1
1876975,Tim Anderson,SS,CWS,3600,7.21,7,0,160,283,Starter:1|LineupSpot7:1|PlayerMatchupIsGreat:1
1876976,Willy Adames,SS,TB,3500,5.23,7,0,141,283,Starter:1|LineupSpot5:1|PlayerMatchupIsHorribad:2|PlayerIsCold:1|VegasBad:1
1877034,Alex Kirilloff,OF,MIN,2000,0,0,0,26,283,
1877035,Ichiro Suzuki,OF,SEA,2000,0,0,0,198,283,
1877038,Garrett Whitley,OF,TB,2000,0,0,0,141,283,
1877052,Greg Bird,1B,NYY,4100,7.94,5,0,125,283,Starter:1|LineupSpot5:1|PlayerMatchupIsHorribad:1|PlayerMatchupIsGreat:1|StarGood:1|VegasBad:1
1877053,Mark Reynolds,1B,WAS,4000,0,2,0,129,283,
1877070,Bud Norris,RP,STL,4000,0,0,0,6,30,
1877071,Luke Gregerson,RP,STL,4000,0,0,0,6,30,Injured:1
1877085,Ben Gamel,OF,SEA,3000,6.87,14,0,198,283,Starter:1|LineupSpot7:1|PlayerMatchupIsGreat:1|PlayerMatchupIsHorribad:1|PlayerIsHot:1|StarGood:1
1877088,Billy Hamilton,OF,CIN,3000,0,0,0,133,283,
1877102,Cameron Maybin,OF,MIA,2900,0,0,0,148,283,
1877103,Mark Zagunis,OF,CHC,2900,0,0,0,114,283,
1877168,Yairo Munoz,SS,STL,3300,7.9,5,0,158,283,Starter:1|LineupSpot8:1|PlayerMatchupIsHorribad:2|PlayerMatchupIsGreat:1|PlayerIsCold:1|VegasGood:1
1877169,Mike Tauchman,OF,COL,3300,0,0,0,141,283,
1877183,Jabari Blash,OF,LAA,3300,0,0,0,141,283,
1877186,Steven Souza Jr.,OF,ARI,3200,0,0,0,139,283,Injured:1
1877200,Jay Bruce,OF,NYM,3100,0,0,0,81,283,Injured:1
1877201,Yasmany Tomas,OF,ARI,3100,0,0,0,139,283,
1877220,Christian Walker,1B,ARI,3200,0,0,0,139,283,
1877221,Luke Voit,1B,STL,3200,7.33,2,0,158,283,Starter:1|LineupSpot7:1|PlayerMatchupIsHorribad:2|PlayerMatchupIsGreat:1
1877235,Brock Stassi,1B,MIN,2600,0,0,0,26,283,
1877238,Mike Ford,1B,SEA,2300,0,0,0,198,283,Injured:1
1877252,Jeimer Candelario,3B,DET,4100,7.97,2,0,181,283,Starter:1|LineupSpot2:1|PlayerIsCold:1|ThumbDown:1
1877253,Justin Turner,3B,LAD,4000,11.16,3,0,253,283,Starter:1|LineupSpot3:1|PlayerMatchupIsGreat:3|OptimalPick:1|PlayerIsHot:1|VegasBad:1
1877319,Magneuris Sierra,OF,MIA,2700,0,0,0,139,283,
1877320,Colby Rasmus,OF,BAL,2700,0,0,0,166,283,Injured:1
1877334,Michael Saunders,OF,TOR,2600,0,0,0,24,283,
1877337,Jarrett Parker,OF,SF,2600,0,0,0,18,283,
1877351,Peter Bourjos,OF,ATL,2400,0,0,0,202,283,
1877352,Alejandro De Aza,OF,WAS,2400,0,0,0,230,283,
1877374,David Hernandez,RP,CIN,4000,0,0,0,16,30,
1877375,Bo Schultz,RP,PIT,4000,0,0,0,21,30,
1877389,Dellin Betances,RP,NYY,4000,0,6.25,0,13,30,
1877392,Ryan Weber,RP,TB,4000,0,0,0,1,30,
1877406,Santiago Casilla,RP,OAK,4000,0,0,0,9,30,
1877407,Chris Smith,RP,OAK,4000,0,0,0,9,30,
1877424,Jeremy Jeffress,RP,MIL,4000,0,0,0,22,30,
1877425,Dan Jennings,RP,MIL,4000,0,2.25,0,22,30,
1877439,Tony Watson,RP,SF,4000,0,0,0,5,30,
1877442,Will Smith,RP,SF,4000,0,6.25,0,5,30,
1877555,Wil Myers,OF,SD,4000,0,0,0,184,283,Injured:1
1877556,Curtis Granderson,OF,TOR,4000,0,0,0,24,283,
1877623,Denard Span,OF,SEA,3700,0,9,0,198,283,
1877624,Gregory Polanco,OF,PIT,3700,8.11,0,0,246,283,Starter:1|LineupSpot7:1|PlayerMatchupIsGreat:1|VegasGood:1
1877641,Phillip Ervin,OF,CIN,3500,0,0,0,105,283,
1877642,Mallex Smith,OF,TB,3500,7.11,5,0,141,283,Starter:1|LineupSpot6:1|PlayerMatchupIsHorribad:1|VegasBad:3|StarBad:1
1877661,Justin Wilson,RP,CHC,4000,0,0,0,25,30,
1877662,Steve Cishek,RP,CHC,4000,0,0,0,25,30,
1877679,David Phelps,RP,SEA,4000,0,0,0,2,30,Injured:1
1877680,Alex Colome,RP,SEA,4000,0,0,0,2,30,
1877697,Hector Rondon,RP,HOU,4000,0,0,0,27,30,
1877698,Joe Smith,RP,HOU,4000,0,0,0,27,30,Injured:1
1877716,Aledmys Diaz,SS,TOR,3000,4.2,8,0,73,283,Starter:1|LineupSpot8:1|PlayerMatchupIsHorribad:2|PlayerIsCold:1
1877717,Addison Russell,SS,CHC,3000,6.2,23,0,114,283,Starter:1|LineupSpot7:1|PlayerMatchupIsHorribad:2|PlayerMatchupIsGreat:1|PlayerIsCold:1|StarGood:1|ThumbDown:1
1877720,Franklin Barreto,SS,OAK,3000,0,0,0,164,283,
1877734,Corey Seager,SS,LAD,2500,0,0,0,103,283,Injured:1
1877735,Orlando Calixte,SS,SF,2500,0,0,0,21,283,
1877910,Tyler Olson,RP,CLE,4000,0,-2.45,0,24,30,
1877913,Myles Jaye,RP,MIN,4000,0,0,0,3,30,
1877927,Adam Wilk,RP,CLE,4000,0,0,0,24,30,
1877928,Zack Jones,RP,MIN,4000,0,0,0,3,30,Injured:1
1880988,Alex Wilson,RP,DET,4000,0,0.45,0,23,30,
1880989,Shane Greene,RP,DET,4000,0,1.65,0,23,30,
1881006,Jake McGee,RP,COL,4000,0,0,0,17,30,
1881007,Austin Bibens-Dirkx,RP,TEX,4000,0,0,0,11,30,
1881020,Miguel Castro,RP,BAL,4000,0,2.9,0,30,30,
1881021,Chris O'Grady,RP,MIA,4000,0,0,0,29,30,Injured:1
1876986,Foster Griffin,SP,KC,4000,0,0,0,4,30,
1876988,Cionel Perez,SP,HOU,4000,0,0,0,27,30,
1876995,Marcos Diplan,SP,MIL,4000,0,0,0,22,30,
1876997,JoJo Romero,SP,PHI,4000,0,0,0,10,30,
1877020,Seth Lugo,RP,NYM,7100,9.95,9.85,0,14,30,Starter:1|PlayerMatchupIsHorribad:1|PlayerMatchupIsGreat:1|PlayerMatchupIsBad:2|CrowdNegative:1|PlayerIsHot:1|ThumbUp:2
1877022,Nick Tropeano,RP,LAA,6700,0,0,0,19,30,
1877122,Chris Sale,SP,BOS,13500,0,0,0,7,30,
1877124,Jacob deGrom,SP,NYM,12600,0,0,0,14,30,
1877147,Ross Stripling,SP,LAD,9800,18.44,23.85,0,12,30,Starter:1|VegasGood:2|PlayerMatchupIsGreat:1|PlayerMatchupIsHorribad:2|PlayerMatchupIsBad:1|PlayerIsHot:1|StarGood:1|ThumbUp:2
1877149,Michael Wacha,SP,STL,9400,17.17,-10.2,0,6,30,Starter:1|PlayerMatchupIsGreat:2|CrowdNegative:1|PlayerMatchupIsHorribad:2|CrowdPositive:1|VegasBad:1|ThumbUp:1
1877156,Jaime Barria,SP,LAA,9200,0,0,0,19,30,
1877158,Caleb Smith,SP,MIA,9100,0,0,0,29,30,Injured:1
1877278,Dan Winkler,RP,ATL,4500,0,0,0,26,30,
1877280,Erasmo Ramirez,RP,SEA,4500,0,0,0,2,30,Injured:1
1877287,Austin Voth,RP,WAS,4200,0,0,0,20,30,
1877289,Brady Rodgers,RP,HOU,4200,0,0,0,27,30,
1877312,John Gant,SP,STL,4500,0,0,0,6,30,
1877314,Jalen Beeks,SP,BOS,4500,0,0,0,7,30,
1877364,Merandy Gonzalez,RP,MIA,5300,0,0,0,29,30,
1877456,Jesse Biddle,SP,ATL,4000,0,0,0,26,30,
1877458,Bryan Mitchell,SP,SD,4000,0,0,0,8,30,
1877479,Wander Suero,RP,WAS,4000,0,0,0,20,30,
1877481,Matt Grace,RP,WAS,4000,0,0,0,20,30,
1877483,Ryan Madson,RP,WAS,4000,0,0,0,20,30,
1877488,Seunghwan Oh,RP,TOR,4000,0,8.25,0,18,30,
1877490,Aaron Loup,RP,TOR,4000,0,-2.6,0,18,30,
1877513,Grant Holmes,SP,OAK,4500,0,0,0,9,30,
1877515,Kyle Lloyd,SP,SD,4400,0,0,0,8,30,
1877522,Martin Perez,SP,TEX,4400,0,0,0,11,30,Injured:1
1877524,Mike Wright Jr.,SP,BAL,4400,0,0,0,30,30,
1877547,Jorge De La Rosa,SP,ARI,4000,0,4.3,0,28,30,
1877549,Kyle Wright,SP,ATL,4000,0,0,0,26,30,
1877702,Andrew Albers,SP,SEA,5100,0,0,0,2,30,
1877704,Jason Hammel,SP,KC,5100,0,0,0,4,30,
1877776,Rubby De La Rosa,SP,ARI,4800,0,0,0,28,30,Injured:1
1877778,Scott Barlow,SP,KC,4800,0,0,0,4,30,
1877783,Paul Blackburn,SP,OAK,4800,0,0,0,9,30,
1877785,Brian Johnson,SP,BOS,4700,0,0,0,7,30,
1877815,Michael Fulmer,SP,DET,5700,0,0,0,23,30,
1877817,Ariel Miranda,SP,SEA,5600,0,0,0,2,30,
1877824,Dylan Covey,SP,CWS,5500,0,0,0,15,30,
1877826,Zach Davies,SP,MIL,5500,0,0,0,22,30,Injured:1
1877949,Masahiro Tanaka,SP,NYY,8400,0,0,0,13,30,Injured:1
1877951,Jon Lester,SP,CHC,8300,15.08,15.9,0,25,30,Starter:1|PlayerMatchupIsGreat:1|CrowdNegative:1|PlayerMatchupIsHorribad:2|PlayerMatchupIsGood:1|PlayerIsHot:1
1877958,Kyle Hendricks,SP,CHC,7900,0,0,0,25,30,
1877960,Jose Quintana,SP,CHC,7800,0,0,0,25,30,
1877983,Daniel Mengden,SP,OAK,7300,0,0,0,9,30,
1877985,Jake Odorizzi,SP,MIN,7200,0,0,0,3,30,
1877990,Tanner Roark,SP,WAS,7000,0,0,0,20,30,
1878044,Jon Harris,SP,TOR,4000,0,0,0,18,30,
1878067,Paolo Espino,SP,TEX,4000,0,0,0,11,30,
1878069,Matthias Dietz,SP,BAL,4000,0,0,0,30,30,
1878071,Asher Wojciechowski,SP,BAL,4000,0,0,0,30,30,
1878076,Tyler Duffey,SP,MIN,4000,0,0,0,3,30,
1878078,Oscar De La Cruz,SP,CHC,4000,0,0,0,25,30,
1880985,Danny Farquhar,RP,CWS,4000,0,0,0,15,30,Injured:1
1881033,Mike Montgomery,SP,CHC,6800,0,0,0,25,30,
1881035,Luis Castillo,SP,CIN,6800,0,0,0,16,30,
1881058,Marco Gonzales,SP,SEA,6300,0,0,0,2,30,
1881060,Sean Manaea,SP,OAK,6300,0,0,0,9,30,
1881067,Matt Koch,SP,ARI,6100,0,0,0,28,30,
1881069,Jaime Garcia,SP,TOR,6100,0,0,0,18,30,
1876592,Rob Segedin,3B/OF,LAD,3100,0,0,0,253,283,
1876594,Cody Asche,3B/OF,KC,2900,0,0,0,31,283,
1876617,Tzu-Wei Lin,2B/SS,BOS,2900,0,0,0,134,283,
1876619,Jesmuel Valentin,2B/SS,PHI,2800,0,2,0,134,283,
1876624,Hanser Alberto,2B/SS,TEX,2700,0,0,0,201,283,
1876626,Danny Espinosa,2B/SS,TOR,2600,0,0,0,73,283,
1876649,Luis Urias,2B,SD,3200,0,0,0,184,283,
1876651,Joe Panik,2B,SF,3200,7.29,5,0,18,283,Starter:1|LineupSpot1:1|PlayerMatchupIsHorribad:1|PlayerIsCold:1|VegasBad:1
1876658,Chase Utley,2B,LAD,2800,0,0,0,103,283,Injured:1
1876660,Brandon Dixon,2B,CIN,2800,0,0,0,105,283,
1876683,Cody Bellinger,1B/OF,LAD,4500,0,0,0,103,283,
1876686,Jose Fernandez,1B/2B,LAA,2800,6.21,5,0,141,283,Starter:1|LineupSpot6:1|WindHelping:1|PlayerMatchupIsHorribad:1|PlayerMatchupIsGreat:1|PlayerIsCold:1
1876693,Matt Duffy,3B,TB,3400,7.69,2,0,141,283,Starter:1|LineupSpot1:1|PlayerMatchupIsHorribad:1|PlayerMatchupIsGreat:1|OptimalPick:1|VegasGood:3
1876695,Rafael Devers,3B,BOS,3300,8.18,11,0,134,283,Starter:1|LineupSpot6:1|PlayerMatchupIsGreat:1|PlayerMatchupIsHorribad:1|VegasBad:1
1876718,Francisco Lindor,SS,CLE,5100,10.92,0,0,60,283,Starter:1|LineupSpot1:1|PlayerMatchupIsHorribad:2|PlayerMatchupIsGreat:1|OptimalPick:1
1876720,Trevor Story,SS,COL,4900,11.23,17,0,141,283,Starter:1|LineupSpot4:1|WindHurting:1|PlayerMatchupIsGreat:3|VegasGood:1|StarBad:1
1876725,Xander Bogaerts,SS,BOS,4300,6.74,20,0,32,283,Starter:1|LineupSpot5:1|PlayerMatchupIsHorribad:2
1876727,Dansby Swanson,SS,ATL,3900,7.48,8,0,202,283,Starter:1|LineupSpot2:1|PlayerMatchupIsGreat:1|PlayerMatchupIsHorribad:1
1876750,Tom Murphy,C,COL,3000,6.32,3,0,141,283,Starter:1|LineupSpot6:1|WindHurting:1|PlayerMatchupIsGreat:2|PlayerMatchupIsHorribad:1
1876752,Andrew Susac,C,BAL,3000,0,0,0,78,283,
1876759,Brett Nicholas,C,TEX,2900,0,0,0,80,283,
1876761,Jonathan Lucroy,C,OAK,2900,0,0,0,164,283,
1876784,Danny Coulombe,RP,OAK,4000,0,0,0,9,30,
1876786,Liam Hendriks,RP,OAK,4000,0,5.65,0,9,30,
1876793,J.D. Martinez,OF,BOS,5200,9.12,10,0,32,283,Starter:1|LineupSpot3:1|PlayerMatchupIsHorribad:2|PlayerMatchupIsGreat:1|VegasBad:1
1876795,Giancarlo Stanton,OF,NYY,5000,8.81,6,0,19,283,Starter:1|LineupSpot4:1|PlayerMatchupIsHorribad:1|PlayerMatchupIsGreat:1|VegasBad:1
1876818,Austin Meadows,OF,PIT,4300,0,0,0,246,283,
1876820,Marcell Ozuna,OF,STL,4200,7.62,17,0,158,283,Starter:1|LineupSpot4:1|PlayerMatchupIsHorribad:2|VegasBad:1
1876825,Yoenis Cespedes,OF,NYM,4100,0,0,0,156,283,Injured:1
1876827,Scott Schebler,OF,CIN,4100,8.94,5,0,133,283,Starter:1|LineupSpot1:1|PlayerMatchupIsGreat:2
1876830,Eric Sogard,2B/SS,MIL,2500,0,4,0,74,283,
1876853,Cory Spangenberg,2B/3B,SD,3500,0,0,0,175,283,
1876855,Erik Gonzalez,2B/3B,CLE,3300,6.83,7,0,96,283,Starter:1|LineupSpot9:1|PlayerMatchupIsHorribad:1|PlayerMatchupIsGreat:1|PlayerIsCold:1|VegasGood:2
1876860,Christian Arroyo,2B/3B,TB,3100,5.76,0,0,141,283,Starter:1|LineupSpot7:1|PlayerMatchupIsHorribad:1|PlayerMatchupIsGreat:1|PlayerIsCold:1|VegasBad:1
1876862,David Bote,2B/3B,CHC,3000,0,0,0,114,283,
1876885,Niko Goodrum,1B/OF,DET,3300,7.8,7,0,181,283,Starter:1|LineupSpot6:1
1876887,Marwin Gonzalez,1B/OF,HOU,3200,7.76,9,0,79,283,Starter:1|LineupSpot7:1|PlayerMatchupIsHorribad:2|PlayerMatchupIsGreat:2|PlayerIsHot:1|VegasGood:1|ThumbUp:1
1876894,Eduardo Escobar,3B/SS,MIN,4400,8.47,7,0,26,283,Starter:1|LineupSpot3:1|PlayerMatchupIsHorribad:2|PlayerMatchupIsGreat:2|VegasGood:1|ThumbUp:2
1876896,Taylor Motter,3B/SS,MIN,3400,0,0,0,24,283,
1876919,John Ryan Murphy,C,ARI,3500,0,0,0,139,283,
1876921,Austin Romine,C,NYY,3500,0,0,0,19,283,
1876928,Bobby Wilson,C,MIN,2700,0,0,0,24,283,
1876930,Sandy Leon,C,BOS,2700,5.5,0,0,32,283,Starter:1|LineupSpot9:1|PlayerMatchupIsHorribad:2|PlayerIsCold:1|VegasBad:1|StarBad:1
1876953,Jacob Stallings,C,PIT,2500,0,0,0,238,283,
1876955,Bruce Maxwell,C,OAK,2500,0,0,0,56,283,
1876960,Hector Sanchez,C,SF,2400,0,0,0,18,283,
1876962,Cam Gallagher,C,KC,2300,0,0,0,154,283,
1877030,Jesus Sanchez,OF,TB,2100,0,0,0,141,283,
1877032,Daniel Robertson,OF,ARI,2000,0,0,0,139,283,
1877039,Austin Beck,OF,OAK,2000,0,0,0,164,283,
1877041,Freddie Freeman,1B,ATL,5700,9.46,16,0,45,283,Starter:1|LineupSpot3:1|PlayerMatchupIsHorribad:1|PlayerMatchupIsGreat:2
1877064,Lucas Duda,1B,KC,3500,0,0,0,31,283,Injured:1
1877066,Tyler Austin,1B,NYY,3500,0,0,0,19,283,
1877073,Taylor Trammell,OF,CIN,3100,0,0,0,133,283,
1877075,Estevan Florial,OF,NYY,3100,0,0,0,125,283,
1877098,Avisail Garcia,OF,CWS,2900,0,0,0,160,283,Injured:1
1877100,Brett Eibner,OF,TEX,2900,0,0,0,201,283,Injured:1
1877105,Alex Gordon,OF,KC,2900,6.57,0,0,31,283,Starter:1|LineupSpot5:1|PlayerMatchupIsHorribad:3|PlayerIsCold:1|ThumbUp:1
1877107,Steven Duggar,OF,SF,2900,0,0,0,18,283,
1877109,Mason Williams,OF,CIN,2900,0,0,0,133,283,
1877180,Mac Williamson,OF,SF,3300,6.15,0,0,21,283,Starter:1|LineupSpot7:1|PlayerMatchupIsHorribad:1|VegasBad:2
1877182,Adam Duvall,OF,CIN,3300,6.27,5,0,105,283,Starter:1|LineupSpot7:1
1877187,Brian Goodwin,OF,WAS,3200,0,0,0,230,283,
1877189,Nicky Delmonico,OF,CWS,3200,0,0,0,222,283,Injured:1
1877212,Rajai Davis,OF,CLE,3100,0,5,0,96,283,
1877214,Domingo Santana,OF,MIL,3100,0,5,0,70,283,
1877223,Tommy Joseph,1B,TEX,3100,0,0,0,201,283,
1877225,Kennys Vargas,1B,MIN,3100,0,0,0,26,283,
1877248,Jake Lamb,3B,ARI,4400,9.42,5,0,142,283,Starter:1|LineupSpot3:1|PlayerMatchupIsGreat:3
1877250,Josh Donaldson,3B,TOR,4200,0,0,0,73,283,Injured:1
1877257,Adrian Beltre,3B,TEX,3800,9.14,10,0,201,283,Starter:1|LineupSpot4:1|WindHurting:1|PlayerMatchupIsGreat:4|PlayerIsHot:1|VegasGood:1
1877259,Yolmer Sanchez,3B,CWS,3600,8.23,3,0,222,283,Starter:1|LineupSpot2:1|PlayerMatchupIsGreat:2|PlayerIsCold:1
1877331,Franklin Gutierrez,OF,LAD,2700,0,0,0,253,283,Injured:1
1877333,Nick Martini,OF,OAK,2700,0,0,0,56,283,
1877338,Hunter Pence,OF,SF,2600,0,0,0,21,283,
1877340,Chris Young,OF,LAA,2600,7,6,0,141,283,Starter:1|LineupSpot7:1|WindHelping:1|PlayerMatchupIsHorribad:1|PlayerMatchupIsGreat:2|OptimalPick:1|PlayerIsHot:1|ThumbDown:1
1877368,Michael Feliz,RP,PIT,4000,0,0,0,21,30,
1877370,Felipe Vazquez,RP,PIT,4000,0,5.65,0,21,30,
1877377,Ben Heller,RP,NYY,4000,0,0,0,13,30,Injured:1
1877379,Chih-Wei Hu,RP,TB,4000,0,0,0,1,30,
1877402,Parker Bridwell,RP,LAA,4000,0,0,0,19,30,
1877404,Vicente Campos,RP,LAA,4000,0,0,0,19,30,
1877411,Chris Hatcher,RP,OAK,4000,0,0,0,9,30,
1877413,Victor Arano,RP,PHI,4000,0,4.25,0,10,30,
1877436,Erik Goeddel,RP,LAD,4000,0,0,0,12,30,
1877438,Sam Dyson,RP,SF,4000,0,0,0,5,30,
1877443,Daniel Hudson,RP,LAD,4000,0,0,0,12,30,
1877445,Edward Paredes,RP,LAD,4000,0,0,0,12,30,
1877447,Pedro Baez,RP,LAD,4000,0,0,0,12,30,
1877610,Corey Dickerson,OF,PIT,3900,8.62,2,0,246,283,Starter:1|LineupSpot2:1|PlayerMatchupIsGreat:1|PlayerIsCold:1
1877612,Jon Jay,OF,ARI,3800,7.65,20,0,142,283,Starter:1|LineupSpot1:1|PlayerMatchupIsGreat:2
1877635,Michael Conforto,OF,NYM,3500,8.45,4,0,81,283,Starter:1|LineupSpot1:1|PlayerMatchupIsHorribad:1|PlayerMatchupIsGreat:3|StarGood:1
1877637,Delino DeShields,OF,TEX,3500,8.23,7,0,201,283,Starter:1|LineupSpot2:1|WindHurting:1|PlayerMatchupIsGreat:3|VegasGood:1|StarGood:1|VegasBad:1|ThumbDown:1
1877644,Manuel Margot,OF,SD,3400,6.94,8,0,184,283,Starter:1|LineupSpot7:1|PlayerMatchupIsHorribad:1
1877646,Gerardo Parra,OF,COL,3400,7,2,0,141,283,Starter:1|LineupSpot7:1|WindHurting:1|PlayerMatchupIsHorribad:1|PlayerMatchupIsGreat:1
1877675,James Pazos,RP,SEA,4000,0,0,0,2,30,
1877677,Tyler Thornburg,RP,BOS,4000,0,0,0,7,30,Injured:1
1877682,Ryan Cook,RP,SEA,4000,0,6.45,0,2,30,
1877684,Juan Nicasio,RP,SEA,4000,0,0,0,2,30,Injured:1
1877712,Ryan Mountcastle,SS,BAL,3100,0,0,0,78,283,
1877714,Isan Diaz,SS,MIL,3100,0,0,0,74,283,
1877721,Gavin Cecchini,SS,NYM,2900,0,0,0,156,283,
1877723,Thairo Estrada,SS,NYY,2900,0,0,0,19,283,
1877746,Gleyber Torres,2B,NYY,4200,7.78,0,0,19,283,Starter:1|LineupSpot9:1|PlayerMatchupIsHorribad:1|PlayerMatchupIsGreat:1|OptimalPick:1|PlayerIsHot:1|VegasGood:1
1877748,Cesar Hernandez,2B,PHI,4000,8.89,13,0,134,283,Starter:1|LineupSpot1:1|PlayerMatchupIsHorribad:1|PlayerMatchupIsGreat:2|PlayerIsCold:1
1877905,Zach Britton,RP,BAL,4000,0,6.25,0,30,30,
1877907,Mychal Givens,RP,BAL,4000,0,0,0,30,30,
1877909,Trevor Hildenberger,RP,MIN,4000,0,3.65,0,3,30,
1877914,Cody Allen,RP,CLE,4000,0,0,0,24,30,
1877916,Taylor Rogers,RP,MIN,4000,0,-4.3,0,3,30,
1877939,Sam Tuivailala,RP,STL,4000,0,0,0,6,30,
1877941,Ryan Sherriff,RP,STL,4000,0,0,0,6,30,
1880986,Luis Avilan,RP,CWS,4000,0,0.75,0,15,30,
1880991,Nate Jones,RP,CWS,4000,0,0,0,15,30,Injured:1
1880993,Nick Gardewine,RP,TEX,4000,0,0,0,11,30,
1881016,Tyler Kinley,RP,MIA,4000,0,0,0,29,30,
1881018,Ben Meyer,RP,MIA,4000,0,0,0,29,30,
1881025,Drew Steckenrider,RP,MIA,4000,0,0,0,29,30,
1881027,Brett Graves,RP,MIA,4000,0,0,0,29,30,
1876989,Kyle Zimmer,SP,KC,4000,0,0,0,4,30,
1876992,Wily Peralta,SP,KC,4000,0,0,0,4,30,
1876993,Sixto Sanchez,SP,PHI,4000,0,0,0,10,30,
1877006,Wilmer Font,SP,TB,4000,0,0,0,1,30,
1877007,Albert Abreu,SP,NYY,4000,0,0,0,13,30,
1877119,Brandon McCarthy,SP,ATL,5900,12.39,11.35,0,26,30,Starter:1|VegasGood:1|CrowdPositive:1|CrowdNegative:1|PlayerMatchupIsGreat:2|PlayerMatchupIsGood:1|VegasBad:1|ThumbDown:1
1877120,Marcus Stroman,SP,TOR,5900,0,0,0,18,30,Injured:1
1877137,Blake Snell,SP,TB,11100,0,0,0,1,30,
1877138,J.A. Happ,SP,TOR,10900,0,0,0,18,30,
1877151,Zack Greinke,SP,ARI,9300,0,0,0,28,30,
1877152,Carlos Martinez,SP,STL,9300,0,0,0,6,30,
1877266,Austin Gomber,RP,STL,5300,0,0,0,6,30,
1877267,David Paulino,RP,HOU,5200,0,0,0,27,30,
1877284,Andrew Moore,RP,SEA,4300,0,0,0,2,30,
1877285,Mark Leiter Jr.,RP,PHI,4300,0,3.35,0,10,30,
1877298,Steve Hathaway,RP,ARI,4000,0,0,0,28,30,
1877299,Tyler Pill,RP,ARI,4000,0,0,0,28,30,
1877302,Jerry Blevins,RP,NYM,4000,0,2.75,0,14,30,
1877361,Xavier Cedeno,RP,CWS,4000,0,2.75,0,15,30,
1877362,Travis Wood,RP,DET,4000,0,0,0,23,30,
1877469,Chris Young,RP,SD,4000,0,0,0,8,30,
1877470,Peter Moylan,RP,ATL,4000,0,-4.45,0,26,30,
1877484,Craig Breslow,RP,TOR,4000,0,0,0,18,30,
1877487,John Axford,RP,TOR,4000,0,1.05,0,18,30,
1877501,Alex Faedo,RP,DET,4000,0,0,0,23,30,
1877502,Daniel Stumpf,RP,DET,4000,0,0,0,23,30,Injured:1
1877519,Yohander Mendez,SP,TEX,4400,0.76,-8.65,0,11,30,Starter:1|WindHelping:1|PlayerMatchupIsHorribad:3|CrowdPositive:2|PlayerMatchupIsBad:1
1877520,Edinson Volquez,SP,TEX,4400,0,0,0,11,30,Injured:1
1877534,Jeff Locke,SP,MIA,4300,0,0,0,29,30,
1877537,Austin Pruitt,SP,TB,4300,0,0,0,1,30,
1877551,Walker Lockett,SP,SD,4000,0,0,0,8,30,
1877552,Luis Perdomo,SP,SD,4000,0,0,0,8,30,
1877764,Dereck Rodriguez,SP,SF,5000,0,0,0,5,30,
1877765,Jeff Samardzija,SP,SF,5000,0,0,0,5,30,Injured:1
1877779,Eric Skoglund,SP,KC,4800,0,0,0,4,30,Injured:1
1877782,Anthony Banda,SP,TB,4800,0,0,0,1,30,
1877803,Erick Fedde,SP,WAS,5900,0,0,0,20,30,
1877804,Reynaldo Lopez,SP,CWS,5900,12.44,7.5,0,15,30,Starter:1|VegasGood:2|PlayerMatchupIsGreat:2|PlayerMatchupIsGood:2|PlayerIsHot:1|StarGood:1
1877821,A.J. Cole,SP,NYY,5600,0,0,0,13,30,
1877822,Jake Faria,SP,TB,5600,0,0,0,1,30,Injured:1
1877836,Corbin Burnes,SP,MIL,5300,0,0,0,22,30,
1877839,Matt Wisler,SP,ATL,5200,0,0,0,26,30,
1877953,Clay Buchholz,SP,ARI,8200,0,0,0,28,30,
1877954,Zack Godley,SP,ARI,8100,16.3,25.6,0,28,30,Starter:1|VegasGood:2|PlayerMatchupIsHorribad:2|PlayerMatchupIsGreat:1|PlayerMatchupIsBad:1|CrowdPositive:1|StarGood:1|ThumbDown:2
1877971,Kyle Gibson,SP,MIN,7500,10.14,19.55,0,3,30,Starter:1|VegasBad:1|CrowdNegative:1|PlayerMatchupIsGreat:1|PlayerMatchupIsHorribad:2|PlayerMatchupIsBad:1|CrowdPositive:1|StarGood:1|ThumbUp:1|ThumbDown:1
1877972,Nick Pivetta,SP,PHI,7500,0,0,0,10,30,
1877986,Nick Kingham,SP,PIT,7200,0,0,0,21,30,
1877989,Andrew Suarez,SP,SF,7100,0,0,0,5,30,
1878055,Dylan Cease,SP,CWS,4000,0,0,0,15,30,
1878056,Victor Alcantara,SP,DET,4000,0,0,0,23,30,
1878073,Tim Melville,SP,BAL,4000,0,0,0,30,30,
1878074,Zack Littell,SP,MIN,4000,0,0,0,3,30,
1881029,Steven Matz,SP,NYM,6900,0,0,0,14,30,Injured:1
1881032,Sonny Gray,SP,NYY,6900,0,0,0,13,30,
1881046,Cal Quantrill,SP,SD,6500,0,0,0,8,30,
1881047,Jordan Lyles,SP,SD,6500,0,0,0,8,30,
1881064,Jerad Eickhoff,SP,PHI,6200,0,0,0,10,30,Injured:1
1881065,Anthony DeSclafani,SP,CIN,6200,0,0,0,16,30,
1876590,Jose Bautista,3B/OF,NYM,3400,7.52,2,0,156,283,Starter:1|LineupSpot5:1|PlayerMatchupIsGreat:2|PlayerMatchupIsHorribad:1|PlayerIsCold:1|StarGood:1
1876603,Stephen Vogt,1B/C,MIL,3200,0,0,0,74,283,Injured:1
1876604,Victor Caratini,1B/C,CHC,2800,0,0,0,25,283,
1876621,Matt Reynolds,2B/SS,WAS,2700,0,0,0,129,283,
1876622,Lourdes Gurriel Jr.,2B/SS,TOR,2700,0,0,0,73,283,
1876636,Kirk Nieuwenhuis,OF,SEA,2200,0,0,0,198,283,
1876639,Asdrubal Cabrera,2B,NYM,3700,7.81,0,0,81,283,Starter:1|LineupSpot4:1|PlayerMatchupIsHorribad:1|PlayerMatchupIsGreat:2|PlayerIsCold:1|StarGood:1|ThumbUp:1
1876640,Yoan Moncada,2B,CWS,3700,8.3,2,0,222,283,Starter:1|LineupSpot1:1|PlayerMatchupIsGreat:3|PlayerIsCold:1|VegasBad:1|ThumbUp:1
1876653,Tim Locastro,2B,LAD,3000,0,0,0,253,283,
1876654,Joey Wendle,2B,TB,2900,6.58,0,0,141,283,Starter:1|LineupSpot4:1|PlayerMatchupIsHorribad:1|VegasBad:2|VegasGood:1
1876671,Max Muncy,1B/3B,LAD,4600,8.75,0,0,103,283,Starter:1|LineupSpot5:1|PlayerMatchupIsGreat:2
1876672,Matt Davidson,1B/3B,CWS,3600,7.5,11,0,160,283,Starter:1|LineupSpot5:1|PlayerMatchupIsGreat:1|StarBad:1
1876690,Mike Moustakas,3B,KC,3500,8.25,13,0,31,283,Starter:1|LineupSpot2:1|PlayerMatchupIsHorribad:3|PlayerMatchupIsGreat:1|PlayerIsCold:1|VegasBad:1
1876691,Evan Longoria,3B,SF,3500,0,0,0,21,283,Injured:1
1876704,David Wright,3B,NYM,2800,0,0,0,156,283,Injured:1
1876705,Martin Prado,3B,MIA,2800,0,0,0,148,283,Injured:1
1876708,Deven Marrero,3B,ARI,2700,0,0,0,139,283,
1876722,Didi Gregorius,SS,NYY,4600,9.32,22,0,125,283,Starter:1|LineupSpot3:1|PlayerMatchupIsHorribad:1|PlayerMatchupIsGreat:1
1876723,Carlos Correa,SS,HOU,4500,9.57,19,0,144,283,Starter:1|LineupSpot4:1|PlayerMatchupIsGreat:2|PlayerMatchupIsHorribad:1|PlayerIsHot:1|VegasGood:2
1876740,Elias Diaz,C,PIT,3200,0,5,0,238,283,
1876741,Tucker Barnhart,C,CIN,3200,7.44,3,0,133,283,Starter:1|LineupSpot2:1|PlayerMatchupIsGreat:1|PlayerIsHot:1
1876754,Rene Rivera,C,LAA,3000,0,0,0,141,283,Injured:1
1876755,Jose Briceno,C,LAA,3000,3.65,15,0,141,283,Starter:1|LineupSpot8:1|WindHelping:1|PlayerMatchupIsHorribad:2|PlayerMatchupIsGreat:1|PlayerIsCold:1|StarGood:1
1876758,James McCann,C,DET,2900,5.57,9,0,35,283,Starter:1|LineupSpot7:1|PlayerMatchupIsHorribad:2|PlayerIsCold:1|StarBad:1|ThumbUp:1
1876772,Raffy Lopez,C,SD,2700,6.23,3,0,175,283,Starter:1|LineupSpot8:1|StarBad:1|ThumbDown:1
1876773,Pedro Severino,C,WAS,2700,4.74,5,0,129,283,Starter:1|LineupSpot9:1|PlayerMatchupIsHorribad:2|PlayerIsCold:1|VegasGood:1
1876790,Aaron Judge,OF,NYY,5400,10.27,12,0,19,283,Starter:1|LineupSpot2:1|PlayerMatchupIsHorribad:1|PlayerMatchupIsGreat:1|StarGood:1|ThumbUp:1
1876791,Bryce Harper,OF,WAS,5200,10.2,14,0,230,283,Starter:1|LineupSpot3:1|PlayerMatchupIsGreat:3|VegasGood:1
1876805,Starling Marte,OF,PIT,4600,10.26,5,0,238,283,Starter:1|LineupSpot3:1|PlayerMatchupIsGreat:3
1876808,Ronald Acuna Jr.,OF,ATL,4400,0,0,0,202,283,Injured:1
1876822,Matt Kemp,OF,LAD,4200,7.9,16,0,253,283,Starter:1|LineupSpot4:1|PlayerMatchupIsGreat:3|PlayerIsCold:1
1876823,Yasiel Puig,OF,LAD,4200,7.19,7,0,253,283,Starter:1|LineupSpot7:1|PlayerMatchupIsGreat:2|PlayerIsHot:1|VegasBad:2|ThumbDown:1
1876841,Chris Owings,2B/OF,ARI,3100,0,0,0,139,283,
1876842,Hernan Perez,2B/OF,MIL,3000,6.49,22,0,70,283,Starter:1|LineupSpot6:1|PlayerMatchupIsHorribad:2|PlayerMatchupIsGreat:2|VegasBad:1
1876856,Logan Forsythe,2B/3B,LAD,3200,7.34,8,0,253,283,Starter:1|LineupSpot8:1|PlayerMatchupIsGreat:2|VegasBad:2
1876859,Isiah Kiner-Falefa,2B/3B,TEX,3100,7.28,7,0,201,283,Starter:1|LineupSpot6:1|WindHurting:1|PlayerMatchupIsGreat:3|PlayerIsCold:1|VegasBad:1|VegasGood:1
1876873,Ty Kelly,2B/3B,NYM,2400,0,0,0,81,283,
1876874,Phil Gosselin,2B/3B,ATL,2400,0,0,0,202,283,
1876891,Stephen Cardullo,1B/OF,COL,2600,0,0,0,141,283,
1876892,Michael Morse,1B/OF,SF,2400,0,0,0,21,283,Injured:1
1876906,Mitch Walding,3B/SS,PHI,2700,0,0,0,37,283,
1876909,Yadiel Rivera,3B/SS,MIA,2600,0,0,0,148,283,
1876923,Kurt Suzuki,C,ATL,3400,9.43,5,0,202,283,Starter:1|LineupSpot5:1|PlayerMatchupIsGreat:2|PlayerMatchupIsHorribad:1
1876924,Yadier Molina,C,STL,3400,7.8,5,0,158,283,Starter:1|LineupSpot5:1|PlayerMatchupIsHorribad:2|PlayerMatchupIsGreat:1|PlayerIsCold:1
1876941,Carlos Perez,C,TEX,2600,6,0,0,201,283,Starter:1|LineupSpot9:1|WindHurting:1|PlayerMatchupIsGreat:3|PlayerMatchupIsHorribad:1|PlayerIsCold:1|VegasBad:2|StarBad:1
1876942,Jason Castro,C,MIN,2600,0,0,0,26,283,Injured:1
1876956,Jose Lobaton,C,NYM,2400,0,0,0,81,283,
1876959,Austin Wynns,C,BAL,2400,0,0,0,78,283,
1876973,Danny Santana,OF,ATL,2700,0,0,0,202,283,Injured:1
1876974,Andrew Stevenson,OF,WAS,2700,0,0,0,230,283,
1877036,Mickey Moniak,OF,PHI,2000,0,0,0,37,283,
1877037,Heliot Ramos,OF,SF,2000,0,0,0,21,283,
1877051,Brandon Belt,1B,SF,4200,0,0,0,18,283,Injured:1
1877054,Jose Abreu,1B,CWS,4000,9.15,3,0,160,283,Starter:1|LineupSpot3:1|PlayerMatchupIsGreat:2|OptimalPick:1|VegasBad:1
1877068,Ronald Guzman,1B,TEX,3400,6.67,0,0,80,283,Starter:1|LineupSpot8:1|WindHurting:1|PlayerMatchupIsHorribad:1|PlayerMatchupIsGreat:1|PlayerIsCold:1|StarGood:1|VegasGood:1|ThumbDown:1
1877069,Garrett Cooper,1B,MIA,3400,0,0,0,148,283,Injured:1
1877086,Roman Quinn,OF,PHI,3000,0,0,0,134,283,
1877087,Austin Slater,OF,SF,3000,0,0,0,21,283,
1877101,Jaycob Brugman,OF,BAL,2900,0,0,0,166,283,
1877104,Jacob Hannemann,OF,CHC,2900,0,0,0,25,283,
1877118,Matt den Dekker,OF,NYM,2700,0,0,0,81,283,
1877167,Jose Iglesias,SS,DET,3300,0,0,0,35,283,
1877184,Mark Canha,OF,OAK,3300,7.39,2,0,164,283,Starter:1|LineupSpot6:1|WindHelping:1|PlayerMatchupIsGreat:2
1877185,Socrates Brito,OF,ARI,3200,0,0,0,142,283,
1877199,Michael Hermosillo,OF,LAA,3200,0,0,0,141,283,
1877202,Cesar Puello,OF,ARI,3100,0,0,0,139,283,
1877203,Rey Fuentes,OF,ARI,3100,0,0,0,142,283,
1877218,Ryan McMahon,1B,COL,3300,0,0,0,141,283,
1877219,Brad Miller,1B,MIL,3300,0,0,0,74,283,
1877236,Miguel Cabrera,1B,DET,2500,0,0,0,35,283,Injured:1
1877237,Evan White,1B,SEA,2500,0,0,0,76,283,
1877254,Christian Villanueva,3B,SD,3900,7.02,4,0,184,283,Starter:1|LineupSpot5:1|PlayerMatchupIsHorribad:1|PlayerIsCold:1|VegasBad:1|ThumbDown:1
1877255,Todd Frazier,3B,NYM,3800,8.29,7,0,156,283,Starter:1|LineupSpot2:1|PlayerMatchupIsGreat:2|PlayerIsCold:1|StarBad:1
1877317,Trayce Thompson,OF,CWS,2700,0,0,0,160,283,
1877318,Ryan Rua,OF,TEX,2700,0,0,0,201,283,
1877335,Danny Ortiz,OF,PHI,2600,0,0,0,37,283,
1877336,Andrew Toles,OF,LAD,2600,0,0,0,103,283,Injured:1
1877353,Rusney Castillo,OF,BOS,2400,0,0,0,32,283,
1877354,Paulo Orlando,OF,KC,2400,4.74,10,0,154,283,Starter:1|LineupSpot8:1|PlayerMatchupIsHorribad:2|PlayerIsCold:1|VegasGood:1|StarGood:1
1877372,A.J. Schugel,RP,PIT,4000,0,0,0,21,30,Injured:1
1877373,Jared Hughes,RP,CIN,4000,0,0,0,16,30,
1877376,Dylan Floro,RP,CIN,4000,0,0,0,16,30,
1877390,Chaz Roe,RP,TB,4000,0,0,0,1,30,
1877391,Sergio Romo,RP,TB,4000,0,0,0,1,30,
1877408,Jim Johnson,RP,LAA,4000,0,0,0,19,30,
1877409,Yusmeiro Petit,RP,OAK,4000,0,0,0,9,30,
1877423,Pedro Beato,RP,PHI,4000,0,0,0,10,30,Injured:1
1877426,Tommy Hunter,RP,PHI,4000,0,0,0,10,30,
1877440,Mark Melancon,RP,SF,4000,0,0,0,5,30,
1877441,Kenley Jansen,RP,LAD,4000,0,4.25,0,12,30,
1877557,Carlos Gonzalez,OF,COL,4000,0,0,0,141,283,
1877558,Nomar Mazara,OF,TEX,4000,0,0,0,80,283,
1877608,Kyle Schwarber,OF,CHC,4000,7.85,18,0,25,283,Starter:1|LineupSpot5:1|PlayerMatchupIsHorribad:2|PlayerMatchupIsGreat:1|PlayerIsCold:1|ThumbDown:1
1877622,Albert Almora Jr.,OF,CHC,3700,8.06,19,0,114,283,Starter:1|LineupSpot1:1|PlayerMatchupIsHorribad:2|PlayerIsCold:1
1877625,Dustin Fowler,OF,OAK,3700,0,3,0,56,283,
1877639,Ian Happ,OF,CHC,3500,7.29,16,0,25,283,Starter:1|LineupSpot8:1|PlayerMatchupIsHorribad:2|PlayerMatchupIsGreat:1|PlayerIsCold:1
1877640,Tony Kemp,OF,HOU,3500,6.12,6,0,79,283,Starter:1|LineupSpot9:1|PlayerMatchupIsHorribad:2|PlayerMatchupIsGreat:1|VegasGood:2|ThumbDown:1
1877663,Greg Holland,RP,STL,4000,0,0,0,6,30,Injured:1
1877664,Roenis Elias,RP,SEA,4000,0,0,0,2,30,
1877678,Matt Barnes,RP,BOS,4000,0,0.45,0,7,30,
1877681,Nick Vincent,RP,SEA,4000,0,0,0,2,30,Injured:1
1877695,Tony Sipp,RP,HOU,4000,0,5.65,0,27,30,
1877696,Will Harris,RP,HOU,4000,0,0,0,27,30,
1877718,David Fletcher,SS,LAA,3000,0,0,0,141,283,
1877719,Jorge Mateo,SS,OAK,3000,0,0,0,164,283,
1877733,Zach Vincej,SS,SEA,2500,0,0,0,76,283,
1877736,Andres Gimenez,SS,NYM,2200,0,0,0,81,283,
1877911,Ryan Merritt,RP,CLE,4000,0,0,0,24,30,Injured:1
1877912,Nick Goody,RP,CLE,4000,0,0,0,24,30,Injured:1
1877926,Matt Magill,RP,MIN,4000,0,0,0,3,30,
1877929,Ryan Pressly,RP,MIN,4000,0,0,0,3,30,
1877930,Neil Ramirez,RP,CLE,4000,0,0,0,24,30,
1877943,Pedro Strop,RP,CHC,4000,0,0,0,25,30,
1880987,Louis Coleman,RP,DET,4000,0,6.4,0,23,30,
1880990,Robbie Ross Jr.,RP,CWS,4000,0,0,0,15,30,Injured:1
1881004,Wade Davis,RP,COL,4000,0,1.65,0,17,30,
1881005,Matt Bush,RP,TEX,4000,0,0,0,11,30,
1881022,Brian Ellington,RP,MIA,4000,0,0,0,29,30,Injured:1
1881023,Nick Wittgren,RP,MIA,4000,0,0,0,29,30,Injured:1
1876980,Ty Buttrey,SP,BOS,4000,0,0,0,7,30,
1876987,Richard Lovelady,SP,KC,4000,0,0,0,4,30,
1876994,Luis Ortiz,SP,MIL,4000,0,0,0,22,30,
1877005,Vance Worley,SP,CIN,4000,0,0,0,16,30,
1877012,Jesus Luzardo,SP,OAK,4000,0,0,0,9,30,
1877019,Trevor Williams,RP,PIT,7400,0,0,0,21,30,
1877125,Justin Verlander,SP,HOU,12400,0,0,0,27,30,
1877132,Trevor Bauer,SP,CLE,11500,0,0,0,24,30,
1877139,Miles Mikolas,SP,STL,10900,0,0,0,6,30,
1877150,Kenta Maeda,SP,LAD,9400,0,0,0,12,30,
1877157,Tyson Ross,SP,SD,9100,0,0,0,8,30,
1877164,David Price,SP,BOS,8800,0,0,0,7,30,
1877272,JC Ramirez,RP,LAA,5000,0,0,0,19,30,Injured:1
1877279,Shawn Morimando,RP,CLE,4500,0,0,0,24,30,
1877286,Jackson Stephens,RP,CIN,4300,0,0,0,16,30,
1877297,Andrew Chafin,RP,ARI,4000,0,3,0,28,30,
1877304,Brad Boxberger,RP,ARI,4000,0,0.75,0,28,30,
1877311,Michael Blazek,RP,ARI,4000,0,0,0,28,30,
1877457,Robbie Erlin,SP,SD,4000,0,0,0,8,30,
1877464,Max Fried,RP,ATL,4000,0,0,0,26,30,
1877471,Craig Stammen,RP,SD,4000,0,6.25,0,8,30,
1877482,Joaquin Benoit,RP,WAS,4000,0,0,0,20,30,Injured:1
1877489,Aaron Barrett,RP,WAS,4000,0,0,0,20,30,Injured:1
1877496,Sean Doolittle,RP,WAS,4000,0,0,0,20,30,
1877507,Andrew Heaney,SP,LAA,8600,0,0,0,19,30,
1877514,John Lamb,SP,LAA,4500,0,0,0,19,30,Injured:1
1877521,Jesse Chavez,SP,TEX,4400,0,0,0,11,30,
1877532,Kris Medlen,SP,ARI,4300,0,0,0,28,30,
1877539,Andrew Cashner,SP,BAL,4200,0,0,0,30,30,Injured:1
1877546,P.J. Conlon,SP,NYM,4000,0,0,0,14,30,
1877703,Chase De Jong,SP,SEA,5100,0,0,0,2,30,
1877759,Jaime Schultz,SP,TB,5100,0,0,0,1,30,
1877766,Mitch Keller,SP,PIT,5000,0,0,0,21,30,
1877777,Danny Duffy,SP,KC,4800,0,0,0,4,30,
1877784,Ryan Borucki,SP,TOR,4700,0,0,0,18,30,
1877791,Josh Staumont,SP,KC,4600,0,0,0,4,30,
1877795,Sean Reid-Foley,SP,TOR,4500,0,0,0,18,30,
1877809,Francisco Liriano,SP,DET,5800,0,0,0,23,30,Injured:1
1877816,Lucas Sims,SP,ATL,5600,0,0,0,26,30,
1877823,Anibal Sanchez,SP,ATL,5500,0,0,0,26,30,OptimalPick:1
1877827,Chris Flexen,SP,NYM,5400,0,0,0,14,30,
1877834,Steven Wright,SP,BOS,5300,0,0,0,7,30,
1877841,Yefry Ramirez,SP,BAL,5200,0,0,0,30,30,
1877952,Vince Velasquez,SP,PHI,8300,0,0,0,10,30,
1877959,Chris Stratton,SP,SF,7900,0,0,0,5,30,
1877966,Dallas Keuchel,SP,HOU,7700,0,0,0,27,30,
1877977,Sam Gaviglio,SP,TOR,7300,0,0,0,18,30,
1877984,Julio Teheran,SP,ATL,7200,0,0,0,26,30,Injured:1
1877991,Collin McHugh,SP,HOU,7000,0,6.25,0,27,30,
1878054,Kyle Funkhouser,SP,DET,4000,0,0,0,23,30,
1878061,Chi Chi Gonzalez,SP,TEX,4000,0,0,0,11,30,Injured:1
1878068,Doug Fister,SP,TEX,4000,0,0,0,11,30,Injured:1
1878079,Adbert Alzolay,SP,CHC,4000,0,0,0,25,30,
1881034,Junior Guerra,SP,MIL,6800,0,0,0,22,30,
1881045,Andrew Triggs,SP,OAK,6600,0,0,0,9,30,Injured:1
1881052,Drew Pomeranz,SP,BOS,6400,0,0,0,7,30,Injured:1
1881059,Wade LeBlanc,SP,SEA,6300,0,0,0,2,30,
1881070,Derek Holland,SP,SF,6100,8.14,17.05,0,5,30,Starter:1|VegasBad:1|PlayerMatchupIsHorribad:2|VegasGood:2
1876591,Renato Nunez,3B/OF,BAL,3200,0,0,0,78,283,
1876602,John Hicks,1B/C,DET,3200,7.12,19,0,35,283,Starter:1|LineupSpot5:1|PlayerMatchupIsHorribad:1|PlayerIsHot:1|ThumbDown:1
1876609,Daniel Robertson,2B/SS,TB,3300,0,0,0,141,283,Injured:1
1876616,Greg Garcia,2B/SS,STL,2900,0,0,0,51,283,
1876627,Gift Ngoepe,2B/SS,TOR,2600,0,0,0,73,283,
1876634,Cristhian Adames,2B/SS,MIA,2500,0,0,0,139,283,
1876641,Brian Dozier,2B,MIN,3700,7.4,18,0,24,283,Starter:1|LineupSpot5:1|PlayerMatchupIsHorribad:1|PlayerMatchupIsGreat:2|PlayerIsCold:1|VegasGood:1
1876652,Johnny Giavotella,2B,MIA,3100,0,0,0,148,283,
1876659,Christopher Bostick,2B,PIT,2800,0,0,0,238,283,
1876666,Jemile Weeks,2B,CHC,2600,0,0,0,25,283,Injured:1
1876677,Wilmer Flores,1B/3B,NYM,3000,0,7,0,156,283,Injured:1
1876685,Neil Walker,1B/2B,NYY,3600,0,0,0,125,283,
1876692,Maikel Franco,3B,PHI,3400,0,0,0,134,283,
1876703,Yandy Diaz,3B,CLE,2900,0,0,0,96,283,
1876710,Tim Beckham,3B,BAL,2700,0,0,0,78,283,Injured:1
1876717,Joe Rizzo,3B,SEA,2000,0,0,0,198,283,
1876728,Jurickson Profar,SS,TEX,3800,6.93,18,0,80,283,Starter:1|LineupSpot3:1|WindHurting:1|PlayerMatchupIsHorribad:1|PlayerMatchupIsGreat:2
1876735,Yan Gomes,C,CLE,3300,6.09,19,0,96,283,Starter:1|LineupSpot6:1|PlayerMatchupIsHorribad:1|VegasGood:1|ThumbUp:1
1876742,Travis d'Arnaud,C,NYM,3100,0,0,0,156,283,Injured:1
1876753,Brian McCann,C,HOU,3000,6.66,0,0,79,283,Starter:1|LineupSpot8:1|PlayerMatchupIsHorribad:2|OptimalPick:1|VegasGood:2
1876760,Mike Marjama,C,SEA,2900,0,0,0,76,283,
1876767,Francisco Pena,C,STL,2800,0,0,0,158,283,
1876778,Tony Wolters,C,COL,2700,0,0,0,141,283,
1876785,Oliver Drake,RP,LAA,4000,0,0,0,19,30,
1876792,Charlie Blackmon,OF,COL,5200,9.49,9,0,141,283,Starter:1|LineupSpot2:1|WindHurting:1|PlayerMatchupIsHorribad:1|PlayerMatchupIsGreat:2|PlayerIsCold:1|VegasGood:2
1876803,Eddie Rosario,OF,MIN,4600,9.44,21,0,26,283,Starter:1|LineupSpot2:1|PlayerMatchupIsHorribad:1|PlayerMatchupIsGreat:2|PlayerIsCold:1|ThumbUp:1
1876810,Teoscar Hernandez,OF,TOR,4400,9.07,9,0,73,283,Starter:1|LineupSpot1:1|PlayerMatchupIsHorribad:1|PlayerMatchupIsGreat:1|PlayerIsCold:1|VegasBad:1|ThumbUp:1
1876817,Joc Pederson,OF,LAD,4300,0,0,0,103,283,
1876828,Clint Frazier,OF,NYY,4100,0,0,0,19,283,
1876836,Dee Gordon,2B/OF,SEA,3700,8.12,5,0,198,283,Starter:1|LineupSpot1:1|PlayerMatchupIsGreat:2|PlayerMatchupIsHorribad:1|ThumbDown:1
1876843,Jose Pirela,2B/OF,SD,2900,6.67,20,0,184,283,Starter:1|LineupSpot3:1|PlayerMatchupIsHorribad:1
1876854,Jedd Gyorko,2B/3B,STL,3400,8.74,0,0,158,283,Starter:1|LineupSpot6:1|PlayerMatchupIsHorribad:2|PlayerMatchupIsGreat:2
1876861,Wilmer Difo,2B/3B,WAS,3000,6.54,8,0,230,283,Starter:1|LineupSpot8:1|PlayerMatchupIsGreat:2|PlayerIsCold:1|ThumbDown:1
1876868,Jace Peterson,2B/3B,BAL,2600,0,0,0,166,283,
1876879,Joey Gallo,1B/OF,TEX,4000,8.5,18,0,80,283,Starter:1|LineupSpot7:1|WindHurting:1|PlayerMatchupIsHorribad:1|PlayerMatchupIsGreat:2|PlayerIsCold:1|VegasBad:2|ThumbUp:1
1876886,Ji-Man Choi,1B/OF,TB,3300,0,0,0,141,283,
1876893,Scott Van Slyke,1B/OF,MIA,2200,0,0,0,148,283,
1876897,Scott Kingery,3B/SS,PHI,3400,6.56,6,0,134,283,Starter:1|LineupSpot5:1|PlayerMatchupIsHorribad:1|PlayerMatchupIsGreat:1
1876904,Ronny Rodriguez,3B/SS,DET,2800,0,0,0,35,283,
1876911,J.T. Realmuto,C,MIA,4300,8.75,3,0,148,283,Starter:1|LineupSpot3:1|PlayerMatchupIsGreat:1|ThumbUp:1
1876918,Max Stassi,C,HOU,3600,0,0,0,144,283,
1876922,Wilson Ramos,C,TB,3500,6.98,3,0,141,283,Starter:1|LineupSpot3:1|PlayerMatchupIsHorribad:1|VegasGood:1
1876929,Roberto Perez,C,CLE,2700,0,0,0,96,283,
1876936,Tomas Nido,C,NYM,2600,0,0,0,156,283,
1876943,Steven Baron,C,STL,2600,0,0,0,158,283,
1876947,Caleb Joseph,C,BAL,2500,0,0,0,78,283,Starter:1|LineupSpot1:1|PlayerMatchupIsHorribad:1|PlayerMatchupIsGreat:1
1876954,Jesus Sucre,C,TB,2500,0,0,0,141,283,
1876961,Stuart Turner,C,CIN,2400,0,0,0,105,283,
1876972,Brian Anderson,3B/OF,MIA,4200,8.26,12,0,148,283,Starter:1|LineupSpot2:1
1877024,Ryan Raburn,OF,WAS,2100,0,0,0,129,283,Injured:1
1877031,Eric Young Jr.,OF,LAA,2100,0,0,0,141,283,
1877042,Paul Goldschmidt,1B,ARI,5600,11.01,24,0,139,283,Starter:1|LineupSpot2:1|PlayerMatchupIsGreat:2|StarBad:1|ThumbUp:2
1877049,Jesus Aguilar,1B,MIL,4300,8.54,18,0,70,283,Starter:1|LineupSpot3:1|PlayerMatchupIsHorribad:1|PlayerMatchupIsGreat:2|PlayerIsCold:1
1877056,C.J. Cron,1B,TB,4000,0,0,0,141,283,
1877067,Albert Pujols,1B,LAA,3500,7.82,2,0,141,283,Starter:1|LineupSpot4:1|WindHelping:1|PlayerMatchupIsHorribad:1|PlayerMatchupIsGreat:1|PlayerIsCold:1
1877074,Jacoby Ellsbury,OF,NYY,3100,0,0,0,125,283,
1877081,Mikie Mahtook,OF,DET,3000,0,0,0,35,283,
1877092,Rymer Liriano,OF,LAA,3000,0,0,0,141,283,
1877099,Charlie Tilson,OF,CWS,2900,6.1,3,0,222,283,Starter:1|LineupSpot8:1|PlayerMatchupIsGreat:2|PlayerIsHot:1|ThumbDown:1
1877106,Abraham Almonte,OF,KC,2900,5.82,6,0,31,283,Starter:1|LineupSpot9:1|PlayerMatchupIsHorribad:3|PlayerIsCold:1|VegasBad:2
1877117,Jackie Bradley Jr.,OF,BOS,2800,5.39,5,0,134,283,Starter:1|LineupSpot8:1|PlayerMatchupIsHorribad:1|VegasGood:1
1877172,Austin Hays,OF,BAL,3300,0,0,0,78,283,
1877179,Gorkys Hernandez,OF,SF,3300,0,0,0,21,283,
1877190,Monte Harrison,OF,MIA,3200,0,0,0,148,283,
1877197,Billy McKinney,OF,NYY,3200,0,0,0,125,283,
1877204,Alex Dickerson,OF,SD,3100,0,0,0,175,283,Injured:1
1877217,Dominic Smith,1B,NYM,3300,5.64,19,0,81,283,Starter:1|LineupSpot6:1|PlayerMatchupIsHorribad:1|PlayerMatchupIsGreat:2|PlayerIsHot:1|CakeGood:1
1877224,Bobby Bradley,1B,CLE,3100,0,0,0,60,283,
1877231,Chris Shaw,1B,SF,2900,0,0,0,18,283,
1877242,Mike Napoli,1B,CLE,2000,0,0,0,96,283,Injured:1
1877249,Miguel Andujar,3B,NYY,4300,8,3,0,19,283,Starter:1|LineupSpot8:1|PlayerMatchupIsHorribad:1|PlayerMatchupIsGreat:1|PlayerIsCold:1|VegasGood:2|ThumbDown:1
1877256,Anthony Rendon,3B,WAS,3800,8.21,15,0,129,283,Starter:1|LineupSpot4:1|PlayerMatchupIsHorribad:1|PlayerMatchupIsGreat:1|PlayerIsCold:1|VegasBad:1
1877316,Adam Engel,OF,CWS,2700,5.65,3,0,160,283,Starter:1|LineupSpot9:1|PlayerMatchupIsGreat:1|PlayerMatchupIsHorribad:1|PlayerIsCold:1|VegasBad:1|ThumbDown:1
1877323,Joey Rickard,OF,BAL,2700,0,0,0,78,283,
1877330,Bubba Starling,OF,KC,2700,0,0,0,154,283,
1877341,Kole Calhoun,OF,LAA,2600,0,0,0,141,283,Injured:1
1877348,Shane Robinson,OF,NYY,2500,0,0,0,19,283,
1877355,Shane Peterson,OF,SD,2300,0,0,0,175,283,
1877371,Richard Rodriguez,RP,PIT,4000,0,0,0,21,30,Injured:1
1877378,Diego Castillo,RP,TB,4000,0,0,0,1,30,
1877385,Andrew Kittredge,RP,TB,4000,0,0,0,1,30,
1877396,Lou Trivino,RP,OAK,4000,0,2.25,0,9,30,
1877403,Josh Lucas,RP,OAK,4000,0,0,0,9,30,
1877410,Blake Parker,RP,LAA,4000,0,0,0,19,30,
1877421,Pat Neshek,RP,PHI,4000,0,0,0,10,30,Injured:1
1877428,Dennis Santana,RP,LAD,4000,0,0,0,12,30,
1877435,Jose Valdez,RP,SF,4000,0,0,0,5,30,Injured:1
1877446,Cory Gearrin,RP,SF,4000,0,0,0,5,30,
1877453,Nick Burdi,RP,PIT,4000,0,0,0,21,30,Injured:1
1877609,Travis Jankowski,OF,SD,3900,8.3,11,0,175,283,Starter:1|LineupSpot1:1|PlayerMatchupIsGreat:1|PlayerIsCold:1|StarBad:1|ThumbDown:1|CakeGood:1
1877620,Hunter Renfroe,OF,SD,3700,7.36,16,0,184,283,Starter:1|LineupSpot4:1|PlayerMatchupIsHorribad:1|PlayerIsCold:1|VegasBad:1|StarBad:1
1877627,Randal Grichuk,OF,TOR,3600,5.65,0,0,73,283,Starter:1|LineupSpot7:1|PlayerMatchupIsHorribad:1|VegasGood:1|StarGood:1
1877634,Odubel Herrera,OF,PHI,3600,7.83,17,0,37,283,Starter:1|LineupSpot3:1|PlayerMatchupIsHorribad:2|PlayerMatchupIsGreat:2|StarBad:1
1877638,Melky Cabrera,OF,CLE,3500,0,0,0,60,283,
1877645,Eloy Jimenez,OF,CWS,3400,0,0,0,160,283,
1877658,Tyler Lyons,RP,STL,4000,0,0,0,6,30,Injured:1
1877665,Dan Altavilla,RP,SEA,4000,0,0,0,2,30,Injured:1
1877669,Christian Bergman,RP,SEA,4000,0,0,0,2,30,
1877676,Austin Maddox,RP,BOS,4000,0,0,0,7,30,Injured:1
1877683,Craig Kimbrel,RP,BOS,4000,0,0,0,7,30,
1877694,Blaine Boyer,RP,KC,4000,0,0,0,4,30,Injured:1
1877706,Jack Reinheimer,SS,ARI,3200,0,0,0,139,283,
1877713,Mauricio Dubon,SS,MIL,3100,0,0,0,70,283,
1877724,Amed Rosario,SS,NYM,2800,5.91,3,0,156,283,Starter:1|LineupSpot8:1|PlayerMatchupIsGreat:2|ThumbDown:1
1877731,Adeiny Hechavarria,SS,TB,2700,0,0,0,141,283,Injured:1
1877738,Allen Cordoba,SS,SD,2000,0,0,0,184,283,Injured:1
1877749,Josh Harrison,2B,PIT,3900,8.16,5,0,238,283,Starter:1|LineupSpot1:1|PlayerMatchupIsGreat:2|VegasGood:1|ThumbDown:1
1877850,Severino Gonzalez,RP,MIA,4000,0,0,0,29,30,
1877906,Brad Brach,RP,BAL,4000,0,0,0,30,30,
1877917,Lisalverto Bonilla,RP,CLE,4000,0,0,0,24,30,Injured:1
1877924,Andrew Miller,RP,CLE,4000,0,0,0,24,30,Injured:1
1877931,Jordan Hicks,RP,STL,4000,0,0,0,6,30,
1877942,Fernando Rodriguez Jr.,RP,CHC,4000,0,0,0,25,30,Injured:1
1880992,Harrison Musgrave,RP,COL,4000,0,9,0,17,30,
1880999,Alex Claudio,RP,TEX,4000,0,0,0,11,30,
1881003,Mike Dunn,RP,COL,4000,0,0,0,17,30,Injured:1
1881010,Chris Rusin,RP,COL,4000,0,0,0,17,30,
1881017,Sandy Alcantara,RP,MIA,4000,0,0,0,29,30,
1881024,Pedro Araujo,RP,BAL,4000,0,0,0,30,30,Injured:1
1881028,Kyle Barraclough,RP,MIA,4000,0,6.25,0,29,30,
1876684,Jarlin Garcia,RP,MIA,5300,0,0,0,29,30,
1876979,Roniel Raudes,SP,BOS,4000,0,0,0,7,30,
1877002,Hunter Greene,SP,CIN,4000,0,0,0,16,30,
1877004,Nik Turley,SP,PIT,4000,0,0,0,21,30,Injured:1
1877011,Jonathon Niese,SP,NYY,4000,0,0,0,13,30,Injured:1
1877013,Raul Alcantara,SP,OAK,4000,0,0,0,9,30,
1877131,Clayton Kershaw,SP,LAD,11800,0,0,0,12,30,Injured:1
1877133,Robbie Ray,SP,ARI,11300,0,0,0,28,30,Injured:1
1877140,Stephen Strasburg,SP,WAS,10800,0,0,0,20,30,Injured:1
1877142,Noah Syndergaard,SP,NYM,10500,0,0,0,14,30,Injured:1
1877165,Dylan Bundy,SP,BAL,8700,0,0,0,30,30,
1877215,Shane Carle,RP,ATL,4000,0,2.15,0,26,30,
1877269,Hunter Harvey,RP,BAL,5100,0,0,0,30,30,Injured:1
1877271,Aaron Wilkerson,RP,MIL,5000,0,0,0,22,30,
1877294,Silvino Bracho,RP,ARI,4000,0,0,0,28,30,
1877296,Archie Bradley,RP,ARI,4000,0,0,0,28,30,
1877303,Neftali Feliz,RP,ARI,4000,0,0,0,28,30,Injured:1
1877305,Yoshihisa Hirano,RP,ARI,4000,0,0,0,28,30,
1877463,A.J. Minter,RP,ATL,4000,0,0,0,26,30,
1877465,Miguel Diaz,RP,SD,4000,0,0,0,8,30,
1877472,Arodys Vizcaino,RP,ATL,4000,0,0,0,26,30,
1877474,Sam Freeman,RP,ATL,4000,0,-6.9,0,26,30,
1877497,Sammy Solis,RP,WAS,4000,0,0,0,20,30,
1877499,Tyler Danish,RP,CWS,4000,0,0,0,15,30,Injured:1
1877504,Jace Fry,RP,CWS,4000,0,0,0,15,30,
1877506,Bruce Rondon,RP,CWS,4000,0,0.15,0,15,30,
1877508,Kevin Gausman,SP,BAL,8500,18.36,17.35,0,30,30,Starter:1|VegasGood:1|CrowdNegative:1|CrowdPositive:1|PlayerMatchupIsBad:1|ThumbDown:1
1877531,Braden Shipley,SP,ARI,4300,0,0,0,28,30,
1877533,Eric Lauer,SP,SD,4300,0,0,0,8,30,
1877538,Gregory Soto,SP,DET,4200,0,0,0,23,30,
1877540,Keegan Akin,SP,BAL,4200,0,0,0,30,30,
1877758,Matt Andriese,SP,TB,5100,0,0,0,1,30,
1877760,Daniel Gossett,SP,OAK,5100,0,0,0,9,30,Injured:1
1877767,Luis Escobar,SP,PIT,5000,0,0,0,21,30,
1877769,Kendall Graveman,SP,OAK,5000,0,0,0,9,30,
1877792,Tom Koehler,SP,LAD,4600,0,0,0,12,30,Injured:1
1877794,A.J. Griffin,SP,NYM,4500,0,0,0,14,30,
1877808,Jhoulys Chacin,SP,MIL,5900,0,0,0,22,30,OptimalPick:1
1877810,German Marquez,SP,COL,5800,0,0,0,17,30,
1877833,Stephen Gonsalves,SP,MIN,5300,0,0,0,3,30,
1877835,Hector Velazquez,SP,BOS,5300,0,0,0,7,30,
1877840,Miguel Gonzalez,SP,CWS,5200,0,0,0,15,30,Injured:1
1877842,Ricky Nolasco,SP,KC,5200,0,0,0,4,30,
1877965,Luke Weaver,SP,STL,7700,0,0,0,6,30,
1877967,Trevor Richards,SP,MIA,7600,0,0,0,29,30,
1877974,Mike Soroka,SP,ATL,7400,0,0,0,26,30,
1877976,Sean Newcomb,SP,ATL,7300,0,0,0,26,30,
1878051,Dane Dunning,SP,CWS,4000,0,0,0,15,30,
1878053,Spencer Turnbull,SP,DET,4000,0,0,0,23,30,
1878060,Brett Martin,SP,TEX,4000,0,0,0,11,30,
1878062,Yency Almonte,SP,COL,4000,0,0,0,17,30,
1881042,Luiz Gohara,SP,ATL,6600,0,-1.3,0,26,30,
1881044,Matt Shoemaker,SP,LAA,6600,0,0,0,19,30,Injured:1
1881051,Drew Smyly,SP,CHC,6400,0,0,0,25,30,Injured:1
1881053,Nate Karns,SP,KC,6400,0,0,0,4,30,
1876599,Alexi Amarista,OF/SS,DET,2400,0,0,0,181,283,
1876601,Buster Posey,1B/C,SF,4100,0,0,0,21,283,
1876608,Javier Baez,2B/SS,CHC,4000,8.59,11,0,114,283,Starter:1|LineupSpot6:1|PlayerMatchupIsHorribad:2|PlayerMatchupIsGreat:1
1876610,Jose Rondon,2B/SS,CWS,3200,0,0,0,160,283,
1876633,Cliff Pennington,2B/SS,TEX,2500,0,0,0,80,283,
1876635,Gregorio Petit,2B/SS,MIN,2500,0,0,0,24,283,
1876642,Jed Lowrie,2B,OAK,3600,7.79,11,0,164,283,Starter:1|LineupSpot3:1|WindHelping:1|PlayerMatchupIsGreat:2|PlayerIsCold:1|StarBad:1
1876644,Dustin Pedroia,2B,BOS,3500,0,0,0,32,283,Injured:1
1876667,Ryan Goins,2B,KC,2600,0,5,0,31,283,
1876669,Gordon Beckham,2B,SEA,2500,0,0,0,76,283,
1876674,Pedro Alvarez,1B/3B,BAL,3300,7.34,0,0,166,283,Starter:1|LineupSpot8:1|PlayerIsCold:1|VegasGood:1|StarBad:1
1876676,Luis Valbuena,1B/3B,LAA,3100,7.48,0,0,141,283,Starter:1|LineupSpot5:1|WindHelping:1|PlayerMatchupIsHorribad:1|PlayerMatchupIsGreat:2|VegasGood:1|ThumbUp:1
1876700,Austin Riley,3B,ATL,3000,0,0,0,202,283,
1876702,Trevor Plouffe,3B,TEX,2900,0,0,0,201,283,
1876709,Ryan Flaherty,3B,ATL,2700,0,0,0,45,283,
1876711,Ke'Bryan Hayes,3B,PIT,2700,0,0,0,238,283,
1876734,Luke Maile,C,TOR,3300,0,0,0,73,283,
1876736,Devin Mesoraco,C,NYM,3200,0,0,0,156,283,
1876743,Tyler Flowers,C,ATL,3100,0,0,0,202,283,
1876745,Jacob Nottingham,C,MIL,3100,0,0,0,70,283,
1876768,Tim Federowicz,C,HOU,2800,0,0,0,144,283,
1876770,Curt Casali,C,CIN,2800,0,0,0,105,283,
1876775,Grayson Greiner,C,DET,2700,0,0,0,35,283,
1876777,Alfredo Gonzalez,C,CWS,2700,0,0,0,160,283,
1876779,Tomas Telis,C,MIA,2700,0,0,0,139,283,
1876800,David Peralta,OF,ARI,4600,10.08,10,0,142,283,Starter:1|LineupSpot4:1|PlayerMatchupIsGreat:3|OptimalPick:1|PlayerIsHot:1|ThumbUp:1
1876802,Michael Brantley,OF,CLE,4600,8.52,2,0,60,283,Starter:1|LineupSpot2:1|PlayerMatchupIsHorribad:2|PlayerMatchupIsGreat:1|VegasGood:2|StarGood:1|ThumbUp:1
1876804,Christian Yelich,OF,MIL,4600,9.37,20,0,74,283,Starter:1|LineupSpot2:1|PlayerMatchupIsHorribad:1|PlayerMatchupIsGreat:2|PlayerIsCold:1|ThumbUp:1
1876809,Adam Eaton,OF,WAS,4400,9.67,3,0,230,283,Starter:1|LineupSpot1:1|PlayerMatchupIsGreat:3|VegasBad:1
1876811,Juan Soto,OF,WAS,4400,8.76,7,0,230,283,Starter:1|LineupSpot7:1|PlayerMatchupIsGreat:3|OptimalPick:1|VegasGood:1|ThumbDown:1
1876835,Ben Zobrist,2B/OF,CHC,4000,0,0,0,25,283,
1876837,Whit Merrifield,2B/OF,KC,3700,8.34,2,0,154,283,Starter:1|LineupSpot1:1|PlayerMatchupIsGreat:1|PlayerMatchupIsHorribad:1
1876844,Nick Franklin,2B/OF,MIL,2800,0,0,0,74,283,Injured:1
1876846,Andrew Romine,2B/OF,SEA,2600,0,0,0,198,283,
1876869,Tommy La Stella,2B/3B,CHC,2600,0,0,0,25,283,
1876871,Marco Hernandez,2B/3B,BOS,2500,0,0,0,134,283,Injured:1
1876878,Ryan Braun,1B/OF,MIL,4400,8.38,0,0,70,283,Starter:1|LineupSpot5:1|PlayerMatchupIsHorribad:1|PlayerMatchupIsGreat:3|PlayerIsCold:1|ThumbUp:1
1876880,Matt Adams,1B/OF,WAS,3900,9,0,0,230,283,Starter:1|LineupSpot6:1|PlayerMatchupIsGreat:3|ThumbUp:1
1876903,Gio Urshela,3B/SS,TOR,2800,0,0,0,73,283,
1876905,Phillip Evans,3B/SS,NYM,2700,0,0,0,156,283,
1876910,Ruben Tejada,3B/SS,BAL,2500,0,0,0,78,283,
1876912,Gary Sanchez,C,NYY,4000,7.68,11,0,19,283,Starter:1|LineupSpot6:1|PlayerMatchupIsHorribad:1|PlayerMatchupIsGreat:1|PlayerIsCold:1|VegasGood:1|ThumbDown:1
1876935,Martin Maldonado,C,LAA,2700,0,0,0,141,283,
1876937,Alex Avila,C,ARI,2600,5.59,0,0,142,283,Starter:1|LineupSpot7:1|PlayerMatchupIsGreat:2|PlayerMatchupIsHorribad:1|VegasBad:1|StarBad:1
1876944,Sean Murphy,C,OAK,2600,0,0,0,164,283,
1876946,Juan Centeno,C,TEX,2500,0,0,0,80,283,
1876969,Luis Torrens,C,SD,2000,0,0,0,184,283,
1876971,Keibert Ruiz,C,LAD,2000,0,0,0,253,283,
1876978,Troy Tulowitzki,SS,TOR,3400,0,0,0,73,283,Injured:1
1877025,Blake Rutherford,OF,CWS,2100,0,0,0,222,283,
1877048,Eric Hosmer,1B,SD,4500,10.18,5,0,175,283,Starter:1|LineupSpot2:1|PlayerMatchupIsGreat:1|ThumbUp:1
1877050,Carlos Santana,1B,PHI,4200,8.42,0,0,134,283,Starter:1|LineupSpot4:1|PlayerMatchupIsHorribad:1|PlayerMatchupIsGreat:2
1877055,Mitch Moreland,1B,BOS,4000,7.19,4,0,134,283,Starter:1|LineupSpot4:1|PlayerMatchupIsHorribad:1
1877057,Jake Bauers,1B,TB,3900,7.25,0,0,141,283,Starter:1|LineupSpot2:1|PlayerMatchupIsHorribad:1|PlayerMatchupIsGreat:1|PlayerIsCold:1|VegasBad:1
1877059,Yuli Gurriel,1B,HOU,3800,0,0,0,144,283,
1877080,JaCoby Jones,OF,DET,3000,0,0,0,35,283,
1877082,Lewis Brinson,OF,MIA,3000,4.97,18,0,148,283,Starter:1|LineupSpot7:1|PlayerMatchupIsHorribad:1
1877084,Lane Adams,OF,CHC,3000,0,0,0,114,283,
1877089,Ben Revere,OF,CIN,3000,0,0,0,133,283,
1877091,Boog Powell,OF,OAK,3000,0,0,0,56,283,Injured:1
1877114,Brandon Guyer,OF,CLE,2800,0,0,0,96,283,
1877116,Jake Cave,OF,MIN,2800,0,0,0,26,283,
1877171,Cedric Mullins,OF,BAL,3300,0,0,0,166,283,
1877173,Max Kepler,OF,MIN,3300,6.27,0,0,26,283,Starter:1|LineupSpot6:1|PlayerMatchupIsHorribad:1|PlayerMatchupIsGreat:1|PlayerIsCold:1|VegasBad:1|ThumbDown:1
1877196,Alex Verdugo,OF,LAD,3200,0,0,0,103,283,
1877198,Carlos Gomez,OF,TB,3200,0,0,0,141,283,
1877205,Dwight Smith Jr.,OF,TOR,3100,0,0,0,24,283,
1877207,Ryan Cordell,OF,CWS,3100,0,0,0,160,283,
1877232,Hunter Dozier,1B,KC,2800,5.36,3,0,154,283,Starter:1|LineupSpot6:1|PlayerMatchupIsHorribad:2|VegasGood:1
1877234,Chris Davis,1B,BAL,2600,0,0,0,166,283,
1877239,AJ Reed,1B,HOU,2300,0,0,0,79,283,
1877241,Chris Carter,1B,LAA,2100,0,0,0,141,283,
1877264,Jorge Lopez,RP,MIL,4000,0,0,0,22,30,
1877315,Chad Huffman,OF,DET,2700,0,0,0,35,283,
1877322,Alex Presley,OF,BAL,2700,0,0,0,166,283,
1877324,Robbie Grossman,OF,MIN,2700,0,0,0,26,283,
1877347,Dariel Alvarez,OF,BAL,2500,0,0,0,78,283,Injured:1
1877349,Jahmai Jones,OF,LAA,2500,0,0,0,141,283,
1877356,Ezequiel Carrera,OF,ATL,2300,0,0,0,45,283,
1877358,Yordan Alvarez,OF,HOU,2300,0,0,0,79,283,
1877386,Aroldis Chapman,RP,NYY,4000,0,0,0,13,30,
1877388,David Robertson,RP,NYY,4000,0,3.65,0,13,30,
1877393,Adam Warren,RP,NYY,4000,0,4.25,0,13,30,
1877395,Carlos Ramirez,RP,OAK,4000,0,-1.9,0,9,30,
1877418,Adam Morgan,RP,PHI,4000,0,0,0,10,30,
1877420,Matt Albers,RP,MIL,4000,0,0,0,22,30,Injured:1
1877422,Boone Logan,RP,MIL,4000,0,4.45,0,22,30,
1877427,Luis Garcia,RP,PHI,4000,0,0,0,10,30,
1877429,Julian Fernandez,RP,SF,4000,0,0,0,5,30,Injured:1
1877452,Kyle Crick,RP,PIT,4000,0,6.25,0,21,30,
1877454,Dovydas Neverauskas,RP,PIT,4000,0,0,0,21,30,
1877619,Brett Phillips,OF,MIL,3800,0,0,0,74,283,
1877621,Adam Jones,OF,BAL,3700,8.02,3,0,78,283,Starter:1|LineupSpot2:1|PlayerMatchupIsHorribad:1|PlayerMatchupIsGreat:1
1877626,Kevin Pillar,OF,TOR,3600,6.87,0,0,73,283,Starter:1|LineupSpot5:1|PlayerMatchupIsHorribad:1|PlayerIsCold:1|StarGood:1|ThumbDown:1
1877628,Victor Robles,OF,WAS,3600,0,0,0,129,283,
1877657,Brian Duensing,RP,CHC,4000,0,0,0,25,30,
1877659,Trevor Rosenthal,RP,STL,4000,0,0,0,6,30,Injured:1
1877666,Edwin Diaz,RP,SEA,4000,0,3.05,0,2,30,
1877668,Chasen Bradford,RP,SEA,4000,0,1.5,0,2,30,
1877691,Jandel Gustave,RP,HOU,4000,0,0,0,27,30,Injured:1
1877693,Reymin Guduan,RP,HOU,4000,0,0,0,27,30,
1877705,Jordy Mercer,SS,PIT,3300,6.71,3,0,238,283,Starter:1|LineupSpot8:1|PlayerMatchupIsGreat:2|OptimalPick:1|PlayerIsHot:1|VegasGood:1
1877707,Fernando Tatis Jr.,SS,SD,3200,0,0,0,184,283,
1877730,Alcides Escobar,SS,KC,2700,5.74,0,0,154,283,Starter:1|LineupSpot7:1|PlayerMatchupIsHorribad:2|PlayerIsCold:1
1877732,Pedro Florimon,SS,PHI,2600,0,0,0,134,283,Injured:1
1877737,Alex Mejia,SS,STL,2200,0,0,0,158,283,
1877739,Carter Kieboom,SS,WAS,2000,0,0,0,129,283,
1877849,Gabriel Ynoa,RP,BAL,4000,0,0,0,30,30,Injured:1
1877900,Chris Lee,RP,BAL,4000,0,0,0,30,30,
1877923,Dan Otero,RP,CLE,4000,0,3.75,0,24,30,
1877925,Zach McAllister,RP,CLE,4000,0,0,0,24,30,
1877932,Mike Mayers,RP,STL,4000,0,-1.55,0,6,30,
1877934,Luke Farrell,RP,CHC,4000,0,1.8,0,25,30,
1881000,Chris Martin,RP,TEX,4000,0,0,0,11,30,Injured:1
1881002,Shawn Tolleson,RP,TEX,4000,0,0,0,11,30,Injured:1
1881009,Adam Ottavino,RP,COL,4000,0,5.05,0,17,30,
1881011,Rayan Gonzalez,RP,COL,4000,0,0,0,17,30,Injured:1
