﻿player_id,name,fpts
10564,Michael Brantley,9.62
11378,Luis Valbuena,7.03
17988,Chris Young,6.16
10533,Nick Markakis,6.91
17693,David Peralta,8.97
13703,DJ LeMahieu,9.67
10445,Pablo Sandoval,6.04
10516,Shin-Soo Choo,9.3
11181,Logan Forsythe,6.9
10557,Giancarlo Stanton,9.87
15508,Yolmer Sanchez,7.26
38036,Jakob Bauers,7.25
15860,Mike Zunino,6.06
36236,Adam Engel,5.76
15108,Chad Bettis,10.52
35238,Chad Kuhl,13
10435,Pedro Alvarez,6.72
14629,Marcell Ozuna,7.05
13539,Tyler Skaggs,15.19
17649,Trey Mancini,7.37
11296,Matt Carpenter,6.63
15886,Jesus Aguilar,7.92
14850,Yangervis Solarte,7.42
16247,Paulo Orlando,5.11
36768,Sam Travis,5.05
10443,Edwin Encarnacion,9.27
10322,Albert Pujols,7.09
16290,Orlando Arcia,5.4
16368,Jose Ramirez,9.67
16454,Nolan Fontana,5.47
10293,Alex Avila,5.69
15422,Ender Inciarte,6.23
10614,Jarrod Dyson,7.74
14626,Nolan Arenado,10.78
16161,Alen Hanson,6.37
15038,Gary Sanchez,7.82
16321,Mac Williamson,5.61
16272,Blake Swihart,5.88
15359,John Hicks,6.65
15867,Kyle Gibson,11.57
16472,Jorge Alfaro,5.59
13517,Matt Harvey,10.66
17839,J.T. Riddle,6.66
10270,Yadier Molina,6.44
15267,James Paxton,21.17
10442,Danny Valencia,7.25
15035,George Springer,9.79
13386,Kendrys Morales,8.07
17851,Hunter Dozier,5.79
15183,Jake Smolinski,5.4
13463,Yan Gomes,5.91
15633,Marcus Semien,8.68
36549,Jose Miguel Fernandez,5.8
15991,Raffy Lopez,6.04
37481,Dominic Smith,6.22
17740,Trevor Story,10.04
16204,Austin Barnes,6.64
15541,Christian Vazquez,5.86
11495,Corey Kluber,27.15
10982,Jake Arrieta,17.99
37544,Chance Sisco,6.35
14540,Jedd Gyorko,7.15
10980,Rick Porcello,16.32
16276,Lewis Brinson,5.52
35330,Alex Bregman,8.54
16198,Odubel Herrera,5.92
16168,Kevin Pillar,7.51
11267,Josh Reddick,7.39
36197,Mitch Garver,4.85
14582,Khris Davis,9.53
14883,Ehire Adrianza,4.22
11408,Jason Kipnis,6.84
17887,Matt Olson,6.55
17857,Hunter Renfroe,6.76
16500,Mookie Betts,8.59
13460,Sandy Leon,5.67
15036,Cesar Hernandez,8.2
11440,Nathan Eovaldi,10.7
15181,Christian Yelich,9.19
35652,Brent Suter,14.9
36571,Brian Anderson,7.77
37410,Harrison Bader,7.02
17472,Jose Urena,13.37
13612,Adam Eaton,8.6
11406,Jose Altuve,10.27
15811,Javier Baez,6.41
15357,Randal Grichuk,6.2
10264,Brian McCann,6.13
36727,Cody Bellinger,5.76
15213,Ryan LaMarre,3.99
16136,Stephen Piscotty,7.07
15894,Jose Pirela,7.51
11350,Lonnie Chisenhall,6.75
15873,Xander Bogaerts,7.09
11305,Dee Gordon,7.97
10261,Carlos Santana,7.73
38047,Jonathan Loaisiga,12.36
16236,Travis Shaw,7.74
34718,Seth Lugo,9.77
18004,J.T. Realmuto,7.38
16460,Tommy Pham,8.89
15840,Kevin Gausman,15.22
13392,Bryce Harper,10.08
16282,Carlos Correa,9.32
22667,Pedro Severino,4.71
11315,Mike Moustakas,7.37
226295,Johnny Field,5.6
15912,Eddie Rosario,6.67
11424,J.D. Martinez,8.66
11373,Kyle Seager,7.5
11037,Derek Holland,10.93
21539,Zack Godley,18.12
10482,Starlin Castro,7.67
37227,Luke Voit,6.85
10925,Gio Gonzalez,15.87
10365,Daniel Murphy,8.35
13407,Marwin Gonzalez,6.99
17884,Teoscar Hernandez,9.04
10580,Alex Gordon,6.13
11507,Eduardo Escobar,6.27
10464,Eduardo Nunez,6.42
13286,Lorenzo Cain,7.82
16188,Ross Stripling,20.66
15848,Michael Wacha,14.59
16128,Miguel Rojas,5.46
36240,Yairo Munoz,5.92
17519,Aaron Sanchez,10.95
13466,Matt Adams,8.07
14547,Evan Gattis,7
10351,Justin Smoak,8.03
13516,Jean Segura,7.11
16264,Benjamin Gamel,5.88
10542,Ryan Braun,8.09
10674,Clayton Richard,13.34
16148,Albert Almora,7.2
10969,Jon Lester,18.46
10551,Adam Jones,8.04
18851,Wilmer Difo,6.15
16289,Mitch Haniger,7.78
35356,Andrew Benintendi,6.69
11430,Manny Pina,5.78
11040,Brandon McCarthy,16.21
17540,Kris Bryant,8.8
13534,Manny Machado,9.47
10512,Nelson Cruz,8.06
37377,Rafael Devers,5.9
37480,Rhys Hoskins,9.94
35313,Ryon Healy,6.77
35258,Omar Narvaez,6.21
17468,Joseph Wendle,7.11
17459,Colin Moran,7.89
17648,Max Muncy,7.33
13551,Jurickson Profar,8.21
17735,Robert Refsnyder,5.17
36198,Daniel Palka,7.52
16178,Scott Schebler,8.33
15566,Eugenio Suarez,7.28
11254,Todd Frazier,7.16
10487,Ian Desmond,8.66
10262,Buster Posey,6.79
16199,Joey Gallo,8.9
36186,Miguel Andujar,7.35
16202,Charlie Tilson,5.52
14759,Tucker Barnhart,6.71
16357,Jose Peraza,6.17
21540,Michael Conforto,7.52
17933,Manuel Margot,6.39
36162,Amed Rosario,5.97
10279,Chris Iannetta,7.18
10517,Andrew McCutchen,6.88
15483,Rougned Odor,7.72
38044,Gleyber Torres,6.67
14698,Nick Castellanos,7.51
10325,Joey Votto,9.13
11281,Josh Harrison,8.08
15378,Carlos Perez,4.69
15806,Brandon Nimmo,7.36
15670,Christian Villanueva,7.15
11431,Paul Goldschmidt,9.71
18790,Delino DeShields,7.18
10535,Hunter Pence,6.16
36176,Willy Adames,6.91
14700,James McCann,5.91
15252,Scooter Gennett,7.21
11156,Francisco Cervelli,6.56
36622,Christian Arroyo,5.54
15179,Mark Canha,6.5
10591,Gerardo Parra,6.78
16106,Travis Jankowski,7.65
10483,Asdrubal Cabrera,7.8
37435,Ozzie Albies,8.72
15528,Nick Ahmed,7.04
10430,Adrian Beltre,8.1
16227,Chris Taylor,8.32
17919,Matt Duffy,8.1
17798,Ronald Guzman,6.12
17609,Mallex Smith,6.33
17769,Jesse Winker,6.39
13480,Jordy Mercer,5.28
15989,Adam Duvall,5.72
10528,Logan Morrison,5.58
10405,Jed Lowrie,7.58
37557,J.P. Crawford,5.02
35650,Dansby Swanson,8.08
11479,Devin Mesoraco,5.83
11113,Justin Turner,9.25
10289,Wilson Ramos,7.76
11480,Leonys Martin,8.27
10548,Brett Gardner,8
15280,Dixon Machado,4.71
14641,Derek Dietrich,7.38
10425,Jose Bautista,6.18
15652,Whit Merrifield,7.16
10272,Russell Martin,6.34
35050,Tony Kemp,5.59
16163,Tyler Naquin,4.78
10260,Joe Mauer,5.58
17799,Nick Williams,5.06
11184,Eric Hosmer,8.47
10610,Jon Jay,7.51
10265,Kurt Suzuki,6.5
16291,Noel Cuevas,6.96
10534,Matt Kemp,7.9
15812,Jeimer Candelario,8.05
13777,Didi Gregorius,9.59
17437,Jose Abreu,8.84
15864,Corey Dickerson,9.03
15657,Justin Bour,7.93
36195,Jakob Junis,10.46
11311,Anthony Rizzo,8.49
13518,Starling Marte,8.68
326703,Juan Soto,6.93
11446,Salvador Perez,7.03
13483,Yasmani Grandal,6.41
17844,Aledmys Diaz,5.71
10371,Ian Kinsler,8.75
16440,Erik Gonzalez,5.2
35651,Chad Pinder,7.03
41726,Victor Reyes,5.98
13388,Freddy Galvis,6.73
16087,Jake Lamb,9.07
13456,Charlie Culberson,6.21
14880,Joe Panik,6.32
17578,Tom Murphy,6.27
18007,Enrique Hernandez,8.26
10259,Victor Martinez,6.54
14541,Aaron Hicks,6.94
14786,Matt Davidson,7.8
14928,Josh Bell,6.9
11438,J.B. Shuck,5.08
13170,Mike Fiers,14.52
34682,Willson Contreras,7.39
10985,Charlie Morton,18.99
15625,Jonathan Schoop,7.12
18884,Kyle Schwarber,7.59
21824,Trea Turner,9.63
16119,Jorge Soler,6.49
13505,Gorkys Hernandez,5.54
16222,Devon Travis,5.75
11380,Mike Trout,10.93
15268,Abraham Almonte,5.32
15798,Max Kepler,5.73
15086,Josh Phegley,5.55
15821,Niko Goodrum,6.4
10345,Freddie Freeman,8.05
10462,Daniel Descalso,8.17
36167,Johan Camargo,6.28
11266,Brandon Crawford,6.48
11306,Charlie Blackmon,9.1
15854,Yasiel Puig,6.89
35646,Aaron Judge,10.03
35706,Yoan Moncada,8.82
16045,Gregory Bird,7.59
35086,Tim Anderson,6.71
15235,Gregory Polanco,6.56
34665,Yohander Mendez,7.89
183328,Scott Kingery,7.57
35327,Reynaldo Lopez,16.75
16146,Addison Russell,5.75
17633,Chris Bassitt,12.76
10335,Mark Trumbo,7.27
36762,Ian Happ,6.33
14613,Anthony Rendon,7.82
10490,Alcides Escobar,5.85
34659,Guillermo Heredia,5.16
13440,Brian Dozier,6.54
10554,Justin Upton,8.93
14703,Hernan Perez,6
15953,Francisco Lindor,8.88
325793,Jose Briceno,5.26
38009,Isiah Kiner-Falefa,7.02