﻿player_id,name,fpts
35703,JaCoby Jones,6.11
10443,Edwin Encarnacion,9.36
13505,Gorkys Hernandez,6.51
15508,Yolmer Sanchez,6.41
13486,Bryan Holaday,5.4
15633,Marcus Semien,6.49
226295,Johnny Field,5.2
37233,Dustin Fowler,5.9
15896,Tyler Austin,6.79
13388,Freddy Galvis,6.15
15541,Christian Vazquez,5.81
11305,Dee Gordon,7.39
15912,Eddie Rosario,9.04
17624,Matt Koch,12.3
11190,Brandon Guyer,7.27
11438,J.B. Shuck,4
14582,Khris Davis,6.82
16457,Preston Tucker,5.85
17919,Matt Duffy,7.2
10376,Neil Walker,6.22
13516,Jean Segura,7.01
11373,Kyle Seager,6.54
11507,Eduardo Escobar,8.18
18990,Frankie Montas,12.17
13463,Yan Gomes,6.11
36229,Andrew Knapp,5.15
37180,Matt Chapman,5.62
15742,Ronald Torreyes,4.8
10289,Wilson Ramos,7.38
10512,Nelson Cruz,8.32
10541,Denard Span,4.85
10528,Logan Morrison,7.81
10908,Justin Verlander,23.98
10552,Rajai Davis,7.09
11417,Yonder Alonso,5.74
36198,Daniel Palka,7.17
36230,Jesmuel Valentin,6.4
15179,Mark Canha,5.95
16289,Mitch Haniger,7.41
34646,Mike Clevinger,19.45
14622,Robbie Grossman,7.24
10954,Felix Hernandez,12.93
17437,Jose Abreu,7.4
13407,Marwin Gonzalez,6.72
16202,Charlie Tilson,5.14
35313,Ryon Healy,6.83
18858,Carlos Rodon,14
15798,Max Kepler,7.32
10965,David Price,19.61
14786,Matt Davidson,7.06
34659,Guillermo Heredia,5.92
11292,Lance Lynn,15.07
11480,Leonys Martin,8.11
15860,Mike Zunino,5.66
34649,Michael Fulmer,13.59
35356,Andrew Benintendi,9.67
16198,Odubel Herrera,7.74
36162,Amed Rosario,6.45
17740,Trevor Story,7.48
10261,Carlos Santana,7.54
10426,Evan Longoria,6.95
11431,Paul Goldschmidt,10.82
10487,Ian Desmond,7.19
17799,Nick Williams,6.82
37435,Ozzie Albies,8.9
15782,Ketel Marte,6.86
37480,Rhys Hoskins,9.93
37557,J.P. Crawford,6.22
38044,Gleyber Torres,7.31
10345,Freddie Freeman,9.7
21540,Michael Conforto,8.44
10482,Starlin Castro,7.35
14782,Chris Owings,6.74
13440,Brian Dozier,8.44
309161,Franmil Reyes,7.53
17712,C.J. Cron,7.89
36176,Willy Adames,6.38
10533,Nick Markakis,6.6
14880,Joe Panik,7.34
15806,Brandon Nimmo,7.73
11479,Devin Mesoraco,6.7
15821,Niko Goodrum,6.51
16136,Stephen Piscotty,5.62
10990,A.J. Ellis,5.11
10616,Carlos Gomez,6.56
17609,Mallex Smith,6.38
15422,Ender Inciarte,6.63
11266,Brandon Crawford,7.28
10483,Asdrubal Cabrera,8.1
36571,Brian Anderson,6.88
15528,Nick Ahmed,7.65
11306,Charlie Blackmon,9.69
14698,Nick Castellanos,7.88
14883,Ehire Adrianza,6.09
11064,Jonathan Lucroy,5.54
10557,Giancarlo Stanton,9.97
36167,Johan Camargo,5.87
10445,Pablo Sandoval,6.53
10536,Jay Bruce,7.48
18414,John Ryan Murphy,8.18
10509,Carlos Gonzalez,8.61
14700,James McCann,5.56
11043,Tyson Ross,16.71
15894,Jose Pirela,6.93
35330,Alex Bregman,8.38
17731,Jake Cave,6.17
11267,Josh Reddick,7.43
38036,Jakob Bauers,6.54
14641,Derek Dietrich,7.87
10610,Jon Jay,7.12
16321,Mac Williamson,5.07
10591,Gerardo Parra,7.58
11198,Jose Iglesias,5.14
15812,Jeimer Candelario,7.91
36236,Adam Engel,5.41
17693,David Peralta,6.47
11406,Jose Altuve,10.2
15084,Trayce Thompson,5.46
10264,Brian McCann,6.64
14541,Aaron Hicks,9.02
17468,Joseph Wendle,7.01
17857,Hunter Renfroe,7.38
15657,Justin Bour,7.74
37481,Dominic Smith,6.12
16276,Lewis Brinson,4.8
16500,Mookie Betts,9.88
16164,Tony Wolters,5.22
22658,Blake Snell,15.66
10259,Victor Martinez,6.42
347843,Dereck Rodriguez,12.56
16440,Erik Gonzalez,6.19
16087,Jake Lamb,5.54
16282,Carlos Correa,9.24
15993,Kevan Smith,6.55
10405,Jed Lowrie,6.46
35646,Aaron Judge,9.84
17933,Manuel Margot,6.47
17839,J.T. Riddle,6.11
13703,DJ LeMahieu,6.96
11424,J.D. Martinez,9.95
15036,Cesar Hernandez,7.95
10354,Mitch Moreland,7.43
36197,Mitch Garver,5.65
22659,Domingo German,17.83
15953,Francisco Lindor,10.49
13522,Dan Straily,13.51
37547,Greg Allen,5.69
35357,Yulieski Gurriel,7.94
37483,Ryan McMahon,5.82
17887,Matt Olson,7.33
15038,Gary Sanchez,8.54
15226,Cory Spangenberg,7.6
35650,Dansby Swanson,6.86
10262,Buster Posey,7.12
11254,Todd Frazier,8.19
15873,Xander Bogaerts,7.63
37377,Rafael Devers,6.88
18877,Vincent Velasquez,17.4
16368,Jose Ramirez,10.21
10666,Jason Vargas,12.03
10997,Anibal Sanchez,13.91
14547,Evan Gattis,6.58
34708,Jose Rondon,6.79
35050,Tony Kemp,5.11
36186,Miguel Andujar,7.46
11184,Eric Hosmer,8.49
11384,Tyler Flowers,6.31
10517,Andrew McCutchen,7.59
10464,Eduardo Nunez,6.67
18014,Jackie Bradley,6.41
15359,John Hicks,6.35
34706,German Marquez,15.25