Player,Team,Opponent,Position,Status,WinPerc,PredTeamGoals,Value
Harry Kane ,TOT ,@WBA ,F ,S ,66.90%,2.03,1.6
Christian Eriksen ,TOT ,@WBA ,M ,S ,66.90%,2.03,1.67
Dele Alli ,TOT ,@WBA ,M ,S ,66.90%,2.03,1.82
Erik Lamela ,TOT ,@WBA ,M (M/F) ,S ,66.90%,2.03,2.26
Yannick Bolasie ,EVE ,SOU ,M (M/F) ,S ,32.39%,1.21,2.47
Charlie Austin ,SOU ,@EVE ,F ,S ,39.14%,1.35,2.13
Riyad Mahrez ,LEI ,WHU ,M (M/F) ,S ,41.93%,1.52,1.44
Ryan Fraser ,BOU ,SWA ,M ,S ,44.74%,1.57,1.33
Joshua King ,BOU ,SWA ,F ,S ,44.74%,1.57,1.69
Hugo Lloris ,TOT ,@WBA ,GK ,S ,66.90%,0.89,2.07
Marko Arnautovic ,WHU ,@LEI ,M (M/F) ,S ,29.48%,1.27,1.58
Matthew Phillips ,WBA ,TOT ,M ,S ,13.38%,0.89,2.53
Will Hughes ,WAT ,NEW ,M ,S ,37.70%,1.36,2.38
Callum Wilson ,BOU ,SWA ,F ,S ,44.74%,1.57,1.94
Jamie Vardy ,LEI ,WHU ,F ,S ,41.93%,1.52,1.45
Salomon Rondon ,WBA ,TOT ,F ,S ,13.38%,0.89,2.25
James McClean ,WBA ,TOT ,M ,S ,13.38%,0.89,2.65
Manuel Lanzini ,WHU ,@LEI ,M ,S ,29.48%,1.27,1.86
Jordan Ayew ,SWA ,@BOU ,F ,S ,27.63%,1.24,2.05
Jay Rodriguez ,WBA ,TOT ,M (M/F) ,S ,13.38%,0.89,2.49
Roberto Pereyra GTD ,WAT ,NEW ,M ,S ,37.70%,1.36,2.18
Dusan Tadic ,SOU ,@EVE ,M ,S ,39.14%,1.35,1.53
Danny Rose GTD ,TOT ,@WBA ,D ,S ,66.90%,2.03,1.97
Kieran Trippier ,TOT ,@WBA ,D ,S ,66.90%,2.03,1.77
Cenk Tosun ,EVE ,SOU ,F ,S ,32.39%,1.21,1.93
Andre Ayew ,SWA ,@BOU ,F ,S ,27.63%,1.24,2.16
Marc Pugh ,BOU ,SWA ,M ,S ,44.74%,1.57,2.86
Dwight Gayle ,NEW ,@WAT ,F ,S ,32.84%,1.21,1.92
Ayoze Perez ,NEW ,@WAT ,F ,S ,32.84%,1.21,1.5
Chris Brunt ,WBA ,TOT ,M ,S ,13.38%,0.89,1.96
Jacob Murphy ,NEW ,@WAT ,M ,S ,32.84%,1.21,2
Fousseni Diabate ,LEI ,WHU ,F ,S ,41.93%,1.52,2.08
Kenedy ,NEW ,@WAT ,M ,S ,32.84%,1.21,1.25
Jose Holebas ,WAT ,NEW ,D ,S ,37.70%,1.36,1.38
Arthur Masuaku ,WHU ,@LEI ,D ,S ,29.48%,1.27,1.88
Nikola Vlasic ,EVE ,SOU ,F ,S ,32.39%,1.21,2.01
Troy Deeney ,WAT ,NEW ,M (M/F) ,S ,37.70%,1.36,1.61
Andre Gray ,WAT ,NEW ,F ,S ,37.70%,1.36,1.77
Adrien Silva ,LEI ,WHU ,M ,S ,41.93%,1.52,2.37
Victor Wanyama ,TOT ,@WBA ,M ,S ,66.90%,2.03,2.34
Vicente Iborra GTD ,LEI ,WHU ,M ,S ,41.93%,1.52,2.34
Charlie Daniels ,BOU ,SWA ,D ,S ,44.74%,1.57,1.64
Abdoulaye Doucoure ,WAT ,NEW ,M ,S ,37.70%,1.36,1.75
Mario Lemina ,SOU ,@EVE ,M ,S ,39.14%,1.35,2.13
Jonjo Shelvey ,NEW ,@WAT ,M ,S ,32.84%,1.21,1.69
Christian Fuchs ,LEI ,WHU ,D ,S ,41.93%,1.52,1.46
Mohamed Diame ,NEW ,@WAT ,M ,S ,32.84%,1.21,2.19
Tom Davies ,EVE ,SOU ,M ,S ,32.39%,1.21,2.19
Ryan Bertrand ,SOU ,@EVE ,D ,S ,39.14%,1.35,1.39
Leighton Baines ,EVE ,SOU ,D ,S ,32.39%,1.21,1.5
Andrew Surman ,BOU ,SWA ,M ,S ,44.74%,1.57,1.93
Idrissa Gueye ,EVE ,SOU ,M ,S ,32.39%,1.21,1.59
Martin Dubravka ,NEW ,@WAT ,GK ,S ,32.84%,1.36,1.59
Cedric Soares ,SOU ,@EVE ,D ,S ,39.14%,1.35,1.46
Allan Nyom ,WBA ,TOT ,D ,S ,13.38%,0.89,2.26
Hamza Choudhury ,LEI ,WHU ,M ,S ,41.93%,1.52,2.12
Daryl Janmaat ,WAT ,NEW ,D ,S ,37.70%,1.36,1.5
Lewis Cook ,BOU ,SWA ,M ,S ,44.74%,1.57,2.11
Pablo Zabaleta ,WHU ,@LEI ,D ,S ,29.48%,1.27,1.74
Kieran Gibbs ,WBA ,TOT ,D ,S ,13.38%,0.89,2.07
Tom Carroll ,SWA ,@BOU ,M ,S ,27.63%,1.24,1.41
Ki Sung-yueng ,SWA ,@BOU ,M ,S ,27.63%,1.24,1.32
Oriol Romeu ,SOU ,@EVE ,M ,S ,39.14%,1.35,1.96
Mark Noble ,WHU ,@LEI ,M ,S ,29.48%,1.27,1.79
Seamus Coleman ,EVE ,SOU ,D ,S ,32.39%,1.21,1.29
Etienne Capoue ,WAT ,NEW ,M ,S ,37.70%,1.36,1.96
Martin Olsson ,SWA ,@BOU ,D ,S ,27.63%,1.24,1.51
Jake Livermore ,WBA ,TOT ,M ,S ,13.38%,0.89,1.94
Nathan Dyer ,SWA ,@BOU ,M ,S ,27.63%,1.24,1.82
Cheikhou Kouyate ,WHU ,@LEI ,M ,S ,29.48%,1.27,1.88
Orestis Karnezis ,WAT ,NEW ,GK ,S ,37.70%,1.21,1.31
Morgan Schneiderlin ,EVE ,SOU ,M ,S ,32.39%,1.21,1.82
Alex McCarthy ,SOU ,@EVE ,GK ,S ,39.14%,1.21,1.25
Ben Hamer ,LEI ,WHU ,GK ,S ,41.93%,1.27,1.2
Craig Dawson ,WBA ,TOT ,D ,S ,13.38%,0.89,1.6
Aaron Cresswell ,WHU ,@LEI ,D ,S ,29.48%,1.27,0.98
Lukasz Fabianski ,SWA ,@BOU ,GK ,S ,27.63%,1.57,1.19
Jordan Pickford ,EVE ,SOU ,GK ,S ,32.39%,1.35,1.11
Paul Dummett ,NEW ,@WAT ,D ,S ,32.84%,1.21,1.36
Harry Maguire ,LEI ,WHU ,D ,S ,41.93%,1.52,1.32
Javier Manquillo ,NEW ,@WAT ,D ,S ,32.84%,1.21,1.34
Jan Vertonghen ,TOT ,@WBA ,D ,S ,66.90%,2.03,1.11
Asmir Begovic ,BOU ,SWA ,GK ,S ,44.74%,1.24,0.96
Ahmed Hegazi ,WBA ,TOT ,D ,S ,13.38%,0.89,1.74
Nathan Ake ,BOU ,SWA ,D ,S ,44.74%,1.57,1.34
Connor Roberts ,SWA ,@BOU ,D ,S ,27.63%,1.24,1.19
Adrian ,WHU ,@LEI ,GK ,S ,29.48%,1.52,1.06
Simon Francis ,BOU ,SWA ,D ,S ,44.74%,1.57,1.06
Toby Alderweireld ,TOT ,@WBA ,D ,S ,66.90%,2.03,1.21
Davinson Sanchez ,TOT ,@WBA ,D ,S ,66.90%,2.03,1.23
Maya Yoshida ,SOU ,@EVE ,D ,S ,39.14%,1.35,1.55
Ben Foster ,WBA ,TOT ,GK ,S ,13.38%,2.03,1.23
Steve Cook ,BOU ,SWA ,D ,S ,44.74%,1.57,1.27
Wesley Hoedt ,SOU ,@EVE ,D ,S ,39.14%,1.35,1.42
Christian Kabasele ,WAT ,NEW ,D ,S ,37.70%,1.36,1.26
Florian Lejeune ,NEW ,@WAT ,D ,S ,32.84%,1.21,1.35
Jan Bednarek ,SOU ,@EVE ,D ,S ,39.14%,1.35,1.28
Mike van der Hoorn ,SWA ,@BOU ,D ,S ,27.63%,1.24,1.37
Wes Morgan ,LEI ,WHU ,D ,S ,41.93%,1.52,1.27
Angelo Ogbonna ,WHU ,@LEI ,D ,S ,29.48%,1.27,1.2
Yohan Benalouane ,LEI ,WHU ,D ,S ,41.93%,1.52,1.17
Alfie Mawson ,SWA ,@BOU ,D ,S ,27.63%,1.24,1.21
Jamaal Lascelles ,NEW ,@WAT ,D ,S ,32.84%,1.21,1.25
Federico Fernandez GTD ,SWA ,@BOU ,D ,S ,27.63%,1.24,1.25
Craig Cathcart ,WAT ,NEW ,D ,S ,37.70%,1.36,1.2
Phil Jagielka ,EVE ,SOU ,D ,S ,32.39%,1.21,1.2
Michael Keane ,EVE ,SOU ,D ,S ,32.39%,1.21,1.19
Declan Rice ,WHU ,@LEI ,M ,S ,29.48%,1.27,1
Son Heung-Min ,TOT ,@WBA ,M (M/F) ,- ,66.90%,2.03,0
Fernando Llorente ,TOT ,@WBA ,F ,- ,66.90%,2.03,0
Marc Albrighton SUS ,LEI ,WHU ,M ,- ,41.93%,1.52,0
James Ward-Prowse ,SOU ,@EVE ,M ,- ,39.14%,1.35,0
Theo Walcott OUT ,EVE ,SOU ,M (M/F) ,- ,32.39%,1.21,0
Matt Ritchie ,NEW ,@WAT ,M ,- ,32.84%,1.21,0
Lucas Moura ,TOT ,@WBA ,M ,- ,66.90%,2.03,0
Gylfi Sigurdsson OUT ,EVE ,SOU ,M (M/F) ,- ,32.39%,1.21,0
Junior Stanislas OUT ,BOU ,SWA ,M ,- ,44.74%,1.57,0
Richarlison ,WAT ,NEW ,F ,- ,37.70%,1.36,0
Jordon Ibe ,BOU ,SWA ,M (M/F) ,- ,44.74%,1.57,0
Gerard Deulofeu ,WAT ,NEW ,M (M/F) ,- ,37.70%,1.36,0
Chicharito OUT ,WHU ,@LEI ,F ,- ,29.48%,1.27,0
Serge Aurier OUT ,TOT ,@WBA ,D ,- ,66.90%,2.03,0
Demarai Gray ,LEI ,WHU ,M (M/F) ,- ,41.93%,1.52,0
Ben Chilwell GTD ,LEI ,WHU ,D ,- ,41.93%,1.52,0
Lys Mousset ,BOU ,SWA ,F ,- ,44.74%,1.57,0
Wayne Rooney OUT ,EVE ,SOU ,M (M/F) ,- ,32.39%,1.21,0
Paulo Gazzaniga ,TOT ,@WBA ,GK ,- ,66.90%,0.89,0
Ben Davies ,TOT ,@WBA ,D ,- ,66.90%,2.03,0
Andy Carroll ,WHU ,@LEI ,F ,- ,29.48%,1.27,0
Michel Vorm ,TOT ,@WBA ,GK ,- ,66.90%,0.89,0
Jermain Defoe ,BOU ,SWA ,F ,- ,44.74%,1.57,0
Michail Antonio OUT ,WHU ,@LEI ,M (M/F) ,- ,29.48%,1.27,0
Oumar Niasse ,EVE ,SOU ,F ,- ,32.39%,1.21,0
Kelechi Iheanacho ,LEI ,WHU ,F ,- ,41.93%,1.52,0
Tammy Abraham ,SWA ,@BOU ,F ,- ,27.63%,1.24,0
Kyle Walker-Peters OUT ,TOT ,@WBA ,D ,- ,66.90%,2.03,0
Shinji Okazaki GTD ,LEI ,WHU ,M (M/F) ,- ,41.93%,1.52,0
Stefano Okaka OUT ,WAT ,NEW ,F ,- ,37.70%,1.36,0
Shane Long ,SOU ,@EVE ,F ,- ,39.14%,1.35,0
Sofiane Boufal GTD ,SOU ,@EVE ,M ,- ,39.14%,1.35,0
Artur Boruc ,BOU ,SWA ,GK ,- ,44.74%,1.24,0
Christian Atsu GTD ,NEW ,@WAT ,M ,- ,32.84%,1.21,0
Nathan Redmond ,SOU ,@EVE ,M (M/F) ,- ,39.14%,1.35,0
Joselu ,NEW ,@WAT ,F ,- ,32.84%,1.21,0
Dominic Calvert-Lewin OUT ,EVE ,SOU ,F ,- ,32.39%,1.21,0
Jeremy Pied ,SOU ,@EVE ,D ,- ,39.14%,1.35,0
Luciano Narsingh GTD ,SWA ,@BOU ,M (M/F) ,- ,27.63%,1.24,0
Josh Sims ,SOU ,@EVE ,M ,- ,39.14%,1.35,0
Eldin Jakupovic ,LEI ,WHU ,GK ,- ,41.93%,1.27,0
Manolo Gabbiadini ,SOU ,@EVE ,F ,- ,39.14%,1.35,0
Kasper Schmeichel GTD ,LEI ,WHU ,GK ,- ,41.93%,1.27,0
Fraser Forster ,SOU ,@EVE ,GK ,- ,39.14%,1.21,0
Islam Slimani ,NEW ,@WAT ,F ,- ,32.84%,1.21,0
Kiko ,WAT ,NEW ,D ,- ,37.70%,1.36,0
Guido Carrillo ,SOU ,@EVE ,F ,- ,39.14%,1.35,0
Harvey Barnes ,LEI ,WHU ,M ,- ,41.93%,1.52,0
Jordan Hugill ,WHU ,@LEI ,F ,- ,29.48%,1.27,0
Renato Sanches ,SWA ,@BOU ,M ,- ,27.63%,1.24,0
Andre Carrillo OUT ,WAT ,NEW ,M (M/F) ,- ,37.70%,1.36,0
Sam McQueen OUT ,SOU ,@EVE ,D ,- ,39.14%,1.35,0
Tom Cleverley OUT ,WAT ,NEW ,M ,- ,37.70%,1.36,0
Heurelho Gomes ,WAT ,NEW ,GK ,- ,37.70%,1.21,0
Maarten Stekelenburg OUT ,EVE ,SOU ,GK ,- ,32.39%,1.35,0
Adam Smith OUT ,BOU ,SWA ,D ,- ,44.74%,1.57,0
Jesus Gamez OUT ,NEW ,@WAT ,D ,- ,32.84%,1.21,0
Joel Robles ,EVE ,SOU ,GK ,- ,32.39%,1.35,0
Sam Byram OUT ,WHU ,@LEI ,D ,- ,29.48%,1.27,0
Robert Elliot OUT ,NEW ,@WAT ,GK ,- ,32.84%,1.36,0
Karl Darlow ,NEW ,@WAT ,GK ,- ,32.84%,1.36,0
Joe Hart OUT ,WHU ,@LEI ,GK ,- ,29.48%,1.52,0
DeAndre Yedlin ,NEW ,@WAT ,D ,- ,32.84%,1.21,0
Marvin Zeegelaar ,WAT ,NEW ,D ,- ,37.70%,1.36,0
Nacer Chadli ,WBA ,TOT ,M (M/F) ,- ,13.38%,0.89,0
Jonjoe Kenny ,EVE ,SOU ,D ,- ,32.39%,1.21,0
Nathaniel Chalobah OUT ,WAT ,NEW ,M ,- ,37.70%,1.36,0
Daniel Sturridge ,WBA ,TOT ,F ,- ,13.38%,0.89,0
Samuel Clucas ,SWA ,@BOU ,M ,- ,27.63%,1.24,0
Rhoys Wiggins ,BOU ,SWA ,D ,- ,44.74%,1.57,0
Massadio Haidara ,NEW ,@WAT ,D ,- ,32.84%,1.21,0
Hal Robson-Kanu ,WBA ,TOT ,M (M/F) ,- ,13.38%,0.89,0
Brad Smith ,BOU ,SWA ,D ,- ,44.74%,1.57,0
Wilfried Bony OUT ,SWA ,@BOU ,F ,- ,27.63%,1.24,0
Jerome Sinclair ,WAT ,NEW ,F ,- ,37.70%,1.36,0
Chancel Mbemba ,NEW ,@WAT ,D ,- ,32.84%,1.21,0
Josh Cullen ,WHU ,@LEI ,M ,- ,29.48%,1.27,0
Cuco Martina ,EVE ,SOU ,D ,- ,32.39%,1.21,0
Kyle Naughton OUT ,SWA ,@BOU ,D ,- ,27.63%,1.24,0
Patrice Evra ,WHU ,@LEI ,D ,- ,29.48%,1.27,0
Kristoffer Nordfeldt ,SWA ,@BOU ,GK ,- ,27.63%,1.57,0
Kazaiah Sterling ,TOT ,@WBA ,F ,- ,66.90%,2.03,0
Luke Garbutt ,EVE ,SOU ,D ,- ,32.39%,1.21,0
Angel Rangel ,SWA ,@BOU ,D ,- ,27.63%,1.24,0
Juan Foyth ,TOT ,@WBA ,D ,- ,66.90%,2.03,0
Oliver Burke ,WBA ,TOT ,M ,- ,13.38%,0.89,0
Wilfred Ndidi GTD ,LEI ,WHU ,M ,- ,41.93%,1.52,0
Aleksandar Dragovic ,LEI ,WHU ,D ,- ,41.93%,1.52,0
Harry Arter OUT ,BOU ,SWA ,M ,- ,44.74%,1.57,0
Moussa Sissoko ,TOT ,@WBA ,M ,- ,66.90%,2.03,0
Stuart Taylor ,SOU ,@EVE ,GK ,- ,39.14%,1.21,0
Boaz Myhill ,WBA ,TOT ,GK ,- ,13.38%,2.03,0
Miguel Britos ,WAT ,NEW ,D ,- ,37.70%,1.36,0
Erwin Mulder ,SWA ,@BOU ,GK ,- ,27.63%,1.57,0
Alex Palmer ,WBA ,TOT ,GK ,- ,13.38%,2.03,0
Nathan Trott ,WHU ,@LEI ,GK ,- ,29.48%,1.52,0
Daniel Bachmann ,WAT ,NEW ,GK ,- ,37.70%,1.21,0
Mateusz Hewelt ,EVE ,SOU ,GK ,- ,32.39%,1.35,0
Daniel James ,SWA ,@BOU ,M ,- ,27.63%,1.24,0
Domingos Quina ,WHU ,@LEI ,M ,- ,29.48%,1.27,0
Carl Stewart ,WAT ,NEW ,M ,- ,37.70%,1.36,0
Dodi Lukebakio ,WAT ,NEW ,M ,- ,37.70%,1.36,0
Edimilson Fernandes ,WHU ,@LEI ,M ,- ,29.48%,1.27,0
Emerson Hyndman ,BOU ,SWA ,M ,- ,44.74%,1.57,0
Daniel Amartey OUT ,LEI ,WHU ,M ,- ,41.93%,1.52,0
Mikel Merino OUT ,NEW ,@WAT ,M ,- ,32.84%,1.21,0
Didier Ndong ,WAT ,NEW ,M ,- ,37.70%,1.36,0
Matt Butcher ,BOU ,SWA ,M ,- ,44.74%,1.57,0
Grzegorz Krychowiak ,WBA ,TOT ,M ,- ,13.38%,0.89,0
Sam Field ,WBA ,TOT ,M ,- ,13.38%,0.89,0
Sead Haksabanovic ,WHU ,@LEI ,M ,- ,29.48%,1.27,0
Jack Simpson ,BOU ,SWA ,D ,- ,44.74%,1.57,0
Kyle Taylor ,BOU ,SWA ,M ,- ,44.74%,1.57,0
Rekeem Harper ,WBA ,TOT ,M ,- ,13.38%,0.89,0
Marcus Browne ,WHU ,@LEI ,M ,- ,29.48%,1.27,0
Tashan Oakley-Boothe ,TOT ,@WBA ,M ,- ,66.90%,2.03,0
Jake Hesketh ,SOU ,@EVE ,M ,- ,39.14%,1.35,0
Nathan Holland ,WHU ,@LEI ,M ,- ,29.48%,1.27,0
Isaac Hayden ,NEW ,@WAT ,M ,- ,32.84%,1.21,0
James McCarthy OUT ,EVE ,SOU ,M ,- ,32.39%,1.21,0
Dan Gosling ,BOU ,SWA ,M ,- ,44.74%,1.57,0
Steven Davis GTD ,SOU ,@EVE ,M ,- ,39.14%,1.35,0
Wayne Routledge ,SWA ,@BOU ,M ,- ,27.63%,1.24,0
Gareth Barry OUT ,WBA ,TOT ,M ,- ,13.38%,0.89,0
Danny Simpson OUT ,LEI ,WHU ,D ,- ,41.93%,1.52,0
James Morrison OUT ,WBA ,TOT ,M ,- ,13.38%,0.89,0
Leroy Fer OUT ,SWA ,@BOU ,M ,- ,27.63%,1.24,0
Leon Britton ,SWA ,@BOU ,M ,- ,27.63%,1.24,0
Claudio Yacob ,WBA ,TOT ,M ,- ,13.38%,0.89,0
Mousa Dembele OUT ,TOT ,@WBA ,M ,- ,66.90%,2.03,0
Andy King ,SWA ,@BOU ,M ,- ,27.63%,1.24,0
Matty James OUT ,LEI ,WHU ,M ,- ,41.93%,1.52,0
Eric Dier ,TOT ,@WBA ,M ,- ,66.90%,2.03,0
Davy Klaassen ,EVE ,SOU ,M ,- ,32.39%,1.21,0
Pedro Obiang GTD ,WHU ,@LEI ,M ,- ,29.48%,1.27,0
Molla Wague OUT ,WAT ,NEW ,D ,- ,37.70%,1.36,0
Tyrone Mings ,BOU ,SWA ,D ,- ,44.74%,1.57,0
Harry Winks OUT ,TOT ,@WBA ,M ,- ,66.90%,2.03,0
Adrian Mariappa ,WAT ,NEW ,D ,- ,37.70%,1.36,0
Winston Reid OUT ,WHU ,@LEI ,D ,- ,29.48%,1.27,0
Mason Holgate GTD ,EVE ,SOU ,D ,- ,32.39%,1.21,0
James Collins OUT ,WHU ,@LEI ,D ,- ,29.48%,1.27,0
Robert Huth GTD ,LEI ,WHU ,D ,- ,41.93%,1.52,0
Younes Kaboul GTD ,WAT ,NEW ,D ,- ,37.70%,1.36,0
Ciaran Clark GTD ,NEW ,@WAT ,D ,- ,32.84%,1.21,0
Jack Stephens ,SOU ,@EVE ,D ,- ,39.14%,1.35,0
Tommie Hoban OUT ,WAT ,NEW ,D ,- ,37.70%,1.36,0
Sebastian Prodl ,WAT ,NEW ,D ,- ,37.70%,1.36,0
Kyle Bartley OUT ,SWA ,@BOU ,D ,- ,27.63%,1.24,0
Ashley Williams ,EVE ,SOU ,D ,- ,32.39%,1.21,0
Jonny Evans ,WBA ,TOT ,D ,- ,13.38%,0.89,0
Gareth McAuley ,WBA ,TOT ,D ,- ,13.38%,0.89,0
Eliaquim Mangala OUT ,EVE ,SOU ,D ,- ,32.39%,1.21,0
Kyle Jameson ,WBA ,TOT ,D ,- ,13.38%,0.89,0
Joy Mukena ,WAT ,NEW ,D ,- ,37.70%,1.36,0
Ramiro Funes Mori ,EVE ,SOU ,D ,- ,32.39%,1.21,0
