Position,Name + ID,Name,ID,Roster Position,Salary,Game Info,TeamAbbrev,AvgPointsPerGame
SP,Justin Verlander (10765888),Justin Verlander,10765888,P,12800,SEA@HOU 06/06/2018 08:10PM ET,HOU,28.72
SP,Chris Sale (10765890),Chris Sale,10765890,P,11800,DET@BOS 06/06/2018 07:10PM ET,BOS,24.40
SP,Clayton Kershaw (10765889),Clayton Kershaw,10765889,P,11800,LAD@PIT 06/06/2018 07:05PM ET,LAD,17.47
SP,Gerrit Cole (10765891),Gerrit Cole,10765891,P,11600,SEA@HOU 06/06/2018 08:10PM ET,HOU,30.18
SP,Aaron Nola (10765317),Aaron Nola,10765317,P,11400,PHI@CHC 06/06/2018 08:05PM ET,PHI,22.49
SP,Shohei Ohtani (10765318),Shohei Ohtani,10765318,P,11100,KC@LAA 06/06/2018 10:07PM ET,LAA,4.05
SP,Jose Berrios (10765892),Jose Berrios,10765892,P,11100,CWS@MIN 06/06/2018 08:10PM ET,MIN,19.67
SP,Carlos Martinez (10765893),Carlos Martinez,10765893,P,11000,MIA@STL 06/06/2018 08:15PM ET,STL,17.23
SP,Kenta Maeda (10765894),Kenta Maeda,10765894,P,10800,LAD@PIT 06/06/2018 07:05PM ET,LAD,15.58
SP,Walker Buehler (10765895),Walker Buehler,10765895,P,10600,LAD@PIT 06/06/2018 07:05PM ET,LAD,19.76
SP,Lance McCullers Jr. (10765319),Lance McCullers Jr.,10765319,P,10500,SEA@HOU 06/06/2018 08:10PM ET,HOU,18.13
SP,Luis Severino (10765896),Luis Severino,10765896,P,10400,NYY@TOR 06/06/2018 07:07PM ET,NYY,26.72
SP,Jon Lester (10765899),Jon Lester,10765899,P,10400,PHI@CHC 06/06/2018 08:05PM ET,CHC,15.28
SP,James Paxton (10765897),James Paxton,10765897,P,10400,SEA@HOU 06/06/2018 08:10PM ET,SEA,24.16
SP,Charlie Morton (10765898),Charlie Morton,10765898,P,10400,SEA@HOU 06/06/2018 08:10PM ET,HOU,23.37
SP,Jack Flaherty (10765320),Jack Flaherty,10765320,P,10200,MIA@STL 06/06/2018 08:15PM ET,STL,19.08
SP,Cole Hamels (10765900),Cole Hamels,10765900,P,9900,OAK@TEX 06/06/2018 08:05PM ET,TEX,17.05
SP,Michael Wacha (10765901),Michael Wacha,10765901,P,9700,MIA@STL 06/06/2018 08:15PM ET,STL,18.70
SP,Nick Pivetta (10765902),Nick Pivetta,10765902,P,9600,PHI@CHC 06/06/2018 08:05PM ET,PHI,16.92
RP,Ross Stripling (10765903),Ross Stripling,10765903,P,9600,LAD@PIT 06/06/2018 07:05PM ET,LAD,11.30
SP,J.A. Happ (10765904),J.A. Happ,10765904,P,9500,NYY@TOR 06/06/2018 07:07PM ET,TOR,20.6
SP,Miles Mikolas (10765905),Miles Mikolas,10765905,P,9500,MIA@STL 06/06/2018 08:15PM ET,STL,17.73
SP,Tyler Skaggs (10765906),Tyler Skaggs,10765906,P,9500,KC@LAA 06/06/2018 10:07PM ET,LAA,17.02
SP,Eduardo Rodriguez (10765321),Eduardo Rodriguez,10765321,P,9400,DET@BOS 06/06/2018 07:10PM ET,BOS,18.74
SP,Ervin Santana (10765907),Ervin Santana,10765907,P,9200,CWS@MIN 06/06/2018 08:10PM ET,MIN,0
SP,Jake Arrieta (10765908),Jake Arrieta,10765908,P,9100,PHI@CHC 06/06/2018 08:05PM ET,PHI,15.43
SP,Jakob Junis (10765909),Jakob Junis,10765909,P,9000,KC@LAA 06/06/2018 10:07PM ET,KC,18.05
SP,Hyun-Jin Ryu (10765910),Hyun-Jin Ryu,10765910,P,8900,LAD@PIT 06/06/2018 07:05PM ET,LAD,17.22
SP,David Price (10765911),David Price,10765911,P,8800,DET@BOS 06/06/2018 07:10PM ET,BOS,16.55
SP,Jose Quintana (10765322),Jose Quintana,10765322,P,8800,PHI@CHC 06/06/2018 08:05PM ET,CHC,14.93
SP,Andrew Heaney (10765912),Andrew Heaney,10765912,P,8600,KC@LAA 06/06/2018 10:07PM ET,LAA,18.49
SP,Jordan Montgomery (10765914),Jordan Montgomery,10765914,P,8500,NYY@TOR 06/06/2018 07:07PM ET,NYY,11.88
SP,Luke Weaver (10765913),Luke Weaver,10765913,P,8500,MIA@STL 06/06/2018 08:15PM ET,STL,10.57
SP,Jaime Barria (10765915),Jaime Barria,10765915,P,8500,KC@LAA 06/06/2018 10:07PM ET,LAA,16.74
SP,Masahiro Tanaka (10765916),Masahiro Tanaka,10765916,P,8400,NYY@TOR 06/06/2018 07:07PM ET,NYY,16.62
RP,Domingo German (10765917),Domingo German,10765917,P,8400,NYY@TOR 06/06/2018 07:07PM ET,NYY,9.68
SP,Daniel Mengden (10765323),Daniel Mengden,10765323,P,8400,OAK@TEX 06/06/2018 08:05PM ET,OAK,16.75
SP,Matthew Boyd (10765919),Matthew Boyd,10765919,P,8300,DET@BOS 06/06/2018 07:10PM ET,DET,14.74
SP,Kyle Hendricks (10765918),Kyle Hendricks,10765918,P,8300,PHI@CHC 06/06/2018 08:05PM ET,CHC,15.52
SP,Nick Kingham (10765920),Nick Kingham,10765920,P,8200,LAD@PIT 06/06/2018 07:05PM ET,PIT,17.85
SP,Kyle Freeland (10765921),Kyle Freeland,10765921,P,8100,COL@CIN 06/06/2018 07:10PM ET,COL,16.73
SP,Rick Porcello (10765922),Rick Porcello,10765922,P,8000,DET@BOS 06/06/2018 07:10PM ET,BOS,18.41
SP,Aaron Sanchez (10765924),Aaron Sanchez,10765924,P,8000,NYY@TOR 06/06/2018 07:07PM ET,TOR,11.52
RP,Tyler Glasnow (10765923),Tyler Glasnow,10765923,P,8000,LAD@PIT 06/06/2018 07:05PM ET,PIT,5.85
SP,Yu Darvish (10765926),Yu Darvish,10765926,P,7900,PHI@CHC 06/06/2018 08:05PM ET,CHC,13.92
SP,Dallas Keuchel (10765925),Dallas Keuchel,10765925,P,7900,SEA@HOU 06/06/2018 08:10PM ET,HOU,14.51
SP,Felix Hernandez (10765928),Felix Hernandez,10765928,P,7800,SEA@HOU 06/06/2018 08:10PM ET,SEA,12.54
SP,Kyle Gibson (10765927),Kyle Gibson,10765927,P,7800,CWS@MIN 06/06/2018 08:10PM ET,MIN,16.62
SP,Sean Manaea (10765931),Sean Manaea,10765931,P,7700,OAK@TEX 06/06/2018 08:05PM ET,OAK,16.15
SP,Carlos Rodon (10765929),Carlos Rodon,10765929,P,7700,CWS@MIN 06/06/2018 08:10PM ET,CWS,0
SP,Fernando Romero (10765930),Fernando Romero,10765930,P,7700,CWS@MIN 06/06/2018 08:10PM ET,MIN,13.42
SP,Vince Velasquez (10765932),Vince Velasquez,10765932,P,7500,PHI@CHC 06/06/2018 08:05PM ET,PHI,17.79
SP,Jon Gray (10765324),Jon Gray,10765324,P,7500,COL@CIN 06/06/2018 07:10PM ET,COL,14.79
SP,Joe Musgrove (10765933),Joe Musgrove,10765933,P,7500,LAD@PIT 06/06/2018 07:05PM ET,PIT,20.98
SP,Zach Eflin (10765936),Zach Eflin,10765936,P,7300,PHI@CHC 06/06/2018 08:05PM ET,PHI,15.32
SP,Dan Straily (10765934),Dan Straily,10765934,P,7300,MIA@STL 06/06/2018 08:15PM ET,MIA,10.55
SP,Jake Odorizzi (10765325),Jake Odorizzi,10765325,P,7300,CWS@MIN 06/06/2018 08:10PM ET,MIN,13.75
SP,Alex Wood (10765935),Alex Wood,10765935,P,7300,LAD@PIT 06/06/2018 07:05PM ET,LAD,13.36
SP,Michael Fulmer (10765939),Michael Fulmer,10765939,P,7200,DET@BOS 06/06/2018 07:10PM ET,DET,11.75
SP,Nick Tropeano (10765938),Nick Tropeano,10765938,P,7200,KC@LAA 06/06/2018 10:07PM ET,LAA,13.28
SP,Chad Kuhl (10765937),Chad Kuhl,10765937,P,7200,LAD@PIT 06/06/2018 07:05PM ET,PIT,12.93
SP,Caleb Ferguson (10765327),Caleb Ferguson,10765327,P,7100,LAD@PIT 06/06/2018 07:05PM ET,LAD,0
SP,Sonny Gray (10765328),Sonny Gray,10765328,P,7000,NYY@TOR 06/06/2018 07:07PM ET,NYY,10.68
SP,Tyler Mahle (10765941),Tyler Mahle,10765941,P,7000,COL@CIN 06/06/2018 07:10PM ET,CIN,12.66
SP,Collin McHugh (10765940),Collin McHugh,10765940,P,7000,SEA@HOU 06/06/2018 08:10PM ET,HOU,5.96
SP,Trevor Cahill (10765942),Trevor Cahill,10765942,P,6900,OAK@TEX 06/06/2018 08:05PM ET,OAK,18.44
SP,Tyler Chatwood (10765944),Tyler Chatwood,10765944,P,6900,PHI@CHC 06/06/2018 08:05PM ET,CHC,11.07
SP,Adam Wainwright (10765943),Adam Wainwright,10765943,P,6900,MIA@STL 06/06/2018 08:15PM ET,STL,9.38
SP,Luis Castillo (10765945),Luis Castillo,10765945,P,6800,COL@CIN 06/06/2018 07:10PM ET,CIN,11.74
SP,Alex Reyes (10765946),Alex Reyes,10765946,P,6700,MIA@STL 06/06/2018 08:15PM ET,STL,9.4
SP,Andrew Triggs (10765948),Andrew Triggs,10765948,P,6600,OAK@TEX 06/06/2018 08:05PM ET,OAK,12.02
SP,Matt Shoemaker (10765947),Matt Shoemaker,10765947,P,6600,KC@LAA 06/06/2018 10:07PM ET,LAA,13.95
SP,Trevor Williams (10765329),Trevor Williams,10765329,P,6600,LAD@PIT 06/06/2018 07:05PM ET,PIT,13.27
SP,Alex Meyer (10765950),Alex Meyer,10765950,P,6500,KC@LAA 06/06/2018 10:07PM ET,LAA,0
SP,Alec Hansen (10765949),Alec Hansen,10765949,P,6500,CWS@MIN 06/06/2018 08:10PM ET,CWS,0
SP,Drew Pomeranz (10765956),Drew Pomeranz,10765956,P,6400,DET@BOS 06/06/2018 07:10PM ET,BOS,7.81
SP,Tyler Anderson (10765953),Tyler Anderson,10765953,P,6400,COL@CIN 06/06/2018 07:10PM ET,COL,10.32
RP,Caleb Smith (10765954),Caleb Smith,10765954,P,6400,MIA@STL 06/06/2018 08:15PM ET,MIA,16.83
SP,Nate Karns (10765952),Nate Karns,10765952,P,6400,KC@LAA 06/06/2018 10:07PM ET,KC,0
SP,Reynaldo Lopez (10765951),Reynaldo Lopez,10765951,P,6400,CWS@MIN 06/06/2018 08:10PM ET,CWS,12.70
SP,Ivan Nova (10765955),Ivan Nova,10765955,P,6400,LAD@PIT 06/06/2018 07:05PM ET,PIT,11.07
SP,Drew Smyly (10765958),Drew Smyly,10765958,P,6300,PHI@CHC 06/06/2018 08:05PM ET,CHC,0
SP,Wade LeBlanc (10765330),Wade LeBlanc,10765330,P,6300,SEA@HOU 06/06/2018 08:10PM ET,SEA,10.79
SP,Michael Pineda (10765957),Michael Pineda,10765957,P,6300,CWS@MIN 06/06/2018 08:10PM ET,MIN,0
SP,Jharel Cotton (10765961),Jharel Cotton,10765961,P,6200,OAK@TEX 06/06/2018 08:05PM ET,OAK,0
SP,Jerad Eickhoff (10765960),Jerad Eickhoff,10765960,P,6200,PHI@CHC 06/06/2018 08:05PM ET,PHI,0
SP,Anthony DeSclafani (10765962),Anthony DeSclafani,10765962,P,6200,COL@CIN 06/06/2018 07:10PM ET,CIN,9.05
SP,Michael Kopech (10765959),Michael Kopech,10765959,P,6200,CWS@MIN 06/06/2018 08:10PM ET,CWS,0
SP,Mike Fiers (10765964),Mike Fiers,10765964,P,6100,DET@BOS 06/06/2018 07:10PM ET,DET,11.94
SP,Marco Gonzales (10765963),Marco Gonzales,10765963,P,6100,SEA@HOU 06/06/2018 08:10PM ET,SEA,15.67
OF,Mike Trout (10765339),Mike Trout,10765339,OF,6000,KC@LAA 06/06/2018 10:07PM ET,LAA,11.90
SP,Garrett Richards (10765965),Garrett Richards,10765965,P,6000,KC@LAA 06/06/2018 10:07PM ET,LAA,16.80
SP,Rich Hill (10765966),Rich Hill,10765966,P,6000,LAD@PIT 06/06/2018 07:05PM ET,LAD,8.28
SP,Marcus Stroman (10765967),Marcus Stroman,10765967,P,5900,NYY@TOR 06/06/2018 07:07PM ET,TOR,6.51
SP,CC Sabathia (10765970),CC Sabathia,10765970,P,5900,NYY@TOR 06/06/2018 07:07PM ET,NYY,12.89
SP,Chad Bettis (10765971),Chad Bettis,10765971,P,5900,COL@CIN 06/06/2018 07:10PM ET,COL,12.77
SP,Rogelio Armenteros (10765968),Rogelio Armenteros,10765968,P,5900,SEA@HOU 06/06/2018 08:10PM ET,HOU,0
SP,Hisashi Iwakuma (10765969),Hisashi Iwakuma,10765969,P,5900,SEA@HOU 06/06/2018 08:10PM ET,SEA,0
SP,Blaine Hardy (10765331),Blaine Hardy,10765331,P,5800,DET@BOS 06/06/2018 07:10PM ET,DET,8.99
OF,Mookie Betts (10765340),Mookie Betts,10765340,OF,5800,DET@BOS 06/06/2018 07:10PM ET,BOS,13.69
SP,Francisco Liriano (10765974),Francisco Liriano,10765974,P,5800,DET@BOS 06/06/2018 07:10PM ET,DET,13.86
SP,Jaime Garcia (10765976),Jaime Garcia,10765976,P,5800,NYY@TOR 06/06/2018 07:07PM ET,TOR,9.11
SP,Matt Harvey (10765975),Matt Harvey,10765975,P,5800,COL@CIN 06/06/2018 07:10PM ET,CIN,6.7
RP,Brad Peacock (10765973),Brad Peacock,10765973,P,5800,SEA@HOU 06/06/2018 08:10PM ET,HOU,4.13
SP,Jameson Taillon (10765972),Jameson Taillon,10765972,P,5800,LAD@PIT 06/06/2018 07:05PM ET,PIT,14.95
SP,A.J. Cole (10765980),A.J. Cole,10765980,P,5600,NYY@TOR 06/06/2018 07:07PM ET,NYY,4.76
SP,Bartolo Colon (10765332),Bartolo Colon,10765332,P,5600,OAK@TEX 06/06/2018 08:05PM ET,TEX,11.77
SP,Amir Garrett (10765981),Amir Garrett,10765981,P,5600,COL@CIN 06/06/2018 07:10PM ET,CIN,4.34
SP,Ariel Miranda (10765979),Ariel Miranda,10765979,P,5600,SEA@HOU 06/06/2018 08:10PM ET,SEA,13.25
SP,Jose Urena (10765978),Jose Urena,10765978,P,5600,MIA@STL 06/06/2018 08:15PM ET,MIA,12.14
RP,Adalberto Mejia (10765977),Adalberto Mejia,10765977,P,5600,CWS@MIN 06/06/2018 08:10PM ET,MIN,0
OF,Andrew Benintendi (10765341),Andrew Benintendi,10765341,OF,5500,DET@BOS 06/06/2018 07:10PM ET,BOS,10.40
SP,Trevor Richards (10765982),Trevor Richards,10765982,P,5500,MIA@STL 06/06/2018 08:15PM ET,MIA,10.49
SP,Ryan Carpenter (10765984),Ryan Carpenter,10765984,P,5400,DET@BOS 06/06/2018 07:10PM ET,DET,2.82
3B,Nolan Arenado (10765342),Nolan Arenado,10765342,3B,5400,COL@CIN 06/06/2018 07:10PM ET,COL,9.94
SP,German Marquez (10765983),German Marquez,10765983,P,5400,COL@CIN 06/06/2018 07:10PM ET,COL,13.59
SP,Steven Wright (10765989),Steven Wright,10765989,P,5300,DET@BOS 06/06/2018 07:10PM ET,BOS,11.05
SP,Hector Velazquez (10765990),Hector Velazquez,10765990,P,5300,DET@BOS 06/06/2018 07:10PM ET,BOS,5.83
OF,Aaron Judge (10765343),Aaron Judge,10765343,OF,5300,NYY@TOR 06/06/2018 07:07PM ET,NYY,10.43
RP,Austin Gomber (10765987),Austin Gomber,10765987,P,5300,MIA@STL 06/06/2018 08:15PM ET,STL,3.3
RP,Merandy Gonzalez (10765988),Merandy Gonzalez,10765988,P,5300,MIA@STL 06/06/2018 08:15PM ET,MIA,5.04
RP,Jarlin Garcia (10765991),Jarlin Garcia,10765991,P,5300,MIA@STL 06/06/2018 08:15PM ET,MIA,7.96
SP,Hector Santiago (10765333),Hector Santiago,10765333,P,5300,CWS@MIN 06/06/2018 08:10PM ET,CWS,5.70
SP,James Shields (10765985),James Shields,10765985,P,5300,CWS@MIN 06/06/2018 08:10PM ET,CWS,11.00
SP,Stephen Gonsalves (10765986),Stephen Gonsalves,10765986,P,5300,CWS@MIN 06/06/2018 08:10PM ET,MIN,0
OF,Charlie Blackmon (10765344),Charlie Blackmon,10765344,OF,5200,COL@CIN 06/06/2018 07:10PM ET,COL,9.89
RP,David Paulino (10765994),David Paulino,10765994,P,5200,SEA@HOU 06/06/2018 08:10PM ET,HOU,0
SP,Ricky Nolasco (10765993),Ricky Nolasco,10765993,P,5200,KC@LAA 06/06/2018 10:07PM ET,KC,0
SP,Miguel Gonzalez (10765992),Miguel Gonzalez,10765992,P,5200,CWS@MIN 06/06/2018 08:10PM ET,CWS,-4.75
OF,Giancarlo Stanton (10765348),Giancarlo Stanton,10765348,OF,5100,NYY@TOR 06/06/2018 07:07PM ET,NYY,8.59
SP,Chance Adams (10765995),Chance Adams,10765995,P,5100,NYY@TOR 06/06/2018 07:07PM ET,NYY,0
SP,Yovani Gallardo (10765998),Yovani Gallardo,10765998,P,5100,OAK@TEX 06/06/2018 08:05PM ET,TEX,-4.65
SP,Tim Lincecum (10765999),Tim Lincecum,10765999,P,5100,OAK@TEX 06/06/2018 08:05PM ET,TEX,0
SP,Daniel Gossett (10766001),Daniel Gossett,10766001,P,5100,OAK@TEX 06/06/2018 08:05PM ET,OAK,6.07
3B,Eugenio Suarez (10765345),Eugenio Suarez,10765345,3B,5100,COL@CIN 06/06/2018 07:10PM ET,CIN,9.93
SP,Justin Nicolino (10766000),Justin Nicolino,10766000,P,5100,COL@CIN 06/06/2018 07:10PM ET,CIN,0
SP,Rookie Davis (10766002),Rookie Davis,10766002,P,5100,COL@CIN 06/06/2018 07:10PM ET,CIN,0
RP,Rob Whalen (10765996),Rob Whalen,10765996,P,5100,SEA@HOU 06/06/2018 08:10PM ET,SEA,0
SP,Andrew Albers (10765997),Andrew Albers,10765997,P,5100,SEA@HOU 06/06/2018 08:10PM ET,SEA,0
SP,Chase De Jong (10766003),Chase De Jong,10766003,P,5100,SEA@HOU 06/06/2018 08:10PM ET,SEA,0
SP,Wei-Yin Chen (10765335),Wei-Yin Chen,10765335,P,5100,MIA@STL 06/06/2018 08:15PM ET,MIA,7.28
OF,J.D. Martinez (10765346),J.D. Martinez,10765346,OF,5000,DET@BOS 06/06/2018 07:10PM ET,BOS,10.67
SP,Daniel Norris (10766007),Daniel Norris,10766007,P,5000,DET@BOS 06/06/2018 07:10PM ET,DET,6.98
SP,Mike Minor (10766005),Mike Minor,10766005,P,5000,OAK@TEX 06/06/2018 08:05PM ET,TEX,11.44
RP,Frankie Montas (10766008),Frankie Montas,10766008,P,5000,OAK@TEX 06/06/2018 08:05PM ET,OAK,23.55
SP,Kendall Graveman (10766009),Kendall Graveman,10766009,P,5000,OAK@TEX 06/06/2018 08:05PM ET,OAK,6.06
2B,Scooter Gennett (10765347),Scooter Gennett,10765347,2B,5000,COL@CIN 06/06/2018 07:10PM ET,CIN,8.81
SP,Dillon Peters (10766006),Dillon Peters,10766006,P,5000,MIA@STL 06/06/2018 08:15PM ET,MIA,5.99
RP,JC Ramirez (10766004),JC Ramirez,10766004,P,5000,KC@LAA 06/06/2018 10:07PM ET,LAA,0.3
RP,Luis Cessa (10766016),Luis Cessa,10766016,P,4900,NYY@TOR 06/06/2018 07:07PM ET,NYY,4.2
OF,Khris Davis (10765349),Khris Davis,10765349,OF,4900,OAK@TEX 06/06/2018 08:05PM ET,OAK,8.67
SP,A.J. Puk (10766014),A.J. Puk,10766014,P,4900,OAK@TEX 06/06/2018 08:05PM ET,OAK,0
SP,Jeff Hoffman (10766017),Jeff Hoffman,10766017,P,4900,COL@CIN 06/06/2018 07:10PM ET,COL,0
2B,Jose Altuve (10765350),Jose Altuve,10765350,2B,4900,SEA@HOU 06/06/2018 08:10PM ET,HOU,8.45
SS,Carlos Correa (10765352),Carlos Correa,10765352,SS,4900,SEA@HOU 06/06/2018 08:10PM ET,HOU,8.29
SP,Ryan Helsley (10766011),Ryan Helsley,10766011,P,4900,MIA@STL 06/06/2018 08:15PM ET,STL,0
RP,Chris Volstad (10766010),Chris Volstad,10766010,P,4900,CWS@MIN 06/06/2018 08:10PM ET,CWS,3.09
SP,Mitch Keller (10766012),Mitch Keller,10766012,P,4900,LAD@PIT 06/06/2018 07:05PM ET,PIT,0
SP,Luis Escobar (10766013),Luis Escobar,10766013,P,4900,LAD@PIT 06/06/2018 07:05PM ET,PIT,0
SP,Julio Urias (10766015),Julio Urias,10766015,P,4900,LAD@PIT 06/06/2018 07:05PM ET,LAD,0
3B,Kris Bryant (10765353),Kris Bryant,10765353,3B,4800,PHI@CHC 06/06/2018 08:05PM ET,CHC,9.47
2B/SS,Javier Baez (10765356),Javier Baez,10765356,2B/SS,4800,PHI@CHC 06/06/2018 08:05PM ET,CHC,9.71
SP,Cody Reed (10766021),Cody Reed,10766021,P,4800,COL@CIN 06/06/2018 07:10PM ET,CIN,3.91
OF,George Springer (10765351),George Springer,10765351,OF,4800,SEA@HOU 06/06/2018 08:10PM ET,HOU,9.33
SP,Scott Barlow (10766018),Scott Barlow,10766018,P,4800,KC@LAA 06/06/2018 10:07PM ET,KC,9.05
SP,Danny Duffy (10766019),Danny Duffy,10766019,P,4800,KC@LAA 06/06/2018 10:07PM ET,KC,8.84
SP,Eric Skoglund (10766020),Eric Skoglund,10766020,P,4800,KC@LAA 06/06/2018 10:07PM ET,KC,8.37
SS,Xander Bogaerts (10765360),Xander Bogaerts,10765360,SS,4700,DET@BOS 06/06/2018 07:10PM ET,BOS,8.89
SP,Brian Johnson (10766025),Brian Johnson,10766025,P,4700,DET@BOS 06/06/2018 07:10PM ET,BOS,3.06
2B,Gleyber Torres (10765355),Gleyber Torres,10765355,2B,4700,NYY@TOR 06/06/2018 07:07PM ET,NYY,8.65
SP,Ryan Borucki (10766024),Ryan Borucki,10766024,P,4700,NYY@TOR 06/06/2018 07:07PM ET,TOR,0
SP,Brandon Finnegan (10766023),Brandon Finnegan,10766023,P,4700,COL@CIN 06/06/2018 07:10PM ET,CIN,3.06
SP,Forrest Whitley (10766022),Forrest Whitley,10766022,P,4700,SEA@HOU 06/06/2018 08:10PM ET,HOU,0
OF,Eddie Rosario (10765358),Eddie Rosario,10765358,OF,4700,CWS@MIN 06/06/2018 08:10PM ET,MIN,9.54
OF,Austin Meadows (10765354),Austin Meadows,10765354,OF,4700,LAD@PIT 06/06/2018 07:05PM ET,PIT,10.38
SP,Sam Gaviglio (10765336),Sam Gaviglio,10765336,P,4600,NYY@TOR 06/06/2018 07:07PM ET,TOR,14.19
SP,Justus Sheffield (10766029),Justus Sheffield,10766029,P,4600,NYY@TOR 06/06/2018 07:07PM ET,NYY,0
SS,Jean Segura (10765359),Jean Segura,10765359,SS,4600,SEA@HOU 06/06/2018 08:10PM ET,SEA,9.88
OF,Tommy Pham (10765361),Tommy Pham,10765361,OF,4600,MIA@STL 06/06/2018 08:15PM ET,STL,8.51
SP,Jason Hammel (10766028),Jason Hammel,10766028,P,4600,KC@LAA 06/06/2018 10:07PM ET,KC,9.62
SP,Josh Staumont (10766030),Josh Staumont,10766030,P,4600,KC@LAA 06/06/2018 10:07PM ET,KC,0
SP,Dylan Covey (10766026),Dylan Covey,10766026,P,4600,CWS@MIN 06/06/2018 08:10PM ET,CWS,15.76
SP,Aaron Slegers (10766027),Aaron Slegers,10766027,P,4600,CWS@MIN 06/06/2018 08:10PM ET,MIN,9.8
SP,Tom Koehler (10766031),Tom Koehler,10766031,P,4600,LAD@PIT 06/06/2018 07:05PM ET,LAD,0
SP,Yadier Alvarez (10766032),Yadier Alvarez,10766032,P,4600,LAD@PIT 06/06/2018 07:05PM ET,LAD,0
OF,Nicholas Castellanos (10765362),Nicholas Castellanos,10765362,OF,4500,DET@BOS 06/06/2018 07:10PM ET,DET,8.51
SP,Jalen Beeks (10766034),Jalen Beeks,10766034,P,4500,DET@BOS 06/06/2018 07:10PM ET,BOS,0
SP,Sean Reid-Foley (10766037),Sean Reid-Foley,10766037,P,4500,NYY@TOR 06/06/2018 07:07PM ET,TOR,0
2B,Jed Lowrie (10765367),Jed Lowrie,10765367,2B,4500,OAK@TEX 06/06/2018 08:05PM ET,OAK,8.17
SP,Grant Holmes (10766038),Grant Holmes,10766038,P,4500,OAK@TEX 06/06/2018 08:05PM ET,OAK,0
SP,Matt Moore (10766040),Matt Moore,10766040,P,4500,OAK@TEX 06/06/2018 08:05PM ET,TEX,4.37
1B,Anthony Rizzo (10765363),Anthony Rizzo,10765363,1B,4500,PHI@CHC 06/06/2018 08:05PM ET,CHC,8.60
RP,Erasmo Ramirez (10766041),Erasmo Ramirez,10766041,P,4500,SEA@HOU 06/06/2018 08:10PM ET,SEA,1.08
SP,John Gant (10766035),John Gant,10766035,P,4500,MIA@STL 06/06/2018 08:15PM ET,STL,9.64
SP,John Lamb (10766036),John Lamb,10766036,P,4500,KC@LAA 06/06/2018 10:07PM ET,LAA,0
SP,Lance Lynn (10766033),Lance Lynn,10766033,P,4500,CWS@MIN 06/06/2018 08:10PM ET,MIN,11.27
SP,Brock Stewart (10766039),Brock Stewart,10766039,P,4500,LAD@PIT 06/06/2018 07:05PM ET,LAD,5.68
3B,Jeimer Candelario (10765364),Jeimer Candelario,10765364,3B,4400,DET@BOS 06/06/2018 07:10PM ET,DET,8.64
1B,Mitch Moreland (10765365),Mitch Moreland,10765365,1B,4400,DET@BOS 06/06/2018 07:10PM ET,BOS,8.49
1B,Miguel Cabrera (10765366),Miguel Cabrera,10765366,1B,4400,DET@BOS 06/06/2018 07:10PM ET,DET,8
SP,Jordan Zimmermann (10766043),Jordan Zimmermann,10766043,P,4400,DET@BOS 06/06/2018 07:10PM ET,DET,11.99
1B,Matt Olson (10765369),Matt Olson,10765369,1B,4400,OAK@TEX 06/06/2018 08:05PM ET,OAK,7.57
SP,Jesse Chavez (10766048),Jesse Chavez,10766048,P,4400,OAK@TEX 06/06/2018 08:05PM ET,TEX,5.67
SP,Edinson Volquez (10766049),Edinson Volquez,10766049,P,4400,OAK@TEX 06/06/2018 08:05PM ET,TEX,0
SP,Martin Perez (10766050),Martin Perez,10766050,P,4400,OAK@TEX 06/06/2018 08:05PM ET,TEX,0.65
2B/OF,Ben Zobrist (10765372),Ben Zobrist,10765372,2B/OF,4400,PHI@CHC 06/06/2018 08:05PM ET,CHC,7.48
SP,Ben Lively (10766045),Ben Lively,10766045,P,4400,PHI@CHC 06/06/2018 08:05PM ET,PHI,5.51
SP,Williams Perez (10766046),Williams Perez,10766046,P,4400,PHI@CHC 06/06/2018 08:05PM ET,CHC,0
1B,Joey Votto (10765368),Joey Votto,10765368,1B,4400,COL@CIN 06/06/2018 07:10PM ET,CIN,7.63
SP,Mike Leake (10766044),Mike Leake,10766044,P,4400,SEA@HOU 06/06/2018 08:10PM ET,SEA,11.94
SP,Adam Conley (10766047),Adam Conley,10766047,P,4400,MIA@STL 06/06/2018 08:15PM ET,MIA,5.62
SP,Carson Fulmer (10766042),Carson Fulmer,10766042,P,4400,CWS@MIN 06/06/2018 08:10PM ET,CWS,4.57
OF,Leonys Martin (10765371),Leonys Martin,10765371,OF,4300,DET@BOS 06/06/2018 07:10PM ET,DET,7.82
OF,Nomar Mazara (10765376),Nomar Mazara,10765376,OF,4300,OAK@TEX 06/06/2018 08:05PM ET,TEX,8.34
RP,Mark Leiter Jr. (10766052),Mark Leiter Jr.,10766052,P,4300,PHI@CHC 06/06/2018 08:05PM ET,PHI,3.9
RP,Jackson Stephens (10766053),Jackson Stephens,10766053,P,4300,COL@CIN 06/06/2018 07:10PM ET,CIN,3.46
RP,Andrew Moore (10766055),Andrew Moore,10766055,P,4300,SEA@HOU 06/06/2018 08:10PM ET,SEA,0
SP,Jeff Locke (10766054),Jeff Locke,10766054,P,4300,MIA@STL 06/06/2018 08:15PM ET,MIA,0
SP,Ian Kennedy (10765337),Ian Kennedy,10765337,P,4300,KC@LAA 06/06/2018 10:07PM ET,KC,9.48
2B,Whit Merrifield (10765377),Whit Merrifield,10765377,2B,4300,KC@LAA 06/06/2018 10:07PM ET,KC,8.5
1B,Jose Abreu (10765370),Jose Abreu,10765370,1B,4300,CWS@MIN 06/06/2018 08:10PM ET,CWS,8.72
SP,Dietrich Enns (10766051),Dietrich Enns,10766051,P,4300,CWS@MIN 06/06/2018 08:10PM ET,MIN,0
OF/SS,Chris Taylor (10765374),Chris Taylor,10765374,SS/OF,4300,LAD@PIT 06/06/2018 07:05PM ET,LAD,8.58
1B/3B,Max Muncy (10765380),Max Muncy,10765380,1B/3B,4300,LAD@PIT 06/06/2018 07:05PM ET,LAD,6.97
RP,Buck Farmer (10766062),Buck Farmer,10766062,P,4200,DET@BOS 06/06/2018 07:10PM ET,DET,2.05
SP,Grayson Long (10766063),Grayson Long,10766063,P,4200,DET@BOS 06/06/2018 07:10PM ET,DET,0
SP,Gregory Soto (10766065),Gregory Soto,10766065,P,4200,DET@BOS 06/06/2018 07:10PM ET,DET,0
C,Gary Sanchez (10765382),Gary Sanchez,10765382,C,4200,NYY@TOR 06/06/2018 07:07PM ET,NYY,8
OF,Brett Gardner (10765384),Brett Gardner,10765384,OF,4200,NYY@TOR 06/06/2018 07:07PM ET,NYY,8.48
1B,Justin Smoak (10765387),Justin Smoak,10765387,1B,4200,NYY@TOR 06/06/2018 07:07PM ET,TOR,8.26
OF,Dustin Fowler (10765385),Dustin Fowler,10765385,OF,4200,OAK@TEX 06/06/2018 08:05PM ET,OAK,6.57
SP,Doug Fister (10766061),Doug Fister,10766061,P,4200,OAK@TEX 06/06/2018 08:05PM ET,TEX,9.75
2B,Cesar Hernandez (10765378),Cesar Hernandez,10765378,2B,4200,PHI@CHC 06/06/2018 08:05PM ET,PHI,8.52
OF,Kyle Schwarber (10765379),Kyle Schwarber,10765379,OF,4200,PHI@CHC 06/06/2018 08:05PM ET,CHC,8.54
SP,Jen-Ho Tseng (10766057),Jen-Ho Tseng,10766057,P,4200,PHI@CHC 06/06/2018 08:05PM ET,CHC,2.1
SP,Jake Thompson (10766058),Jake Thompson,10766058,P,4200,PHI@CHC 06/06/2018 08:05PM ET,PHI,5.03
SS,Trevor Story (10765383),Trevor Story,10765383,SS,4200,COL@CIN 06/06/2018 07:10PM ET,COL,8.62
SP,Homer Bailey (10766060),Homer Bailey,10766060,P,4200,COL@CIN 06/06/2018 07:10PM ET,CIN,5.32
RP,Brady Rodgers (10766059),Brady Rodgers,10766059,P,4200,SEA@HOU 06/06/2018 08:10PM ET,HOU,0
SP,Brad Keller (10766064),Brad Keller,10766064,P,4200,KC@LAA 06/06/2018 10:07PM ET,KC,3.23
2B,Brian Dozier (10765388),Brian Dozier,10765388,2B,4200,CWS@MIN 06/06/2018 08:10PM ET,MIN,8.09
3B/SS,Eduardo Escobar (10765400),Eduardo Escobar,10765400,3B/SS,4200,CWS@MIN 06/06/2018 08:10PM ET,MIN,8.72
RP,Steven Brault (10766056),Steven Brault,10766056,P,4200,LAD@PIT 06/06/2018 07:05PM ET,PIT,7.08
SS,Didi Gregorius (10765386),Didi Gregorius,10765386,SS,4100,NYY@TOR 06/06/2018 07:07PM ET,NYY,9.32
1B,Greg Bird (10765396),Greg Bird,10765396,1B,4100,NYY@TOR 06/06/2018 07:07PM ET,NYY,8.38
SP,Marco Estrada (10766068),Marco Estrada,10766068,P,4100,NYY@TOR 06/06/2018 07:07PM ET,TOR,9.86
OF,Shin-soo Choo (10765390),Shin-soo Choo,10765390,OF,4100,OAK@TEX 06/06/2018 08:05PM ET,TEX,8.2
OF,Ian Happ (10765394),Ian Happ,10765394,OF,4100,PHI@CHC 06/06/2018 08:05PM ET,CHC,6.52
SP,Trevor Clifton (10766067),Trevor Clifton,10766067,P,4100,PHI@CHC 06/06/2018 08:05PM ET,CHC,0
2B,DJ LeMahieu (10765403),DJ LeMahieu,10765403,2B,4100,COL@CIN 06/06/2018 07:10PM ET,COL,8.69
SP,Ryan Castellani (10766070),Ryan Castellani,10766070,P,4100,COL@CIN 06/06/2018 07:10PM ET,COL,0
3B,Alex Bregman (10765399),Alex Bregman,10765399,3B,4100,SEA@HOU 06/06/2018 08:10PM ET,HOU,8.02
OF,Harrison Bader (10765395),Harrison Bader,10765395,OF,4100,MIA@STL 06/06/2018 08:15PM ET,STL,5.06
RP,Elieser Hernandez (10766069),Elieser Hernandez,10766069,P,4100,MIA@STL 06/06/2018 08:15PM ET,MIA,5.08
OF,Justin Upton (10765393),Justin Upton,10765393,OF,4100,KC@LAA 06/06/2018 10:07PM ET,LAA,8.27
1B/3B,Miguel Sano (10765397),Miguel Sano,10765397,1B/3B,4100,CWS@MIN 06/06/2018 08:10PM ET,MIN,8.03
SP,Lucas Giolito (10766066),Lucas Giolito,10766066,P,4100,CWS@MIN 06/06/2018 08:10PM ET,CWS,4.39
OF,Matt Kemp (10765389),Matt Kemp,10765389,OF,4100,LAD@PIT 06/06/2018 07:05PM ET,LAD,7.21
OF,Yasiel Puig (10765391),Yasiel Puig,10765391,OF,4100,LAD@PIT 06/06/2018 07:05PM ET,LAD,7.15
C,Yasmani Grandal (10765392),Yasmani Grandal,10765392,C,4100,LAD@PIT 06/06/2018 07:05PM ET,LAD,7.67
RP,Craig Kimbrel (10766110),Craig Kimbrel,10766110,P,4000,DET@BOS 06/06/2018 07:10PM ET,BOS,4.07
RP,Shane Greene (10766140),Shane Greene,10766140,P,4000,DET@BOS 06/06/2018 07:10PM ET,DET,3.23
SP,Joe Kelly (10766144),Joe Kelly,10766144,P,4000,DET@BOS 06/06/2018 07:10PM ET,BOS,3.51
RP,Louis Coleman (10766145),Louis Coleman,10766145,P,4000,DET@BOS 06/06/2018 07:10PM ET,DET,5.73
RP,Alex Wilson (10766147),Alex Wilson,10766147,P,4000,DET@BOS 06/06/2018 07:10PM ET,DET,2.61
RP,Travis Wood (10766164),Travis Wood,10766164,P,4000,DET@BOS 06/06/2018 07:10PM ET,DET,0
RP,Heath Hembree (10766202),Heath Hembree,10766202,P,4000,DET@BOS 06/06/2018 07:10PM ET,BOS,3.30
RP,Justin Haley (10766209),Justin Haley,10766209,P,4000,DET@BOS 06/06/2018 07:10PM ET,BOS,0
RP,Drew VerHagen (10766219),Drew VerHagen,10766219,P,4000,DET@BOS 06/06/2018 07:10PM ET,DET,1.56
RP,Austin Maddox (10766226),Austin Maddox,10766226,P,4000,DET@BOS 06/06/2018 07:10PM ET,BOS,0
RP,Tyler Thornburg (10766237),Tyler Thornburg,10766237,P,4000,DET@BOS 06/06/2018 07:10PM ET,BOS,0
RP,Matt Barnes (10766239),Matt Barnes,10766239,P,4000,DET@BOS 06/06/2018 07:10PM ET,BOS,3.95
RP,Carson Smith (10766257),Carson Smith,10766257,P,4000,DET@BOS 06/06/2018 07:10PM ET,BOS,2.68
SP,Victor Alcantara (10766285),Victor Alcantara,10766285,P,4000,DET@BOS 06/06/2018 07:10PM ET,DET,0
RP,Warwick Saupold (10766286),Warwick Saupold,10766286,P,4000,DET@BOS 06/06/2018 07:10PM ET,DET,2.16
RP,Daniel Stumpf (10766291),Daniel Stumpf,10766291,P,4000,DET@BOS 06/06/2018 07:10PM ET,DET,1.04
SP,Ty Buttrey (10766293),Ty Buttrey,10766293,P,4000,DET@BOS 06/06/2018 07:10PM ET,BOS,0
SP,Travis Lakins (10766298),Travis Lakins,10766298,P,4000,DET@BOS 06/06/2018 07:10PM ET,BOS,0
SP,Beau Burrows (10766303),Beau Burrows,10766303,P,4000,DET@BOS 06/06/2018 07:10PM ET,DET,0
SP,Bryan Mata (10766309),Bryan Mata,10766309,P,4000,DET@BOS 06/06/2018 07:10PM ET,BOS,0
SP,Matt Manning (10766312),Matt Manning,10766312,P,4000,DET@BOS 06/06/2018 07:10PM ET,DET,0
SP,Jason Groome (10766313),Jason Groome,10766313,P,4000,DET@BOS 06/06/2018 07:10PM ET,BOS,0
SP,Artie Lewicki (10766318),Artie Lewicki,10766318,P,4000,DET@BOS 06/06/2018 07:10PM ET,DET,5.06
SP,Roniel Raudes (10766321),Roniel Raudes,10766321,P,4000,DET@BOS 06/06/2018 07:10PM ET,BOS,0
SP,Tanner Houck (10766325),Tanner Houck,10766325,P,4000,DET@BOS 06/06/2018 07:10PM ET,BOS,0
RP,Alex Faedo (10766328),Alex Faedo,10766328,P,4000,DET@BOS 06/06/2018 07:10PM ET,DET,0
RP,Zac Reininger (10766334),Zac Reininger,10766334,P,4000,DET@BOS 06/06/2018 07:10PM ET,DET,0.43
SP,Tyler Alexander (10766344),Tyler Alexander,10766344,P,4000,DET@BOS 06/06/2018 07:10PM ET,DET,0
SP,Mike Shawaryn (10766354),Mike Shawaryn,10766354,P,4000,DET@BOS 06/06/2018 07:10PM ET,BOS,0
SP,Jake Thompson (10766356),Jake Thompson,10766356,P,4000,DET@BOS 06/06/2018 07:10PM ET,BOS,0
RP,Joe Jimenez (10766359),Joe Jimenez,10766359,P,4000,DET@BOS 06/06/2018 07:10PM ET,DET,3.09
RP,Bobby Poyner (10766361),Bobby Poyner,10766361,P,4000,DET@BOS 06/06/2018 07:10PM ET,BOS,3.55
SP,Spencer Turnbull (10766362),Spencer Turnbull,10766362,P,4000,DET@BOS 06/06/2018 07:10PM ET,DET,0
SP,Darwinzon Hernandez (10766364),Darwinzon Hernandez,10766364,P,4000,DET@BOS 06/06/2018 07:10PM ET,BOS,0
SP,Kyle Funkhouser (10766367),Kyle Funkhouser,10766367,P,4000,DET@BOS 06/06/2018 07:10PM ET,DET,0
OF,Teoscar Hernandez (10765408),Teoscar Hernandez,10765408,OF,4000,NYY@TOR 06/06/2018 07:07PM ET,TOR,8.95
SP,Nick Tepesch (10766119),Nick Tepesch,10766119,P,4000,NYY@TOR 06/06/2018 07:07PM ET,TOR,0
RP,Ryan Tepera (10766137),Ryan Tepera,10766137,P,4000,NYY@TOR 06/06/2018 07:07PM ET,TOR,3.43
RP,Aaron Loup (10766141),Aaron Loup,10766141,P,4000,NYY@TOR 06/06/2018 07:07PM ET,TOR,2.07
RP,Adam Warren (10766143),Adam Warren,10766143,P,4000,NYY@TOR 06/06/2018 07:07PM ET,NYY,3.22
RP,Tyler Clippard (10766157),Tyler Clippard,10766157,P,4000,NYY@TOR 06/06/2018 07:07PM ET,TOR,3.39
RP,Craig Breslow (10766163),Craig Breslow,10766163,P,4000,NYY@TOR 06/06/2018 07:07PM ET,TOR,0
SP,Jonathon Niese (10766171),Jonathon Niese,10766171,P,4000,NYY@TOR 06/06/2018 07:07PM ET,NYY,0
RP,Seunghwan Oh (10766174),Seunghwan Oh,10766174,P,4000,NYY@TOR 06/06/2018 07:07PM ET,TOR,2.84
RP,John Axford (10766178),John Axford,10766178,P,4000,NYY@TOR 06/06/2018 07:07PM ET,TOR,2.85
RP,Dellin Betances (10766181),Dellin Betances,10766181,P,4000,NYY@TOR 06/06/2018 07:07PM ET,NYY,4.59
RP,David Robertson (10766183),David Robertson,10766183,P,4000,NYY@TOR 06/06/2018 07:07PM ET,NYY,3.49
RP,Danny Barnes (10766192),Danny Barnes,10766192,P,4000,NYY@TOR 06/06/2018 07:07PM ET,TOR,1.79
RP,Chasen Shreve (10766205),Chasen Shreve,10766205,P,4000,NYY@TOR 06/06/2018 07:07PM ET,NYY,3.28
SP,Chad Green (10766207),Chad Green,10766207,P,4000,NYY@TOR 06/06/2018 07:07PM ET,NYY,5.03
RP,Roberto Osuna (10766216),Roberto Osuna,10766216,P,4000,NYY@TOR 06/06/2018 07:07PM ET,TOR,2.61
RP,Aroldis Chapman (10766229),Aroldis Chapman,10766229,P,4000,NYY@TOR 06/06/2018 07:07PM ET,NYY,5.24
RP,Deck McGuire (10766243),Deck McGuire,10766243,P,4000,NYY@TOR 06/06/2018 07:07PM ET,TOR,3.09
SP,Taylor Guerrieri (10766245),Taylor Guerrieri,10766245,P,4000,NYY@TOR 06/06/2018 07:07PM ET,TOR,0
RP,Branden Pinder (10766254),Branden Pinder,10766254,P,4000,NYY@TOR 06/06/2018 07:07PM ET,NYY,0
RP,Joe Biagini (10766261),Joe Biagini,10766261,P,4000,NYY@TOR 06/06/2018 07:07PM ET,TOR,2.48
RP,Jonathan Holder (10766272),Jonathan Holder,10766272,P,4000,NYY@TOR 06/06/2018 07:07PM ET,NYY,3.75
RP,Tim Mayza (10766274),Tim Mayza,10766274,P,4000,NYY@TOR 06/06/2018 07:07PM ET,TOR,2.76
SP,Jon Harris (10766277),Jon Harris,10766277,P,4000,NYY@TOR 06/06/2018 07:07PM ET,TOR,0
SP,Freicer Perez (10766322),Freicer Perez,10766322,P,4000,NYY@TOR 06/06/2018 07:07PM ET,NYY,0
RP,Ben Heller (10766348),Ben Heller,10766348,P,4000,NYY@TOR 06/06/2018 07:07PM ET,NYY,0
SP,T.J. Zeuch (10766351),T.J. Zeuch,10766351,P,4000,NYY@TOR 06/06/2018 07:07PM ET,TOR,0
SP,Chris Rowley (10766360),Chris Rowley,10766360,P,4000,NYY@TOR 06/06/2018 07:07PM ET,TOR,0
SP,Albert Abreu (10766365),Albert Abreu,10766365,P,4000,NYY@TOR 06/06/2018 07:07PM ET,NYY,0
SP,Clarke Schmidt (10766380),Clarke Schmidt,10766380,P,4000,NYY@TOR 06/06/2018 07:07PM ET,NYY,0
SP,Nate Pearson (10766383),Nate Pearson,10766383,P,4000,NYY@TOR 06/06/2018 07:07PM ET,TOR,0
1B/OF,Joey Gallo (10765405),Joey Gallo,10765405,1B/OF,4000,OAK@TEX 06/06/2018 08:05PM ET,TEX,7.75
RP,Liam Hendriks (10766113),Liam Hendriks,10766113,P,4000,OAK@TEX 06/06/2018 08:05PM ET,OAK,-0.54
RP,Jake Diekman (10766118),Jake Diekman,10766118,P,4000,OAK@TEX 06/06/2018 08:05PM ET,TEX,2.61
RP,Danny Coulombe (10766128),Danny Coulombe,10766128,P,4000,OAK@TEX 06/06/2018 08:05PM ET,OAK,2.79
RP,Matt Bush (10766153),Matt Bush,10766153,P,4000,OAK@TEX 06/06/2018 08:05PM ET,TEX,2.09
RP,Yusmeiro Petit (10766154),Yusmeiro Petit,10766154,P,4000,OAK@TEX 06/06/2018 08:05PM ET,OAK,3.16
RP,Santiago Casilla (10766159),Santiago Casilla,10766159,P,4000,OAK@TEX 06/06/2018 08:05PM ET,OAK,2.78
RP,Chris Smith (10766160),Chris Smith,10766160,P,4000,OAK@TEX 06/06/2018 08:05PM ET,OAK,0
SP,Brett Anderson (10766166),Brett Anderson,10766166,P,4000,OAK@TEX 06/06/2018 08:05PM ET,OAK,1.48
RP,Ryan Buchter (10766168),Ryan Buchter,10766168,P,4000,OAK@TEX 06/06/2018 08:05PM ET,OAK,2.89
SP,Paolo Espino (10766180),Paolo Espino,10766180,P,4000,OAK@TEX 06/06/2018 08:05PM ET,TEX,0
RP,Austin Bibens-Dirkx (10766184),Austin Bibens-Dirkx,10766184,P,4000,OAK@TEX 06/06/2018 08:05PM ET,TEX,9.38
RP,Chris Hatcher (10766186),Chris Hatcher,10766186,P,4000,OAK@TEX 06/06/2018 08:05PM ET,OAK,2.72
RP,Tony Barnette (10766191),Tony Barnette,10766191,P,4000,OAK@TEX 06/06/2018 08:05PM ET,TEX,3.29
RP,Blake Treinen (10766193),Blake Treinen,10766193,P,4000,OAK@TEX 06/06/2018 08:05PM ET,OAK,5.17
RP,Alex Claudio (10766194),Alex Claudio,10766194,P,4000,OAK@TEX 06/06/2018 08:05PM ET,TEX,1.95
SP,Connor Sadzeck (10766208),Connor Sadzeck,10766208,P,4000,OAK@TEX 06/06/2018 08:05PM ET,TEX,0
RP,Chris Martin (10766217),Chris Martin,10766217,P,4000,OAK@TEX 06/06/2018 08:05PM ET,TEX,2.30
RP,Josh Lucas (10766223),Josh Lucas,10766223,P,4000,OAK@TEX 06/06/2018 08:05PM ET,OAK,6.65
RP,Shawn Tolleson (10766235),Shawn Tolleson,10766235,P,4000,OAK@TEX 06/06/2018 08:05PM ET,TEX,0
SP,Raul Alcantara (10766241),Raul Alcantara,10766241,P,4000,OAK@TEX 06/06/2018 08:05PM ET,OAK,0
RP,Jose Leclerc (10766247),Jose Leclerc,10766247,P,4000,OAK@TEX 06/06/2018 08:05PM ET,TEX,3.93
SP,Adrian Sampson (10766252),Adrian Sampson,10766252,P,4000,OAK@TEX 06/06/2018 08:05PM ET,TEX,0
SP,Clayton Blackburn (10766253),Clayton Blackburn,10766253,P,4000,OAK@TEX 06/06/2018 08:05PM ET,TEX,0
RP,Keone Kela (10766267),Keone Kela,10766267,P,4000,OAK@TEX 06/06/2018 08:05PM ET,TEX,3.38
SP,Chi Chi Gonzalez (10766271),Chi Chi Gonzalez,10766271,P,4000,OAK@TEX 06/06/2018 08:05PM ET,TEX,0
RP,Ryan Dull (10766276),Ryan Dull,10766276,P,4000,OAK@TEX 06/06/2018 08:05PM ET,OAK,1.86
SP,Kyle Cody (10766278),Kyle Cody,10766278,P,4000,OAK@TEX 06/06/2018 08:05PM ET,TEX,0
RP,Yohander Mendez (10766289),Yohander Mendez,10766289,P,4000,OAK@TEX 06/06/2018 08:05PM ET,TEX,0.9
RP,Ronald Herrera (10766290),Ronald Herrera,10766290,P,4000,OAK@TEX 06/06/2018 08:05PM ET,TEX,0
SP,Paul Blackburn (10766294),Paul Blackburn,10766294,P,4000,OAK@TEX 06/06/2018 08:05PM ET,OAK,0
SP,Dakota Chalmers (10766306),Dakota Chalmers,10766306,P,4000,OAK@TEX 06/06/2018 08:05PM ET,OAK,0
SP,Cole Ragans (10766315),Cole Ragans,10766315,P,4000,OAK@TEX 06/06/2018 08:05PM ET,TEX,0
SP,Brett Martin (10766324),Brett Martin,10766324,P,4000,OAK@TEX 06/06/2018 08:05PM ET,TEX,0
RP,Emilio Pagan (10766335),Emilio Pagan,10766335,P,4000,OAK@TEX 06/06/2018 08:05PM ET,OAK,2.87
RP,Nick Gardewine (10766336),Nick Gardewine,10766336,P,4000,OAK@TEX 06/06/2018 08:05PM ET,TEX,3.48
SP,Ariel Jurado (10766342),Ariel Jurado,10766342,P,4000,OAK@TEX 06/06/2018 08:05PM ET,TEX,1.7
RP,Lou Trivino (10766345),Lou Trivino,10766345,P,4000,OAK@TEX 06/06/2018 08:05PM ET,OAK,4.33
SP,Norge Ruiz (10766368),Norge Ruiz,10766368,P,4000,OAK@TEX 06/06/2018 08:05PM ET,OAK,0
SP,Jesus Luzardo (10766371),Jesus Luzardo,10766371,P,4000,OAK@TEX 06/06/2018 08:05PM ET,OAK,0
SP,Alex Speas (10766373),Alex Speas,10766373,P,4000,OAK@TEX 06/06/2018 08:05PM ET,TEX,0
SP,Hans Crouse (10766385),Hans Crouse,10766385,P,4000,OAK@TEX 06/06/2018 08:05PM ET,TEX,0
OF,Rhys Hoskins (10765412),Rhys Hoskins,10765412,OF,4000,PHI@CHC 06/06/2018 08:05PM ET,PHI,7.58
RP,Justin Wilson (10766108),Justin Wilson,10766108,P,4000,PHI@CHC 06/06/2018 08:05PM ET,CHC,3.45
RP,Mike Montgomery (10766111),Mike Montgomery,10766111,P,4000,PHI@CHC 06/06/2018 08:05PM ET,CHC,3.90
RP,Luis Garcia (10766116),Luis Garcia,10766116,P,4000,PHI@CHC 06/06/2018 08:05PM ET,PHI,2.28
RP,Tommy Hunter (10766121),Tommy Hunter,10766121,P,4000,PHI@CHC 06/06/2018 08:05PM ET,PHI,1.94
RP,Steve Cishek (10766122),Steve Cishek,10766122,P,4000,PHI@CHC 06/06/2018 08:05PM ET,CHC,3.28
RP,Cory Mazzoni (10766124),Cory Mazzoni,10766124,P,4000,PHI@CHC 06/06/2018 08:05PM ET,CHC,3.19
RP,Fernando Rodriguez Jr. (10766152),Fernando Rodriguez Jr.,10766152,P,4000,PHI@CHC 06/06/2018 08:05PM ET,CHC,0
RP,Pedro Strop (10766155),Pedro Strop,10766155,P,4000,PHI@CHC 06/06/2018 08:05PM ET,CHC,3.30
RP,Pat Neshek (10766161),Pat Neshek,10766161,P,4000,PHI@CHC 06/06/2018 08:05PM ET,PHI,0
RP,Brian Duensing (10766165),Brian Duensing,10766165,P,4000,PHI@CHC 06/06/2018 08:05PM ET,CHC,1.72
RP,Brandon Morrow (10766167),Brandon Morrow,10766167,P,4000,PHI@CHC 06/06/2018 08:05PM ET,CHC,3.12
RP,Pedro Beato (10766170),Pedro Beato,10766170,P,4000,PHI@CHC 06/06/2018 08:05PM ET,PHI,0
RP,Hector Neris (10766210),Hector Neris,10766210,P,4000,PHI@CHC 06/06/2018 08:05PM ET,PHI,2.56
RP,Adam Morgan (10766212),Adam Morgan,10766212,P,4000,PHI@CHC 06/06/2018 08:05PM ET,PHI,2.12
SP,Eddie Butler (10766225),Eddie Butler,10766225,P,4000,PHI@CHC 06/06/2018 08:05PM ET,CHC,4.8
RP,Edubray Ramos (10766234),Edubray Ramos,10766234,P,4000,PHI@CHC 06/06/2018 08:05PM ET,PHI,3.32
RP,Randy Rosario (10766246),Randy Rosario,10766246,P,4000,PHI@CHC 06/06/2018 08:05PM ET,CHC,5.62
RP,Carl Edwards Jr. (10766265),Carl Edwards Jr.,10766265,P,4000,PHI@CHC 06/06/2018 08:05PM ET,CHC,4.41
RP,Luke Farrell (10766270),Luke Farrell,10766270,P,4000,PHI@CHC 06/06/2018 08:05PM ET,CHC,6.16
RP,Seranthony Dominguez (10766287),Seranthony Dominguez,10766287,P,4000,PHI@CHC 06/06/2018 08:05PM ET,PHI,5.6
SP,Duane Underwood Jr. (10766295),Duane Underwood Jr.,10766295,P,4000,PHI@CHC 06/06/2018 08:05PM ET,CHC,0
SP,Sixto Sanchez (10766299),Sixto Sanchez,10766299,P,4000,PHI@CHC 06/06/2018 08:05PM ET,PHI,0
SP,Brendon Little (10766308),Brendon Little,10766308,P,4000,PHI@CHC 06/06/2018 08:05PM ET,CHC,0
SP,Kevin Gowdy (10766314),Kevin Gowdy,10766314,P,4000,PHI@CHC 06/06/2018 08:05PM ET,PHI,0
SP,Franklyn Kilome (10766330),Franklyn Kilome,10766330,P,4000,PHI@CHC 06/06/2018 08:05PM ET,PHI,0
SP,Adonis Medina (10766333),Adonis Medina,10766333,P,4000,PHI@CHC 06/06/2018 08:05PM ET,PHI,0
SP,Adbert Alzolay (10766340),Adbert Alzolay,10766340,P,4000,PHI@CHC 06/06/2018 08:05PM ET,CHC,0
SP,Oscar De La Cruz (10766343),Oscar De La Cruz,10766343,P,4000,PHI@CHC 06/06/2018 08:05PM ET,CHC,0
SP,Jake Stinnett (10766350),Jake Stinnett,10766350,P,4000,PHI@CHC 06/06/2018 08:05PM ET,CHC,0
SP,Thomas Hatch (10766352),Thomas Hatch,10766352,P,4000,PHI@CHC 06/06/2018 08:05PM ET,CHC,0
RP,Victor Arano (10766358),Victor Arano,10766358,P,4000,PHI@CHC 06/06/2018 08:05PM ET,PHI,4.07
SP,Jose Albertos (10766375),Jose Albertos,10766375,P,4000,PHI@CHC 06/06/2018 08:05PM ET,CHC,0
SP,JoJo Romero (10766376),JoJo Romero,10766376,P,4000,PHI@CHC 06/06/2018 08:05PM ET,PHI,0
SP,Alex Lange (10766384),Alex Lange,10766384,P,4000,PHI@CHC 06/06/2018 08:05PM ET,CHC,0
SP,Sal Romano (10765338),Sal Romano,10765338,P,4000,COL@CIN 06/06/2018 07:10PM ET,CIN,7.73
OF,David Dahl (10765409),David Dahl,10765409,OF,4000,COL@CIN 06/06/2018 07:10PM ET,COL,5.66
OF,Carlos Gonzalez (10765410),Carlos Gonzalez,10765410,OF,4000,COL@CIN 06/06/2018 07:10PM ET,COL,6.48
RP,Chris Rusin (10766103),Chris Rusin,10766103,P,4000,COL@CIN 06/06/2018 07:10PM ET,COL,1.90
SP,Vance Worley (10766109),Vance Worley,10766109,P,4000,COL@CIN 06/06/2018 07:10PM ET,CIN,0
RP,Rayan Gonzalez (10766126),Rayan Gonzalez,10766126,P,4000,COL@CIN 06/06/2018 07:10PM ET,COL,0
RP,Bryan Shaw (10766134),Bryan Shaw,10766134,P,4000,COL@CIN 06/06/2018 07:10PM ET,COL,1.62
RP,Zac Rosscup (10766136),Zac Rosscup,10766136,P,4000,COL@CIN 06/06/2018 07:10PM ET,COL,0
RP,Dylan Floro (10766139),Dylan Floro,10766139,P,4000,COL@CIN 06/06/2018 07:10PM ET,CIN,3.51
RP,Brooks Pounders (10766146),Brooks Pounders,10766146,P,4000,COL@CIN 06/06/2018 07:10PM ET,COL,1.92
RP,Mike Dunn (10766148),Mike Dunn,10766148,P,4000,COL@CIN 06/06/2018 07:10PM ET,COL,0.53
RP,Wade Davis (10766150),Wade Davis,10766150,P,4000,COL@CIN 06/06/2018 07:10PM ET,COL,2.84
RP,Jake McGee (10766151),Jake McGee,10766151,P,4000,COL@CIN 06/06/2018 07:10PM ET,COL,2.11
RP,Adam Ottavino (10766169),Adam Ottavino,10766169,P,4000,COL@CIN 06/06/2018 07:10PM ET,COL,5.47
RP,David Hernandez (10766172),David Hernandez,10766172,P,4000,COL@CIN 06/06/2018 07:10PM ET,CIN,3.78
RP,Jared Hughes (10766189),Jared Hughes,10766189,P,4000,COL@CIN 06/06/2018 07:10PM ET,CIN,3.60
RP,Wandy Peralta (10766198),Wandy Peralta,10766198,P,4000,COL@CIN 06/06/2018 07:10PM ET,CIN,1.40
RP,Michael Lorenzen (10766201),Michael Lorenzen,10766201,P,4000,COL@CIN 06/06/2018 07:10PM ET,CIN,4.58
RP,Austin Brice (10766206),Austin Brice,10766206,P,4000,COL@CIN 06/06/2018 07:10PM ET,CIN,2.80
RP,Scott Oberg (10766228),Scott Oberg,10766228,P,4000,COL@CIN 06/06/2018 07:10PM ET,COL,2.26
RP,Robert Stephenson (10766251),Robert Stephenson,10766251,P,4000,COL@CIN 06/06/2018 07:10PM ET,CIN,0
RP,Carlos Estevez (10766255),Carlos Estevez,10766255,P,4000,COL@CIN 06/06/2018 07:10PM ET,COL,0
SP,Yency Almonte (10766282),Yency Almonte,10766282,P,4000,COL@CIN 06/06/2018 07:10PM ET,COL,0
SP,Antonio Senzatela (10766288),Antonio Senzatela,10766288,P,4000,COL@CIN 06/06/2018 07:10PM ET,COL,3.3
SP,Peter Lambert (10766300),Peter Lambert,10766300,P,4000,COL@CIN 06/06/2018 07:10PM ET,COL,0
SP,Tony Santillan (10766301),Tony Santillan,10766301,P,4000,COL@CIN 06/06/2018 07:10PM ET,CIN,0
SP,Mike Nikorak (10766304),Mike Nikorak,10766304,P,4000,COL@CIN 06/06/2018 07:10PM ET,COL,0
SP,Riley Pint (10766310),Riley Pint,10766310,P,4000,COL@CIN 06/06/2018 07:10PM ET,COL,0
RP,Raisel Iglesias (10766331),Raisel Iglesias,10766331,P,4000,COL@CIN 06/06/2018 07:10PM ET,CIN,4.02
RP,Harrison Musgrave (10766353),Harrison Musgrave,10766353,P,4000,COL@CIN 06/06/2018 07:10PM ET,COL,3.52
SP,Daniel Wright (10766357),Daniel Wright,10766357,P,4000,COL@CIN 06/06/2018 07:10PM ET,CIN,0
SP,Nick Howard (10766369),Nick Howard,10766369,P,4000,COL@CIN 06/06/2018 07:10PM ET,CIN,0
SP,Vladimir Gutierrez (10766377),Vladimir Gutierrez,10766377,P,4000,COL@CIN 06/06/2018 07:10PM ET,CIN,0
SP,Hunter Greene (10766379),Hunter Greene,10766379,P,4000,COL@CIN 06/06/2018 07:10PM ET,CIN,0
OF,Nelson Cruz (10765404),Nelson Cruz,10765404,OF,4000,SEA@HOU 06/06/2018 08:10PM ET,SEA,7.57
RP,Roenis Elias (10766102),Roenis Elias,10766102,P,4000,SEA@HOU 06/06/2018 08:10PM ET,SEA,9.3
RP,Ryan Cook (10766104),Ryan Cook,10766104,P,4000,SEA@HOU 06/06/2018 08:10PM ET,SEA,2.71
RP,David Phelps (10766105),David Phelps,10766105,P,4000,SEA@HOU 06/06/2018 08:10PM ET,SEA,0
RP,Nick Vincent (10766107),Nick Vincent,10766107,P,4000,SEA@HOU 06/06/2018 08:10PM ET,SEA,2.78
RP,Juan Nicasio (10766112),Juan Nicasio,10766112,P,4000,SEA@HOU 06/06/2018 08:10PM ET,SEA,3.29
RP,Alex Colome (10766130),Alex Colome,10766130,P,4000,SEA@HOU 06/06/2018 08:10PM ET,SEA,2.94
RP,Tony Sipp (10766149),Tony Sipp,10766149,P,4000,SEA@HOU 06/06/2018 08:10PM ET,HOU,2.13
RP,Hector Rondon (10766176),Hector Rondon,10766176,P,4000,SEA@HOU 06/06/2018 08:10PM ET,HOU,3.22
RP,Will Harris (10766182),Will Harris,10766182,P,4000,SEA@HOU 06/06/2018 08:10PM ET,HOU,2.14
RP,Joe Smith (10766188),Joe Smith,10766188,P,4000,SEA@HOU 06/06/2018 08:10PM ET,HOU,2.58
RP,Christian Bergman (10766195),Christian Bergman,10766195,P,4000,SEA@HOU 06/06/2018 08:10PM ET,SEA,24.55
RP,Casey Lawrence (10766199),Casey Lawrence,10766199,P,4000,SEA@HOU 06/06/2018 08:10PM ET,SEA,1.1
RP,Jandel Gustave (10766214),Jandel Gustave,10766214,P,4000,SEA@HOU 06/06/2018 08:10PM ET,HOU,0
RP,Tony Zych (10766215),Tony Zych,10766215,P,4000,SEA@HOU 06/06/2018 08:10PM ET,SEA,0
RP,Ken Giles (10766221),Ken Giles,10766221,P,4000,SEA@HOU 06/06/2018 08:10PM ET,HOU,1.92
RP,James Pazos (10766224),James Pazos,10766224,P,4000,SEA@HOU 06/06/2018 08:10PM ET,SEA,3.16
RP,Chris Devenski (10766262),Chris Devenski,10766262,P,4000,SEA@HOU 06/06/2018 08:10PM ET,HOU,3.67
RP,Chasen Bradford (10766264),Chasen Bradford,10766264,P,4000,SEA@HOU 06/06/2018 08:10PM ET,SEA,4.15
RP,Nick Rumbelow (10766273),Nick Rumbelow,10766273,P,4000,SEA@HOU 06/06/2018 08:10PM ET,SEA,0
RP,Edwin Diaz (10766296),Edwin Diaz,10766296,P,4000,SEA@HOU 06/06/2018 08:10PM ET,SEA,4.29
SP,Franklin Perez (10766297),Franklin Perez,10766297,P,4000,SEA@HOU 06/06/2018 08:10PM ET,HOU,0
SP,J.B. Bukauskas (10766319),J.B. Bukauskas,10766319,P,4000,SEA@HOU 06/06/2018 08:10PM ET,HOU,0
RP,Francis Martes (10766341),Francis Martes,10766341,P,4000,SEA@HOU 06/06/2018 08:10PM ET,HOU,0
RP,Dan Altavilla (10766363),Dan Altavilla,10766363,P,4000,SEA@HOU 06/06/2018 08:10PM ET,SEA,3.43
SP,Cionel Perez (10766378),Cionel Perez,10766378,P,4000,SEA@HOU 06/06/2018 08:10PM ET,HOU,0
2B/3B,Matt Carpenter (10765426),Matt Carpenter,10765426,2B/3B,4000,MIA@STL 06/06/2018 08:15PM ET,STL,6.70
RP,Greg Holland (10766120),Greg Holland,10766120,P,4000,MIA@STL 06/06/2018 08:15PM ET,STL,0.06
SP,Tyler Cloyd (10766129),Tyler Cloyd,10766129,P,4000,MIA@STL 06/06/2018 08:15PM ET,MIA,-0.18
SP,Jacob Turner (10766135),Jacob Turner,10766135,P,4000,MIA@STL 06/06/2018 08:15PM ET,MIA,-3.51
RP,Trevor Rosenthal (10766138),Trevor Rosenthal,10766138,P,4000,MIA@STL 06/06/2018 08:15PM ET,STL,0
RP,Tyler Lyons (10766142),Tyler Lyons,10766142,P,4000,MIA@STL 06/06/2018 08:15PM ET,STL,1.47
RP,Brad Ziegler (10766156),Brad Ziegler,10766156,P,4000,MIA@STL 06/06/2018 08:15PM ET,MIA,0.73
RP,Luke Gregerson (10766177),Luke Gregerson,10766177,P,4000,MIA@STL 06/06/2018 08:15PM ET,STL,1.01
RP,Brett Cecil (10766179),Brett Cecil,10766179,P,4000,MIA@STL 06/06/2018 08:15PM ET,STL,0.72
RP,Bud Norris (10766190),Bud Norris,10766190,P,4000,MIA@STL 06/06/2018 08:15PM ET,STL,4.12
RP,Ryan Sherriff (10766196),Ryan Sherriff,10766196,P,4000,MIA@STL 06/06/2018 08:15PM ET,STL,0.83
RP,Sam Tuivailala (10766200),Sam Tuivailala,10766200,P,4000,MIA@STL 06/06/2018 08:15PM ET,STL,3.12
RP,Tayron Guerrero (10766211),Tayron Guerrero,10766211,P,4000,MIA@STL 06/06/2018 08:15PM ET,MIA,2.40
RP,Severino Gonzalez (10766218),Severino Gonzalez,10766218,P,4000,MIA@STL 06/06/2018 08:15PM ET,MIA,0
RP,John Brebbia (10766220),John Brebbia,10766220,P,4000,MIA@STL 06/06/2018 08:15PM ET,STL,3.78
RP,Drew Rucinski (10766256),Drew Rucinski,10766256,P,4000,MIA@STL 06/06/2018 08:15PM ET,MIA,0.75
RP,Brett Graves (10766260),Brett Graves,10766260,P,4000,MIA@STL 06/06/2018 08:15PM ET,MIA,0
RP,Kyle Barraclough (10766263),Kyle Barraclough,10766263,P,4000,MIA@STL 06/06/2018 08:15PM ET,MIA,3.32
RP,Drew Steckenrider (10766266),Drew Steckenrider,10766266,P,4000,MIA@STL 06/06/2018 08:15PM ET,MIA,3.02
RP,Dominic Leone (10766268),Dominic Leone,10766268,P,4000,MIA@STL 06/06/2018 08:15PM ET,STL,2.53
RP,Mike Mayers (10766275),Mike Mayers,10766275,P,4000,MIA@STL 06/06/2018 08:15PM ET,STL,3.72
SP,Brett Lilek (10766279),Brett Lilek,10766279,P,4000,MIA@STL 06/06/2018 08:15PM ET,MIA,0
RP,Matt Bowman (10766280),Matt Bowman,10766280,P,4000,MIA@STL 06/06/2018 08:15PM ET,STL,2.22
RP,Brian Ellington (10766281),Brian Ellington,10766281,P,4000,MIA@STL 06/06/2018 08:15PM ET,MIA,0
RP,Nick Wittgren (10766284),Nick Wittgren,10766284,P,4000,MIA@STL 06/06/2018 08:15PM ET,MIA,3.04
RP,Chris O'Grady (10766292),Chris O'Grady,10766292,P,4000,MIA@STL 06/06/2018 08:15PM ET,MIA,1.89
SP,Nick Neidert (10766302),Nick Neidert,10766302,P,4000,MIA@STL 06/06/2018 08:15PM ET,MIA,0
RP,Jordan Hicks (10766307),Jordan Hicks,10766307,P,4000,MIA@STL 06/06/2018 08:15PM ET,STL,2.69
SP,Braxton Garrett (10766311),Braxton Garrett,10766311,P,4000,MIA@STL 06/06/2018 08:15PM ET,MIA,0
SP,Junior Fernandez (10766332),Junior Fernandez,10766332,P,4000,MIA@STL 06/06/2018 08:15PM ET,STL,0
SP,Conner Greene (10766337),Conner Greene,10766337,P,4000,MIA@STL 06/06/2018 08:15PM ET,STL,0
SP,Odrisamer Despaigne (10766339),Odrisamer Despaigne,10766339,P,4000,MIA@STL 06/06/2018 08:15PM ET,MIA,4.29
RP,Tyler Kinley (10766346),Tyler Kinley,10766346,P,4000,MIA@STL 06/06/2018 08:15PM ET,MIA,-2.58
SP,Dakota Hudson (10766355),Dakota Hudson,10766355,P,4000,MIA@STL 06/06/2018 08:15PM ET,STL,0
RP,Sandy Alcantara (10766366),Sandy Alcantara,10766366,P,4000,MIA@STL 06/06/2018 08:15PM ET,MIA,0
RP,Trevor Rogers (10766382),Trevor Rogers,10766382,P,4000,MIA@STL 06/06/2018 08:15PM ET,MIA,0
SP,Trevor Oaks (10766100),Trevor Oaks,10766100,P,4000,KC@LAA 06/06/2018 10:07PM ET,KC,3.05
SP,Jesse Hahn (10766101),Jesse Hahn,10766101,P,4000,KC@LAA 06/06/2018 10:07PM ET,KC,0
RP,Jose Alvarez (10766114),Jose Alvarez,10766114,P,4000,KC@LAA 06/06/2018 10:07PM ET,LAA,2.99
RP,Justin Grimm (10766115),Justin Grimm,10766115,P,4000,KC@LAA 06/06/2018 10:07PM ET,KC,-1.88
RP,Kelvin Herrera (10766125),Kelvin Herrera,10766125,P,4000,KC@LAA 06/06/2018 10:07PM ET,KC,3.31
RP,Brian Flynn (10766127),Brian Flynn,10766127,P,4000,KC@LAA 06/06/2018 10:07PM ET,KC,2.01
RP,Oliver Drake (10766132),Oliver Drake,10766132,P,4000,KC@LAA 06/06/2018 10:07PM ET,LAA,2.04
RP,Blaine Boyer (10766158),Blaine Boyer,10766158,P,4000,KC@LAA 06/06/2018 10:07PM ET,KC,-0.36
RP,Jim Johnson (10766162),Jim Johnson,10766162,P,4000,KC@LAA 06/06/2018 10:07PM ET,LAA,2.86
SP,Wily Peralta (10766175),Wily Peralta,10766175,P,4000,KC@LAA 06/06/2018 10:07PM ET,KC,0
RP,Blake Parker (10766185),Blake Parker,10766185,P,4000,KC@LAA 06/06/2018 10:07PM ET,LAA,3.20
RP,Blake Wood (10766187),Blake Wood,10766187,P,4000,KC@LAA 06/06/2018 10:07PM ET,LAA,2.66
RP,Parker Bridwell (10766203),Parker Bridwell,10766203,P,4000,KC@LAA 06/06/2018 10:07PM ET,LAA,-12.45
RP,Jason Adam (10766204),Jason Adam,10766204,P,4000,KC@LAA 06/06/2018 10:07PM ET,KC,3.06
SP,Burch Smith (10766222),Burch Smith,10766222,P,4000,KC@LAA 06/06/2018 10:07PM ET,KC,2.92
RP,Vicente Campos (10766231),Vicente Campos,10766231,P,4000,KC@LAA 06/06/2018 10:07PM ET,LAA,0
RP,Cam Bedrosian (10766242),Cam Bedrosian,10766242,P,4000,KC@LAA 06/06/2018 10:07PM ET,LAA,1.79
RP,Miguel Almonte (10766248),Miguel Almonte,10766248,P,4000,KC@LAA 06/06/2018 10:07PM ET,KC,0
RP,Noe Ramirez (10766249),Noe Ramirez,10766249,P,4000,KC@LAA 06/06/2018 10:07PM ET,LAA,3.46
SP,Kyle Zimmer (10766269),Kyle Zimmer,10766269,P,4000,KC@LAA 06/06/2018 10:07PM ET,KC,0
SP,Nolan Watson (10766305),Nolan Watson,10766305,P,4000,KC@LAA 06/06/2018 10:07PM ET,KC,0
SP,Foster Griffin (10766316),Foster Griffin,10766316,P,4000,KC@LAA 06/06/2018 10:07PM ET,KC,0
SP,Scott Blewett (10766317),Scott Blewett,10766317,P,4000,KC@LAA 06/06/2018 10:07PM ET,KC,0
RP,Justin Anderson (10766320),Justin Anderson,10766320,P,4000,KC@LAA 06/06/2018 10:07PM ET,LAA,3.84
RP,Tim Hill (10766326),Tim Hill,10766326,P,4000,KC@LAA 06/06/2018 10:07PM ET,KC,2.08
SP,Griffin Canning (10766327),Griffin Canning,10766327,P,4000,KC@LAA 06/06/2018 10:07PM ET,LAA,0
RP,Keynan Middleton (10766338),Keynan Middleton,10766338,P,4000,KC@LAA 06/06/2018 10:07PM ET,LAA,3.08
RP,Kevin McCarthy (10766347),Kevin McCarthy,10766347,P,4000,KC@LAA 06/06/2018 10:07PM ET,KC,3.18
SP,Chris Rodriguez (10766370),Chris Rodriguez,10766370,P,4000,KC@LAA 06/06/2018 10:07PM ET,LAA,0
SP,Richard Lovelady (10766374),Richard Lovelady,10766374,P,4000,KC@LAA 06/06/2018 10:07PM ET,KC,0
SP,Zack Littell (10765326),Zack Littell,10765326,P,4000,CWS@MIN 06/06/2018 08:10PM ET,MIN,-9.25
RP,Juan Minaya (10765334),Juan Minaya,10765334,P,4000,CWS@MIN 06/06/2018 08:10PM ET,CWS,0.46
SS,Tim Anderson (10765402),Tim Anderson,10765402,SS,4000,CWS@MIN 06/06/2018 08:10PM ET,CWS,7.90
OF,Daniel Palka (10765413),Daniel Palka,10765413,OF,4000,CWS@MIN 06/06/2018 08:10PM ET,CWS,7.81
2B,Yoan Moncada (10765429),Yoan Moncada,10765429,2B,4000,CWS@MIN 06/06/2018 08:10PM ET,CWS,8.32
RP,Trevor May (10766071),Trevor May,10766071,P,4000,CWS@MIN 06/06/2018 08:10PM ET,MIN,0
RP,Robbie Ross Jr. (10766072),Robbie Ross Jr.,10766072,P,4000,CWS@MIN 06/06/2018 08:10PM ET,CWS,0
RP,Ryan Pressly (10766073),Ryan Pressly,10766073,P,4000,CWS@MIN 06/06/2018 08:10PM ET,MIN,3.4
RP,Nate Jones (10766074),Nate Jones,10766074,P,4000,CWS@MIN 06/06/2018 08:10PM ET,CWS,2.74
RP,Danny Farquhar (10766075),Danny Farquhar,10766075,P,4000,CWS@MIN 06/06/2018 08:10PM ET,CWS,3.3
RP,Matt Magill (10766076),Matt Magill,10766076,P,4000,CWS@MIN 06/06/2018 08:10PM ET,MIN,5.12
RP,Luis Avilan (10766077),Luis Avilan,10766077,P,4000,CWS@MIN 06/06/2018 08:10PM ET,CWS,2.15
RP,Zack Jones (10766078),Zack Jones,10766078,P,4000,CWS@MIN 06/06/2018 08:10PM ET,MIN,0
RP,Xavier Cedeno (10766079),Xavier Cedeno,10766079,P,4000,CWS@MIN 06/06/2018 08:10PM ET,CWS,0
RP,Fernando Rodney (10766080),Fernando Rodney,10766080,P,4000,CWS@MIN 06/06/2018 08:10PM ET,MIN,3.08
RP,Zach Duke (10766081),Zach Duke,10766081,P,4000,CWS@MIN 06/06/2018 08:10PM ET,MIN,2.31
RP,Joakim Soria (10766082),Joakim Soria,10766082,P,4000,CWS@MIN 06/06/2018 08:10PM ET,CWS,2.91
RP,Myles Jaye (10766083),Myles Jaye,10766083,P,4000,CWS@MIN 06/06/2018 08:10PM ET,MIN,0
RP,Chris Beck (10766084),Chris Beck,10766084,P,4000,CWS@MIN 06/06/2018 08:10PM ET,CWS,3.08
RP,Taylor Rogers (10766085),Taylor Rogers,10766085,P,4000,CWS@MIN 06/06/2018 08:10PM ET,MIN,2.22
RP,Bruce Rondon (10766086),Bruce Rondon,10766086,P,4000,CWS@MIN 06/06/2018 08:10PM ET,CWS,3.46
RP,Addison Reed (10766087),Addison Reed,10766087,P,4000,CWS@MIN 06/06/2018 08:10PM ET,MIN,3.05
SP,Felix Jorge (10766088),Felix Jorge,10766088,P,4000,CWS@MIN 06/06/2018 08:10PM ET,MIN,0
RP,Jace Fry (10766089),Jace Fry,10766089,P,4000,CWS@MIN 06/06/2018 08:10PM ET,CWS,3.36
RP,Aaron Bummer (10766090),Aaron Bummer,10766090,P,4000,CWS@MIN 06/06/2018 08:10PM ET,CWS,1.96
SP,Tyler Duffey (10766091),Tyler Duffey,10766091,P,4000,CWS@MIN 06/06/2018 08:10PM ET,MIN,2.71
SP,Spencer Adams (10766092),Spencer Adams,10766092,P,4000,CWS@MIN 06/06/2018 08:10PM ET,CWS,0
RP,Trevor Hildenberger (10766093),Trevor Hildenberger,10766093,P,4000,CWS@MIN 06/06/2018 08:10PM ET,MIN,3.07
SP,Dylan Cease (10766094),Dylan Cease,10766094,P,4000,CWS@MIN 06/06/2018 08:10PM ET,CWS,0
RP,Tyler Danish (10766095),Tyler Danish,10766095,P,4000,CWS@MIN 06/06/2018 08:10PM ET,CWS,0
SP,Ian Clarkin (10766096),Ian Clarkin,10766096,P,4000,CWS@MIN 06/06/2018 08:10PM ET,CWS,0
SP,A.J. Puckett (10766097),A.J. Puckett,10766097,P,4000,CWS@MIN 06/06/2018 08:10PM ET,CWS,0
SP,Dane Dunning (10766098),Dane Dunning,10766098,P,4000,CWS@MIN 06/06/2018 08:10PM ET,CWS,0
OF,Starling Marte (10765407),Starling Marte,10765407,OF,4000,LAD@PIT 06/06/2018 07:05PM ET,PIT,8.88
C,Francisco Cervelli (10765411),Francisco Cervelli,10765411,C,4000,LAD@PIT 06/06/2018 07:05PM ET,PIT,8.4
RP,Dennis Santana (10766099),Dennis Santana,10766099,P,4000,LAD@PIT 06/06/2018 07:05PM ET,LAD,2.72
RP,Daniel Hudson (10766106),Daniel Hudson,10766106,P,4000,LAD@PIT 06/06/2018 07:05PM ET,LAD,2.44
RP,Pedro Baez (10766117),Pedro Baez,10766117,P,4000,LAD@PIT 06/06/2018 07:05PM ET,LAD,3.33
RP,Josh Fields (10766123),Josh Fields,10766123,P,4000,LAD@PIT 06/06/2018 07:05PM ET,LAD,3.01
RP,Bo Schultz (10766131),Bo Schultz,10766131,P,4000,LAD@PIT 06/06/2018 07:05PM ET,PIT,0
SP,Nik Turley (10766133),Nik Turley,10766133,P,4000,LAD@PIT 06/06/2018 07:05PM ET,PIT,0
RP,Kenley Jansen (10766173),Kenley Jansen,10766173,P,4000,LAD@PIT 06/06/2018 07:05PM ET,LAD,3.31
RP,Jesen Therrien (10766197),Jesen Therrien,10766197,P,4000,LAD@PIT 06/06/2018 07:05PM ET,LAD,0
RP,Michael Feliz (10766213),Michael Feliz,10766213,P,4000,LAD@PIT 06/06/2018 07:05PM ET,PIT,2.19
RP,Yimi Garcia (10766227),Yimi Garcia,10766227,P,4000,LAD@PIT 06/06/2018 07:05PM ET,LAD,2.89
RP,Enny Romero (10766230),Enny Romero,10766230,P,4000,LAD@PIT 06/06/2018 07:05PM ET,PIT,1.82
RP,Felipe Vazquez (10766232),Felipe Vazquez,10766232,P,4000,LAD@PIT 06/06/2018 07:05PM ET,PIT,2.62
RP,A.J. Schugel (10766233),A.J. Schugel,10766233,P,4000,LAD@PIT 06/06/2018 07:05PM ET,PIT,0
RP,Erik Goeddel (10766236),Erik Goeddel,10766236,P,4000,LAD@PIT 06/06/2018 07:05PM ET,LAD,5.30
RP,Scott Alexander (10766238),Scott Alexander,10766238,P,4000,LAD@PIT 06/06/2018 07:05PM ET,LAD,2.00
RP,Richard Rodriguez (10766240),Richard Rodriguez,10766240,P,4000,LAD@PIT 06/06/2018 07:05PM ET,PIT,4.38
RP,Kyle Crick (10766244),Kyle Crick,10766244,P,4000,LAD@PIT 06/06/2018 07:05PM ET,PIT,3.06
RP,Tony Cingrani (10766250),Tony Cingrani,10766250,P,4000,LAD@PIT 06/06/2018 07:05PM ET,LAD,3.25
SP,Clay Holmes (10766258),Clay Holmes,10766258,P,4000,LAD@PIT 06/06/2018 07:05PM ET,PIT,4.1
RP,Nick Burdi (10766259),Nick Burdi,10766259,P,4000,LAD@PIT 06/06/2018 07:05PM ET,PIT,0
SP,Taylor Hearn (10766283),Taylor Hearn,10766283,P,4000,LAD@PIT 06/06/2018 07:05PM ET,PIT,0
SP,P.J. Conlon (10766323),P.J. Conlon,10766323,P,4000,LAD@PIT 06/06/2018 07:05PM ET,LAD,-2.82
RP,Edgar Santana (10766329),Edgar Santana,10766329,P,4000,LAD@PIT 06/06/2018 07:05PM ET,PIT,2.65
SP,Jordan Sheffield (10766349),Jordan Sheffield,10766349,P,4000,LAD@PIT 06/06/2018 07:05PM ET,LAD,0
SP,Dustin May (10766372),Dustin May,10766372,P,4000,LAD@PIT 06/06/2018 07:05PM ET,LAD,0
SP,Shane Baz (10766381),Shane Baz,10766381,P,4000,LAD@PIT 06/06/2018 07:05PM ET,PIT,0
OF,Aaron Hicks (10765415),Aaron Hicks,10765415,OF,3900,NYY@TOR 06/06/2018 07:07PM ET,NYY,8.54
3B,Miguel Andujar (10765416),Miguel Andujar,10765416,3B,3900,NYY@TOR 06/06/2018 07:07PM ET,NYY,8.31
3B,Josh Donaldson (10765424),Josh Donaldson,10765424,3B,3900,NYY@TOR 06/06/2018 07:07PM ET,TOR,7.81
3B,Matt Chapman (10765417),Matt Chapman,10765417,3B,3900,OAK@TEX 06/06/2018 08:05PM ET,OAK,6.97
SS,Marcus Semien (10765418),Marcus Semien,10765418,SS,3900,OAK@TEX 06/06/2018 08:05PM ET,OAK,7.37
OF,Mitch Haniger (10765425),Mitch Haniger,10765425,OF,3900,SEA@HOU 06/06/2018 08:10PM ET,SEA,8.64
3B/SS,Yairo Munoz (10765419),Yairo Munoz,10765419,3B/SS,3900,MIA@STL 06/06/2018 08:15PM ET,STL,4.84
3B,Mike Moustakas (10765414),Mike Moustakas,10765414,3B,3900,KC@LAA 06/06/2018 10:07PM ET,KC,8.27
SS,Andrelton Simmons (10765421),Andrelton Simmons,10765421,SS,3900,KC@LAA 06/06/2018 10:07PM ET,LAA,8.20
C,Salvador Perez (10765431),Salvador Perez,10765431,C,3900,KC@LAA 06/06/2018 10:07PM ET,KC,8.15
1B/OF,Cody Bellinger (10765422),Cody Bellinger,10765422,1B/OF,3900,LAD@PIT 06/06/2018 07:05PM ET,LAD,6.98
OF,Corey Dickerson (10765428),Corey Dickerson,10765428,OF,3900,LAD@PIT 06/06/2018 07:05PM ET,PIT,7.96
1B/OF,Niko Goodrum (10765444),Niko Goodrum,10765444,1B/OF,3800,DET@BOS 06/06/2018 07:10PM ET,DET,6.34
2B/3B,Yangervis Solarte (10765436),Yangervis Solarte,10765436,2B/3B,3800,NYY@TOR 06/06/2018 07:07PM ET,TOR,7.98
OF,Odubel Herrera (10765434),Odubel Herrera,10765434,OF,3800,PHI@CHC 06/06/2018 08:05PM ET,PHI,7.77
1B,Carlos Santana (10765438),Carlos Santana,10765438,1B,3800,PHI@CHC 06/06/2018 08:05PM ET,PHI,7.72
1B/OF,Ian Desmond (10765441),Ian Desmond,10765441,1B/OF,3800,COL@CIN 06/06/2018 07:10PM ET,COL,6.78
OF,Denard Span (10765435),Denard Span,10765435,OF,3800,SEA@HOU 06/06/2018 08:10PM ET,SEA,7.56
C,Max Stassi (10765454),Max Stassi,10765454,C,3800,SEA@HOU 06/06/2018 08:10PM ET,HOU,6.23
SS,Paul DeJong (10765443),Paul DeJong,10765443,SS,3800,MIA@STL 06/06/2018 08:15PM ET,STL,7.63
OF,Marcell Ozuna (10765446),Marcell Ozuna,10765446,OF,3800,MIA@STL 06/06/2018 08:15PM ET,STL,6.94
OF,Jorge Soler (10765432),Jorge Soler,10765432,OF,3800,KC@LAA 06/06/2018 10:07PM ET,KC,8.13
1B/3B,Matt Davidson (10765439),Matt Davidson,10765439,1B/3B,3800,CWS@MIN 06/06/2018 08:10PM ET,CWS,8.09
OF,Joc Pederson (10765430),Joc Pederson,10765430,OF,3800,LAD@PIT 06/06/2018 07:05PM ET,LAD,5.41
3B,Justin Turner (10765433),Justin Turner,10765433,3B,3800,LAD@PIT 06/06/2018 07:05PM ET,LAD,6.22
OF,Clint Frazier (10765452),Clint Frazier,10765452,OF,3700,NYY@TOR 06/06/2018 07:07PM ET,NYY,8.33
SS,Elvis Andrus (10765453),Elvis Andrus,10765453,SS,3700,OAK@TEX 06/06/2018 08:05PM ET,TEX,8.07
OF,Delino DeShields (10765456),Delino DeShields,10765456,OF,3700,OAK@TEX 06/06/2018 08:05PM ET,TEX,6.72
C,Willson Contreras (10765449),Willson Contreras,10765449,C,3700,PHI@CHC 06/06/2018 08:05PM ET,CHC,7.57
OF,Phillip Ervin (10765457),Phillip Ervin,10765457,OF,3700,COL@CIN 06/06/2018 07:10PM ET,CIN,3.69
2B/OF,Dee Gordon (10765447),Dee Gordon,10765447,2B/OF,3700,SEA@HOU 06/06/2018 08:10PM ET,SEA,8.26
C,J.T. Realmuto (10765451),J.T. Realmuto,10765451,C,3700,MIA@STL 06/06/2018 08:15PM ET,MIA,8.25
1B,Jose Martinez (10765455),Jose Martinez,10765455,1B,3700,MIA@STL 06/06/2018 08:15PM ET,STL,7.47
3B,Jedd Gyorko (10765474),Jedd Gyorko,10765474,3B,3700,MIA@STL 06/06/2018 08:15PM ET,STL,4.95
2B,Josh Harrison (10765450),Josh Harrison,10765450,2B,3700,LAD@PIT 06/06/2018 07:05PM ET,PIT,6.96
C,Austin Romine (10765467),Austin Romine,10765467,C,3600,NYY@TOR 06/06/2018 07:07PM ET,NYY,8.76
1B/2B,Neil Walker (10765471),Neil Walker,10765471,1B/2B,3600,NYY@TOR 06/06/2018 07:07PM ET,NYY,5.60
1B,Tyler Austin (10765473),Tyler Austin,10765473,1B,3600,NYY@TOR 06/06/2018 07:07PM ET,NYY,7.29
3B,Adrian Beltre (10765458),Adrian Beltre,10765458,3B,3600,OAK@TEX 06/06/2018 08:05PM ET,TEX,6.52
OF,Chad Pinder (10765460),Chad Pinder,10765460,OF,3600,OAK@TEX 06/06/2018 08:05PM ET,OAK,5.64
1B,Ronald Guzman (10765468),Ronald Guzman,10765468,1B,3600,OAK@TEX 06/06/2018 08:05PM ET,TEX,6.33
OF,Mark Canha (10765470),Mark Canha,10765470,OF,3600,OAK@TEX 06/06/2018 08:05PM ET,OAK,6.25
SS,Jurickson Profar (10765483),Jurickson Profar,10765483,SS,3600,OAK@TEX 06/06/2018 08:05PM ET,TEX,6.98
OF,Dylan Cozens (10765465),Dylan Cozens,10765465,OF,3600,PHI@CHC 06/06/2018 08:05PM ET,PHI,1.5
OF,Scott Schebler (10765464),Scott Schebler,10765464,OF,3600,COL@CIN 06/06/2018 07:10PM ET,CIN,7.18
C,Evan Gattis (10765463),Evan Gattis,10765463,C,3600,SEA@HOU 06/06/2018 08:10PM ET,HOU,6
OF,Derek Fisher (10765466),Derek Fisher,10765466,OF,3600,SEA@HOU 06/06/2018 08:10PM ET,HOU,4.14
OF,Tyler O'Neill (10765462),Tyler O'Neill,10765462,OF,3600,MIA@STL 06/06/2018 08:15PM ET,STL,5
1B,Lucas Duda (10765459),Lucas Duda,10765459,1B,3600,KC@LAA 06/06/2018 10:07PM ET,KC,6.22
OF,Max Kepler (10765461),Max Kepler,10765461,OF,3600,CWS@MIN 06/06/2018 08:10PM ET,MIN,6.84
OF,Gregory Polanco (10765469),Gregory Polanco,10765469,OF,3600,LAD@PIT 06/06/2018 07:05PM ET,PIT,7.64
2B,Dustin Pedroia (10765479),Dustin Pedroia,10765479,2B,3500,DET@BOS 06/06/2018 07:10PM ET,BOS,3
2B/SS,Brock Holt (10765490),Brock Holt,10765490,2B/SS,3500,DET@BOS 06/06/2018 07:10PM ET,BOS,6.56
1B/OF,Steve Pearce (10765484),Steve Pearce,10765484,1B/OF,3500,NYY@TOR 06/06/2018 07:07PM ET,TOR,6.86
OF,Curtis Granderson (10765487),Curtis Granderson,10765487,OF,3500,NYY@TOR 06/06/2018 07:07PM ET,TOR,5.63
C,Luke Maile (10765510),Luke Maile,10765510,C,3500,NYY@TOR 06/06/2018 07:07PM ET,TOR,7.03
OF,Albert Almora Jr. (10765476),Albert Almora Jr.,10765476,OF,3500,PHI@CHC 06/06/2018 08:05PM ET,CHC,6.21
1B,Ryon Healy (10765475),Ryon Healy,10765475,1B,3500,SEA@HOU 06/06/2018 08:10PM ET,SEA,7.23
1B,Yuli Gurriel (10765489),Yuli Gurriel,10765489,1B,3500,SEA@HOU 06/06/2018 08:10PM ET,HOU,6.67
OF,Josh Reddick (10765492),Josh Reddick,10765492,OF,3500,SEA@HOU 06/06/2018 08:10PM ET,HOU,6.64
OF,Jabari Blash (10765480),Jabari Blash,10765480,OF,3500,KC@LAA 06/06/2018 10:07PM ET,LAA,3.33
2B,Ian Kinsler (10765486),Ian Kinsler,10765486,2B,3500,KC@LAA 06/06/2018 10:07PM ET,LAA,6.29
2B/SS,Jose Rondon (10765477),Jose Rondon,10765477,2B/SS,3500,CWS@MIN 06/06/2018 08:10PM ET,CWS,6.71
3B,Yolmer Sanchez (10765488),Yolmer Sanchez,10765488,3B,3500,CWS@MIN 06/06/2018 08:10PM ET,CWS,7.23
3B/SS,Jung Ho Kang (10765481),Jung Ho Kang,10765481,3B/SS,3500,LAD@PIT 06/06/2018 07:05PM ET,PIT,0
OF,JaCoby Jones (10765495),JaCoby Jones,10765495,OF,3400,DET@BOS 06/06/2018 07:10PM ET,DET,5.75
3B,Rafael Devers (10765516),Rafael Devers,10765516,3B,3400,DET@BOS 06/06/2018 07:10PM ET,BOS,6.47
OF,Jacoby Ellsbury (10765494),Jacoby Ellsbury,10765494,OF,3400,NYY@TOR 06/06/2018 07:07PM ET,NYY,0
OF,Kevin Pillar (10765496),Kevin Pillar,10765496,OF,3400,NYY@TOR 06/06/2018 07:07PM ET,TOR,7.3
1B,Kendrys Morales (10765512),Kendrys Morales,10765512,1B,3400,NYY@TOR 06/06/2018 07:07PM ET,TOR,4.84
OF,Matt Joyce (10765509),Matt Joyce,10765509,OF,3400,OAK@TEX 06/06/2018 08:05PM ET,OAK,5.31
3B,Maikel Franco (10765499),Maikel Franco,10765499,3B,3400,PHI@CHC 06/06/2018 08:05PM ET,PHI,6.45
SS,Jose Peraza (10765505),Jose Peraza,10765505,SS,3400,COL@CIN 06/06/2018 07:10PM ET,CIN,6.52
3B,Kyle Seager (10765498),Kyle Seager,10765498,3B,3400,SEA@HOU 06/06/2018 08:10PM ET,SEA,7.08
OF,John Andreoli (10765503),John Andreoli,10765503,OF,3400,SEA@HOU 06/06/2018 08:10PM ET,SEA,5
OF,Ben Gamel (10765504),Ben Gamel,10765504,OF,3400,SEA@HOU 06/06/2018 08:10PM ET,SEA,5.29
OF,Jayson Werth (10765506),Jayson Werth,10765506,OF,3400,SEA@HOU 06/06/2018 08:10PM ET,SEA,0
OF,Derek Dietrich (10765493),Derek Dietrich,10765493,OF,3400,MIA@STL 06/06/2018 08:15PM ET,MIA,6.57
2B,Starlin Castro (10765513),Starlin Castro,10765513,2B,3400,MIA@STL 06/06/2018 08:15PM ET,MIA,6.88
1B,Albert Pujols (10765497),Albert Pujols,10765497,1B,3400,KC@LAA 06/06/2018 10:07PM ET,LAA,6.77
OF,Michael Hermosillo (10765507),Michael Hermosillo,10765507,OF,3400,KC@LAA 06/06/2018 10:07PM ET,LAA,2.88
OF,Jon Jay (10765511),Jon Jay,10765511,OF,3400,KC@LAA 06/06/2018 10:07PM ET,KC,6.86
1B/3B,Jefry Marte (10765514),Jefry Marte,10765514,1B/3B,3400,KC@LAA 06/06/2018 10:07PM ET,LAA,4.16
C,Rene Rivera (10765547),Rene Rivera,10765547,C,3400,KC@LAA 06/06/2018 10:07PM ET,LAA,5.14
3B/SS,Taylor Motter (10765500),Taylor Motter,10765500,3B/SS,3400,CWS@MIN 06/06/2018 08:10PM ET,MIN,3.62
1B,Joe Mauer (10765502),Joe Mauer,10765502,1B,3400,CWS@MIN 06/06/2018 08:10PM ET,MIN,6.63
1B,Josh Bell (10765508),Josh Bell,10765508,1B,3400,LAD@PIT 06/06/2018 07:05PM ET,PIT,6.55
SS,Jose Iglesias (10765533),Jose Iglesias,10765533,SS,3300,DET@BOS 06/06/2018 07:10PM ET,DET,6.34
C,Derek Norris (10765535),Derek Norris,10765535,C,3300,DET@BOS 06/06/2018 07:10PM ET,DET,0
OF,Jim Adduci (10765536),Jim Adduci,10765536,OF,3300,DET@BOS 06/06/2018 07:10PM ET,DET,0
3B,Vladimir Guerrero Jr. (10765532),Vladimir Guerrero Jr.,10765532,3B,3300,NYY@TOR 06/06/2018 07:07PM ET,TOR,0
2B,Tyler Wade (10765534),Tyler Wade,10765534,2B,3300,NYY@TOR 06/06/2018 07:07PM ET,NYY,2.23
OF,Anthony Alford (10765541),Anthony Alford,10765541,OF,3300,NYY@TOR 06/06/2018 07:07PM ET,TOR,3
2B/OF,Willie Calhoun (10765529),Willie Calhoun,10765529,2B/OF,3300,OAK@TEX 06/06/2018 08:05PM ET,TEX,0
2B,Rougned Odor (10765537),Rougned Odor,10765537,2B,3300,OAK@TEX 06/06/2018 08:05PM ET,TEX,4.97
OF,Gerardo Parra (10765522),Gerardo Parra,10765522,OF,3300,COL@CIN 06/06/2018 07:10PM ET,COL,5.59
OF,Adam Duvall (10765525),Adam Duvall,10765525,OF,3300,COL@CIN 06/06/2018 07:10PM ET,CIN,5.78
OF,Raimel Tapia (10765531),Raimel Tapia,10765531,OF,3300,COL@CIN 06/06/2018 07:10PM ET,COL,0
C,Tom Murphy (10765540),Tom Murphy,10765540,C,3300,COL@CIN 06/06/2018 07:10PM ET,COL,0
OF,Tony Kemp (10765519),Tony Kemp,10765519,OF,3300,SEA@HOU 06/06/2018 08:10PM ET,HOU,6.19
1B/OF,J.D. Davis (10765538),J.D. Davis,10765538,1B/OF,3300,SEA@HOU 06/06/2018 08:10PM ET,HOU,4.24
3B/OF,Brian Anderson (10765523),Brian Anderson,10765523,3B/OF,3300,MIA@STL 06/06/2018 08:15PM ET,MIA,7.33
OF,Dexter Fowler (10765542),Dexter Fowler,10765542,OF,3300,MIA@STL 06/06/2018 08:15PM ET,STL,6.19
C,Yadier Molina (10765543),Yadier Molina,10765543,C,3300,MIA@STL 06/06/2018 08:15PM ET,STL,7.10
2B/3B,Zack Cozart (10765520),Zack Cozart,10765520,2B/3B,3300,KC@LAA 06/06/2018 10:07PM ET,LAA,6.63
1B/3B,Luis Valbuena (10765526),Luis Valbuena,10765526,1B/3B,3300,KC@LAA 06/06/2018 10:07PM ET,LAA,4.77
OF,Leury Garcia (10765546),Leury Garcia,10765546,OF,3300,CWS@MIN 06/06/2018 08:10PM ET,CWS,6.03
2B/OF,Adam Frazier (10765517),Adam Frazier,10765517,2B/OF,3300,LAD@PIT 06/06/2018 07:05PM ET,PIT,4.15
C,Elias Diaz (10765528),Elias Diaz,10765528,C,3300,LAD@PIT 06/06/2018 07:05PM ET,PIT,5.07
2B/OF,Kike Hernandez (10765544),Kike Hernandez,10765544,2B/OF,3300,LAD@PIT 06/06/2018 07:05PM ET,LAD,4.62
1B/C,John Hicks (10765550),John Hicks,10765550,C/1B,3200,DET@BOS 06/06/2018 07:10PM ET,DET,6.82
2B/SS,Eduardo Nunez (10765564),Eduardo Nunez,10765564,2B/SS,3200,DET@BOS 06/06/2018 07:10PM ET,BOS,6.29
2B/3B,Brandon Drury (10765548),Brandon Drury,10765548,2B/3B,3200,NYY@TOR 06/06/2018 07:07PM ET,NYY,5.5
SS,Bo Bichette (10765554),Bo Bichette,10765554,SS,3200,NYY@TOR 06/06/2018 07:07PM ET,TOR,0
OF,Dalton Pompey (10765561),Dalton Pompey,10765561,OF,3200,NYY@TOR 06/06/2018 07:07PM ET,TOR,1.6
SS,Troy Tulowitzki (10765563),Troy Tulowitzki,10765563,SS,3200,NYY@TOR 06/06/2018 07:07PM ET,TOR,0
SS,Aledmys Diaz (10765568),Aledmys Diaz,10765568,SS,3200,NYY@TOR 06/06/2018 07:07PM ET,TOR,5.89
OF,Mark Zagunis (10765556),Mark Zagunis,10765556,OF,3200,PHI@CHC 06/06/2018 08:05PM ET,CHC,2.4
OF,Jason Heyward (10765562),Jason Heyward,10765562,OF,3200,PHI@CHC 06/06/2018 08:05PM ET,CHC,6.14
OF,Mike Tauchman (10765555),Mike Tauchman,10765555,OF,3200,COL@CIN 06/06/2018 07:10PM ET,COL,1.25
C,Chris Iannetta (10765569),Chris Iannetta,10765569,C,3200,COL@CIN 06/06/2018 07:10PM ET,COL,6.33
OF,Noel Cuevas (10765570),Noel Cuevas,10765570,OF,3200,COL@CIN 06/06/2018 07:10PM ET,COL,2.97
OF,Monte Harrison (10765567),Monte Harrison,10765567,OF,3200,MIA@STL 06/06/2018 08:15PM ET,MIA,0
1B,Justin Bour (10765572),Justin Bour,10765572,1B,3200,MIA@STL 06/06/2018 08:15PM ET,MIA,6.62
2B/SS,Adalberto Mondesi (10765559),Adalberto Mondesi,10765559,2B/SS,3200,KC@LAA 06/06/2018 10:07PM ET,KC,0
1B/3B,Matt Skole (10765552),Matt Skole,10765552,1B/3B,3200,CWS@MIN 06/06/2018 08:10PM ET,CWS,6.5
1B,Logan Morrison (10765573),Logan Morrison,10765573,1B,3200,CWS@MIN 06/06/2018 08:10PM ET,MIN,5.84
1B/OF,O'Koyea Dickson (10765557),O'Koyea Dickson,10765557,1B/OF,3200,LAD@PIT 06/06/2018 07:05PM ET,LAD,0
OF,Yusniel Diaz (10765566),Yusniel Diaz,10765566,OF,3200,LAD@PIT 06/06/2018 07:05PM ET,LAD,0
3B,Colin Moran (10765571),Colin Moran,10765571,3B,3200,LAD@PIT 06/06/2018 07:05PM ET,PIT,6.02
1B/OF,Jose Osuna (10765574),Jose Osuna,10765574,1B/OF,3200,LAD@PIT 06/06/2018 07:05PM ET,PIT,4.07
C,James McCann (10765576),James McCann,10765576,C,3100,DET@BOS 06/06/2018 07:10PM ET,DET,6.04
1B,Victor Martinez (10765600),Victor Martinez,10765600,1B,3100,DET@BOS 06/06/2018 07:10PM ET,DET,5.41
C,Sandy Leon (10765601),Sandy Leon,10765601,C,3100,DET@BOS 06/06/2018 07:10PM ET,BOS,5.32
OF,Victor Reyes (10765605),Victor Reyes,10765605,OF,3100,DET@BOS 06/06/2018 07:10PM ET,DET,2.72
OF,Dwight Smith Jr. (10765592),Dwight Smith Jr.,10765592,OF,3100,NYY@TOR 06/06/2018 07:07PM ET,TOR,4.53
2B,Devon Travis (10765595),Devon Travis,10765595,2B,3100,NYY@TOR 06/06/2018 07:07PM ET,TOR,4.59
2B/3B,Isiah Kiner-Falefa (10765578),Isiah Kiner-Falefa,10765578,2B/3B,3100,OAK@TEX 06/06/2018 08:05PM ET,TEX,6.32
OF,Boog Powell (10765589),Boog Powell,10765589,OF,3100,OAK@TEX 06/06/2018 08:05PM ET,OAK,4.57
1B,Tommy Joseph (10765590),Tommy Joseph,10765590,1B,3100,OAK@TEX 06/06/2018 08:05PM ET,TEX,0
C,Cameron Rupp (10765596),Cameron Rupp,10765596,C,3100,OAK@TEX 06/06/2018 08:05PM ET,TEX,0
OF,Stephen Piscotty (10765606),Stephen Piscotty,10765606,OF,3100,OAK@TEX 06/06/2018 08:05PM ET,OAK,5.58
OF,Nick Williams (10765594),Nick Williams,10765594,OF,3100,PHI@CHC 06/06/2018 08:05PM ET,PHI,4.69
SS,Addison Russell (10765607),Addison Russell,10765607,SS,3100,PHI@CHC 06/06/2018 08:05PM ET,CHC,6.15
3B,Nick Senzel (10765583),Nick Senzel,10765583,3B,3100,COL@CIN 06/06/2018 07:10PM ET,CIN,0
OF,Taylor Trammell (10765585),Taylor Trammell,10765585,OF,3100,COL@CIN 06/06/2018 07:10PM ET,CIN,0
2B/SS,Dilson Herrera (10765587),Dilson Herrera,10765587,2B/SS,3100,COL@CIN 06/06/2018 07:10PM ET,CIN,0
1B,Ryan McMahon (10765593),Ryan McMahon,10765593,1B,3100,COL@CIN 06/06/2018 07:10PM ET,COL,2.44
C,Tucker Barnhart (10765602),Tucker Barnhart,10765602,C,3100,COL@CIN 06/06/2018 07:10PM ET,CIN,6.02
OF,Jesse Winker (10765608),Jesse Winker,10765608,OF,3100,COL@CIN 06/06/2018 07:10PM ET,CIN,5.10
C,Mike Zunino (10765577),Mike Zunino,10765577,C,3100,SEA@HOU 06/06/2018 08:10PM ET,SEA,6.49
1B/OF,Marwin Gonzalez (10765603),Marwin Gonzalez,10765603,1B/OF,3100,SEA@HOU 06/06/2018 08:10PM ET,HOU,6
OF,Jorge Bonifacio (10765597),Jorge Bonifacio,10765597,OF,3100,KC@LAA 06/06/2018 10:07PM ET,KC,0
OF,Abraham Almonte (10765609),Abraham Almonte,10765609,OF,3100,KC@LAA 06/06/2018 10:07PM ET,KC,4.78
1B,Kennys Vargas (10765580),Kennys Vargas,10765580,1B,3100,CWS@MIN 06/06/2018 08:10PM ET,MIN,0
OF,Ryan Cordell (10765581),Ryan Cordell,10765581,OF,3100,CWS@MIN 06/06/2018 08:10PM ET,CWS,0
SS,Erick Aybar (10765582),Erick Aybar,10765582,SS,3100,CWS@MIN 06/06/2018 08:10PM ET,MIN,0
SS,Cole Tucker (10765584),Cole Tucker,10765584,SS,3100,LAD@PIT 06/06/2018 07:05PM ET,PIT,0
2B,Tim Locastro (10765586),Tim Locastro,10765586,2B,3100,LAD@PIT 06/06/2018 07:05PM ET,LAD,2.62
OF,Jordan Luplow (10765591),Jordan Luplow,10765591,OF,3100,LAD@PIT 06/06/2018 07:05PM ET,PIT,0
2B/C,Austin Barnes (10765598),Austin Barnes,10765598,C/2B,3100,LAD@PIT 06/06/2018 07:05PM ET,LAD,3.40
OF,Jackie Bradley Jr. (10765625),Jackie Bradley Jr.,10765625,OF,3000,DET@BOS 06/06/2018 07:10PM ET,BOS,5.45
OF,Billy McKinney (10765629),Billy McKinney,10765629,OF,3000,NYY@TOR 06/06/2018 07:07PM ET,NYY,1.5
SS,Jorge Mateo (10765616),Jorge Mateo,10765616,SS,3000,OAK@TEX 06/06/2018 08:05PM ET,OAK,0
SS,Franklin Barreto (10765617),Franklin Barreto,10765617,SS,3000,OAK@TEX 06/06/2018 08:05PM ET,OAK,0.4
OF,Brett Eibner (10765621),Brett Eibner,10765621,OF,3000,OAK@TEX 06/06/2018 08:05PM ET,TEX,0
3B,Trevor Plouffe (10765622),Trevor Plouffe,10765622,3B,3000,OAK@TEX 06/06/2018 08:05PM ET,TEX,0
C,Brett Nicholas (10765623),Brett Nicholas,10765623,C,3000,OAK@TEX 06/06/2018 08:05PM ET,TEX,0
C,Robinson Chirinos (10765627),Robinson Chirinos,10765627,C,3000,OAK@TEX 06/06/2018 08:05PM ET,TEX,6.22
OF,Roman Quinn (10765618),Roman Quinn,10765618,OF,3000,PHI@CHC 06/06/2018 08:05PM ET,PHI,0
OF,Ben Revere (10765620),Ben Revere,10765620,OF,3000,COL@CIN 06/06/2018 07:10PM ET,CIN,0
OF,Mason Williams (10765626),Mason Williams,10765626,OF,3000,COL@CIN 06/06/2018 07:10PM ET,CIN,0
OF,Billy Hamilton (10765630),Billy Hamilton,10765630,OF,3000,COL@CIN 06/06/2018 07:10PM ET,CIN,5.52
C,Brian McCann (10765628),Brian McCann,10765628,C,3000,SEA@HOU 06/06/2018 08:10PM ET,HOU,5.38
1B,Luke Voit (10765624),Luke Voit,10765624,1B,3000,MIA@STL 06/06/2018 08:15PM ET,STL,5.5
2B/SS,Greg Garcia (10765676),Greg Garcia,10765676,2B/SS,3000,MIA@STL 06/06/2018 08:15PM ET,STL,2.91
OF,Alex Gordon (10765610),Alex Gordon,10765610,OF,3000,KC@LAA 06/06/2018 10:07PM ET,KC,5.71
C,Jose Briceno (10765631),Jose Briceno,10765631,C,3000,KC@LAA 06/06/2018 10:07PM ET,LAA,8
OF,Zack Granite (10765611),Zack Granite,10765611,OF,3000,CWS@MIN 06/06/2018 08:10PM ET,MIN,0
3B/SS,Jorge Polanco (10765612),Jorge Polanco,10765612,3B/SS,3000,CWS@MIN 06/06/2018 08:10PM ET,MIN,0
OF,Robbie Grossman (10765614),Robbie Grossman,10765614,OF,3000,CWS@MIN 06/06/2018 08:10PM ET,MIN,4.5
OF,Nicky Delmonico (10765615),Nicky Delmonico,10765615,OF,3000,CWS@MIN 06/06/2018 08:10PM ET,CWS,4.73
3B,Ke'Bryan Hayes (10765619),Ke'Bryan Hayes,10765619,3B,3000,LAD@PIT 06/06/2018 07:05PM ET,PIT,0
2B,Chase Utley (10765679),Chase Utley,10765679,2B,3000,LAD@PIT 06/06/2018 07:05PM ET,LAD,4.18
3B/SS,Ronny Rodriguez (10765682),Ronny Rodriguez,10765682,3B/SS,2900,DET@BOS 06/06/2018 07:10PM ET,DET,2
OF,Estevan Florial (10765645),Estevan Florial,10765645,OF,2900,NYY@TOR 06/06/2018 07:07PM ET,NYY,0
SS,Thairo Estrada (10765647),Thairo Estrada,10765647,SS,2900,NYY@TOR 06/06/2018 07:07PM ET,NYY,0
C,Josh Phegley (10765665),Josh Phegley,10765665,C,2900,OAK@TEX 06/06/2018 08:05PM ET,OAK,3.5
C,Jonathan Lucroy (10765666),Jonathan Lucroy,10765666,C,2900,OAK@TEX 06/06/2018 08:05PM ET,OAK,5.38
3B/SS,Scott Kingery (10765639),Scott Kingery,10765639,3B/SS,2900,PHI@CHC 06/06/2018 08:05PM ET,PHI,5.04
1B/C,Victor Caratini (10765651),Victor Caratini,10765651,C/1B,2900,PHI@CHC 06/06/2018 08:05PM ET,CHC,3.42
SS,J.P. Crawford (10765654),J.P. Crawford,10765654,SS,2900,PHI@CHC 06/06/2018 08:05PM ET,PHI,4.57
OF,Lane Adams (10765655),Lane Adams,10765655,OF,2900,PHI@CHC 06/06/2018 08:05PM ET,CHC,3
2B/3B,David Bote (10765657),David Bote,10765657,2B/3B,2900,PHI@CHC 06/06/2018 08:05PM ET,CHC,4.75
C,Jorge Alfaro (10765661),Jorge Alfaro,10765661,C,2900,PHI@CHC 06/06/2018 08:05PM ET,PHI,5.18
OF,Aaron Altherr (10765664),Aaron Altherr,10765664,OF,2900,PHI@CHC 06/06/2018 08:05PM ET,PHI,5.21
SS,Pedro Florimon (10765678),Pedro Florimon,10765678,SS,2900,PHI@CHC 06/06/2018 08:05PM ET,PHI,3.67
1B/2B,Pat Valaika (10765680),Pat Valaika,10765680,1B/2B,2900,COL@CIN 06/06/2018 07:10PM ET,COL,1.43
2B,Brandon Dixon (10765685),Brandon Dixon,10765685,2B,2900,COL@CIN 06/06/2018 07:10PM ET,CIN,1.64
2B,Robinson Cano (10765644),Robinson Cano,10765644,2B,2900,SEA@HOU 06/06/2018 08:10PM ET,SEA,8.03
C,Mike Marjama (10765650),Mike Marjama,10765650,C,2900,SEA@HOU 06/06/2018 08:10PM ET,SEA,2.1
C,Tim Federowicz (10765663),Tim Federowicz,10765663,C,2900,SEA@HOU 06/06/2018 08:10PM ET,HOU,7
OF,Guillermo Heredia (10765675),Guillermo Heredia,10765675,OF,2900,SEA@HOU 06/06/2018 08:10PM ET,SEA,4.42
SS,Miguel Rojas (10765638),Miguel Rojas,10765638,SS,2900,MIA@STL 06/06/2018 08:15PM ET,MIA,5.8
1B,Garrett Cooper (10765653),Garrett Cooper,10765653,1B,2900,MIA@STL 06/06/2018 08:15PM ET,MIA,2.25
2B,Johnny Giavotella (10765656),Johnny Giavotella,10765656,2B,2900,MIA@STL 06/06/2018 08:15PM ET,MIA,0
OF,Cameron Maybin (10765662),Cameron Maybin,10765662,OF,2900,MIA@STL 06/06/2018 08:15PM ET,MIA,3.53
C,Francisco Pena (10765674),Francisco Pena,10765674,C,2900,MIA@STL 06/06/2018 08:15PM ET,STL,3.81
3B,Kaleb Cowart (10765633),Kaleb Cowart,10765633,3B,2900,KC@LAA 06/06/2018 10:07PM ET,LAA,1
OF,Rymer Liriano (10765660),Rymer Liriano,10765660,OF,2900,KC@LAA 06/06/2018 10:07PM ET,LAA,0
2B/SS,Nolan Fontana (10765667),Nolan Fontana,10765667,2B/SS,2900,KC@LAA 06/06/2018 10:07PM ET,LAA,0
2B/SS,Rosell Herrera (10765669),Rosell Herrera,10765669,2B/SS,2900,KC@LAA 06/06/2018 10:07PM ET,KC,0.54
3B/OF,Cody Asche (10765671),Cody Asche,10765671,3B/OF,2900,KC@LAA 06/06/2018 10:07PM ET,KC,0
C,Martin Maldonado (10765673),Martin Maldonado,10765673,C,2900,KC@LAA 06/06/2018 10:07PM ET,LAA,5.33
OF,Kole Calhoun (10765684),Kole Calhoun,10765684,OF,2900,KC@LAA 06/06/2018 10:07PM ET,LAA,3.52
C,Zack Collins (10765641),Zack Collins,10765641,C,2900,CWS@MIN 06/06/2018 08:10PM ET,CWS,0
OF,Ryan LaMarre (10765642),Ryan LaMarre,10765642,OF,2900,CWS@MIN 06/06/2018 08:10PM ET,MIN,3.34
C,Omar Narvaez (10765643),Omar Narvaez,10765643,C,2900,CWS@MIN 06/06/2018 08:10PM ET,CWS,2.76
2B,Christopher Bostick (10765632),Christopher Bostick,10765632,2B,2900,LAD@PIT 06/06/2018 07:05PM ET,PIT,0
2B/SS,Breyvic Valera (10765634),Breyvic Valera,10765634,2B/SS,2900,LAD@PIT 06/06/2018 07:05PM ET,LAD,2.25
1B/3B,David Freese (10765636),David Freese,10765636,1B/3B,2900,LAD@PIT 06/06/2018 07:05PM ET,PIT,3.98
OF,Alex Verdugo (10765646),Alex Verdugo,10765646,OF,2900,LAD@PIT 06/06/2018 07:05PM ET,LAD,5.22
3B/OF,Rob Segedin (10765648),Rob Segedin,10765648,3B/OF,2900,LAD@PIT 06/06/2018 07:05PM ET,LAD,0
SS,Max Moroff (10765659),Max Moroff,10765659,SS,2900,LAD@PIT 06/06/2018 07:05PM ET,PIT,3.88
C,Grayson Greiner (10765708),Grayson Greiner,10765708,C,2800,DET@BOS 06/06/2018 07:10PM ET,DET,5.38
OF,Randal Grichuk (10765702),Randal Grichuk,10765702,OF,2800,NYY@TOR 06/06/2018 07:07PM ET,TOR,3.90
SS,Gio Urshela (10765716),Gio Urshela,10765716,SS,2800,NYY@TOR 06/06/2018 07:07PM ET,TOR,3.08
2B/SS,Lourdes Gurriel Jr. (10765719),Lourdes Gurriel Jr.,10765719,2B/SS,2800,NYY@TOR 06/06/2018 07:07PM ET,TOR,4.55
OF,Carlos Tocci (10765703),Carlos Tocci,10765703,OF,2800,OAK@TEX 06/06/2018 08:05PM ET,TEX,0.77
2B/SS,Hanser Alberto (10765706),Hanser Alberto,10765706,2B/SS,2800,OAK@TEX 06/06/2018 08:05PM ET,TEX,1.67
OF,Ryan Rua (10765724),Ryan Rua,10765724,OF,2800,OAK@TEX 06/06/2018 08:05PM ET,TEX,3.41
OF,Jacob Hannemann (10765701),Jacob Hannemann,10765701,OF,2800,PHI@CHC 06/06/2018 08:05PM ET,CHC,0
2B,Daniel Castro (10765687),Daniel Castro,10765687,2B,2800,COL@CIN 06/06/2018 07:10PM ET,COL,2.83
2B/3B,Alex Blandino (10765711),Alex Blandino,10765711,2B/3B,2800,COL@CIN 06/06/2018 07:10PM ET,CIN,3.12
2B,Gordon Beckham (10765726),Gordon Beckham,10765726,2B,2800,SEA@HOU 06/06/2018 08:10PM ET,SEA,3.17
2B,Kolten Wong (10765709),Kolten Wong,10765709,2B,2800,MIA@STL 06/06/2018 08:15PM ET,STL,3.96
2B/SS,JT Riddle (10765713),JT Riddle,10765713,2B/SS,2800,MIA@STL 06/06/2018 08:15PM ET,MIA,5
C,Tomas Telis (10765717),Tomas Telis,10765717,C,2800,MIA@STL 06/06/2018 08:15PM ET,MIA,1.30
C,Chad Wallach (10765718),Chad Wallach,10765718,C,2800,MIA@STL 06/06/2018 08:15PM ET,MIA,2.67
3B,Martin Prado (10765721),Martin Prado,10765721,3B,2800,MIA@STL 06/06/2018 08:15PM ET,MIA,3.92
OF,Lewis Brinson (10765725),Lewis Brinson,10765725,OF,2800,MIA@STL 06/06/2018 08:15PM ET,MIA,4.17
1B,Hunter Dozier (10765686),Hunter Dozier,10765686,1B,2800,KC@LAA 06/06/2018 10:07PM ET,KC,5.1
2B/3B,Ramon Torres (10765689),Ramon Torres,10765689,2B/3B,2800,KC@LAA 06/06/2018 10:07PM ET,KC,5.2
OF,Byron Buxton (10765688),Byron Buxton,10765688,OF,2800,CWS@MIN 06/06/2018 08:10PM ET,MIN,3.75
OF,Charlie Tilson (10765691),Charlie Tilson,10765691,OF,2800,CWS@MIN 06/06/2018 08:10PM ET,CWS,3.64
OF,Adam Engel (10765692),Adam Engel,10765692,OF,2800,CWS@MIN 06/06/2018 08:10PM ET,CWS,5.13
OF,Jacob May (10765693),Jacob May,10765693,OF,2800,CWS@MIN 06/06/2018 08:10PM ET,CWS,0
OF,Willy Garcia (10765694),Willy Garcia,10765694,OF,2800,CWS@MIN 06/06/2018 08:10PM ET,CWS,0
OF,Avisail Garcia (10765695),Avisail Garcia,10765695,OF,2800,CWS@MIN 06/06/2018 08:10PM ET,CWS,4.78
C,Kevan Smith (10765696),Kevan Smith,10765696,C,2800,CWS@MIN 06/06/2018 08:10PM ET,CWS,7
2B/SS,Gregorio Petit (10765697),Gregorio Petit,10765697,2B/SS,2800,CWS@MIN 06/06/2018 08:10PM ET,MIN,4.46
C,Alfredo Gonzalez (10765699),Alfredo Gonzalez,10765699,C,2800,CWS@MIN 06/06/2018 08:10PM ET,CWS,1.67
OF,Jake Cave (10765700),Jake Cave,10765700,OF,2800,CWS@MIN 06/06/2018 08:10PM ET,MIN,7.67
2B/3B,Logan Forsythe (10765704),Logan Forsythe,10765704,2B/3B,2800,LAD@PIT 06/06/2018 07:05PM ET,LAD,4.69
SS,Jordy Mercer (10765710),Jordy Mercer,10765710,SS,2800,LAD@PIT 06/06/2018 07:05PM ET,PIT,5.77
C,Jacob Stallings (10765715),Jacob Stallings,10765715,C,2800,LAD@PIT 06/06/2018 07:05PM ET,PIT,0
OF/SS,Sean Rodriguez (10765722),Sean Rodriguez,10765722,SS/OF,2800,LAD@PIT 06/06/2018 07:05PM ET,PIT,3.58
OF,Mikie Mahtook (10765735),Mikie Mahtook,10765735,OF,2700,DET@BOS 06/06/2018 07:10PM ET,DET,4
OF,Chad Huffman (10765736),Chad Huffman,10765736,OF,2700,DET@BOS 06/06/2018 07:10PM ET,DET,0
2B,Dixon Machado (10765756),Dixon Machado,10765756,2B,2700,DET@BOS 06/06/2018 07:10PM ET,DET,4.71
C/OF,Blake Swihart (10765759),Blake Swihart,10765759,C/OF,2700,DET@BOS 06/06/2018 07:10PM ET,BOS,2.21
2B/3B,Pete Kozma (10765765),Pete Kozma,10765765,2B/3B,2700,DET@BOS 06/06/2018 07:10PM ET,DET,3.6
SS,Richard Urena (10765743),Richard Urena,10765743,SS,2700,NYY@TOR 06/06/2018 07:07PM ET,TOR,2.91
2B/SS,Danny Espinosa (10765748),Danny Espinosa,10765748,2B/SS,2700,NYY@TOR 06/06/2018 07:07PM ET,TOR,0
C,Russell Martin (10765752),Russell Martin,10765752,C,2700,NYY@TOR 06/06/2018 07:07PM ET,TOR,5.56
2B/3B,Ronald Torreyes (10765754),Ronald Torreyes,10765754,2B/3B,2700,NYY@TOR 06/06/2018 07:07PM ET,NYY,4.68
2B/OF,Drew Robinson (10765738),Drew Robinson,10765738,2B/OF,2700,OAK@TEX 06/06/2018 08:05PM ET,TEX,4.08
2B,Jemile Weeks (10765750),Jemile Weeks,10765750,2B,2700,PHI@CHC 06/06/2018 08:05PM ET,CHC,0
C,Andrew Knapp (10765757),Andrew Knapp,10765757,C,2700,PHI@CHC 06/06/2018 08:05PM ET,PHI,3.04
3B/SS,Mitch Walding (10765763),Mitch Walding,10765763,3B/SS,2700,PHI@CHC 06/06/2018 08:05PM ET,PHI,0
C,Tony Wolters (10765744),Tony Wolters,10765744,C,2700,COL@CIN 06/06/2018 07:10PM ET,COL,4.10
1B,Tyler White (10765733),Tyler White,10765733,1B,2700,SEA@HOU 06/06/2018 08:10PM ET,HOU,0
OF,Kyle Lewis (10765734),Kyle Lewis,10765734,OF,2700,SEA@HOU 06/06/2018 08:10PM ET,SEA,0
1B,Daniel Vogelbach (10765741),Daniel Vogelbach,10765741,1B,2700,SEA@HOU 06/06/2018 08:10PM ET,SEA,4.54
OF,Jake Marisnick (10765758),Jake Marisnick,10765758,OF,2700,SEA@HOU 06/06/2018 08:10PM ET,HOU,3.5
OF,Magneuris Sierra (10765737),Magneuris Sierra,10765737,OF,2700,MIA@STL 06/06/2018 08:15PM ET,MIA,0
OF,Braxton Lee (10765751),Braxton Lee,10765751,OF,2700,MIA@STL 06/06/2018 08:15PM ET,MIA,1.88
C,Bryan Holaday (10765762),Bryan Holaday,10765762,C,2700,MIA@STL 06/06/2018 08:15PM ET,MIA,2.86
OF,Tyler Collins (10765740),Tyler Collins,10765740,OF,2700,KC@LAA 06/06/2018 10:07PM ET,KC,0
1B/3B,Cheslor Cuthbert (10765745),Cheslor Cuthbert,10765745,1B/3B,2700,KC@LAA 06/06/2018 10:07PM ET,KC,4.9
SS,Alcides Escobar (10765747),Alcides Escobar,10765747,SS,2700,KC@LAA 06/06/2018 10:07PM ET,KC,5.36
OF,Bubba Starling (10765753),Bubba Starling,10765753,OF,2700,KC@LAA 06/06/2018 10:07PM ET,KC,0
OF,Chris Young (10765761),Chris Young,10765761,OF,2700,KC@LAA 06/06/2018 10:07PM ET,LAA,2.69
1B,Brock Stassi (10765727),Brock Stassi,10765727,1B,2700,CWS@MIN 06/06/2018 08:10PM ET,MIN,0
C,Dustin Garneau (10765728),Dustin Garneau,10765728,C,2700,CWS@MIN 06/06/2018 08:10PM ET,CWS,0
C,Mitch Garver (10765729),Mitch Garver,10765729,C,2700,CWS@MIN 06/06/2018 08:10PM ET,MIN,4.42
2B,Taylor Featherston (10765730),Taylor Featherston,10765730,2B,2700,CWS@MIN 06/06/2018 08:10PM ET,MIN,0
OF,Trayce Thompson (10765731),Trayce Thompson,10765731,OF,2700,CWS@MIN 06/06/2018 08:10PM ET,CWS,3.26
C,Bobby Wilson (10765732),Bobby Wilson,10765732,C,2700,CWS@MIN 06/06/2018 08:10PM ET,MIN,4.14
OF,Franklin Gutierrez (10765742),Franklin Gutierrez,10765742,OF,2700,LAD@PIT 06/06/2018 07:05PM ET,LAD,0
1B,Sam Travis (10765770),Sam Travis,10765770,1B,2600,DET@BOS 06/06/2018 07:10PM ET,BOS,7
2B/SS,Tzu-Wei Lin (10765775),Tzu-Wei Lin,10765775,2B/SS,2600,DET@BOS 06/06/2018 07:10PM ET,BOS,2.71
3B/OF,Steve Selsky (10765777),Steve Selsky,10765777,3B/OF,2600,DET@BOS 06/06/2018 07:10PM ET,BOS,0
C,Christian Vazquez (10765782),Christian Vazquez,10765782,C,2600,DET@BOS 06/06/2018 07:10PM ET,BOS,3.88
OF,Michael Saunders (10765774),Michael Saunders,10765774,OF,2600,NYY@TOR 06/06/2018 07:07PM ET,TOR,0
2B/SS,Gift Ngoepe (10765783),Gift Ngoepe,10765783,2B/SS,2600,NYY@TOR 06/06/2018 07:07PM ET,TOR,0.69
C,Sean Murphy (10765773),Sean Murphy,10765773,C,2600,OAK@TEX 06/06/2018 08:05PM ET,OAK,0
2B/SS,Darwin Barney (10765790),Darwin Barney,10765790,2B/SS,2600,OAK@TEX 06/06/2018 08:05PM ET,TEX,0
C,Carlos Perez (10765796),Carlos Perez,10765796,C,2600,OAK@TEX 06/06/2018 08:05PM ET,TEX,2.37
OF,Danny Ortiz (10765769),Danny Ortiz,10765769,OF,2600,PHI@CHC 06/06/2018 08:05PM ET,PHI,0
1B/OF,Efren Navarro (10765780),Efren Navarro,10765780,1B/OF,2600,PHI@CHC 06/06/2018 08:05PM ET,CHC,0.75
C,Chris Gimenez (10765789),Chris Gimenez,10765789,C,2600,PHI@CHC 06/06/2018 08:05PM ET,CHC,2
2B/3B,Tommy La Stella (10765792),Tommy La Stella,10765792,2B/3B,2600,PHI@CHC 06/06/2018 08:05PM ET,CHC,2.92
1B/OF,Stephen Cardullo (10765771),Stephen Cardullo,10765771,1B/OF,2600,COL@CIN 06/06/2018 07:10PM ET,COL,0
C,Curt Casali (10765779),Curt Casali,10765779,C,2600,COL@CIN 06/06/2018 07:10PM ET,CIN,13
C/OF,Chris Herrmann (10765786),Chris Herrmann,10765786,C/OF,2600,SEA@HOU 06/06/2018 08:10PM ET,SEA,3
C,David Freitas (10765788),David Freitas,10765788,C,2600,SEA@HOU 06/06/2018 08:10PM ET,SEA,3.4
OF/SS,Andrew Romine (10765797),Andrew Romine,10765797,SS/OF,2600,SEA@HOU 06/06/2018 08:10PM ET,SEA,1.5
2B/SS,Yadiel Rivera (10765794),Yadiel Rivera,10765794,2B/SS,2600,MIA@STL 06/06/2018 08:15PM ET,MIA,1.4
C,Steven Baron (10765799),Steven Baron,10765799,C,2600,MIA@STL 06/06/2018 08:15PM ET,STL,1.5
2B,Ryan Goins (10765785),Ryan Goins,10765785,2B,2600,KC@LAA 06/06/2018 10:07PM ET,KC,3.86
C,Jason Castro (10765768),Jason Castro,10765768,C,2600,CWS@MIN 06/06/2018 08:10PM ET,MIN,3.90
OF,Andrew Toles (10765767),Andrew Toles,10765767,OF,2600,LAD@PIT 06/06/2018 07:05PM ET,LAD,0
2B/3B,Marco Hernandez (10765804),Marco Hernandez,10765804,2B/3B,2500,DET@BOS 06/06/2018 07:10PM ET,BOS,0
C,Mike Ohlman (10765806),Mike Ohlman,10765806,C,2500,DET@BOS 06/06/2018 07:10PM ET,BOS,0
OF,Shane Robinson (10765818),Shane Robinson,10765818,OF,2500,NYY@TOR 06/06/2018 07:07PM ET,NYY,6
C,Juan Centeno (10765807),Juan Centeno,10765807,C,2500,OAK@TEX 06/06/2018 08:05PM ET,TEX,4.1
C,Bruce Maxwell (10765815),Bruce Maxwell,10765815,C,2500,OAK@TEX 06/06/2018 08:05PM ET,OAK,3.94
2B/SS,Cliff Pennington (10765819),Cliff Pennington,10765819,2B/SS,2500,OAK@TEX 06/06/2018 08:05PM ET,TEX,1.5
1B/C,Taylor Davis (10765811),Taylor Davis,10765811,C/1B,2500,PHI@CHC 06/06/2018 08:05PM ET,CHC,0
OF/SS,Mike Freeman (10765813),Mike Freeman,10765813,SS/OF,2500,PHI@CHC 06/06/2018 08:05PM ET,CHC,0
SS,Aramis Ademan (10765825),Aramis Ademan,10765825,SS,2500,PHI@CHC 06/06/2018 08:05PM ET,CHC,0
3B,Colton Welker (10765826),Colton Welker,10765826,3B,2500,COL@CIN 06/06/2018 07:10PM ET,COL,0
SS,Zach Vincej (10765809),Zach Vincej,10765809,SS,2500,SEA@HOU 06/06/2018 08:10PM ET,SEA,0
1B,Evan White (10765823),Evan White,10765823,1B,2500,SEA@HOU 06/06/2018 08:10PM ET,SEA,0
C,Carson Kelly (10765810),Carson Kelly,10765810,C,2500,MIA@STL 06/06/2018 08:15PM ET,STL,1.17
2B/SS,Cristhian Adames (10765816),Cristhian Adames,10765816,2B/SS,2500,MIA@STL 06/06/2018 08:15PM ET,MIA,0
OF,JB Shuck (10765822),JB Shuck,10765822,OF,2500,MIA@STL 06/06/2018 08:15PM ET,MIA,2.30
OF,Jahmai Jones (10765800),Jahmai Jones,10765800,OF,2500,KC@LAA 06/06/2018 10:07PM ET,LAA,0
C,Drew Butera (10765821),Drew Butera,10765821,C,2500,KC@LAA 06/06/2018 10:07PM ET,KC,3.71
OF,Seuly Matias (10765824),Seuly Matias,10765824,OF,2500,KC@LAA 06/06/2018 10:07PM ET,KC,0
SS,Ehire Adrianza (10765801),Ehire Adrianza,10765801,SS,2500,CWS@MIN 06/06/2018 08:10PM ET,MIN,4.17
OF,Luis Robert (10765802),Luis Robert,10765802,OF,2500,CWS@MIN 06/06/2018 08:10PM ET,CWS,0
SS,Corey Seager (10765803),Corey Seager,10765803,SS,2500,LAD@PIT 06/06/2018 07:05PM ET,LAD,7.23
3B,Kyle Farmer (10765808),Kyle Farmer,10765808,3B,2500,LAD@PIT 06/06/2018 07:05PM ET,LAD,2.53
OF,Rusney Castillo (10765828),Rusney Castillo,10765828,OF,2400,DET@BOS 06/06/2018 07:10PM ET,BOS,0
3B,Michael Chavis (10765829),Michael Chavis,10765829,3B,2400,DET@BOS 06/06/2018 07:10PM ET,BOS,0
OF/SS,Alexi Amarista (10765841),Alexi Amarista,10765841,SS/OF,2400,DET@BOS 06/06/2018 07:10PM ET,DET,0
3B/OF,Patrick Kivlehan (10765832),Patrick Kivlehan,10765832,3B/OF,2400,COL@CIN 06/06/2018 07:10PM ET,CIN,0
C,Stuart Turner (10765835),Stuart Turner,10765835,C,2400,COL@CIN 06/06/2018 07:10PM ET,CIN,0
OF,Ichiro Suzuki (10765840),Ichiro Suzuki,10765840,OF,2400,SEA@HOU 06/06/2018 08:10PM ET,SEA,2.87
SS,Alex Mejia (10765834),Alex Mejia,10765834,SS,2400,MIA@STL 06/06/2018 08:15PM ET,STL,0
2B/SS,Grant Green (10765836),Grant Green,10765836,2B/SS,2400,MIA@STL 06/06/2018 08:15PM ET,MIA,0
OF,Paulo Orlando (10765838),Paulo Orlando,10765838,OF,2400,KC@LAA 06/06/2018 10:07PM ET,KC,3.77
C,Welington Castillo (10765827),Welington Castillo,10765827,C,2400,CWS@MIN 06/06/2018 08:10PM ET,CWS,6.46
1B/C,Ryan Lavarnway (10765830),Ryan Lavarnway,10765830,C/1B,2400,LAD@PIT 06/06/2018 07:05PM ET,PIT,0
OF,Daniel Nava (10765839),Daniel Nava,10765839,OF,2400,LAD@PIT 06/06/2018 07:05PM ET,PIT,0
C,Kyle Higashioka (10765847),Kyle Higashioka,10765847,C,2300,NYY@TOR 06/06/2018 07:07PM ET,NYY,0
2B/OF,Steve Lombardozzi (10765848),Steve Lombardozzi,10765848,2B/OF,2300,OAK@TEX 06/06/2018 08:05PM ET,OAK,0
OF,Jake Smolinski (10765852),Jake Smolinski,10765852,OF,2300,OAK@TEX 06/06/2018 08:05PM ET,OAK,2.25
C,Tony Cruz (10765850),Tony Cruz,10765850,C,2300,COL@CIN 06/06/2018 07:10PM ET,CIN,3.22
OF,Kyle Tucker (10765843),Kyle Tucker,10765843,OF,2300,SEA@HOU 06/06/2018 08:10PM ET,HOU,0
1B,AJ Reed (10765844),AJ Reed,10765844,1B,2300,SEA@HOU 06/06/2018 08:10PM ET,HOU,0
OF,Yordan Alvarez (10765845),Yordan Alvarez,10765845,OF,2300,SEA@HOU 06/06/2018 08:10PM ET,HOU,0
1B,Mike Ford (10765846),Mike Ford,10765846,1B,2300,SEA@HOU 06/06/2018 08:10PM ET,SEA,0
C,Cam Gallagher (10765851),Cam Gallagher,10765851,C,2300,KC@LAA 06/06/2018 10:07PM ET,KC,3.62
2B,Max Schrock (10765853),Max Schrock,10765853,2B,2200,OAK@TEX 06/06/2018 08:05PM ET,OAK,0
3B,Will Middlebrooks (10765854),Will Middlebrooks,10765854,3B,2200,PHI@CHC 06/06/2018 08:05PM ET,PHI,0
2B/3B,Adam Rosales (10765857),Adam Rosales,10765857,2B/3B,2200,PHI@CHC 06/06/2018 08:05PM ET,PHI,0
OF,Kirk Nieuwenhuis (10765855),Kirk Nieuwenhuis,10765855,OF,2200,SEA@HOU 06/06/2018 08:10PM ET,SEA,0
C,Tuffy Gosewisch (10765856),Tuffy Gosewisch,10765856,C,2200,SEA@HOU 06/06/2018 08:10PM ET,SEA,0
1B/OF,Scott Van Slyke (10765859),Scott Van Slyke,10765859,1B/OF,2200,MIA@STL 06/06/2018 08:15PM ET,MIA,0
C,Jarrod Saltalamacchia (10765864),Jarrod Saltalamacchia,10765864,C,2100,DET@BOS 06/06/2018 07:10PM ET,DET,0
SS,Logan Warmoth (10765871),Logan Warmoth,10765871,SS,2100,NYY@TOR 06/06/2018 07:07PM ET,TOR,0
OF,Cameron Perkins (10765866),Cameron Perkins,10765866,OF,2100,SEA@HOU 06/06/2018 08:10PM ET,SEA,0
1B,Chris Carter (10765863),Chris Carter,10765863,1B,2100,KC@LAA 06/06/2018 10:07PM ET,LAA,0
OF,Eric Young Jr. (10765867),Eric Young Jr.,10765867,OF,2100,KC@LAA 06/06/2018 10:07PM ET,LAA,0
C,Juan Graterol (10765868),Juan Graterol,10765868,C,2100,KC@LAA 06/06/2018 10:07PM ET,LAA,3
1B,Nick Pratto (10765869),Nick Pratto,10765869,1B,2100,KC@LAA 06/06/2018 10:07PM ET,KC,0
OF,Khalil Lee (10765870),Khalil Lee,10765870,OF,2100,KC@LAA 06/06/2018 10:07PM ET,KC,0
OF,Chris Heisey (10765861),Chris Heisey,10765861,OF,2100,CWS@MIN 06/06/2018 08:10PM ET,MIN,0
OF,Blake Rutherford (10765862),Blake Rutherford,10765862,OF,2100,CWS@MIN 06/06/2018 08:10PM ET,CWS,0
C,Rocky Gale (10765865),Rocky Gale,10765865,C,2100,LAD@PIT 06/06/2018 07:05PM ET,LAD,0
OF,Leody Taveras (10765877),Leody Taveras,10765877,OF,2000,OAK@TEX 06/06/2018 08:05PM ET,TEX,0
OF,Lazaro Armenteros (10765883),Lazaro Armenteros,10765883,OF,2000,OAK@TEX 06/06/2018 08:05PM ET,OAK,0
OF,Austin Beck (10765884),Austin Beck,10765884,OF,2000,OAK@TEX 06/06/2018 08:05PM ET,OAK,0
OF,Bubba Thompson (10765887),Bubba Thompson,10765887,OF,2000,OAK@TEX 06/06/2018 08:05PM ET,TEX,0
2B/SS,Jesmuel Valentin (10765875),Jesmuel Valentin,10765875,2B/SS,2000,PHI@CHC 06/06/2018 08:05PM ET,PHI,0.43
OF,Mickey Moniak (10765880),Mickey Moniak,10765880,OF,2000,PHI@CHC 06/06/2018 08:05PM ET,PHI,0
OF,Adam Haseley (10765881),Adam Haseley,10765881,OF,2000,PHI@CHC 06/06/2018 08:05PM ET,PHI,0
3B,Joe Rizzo (10765878),Joe Rizzo,10765878,3B,2000,SEA@HOU 06/06/2018 08:10PM ET,SEA,0
SS,Delvin Perez (10765879),Delvin Perez,10765879,SS,2000,MIA@STL 06/06/2018 08:15PM ET,STL,0
OF,Jo Adell (10765885),Jo Adell,10765885,OF,2000,KC@LAA 06/06/2018 10:07PM ET,LAA,0
OF,Brandon Marsh (10765886),Brandon Marsh,10765886,OF,2000,KC@LAA 06/06/2018 10:07PM ET,LAA,0
OF,Alex Kirilloff (10765872),Alex Kirilloff,10765872,OF,2000,CWS@MIN 06/06/2018 08:10PM ET,MIN,0
SS,Wander Javier (10765873),Wander Javier,10765873,SS,2000,CWS@MIN 06/06/2018 08:10PM ET,MIN,0
SS,Royce Lewis (10765874),Royce Lewis,10765874,SS,2000,CWS@MIN 06/06/2018 08:10PM ET,MIN,0
C,Keibert Ruiz (10765882),Keibert Ruiz,10765882,C,2000,LAD@PIT 06/06/2018 07:05PM ET,LAD,0
