Player,Team,Position,BatOrder,Opp,VAL,Trend,OWNPerc,MoneyLine,OverUnder,TeamTotalPts,Weather
Aaron Nola (R) ,PHI ,P (SP) ,- ,@CHC (L) ,1.67,-2.79,24.52,115,7.5,4.5,W 8 MPH R-L 
Lance McCullers (R) ,HOU ,P (SP) ,- ,SEA (L) ,1.74,-0.46,24.16,-200,8.5,3.5,In Dome 
Sonny Gray (R) ,NYY ,P (SP) ,- ,@TOR (R) ,2.48,-0.93,3.65,-150,9.5,4,In Dome 
Shohei Ohtani (R) ,LAA ,P (SP) ,- ,KC (R) ,1.56,-0.51,33.63,-255,8,3.25,W 4 MPH Out 
Jon Gray (R) ,COL ,P (SP) ,- ,@CIN (R) ,2.28,-1.66,15.04,-135,9,3.75,W 3 MPH L-R 
Jake Odorizzi (R) ,MIN ,P (SP) ,- ,CWS (L) ,2.28,-0.17,4.67,-180,9.5,4,W 8 MPH L-R 
Eduardo Rodriguez (L) ,BOS ,P (SP) ,- ,DET (L) ,1.75,0.46,26.39,-225,9,3.75,W 6 MPH R-L 
Jack Flaherty (R) ,STL ,P (SP) ,- ,MIA (L) ,1.59,-0.11,16.29,-220,8.5,3.5,W 6 MPH R-L 
Daniel Mengden (R) ,OAK ,P (SP) ,- ,@TEX (R) ,1.82,-2.5,17.49,-125,10.5,4.5,W 12 MPH In 
Trevor Williams (R) ,PIT ,P (SP) ,- ,LAD (L) ,2,-4.07,4.32,100,8.5,5,W 2 MPH Out 
Ian Kennedy (R) ,KC ,P (SP) ,- ,@LAA (R) ,2.93,-3.27,4.65,205,8,4.75,W 4 MPH Out 
Blaine Hardy (L) ,DET ,P (SP) ,- ,@BOS (L) ,2.1,-4.31,1.63,185,9,5.25,W 6 MPH R-L 
Sal Romano (R) ,CIN ,P (SP) ,- ,COL (R) ,3.01,-7.03,0.25,115,9,5.25,W 3 MPH L-R 
Wade LeBlanc (L) ,SEA ,P (SP) ,- ,@HOU (R) ,1.9,-4.32,3.61,170,8.5,5,In Dome 
Aaron Judge (R) ,NYY ,OF ,2,@TOR (R) ,2.19,0,21.78,-150,9.5,5.5,In Dome 
Giancarlo Stanton (R) ,NYY ,OF ,4,@TOR (R) ,2.27,0.94,11.71,-150,9.5,5.5,In Dome 
Brian Dozier (R) ,MIN ,2B ,1,CWS (L) ,2.67,1.19,7.18,-180,9.5,5.5,W 8 MPH L-R 
Mike Trout (R) ,LAA ,OF ,? ,KC (R) ,1.84,0.49,22.59,-255,8,4.75,W 4 MPH Out 
Greg Bird (L) ,NYY ,1B ,3,@TOR (R) ,2.66,0,0.82,-150,9.5,5.5,In Dome 
Gary Sanchez (R) ,NYY ,C ,5,@TOR (R) ,2.54,0,13.93,-150,9.5,5.5,In Dome 
Didi Gregorius (L) ,NYY ,SS ,6,@TOR (R) ,2.6,0,23.87,-150,9.5,5.5,In Dome 
Tommy Pham (R) ,STL ,OF ,2,MIA (L) ,2.31,0.03,4.06,-220,8.5,5,W 6 MPH R-L 
Caleb Ferguson (L) ,LAD ,P (SP) ,- ,@PIT (R) ,1.47,-0.03,0,-120,8.5,3.5,W 2 MPH Out 
Charlie Blackmon (L) ,COL ,OF ,2,@CIN (R) ,2.01,1.26,31.35,-135,9,5.25,W 3 MPH L-R 
Matt Olson (L) ,OAK ,1B ,5,@TEX (R) ,2.35,1.05,4.73,-125,10.5,6,W 12 MPH In 
Jose Martinez (R) ,STL ,1B ,3,MIA (L) ,2.76,0.15,1.55,-220,8.5,5,W 6 MPH R-L 
Khris Davis (R) ,OAK ,OF ,4,@TEX (R) ,2.07,0.89,19,-125,10.5,6,W 12 MPH In 
J.D. Martinez (R) ,BOS ,OF ,3,DET (L) ,2.03,1.08,11.37,-225,9,5.25,W 6 MPH R-L 
Brett Gardner (L) ,NYY ,OF ,1,@TOR (R) ,2.34,1.36,8.98,-150,9.5,5.5,In Dome 
Jose Altuve (R) ,HOU ,2B ,3,SEA (L) ,1.95,0.52,4.13,-200,8.5,5,In Dome 
Starling Marte (R) ,PIT ,OF ,3,LAD (L) ,2.34,-0.04,0.48,100,8.5,3.5,W 2 MPH Out 
George Springer (R) ,HOU ,OF ,1,SEA (L) ,1.94,0.7,3.58,-200,8.5,5,In Dome 
Marcell Ozuna (R) ,STL ,OF ,4,MIA (L) ,2.44,0.59,3.69,-220,8.5,5,W 6 MPH R-L 
Joey Votto (L) ,CIN ,1B ,3,COL (R) ,2.1,0.41,1.15,115,9,3.75,W 3 MPH L-R 
Dustin Fowler (L) ,OAK ,OF ,1,@TEX (R) ,2.15,0.82,15.65,-125,10.5,6,W 12 MPH In 
Matt Chapman (R) ,OAK ,3B ,6,@TEX (R) ,2.3,0.26,10.9,-125,10.5,6,W 12 MPH In 
Carlos Correa (R) ,HOU ,SS ,4,SEA (L) ,1.83,0.17,3.76,-200,8.5,5,In Dome 
Nick Castellanos (R) ,DET ,OF ,2,@BOS (L) ,1.99,0.67,10.48,185,9,3.75,W 6 MPH R-L 
Jedd Gyorko (R) ,STL ,3B ,6,MIA (L) ,2.4,-0.68,2.05,-220,8.5,5,W 6 MPH R-L 
Alex Bregman (R) ,HOU ,3B ,2,SEA (L) ,2.15,0.38,2.72,-200,8.5,5,In Dome 
Justin Upton (R) ,LAA ,OF ,? ,KC (R) ,2.14,0.49,3.64,-255,8,4.75,W 4 MPH Out 
Yoan Moncada (B) ,CWS ,2B ,1,@MIN (R) ,2.18,-0.18,5.18,150,9.5,4,W 8 MPH L-R 
Chris Taylor (R) ,LAD ,OF (OF/SS) ,1,@PIT (R) ,2.02,0.53,6.65,-120,8.5,5,W 2 MPH Out 
Marcus Semien (R) ,OAK ,SS ,2,@TEX (R) ,2.23,-0.03,13.93,-125,10.5,6,W 12 MPH In 
Austin Meadows (L) ,PIT ,OF ,2,LAD (L) ,1.84,0.39,4.89,100,8.5,3.5,W 2 MPH Out 
Josh Harrison (R) ,PIT ,2B ,1,LAD (L) ,2.32,-0.29,0.19,100,8.5,3.5,W 2 MPH Out 
Carlos Gonzalez (L) ,COL ,OF ,4,@CIN (R) ,2.13,0.8,11.19,-135,9,5.25,W 3 MPH L-R 
Matt Carpenter (L) ,STL ,2B (2B/3B) ,1,MIA (L) ,2.12,0.41,1.8,-220,8.5,5,W 6 MPH R-L 
Zack Cozart (R) ,LAA ,2B (2B/3B) ,? ,KC (R) ,2.56,-0.27,3.03,-255,8,4.75,W 4 MPH Out 
Eddie Rosario (L) ,MIN ,OF ,2,CWS (L) ,1.79,1.19,10.53,-180,9.5,5.5,W 8 MPH L-R 
Eduardo Escobar (B) ,MIN ,3B (3B/SS) ,3,CWS (L) ,1.98,1.14,6.4,-180,9.5,5.5,W 8 MPH L-R 
Jesse Winker (L) ,CIN ,OF ,1,COL (R) ,2.68,-0.31,0.67,115,9,3.75,W 3 MPH L-R 
Rafael Devers (L) ,BOS ,3B ,7,DET (L) ,2.43,-0.3,1.33,-225,9,5.25,W 6 MPH R-L 
Dee Gordon (L) ,SEA ,2B (2B/OF) ,1,@HOU (R) ,2.24,-0.17,2.67,170,8.5,3.5,In Dome 
Joey Gallo (L) ,TEX ,1B (1B/OF) ,5,OAK (R) ,2.03,0.16,0.13,105,10.5,4.5,W 12 MPH In 
Cody Bellinger (L) ,LAD ,1B (1B/OF) ,5,@PIT (R) ,2.08,-0.51,1.22,-120,8.5,5,W 2 MPH Out 
Eduardo Nunez (R) ,BOS ,2B (2B/SS) ,5,DET (L) ,2.52,0.51,2,-225,9,5.25,W 6 MPH R-L 
Mike Moustakas (L) ,KC ,3B ,? ,@LAA (R) ,2.05,-0.04,4.99,205,8,3.25,W 4 MPH Out 
Trevor Story (R) ,COL ,SS ,5,@CIN (R) ,1.9,0.66,23.74,-135,9,5.25,W 3 MPH L-R 
Justin Turner (R) ,LAD ,3B ,3,@PIT (R) ,2.1,-0.37,5.87,-120,8.5,5,W 2 MPH Out 
Jed Lowrie (B) ,OAK ,2B ,3,@TEX (R) ,1.77,0.48,20.09,-125,10.5,6,W 12 MPH In 
Gerardo Parra (L) ,COL ,OF ,6,@CIN (R) ,2.4,0.01,8.86,-135,9,5.25,W 3 MPH L-R 
Scooter Gennett (L) ,CIN ,2B ,4,COL (R) ,1.57,0.51,2.42,115,9,3.75,W 3 MPH L-R 
Mark Canha (R) ,OAK ,OF ,8,@TEX (R) ,2.17,0.08,5.56,-125,10.5,6,W 12 MPH In 
Jonathan Lucroy (R) ,OAK ,C ,7,@TEX (R) ,2.68,0.29,20.23,-125,10.5,6,W 12 MPH In 
Andrew Benintendi (L) ,BOS ,OF ,1,DET (L) ,1.41,1.19,3.84,-225,9,5.25,W 6 MPH R-L 
Niko Goodrum (B) ,DET ,1B (1B/OF) ,1,@BOS (L) ,2.04,0.49,0.77,185,9,3.75,W 6 MPH R-L 
Gleyber Torres (R) ,NYY ,2B ,9,@TOR (R) ,1.65,0.23,12.43,-150,9.5,5.5,In Dome 
Sean Rodriguez (R) ,PIT ,OF (OF/SS) ,8,LAD (L) ,2.76,-1.04,0.02,100,8.5,3.5,W 2 MPH Out 
Kris Bryant (R) ,CHC ,3B ,3,PHI (R) ,1.61,0.41,1.37,-135,7.5,4.5,W 8 MPH R-L 
Miguel Andujar (R) ,NYY ,3B ,7,@TOR (R) ,1.98,0.87,14.29,-150,9.5,5.5,In Dome 
Mitch Haniger (R) ,SEA ,OF ,3,@HOU (R) ,1.97,-0.25,3.53,170,8.5,3.5,In Dome 
Scott Schebler (L) ,CIN ,OF ,6,COL (R) ,2.13,0.24,0.96,115,9,3.75,W 3 MPH L-R 
Curtis Granderson (L) ,TOR ,OF ,1,NYY (R) ,2.18,-0.34,0.76,130,9.5,4,In Dome 
Ian Desmond (R) ,COL ,1B (1B/OF) ,7,@CIN (R) ,2.01,0.16,1.83,-135,9,5.25,W 3 MPH L-R 
Yasiel Puig (R) ,LAD ,OF ,6,@PIT (R) ,1.86,0.34,7,-120,8.5,5,W 2 MPH Out 
Anthony Rizzo (L) ,CHC ,1B ,4,PHI (R) ,1.69,0.7,0.31,-135,7.5,4.5,W 8 MPH R-L 
Ehire Adrianza (B) ,MIN ,SS ,8,CWS (L) ,3.04,0.06,2.5,-180,9.5,5.5,W 8 MPH L-R 
Whit Merrifield (R) ,KC ,2B ,? ,@LAA (R) ,1.76,0.22,3,205,8,3.25,W 4 MPH Out 
David Freese (R) ,PIT ,1B (1B/3B) ,6,LAD (L) ,2.6,-0.72,0.03,100,8.5,3.5,W 2 MPH Out 
Robbie Grossman (B) ,MIN ,OF ,6,CWS (L) ,2.51,0.34,3.37,-180,9.5,5.5,W 8 MPH L-R 
Billy Hamilton (B) ,CIN ,OF ,9,COL (R) ,2.49,-0.71,0.15,115,9,3.75,W 3 MPH L-R 
Justin Bour (L) ,MIA ,1B ,4,@STL (R) ,2.33,0.19,1.46,180,8.5,3.5,W 6 MPH R-L 
Corey Dickerson (L) ,PIT ,OF ,5,LAD (L) ,1.91,0.07,0.71,100,8.5,3.5,W 2 MPH Out 
Justin Smoak (B) ,TOR ,1B ,4,NYY (R) ,1.76,0.74,0.47,130,9.5,4,In Dome 
Luis Valbuena (L) ,LAA ,1B (1B/3B) ,? ,KC (R) ,2.24,0.08,0.13,-255,8,4.75,W 4 MPH Out 
Colin Moran (L) ,PIT ,3B ,7,LAD (L) ,2.3,0.28,0.3,100,8.5,3.5,W 2 MPH Out 
Mitch Garver (R) ,MIN ,C ,7,CWS (L) ,2.73,-0.03,1.19,-180,9.5,5.5,W 8 MPH L-R 
Francisco Cervelli (R) ,PIT ,C ,4,LAD (L) ,1.83,0.32,0.64,100,8.5,3.5,W 2 MPH Out 
Eugenio Suarez (R) ,CIN ,3B ,5,COL (R) ,1.43,0.19,2.4,115,9,3.75,W 3 MPH L-R 
Matt Davidson (R) ,CWS ,1B (1B/3B) ,4,@MIN (R) ,1.91,-0.3,2.26,150,9.5,4,W 8 MPH L-R 
Evan Gattis (R) ,HOU ,C ,7,SEA (L) ,2.01,-0.52,0.85,-200,8.5,5,In Dome 
Rougned Odor (L) ,TEX ,2B ,6,OAK (R) ,2.18,-0.35,0.11,105,10.5,4.5,W 12 MPH In 
Jon Jay (L) ,KC ,OF ,? ,@LAA (R) ,2.11,0.17,1.81,205,8,3.25,W 4 MPH Out 
Harrison Bader (R) ,STL ,OF ,7,MIA (L) ,1.74,0,1.48,-220,8.5,5,W 6 MPH R-L 
Javier Baez (R) ,CHC ,2B (2B/SS) ,7,PHI (R) ,1.48,-0.14,0.29,-135,7.5,4.5,W 8 MPH R-L 
Ian Kinsler (R) ,LAA ,2B ,? ,KC (R) ,2.03,-0.19,1.65,-255,8,4.75,W 4 MPH Out 
Aaron Altherr (R) ,PHI ,OF ,5,@CHC (L) ,2.45,-0.52,1.23,115,7.5,3,W 8 MPH R-L 
Sam Gaviglio (R) ,TOR ,P (SP) ,- ,NYY (R) ,1.54,-3.07,4.54,130,9.5,5.5,In Dome 
Kyle Schwarber (L) ,CHC ,OF ,6,PHI (R) ,1.68,0.61,0.86,-135,7.5,4.5,W 8 MPH R-L 
Yangervis Solarte (B) ,TOR ,2B (2B/3B) ,2,NYY (R) ,1.85,0.18,1.8,130,9.5,4,In Dome 
Jorge Soler (R) ,KC ,OF ,? ,@LAA (R) ,1.83,0.12,2.17,205,8,3.25,W 4 MPH Out 
Hunter Dozier (R) ,KC ,1B ,? ,@LAA (R) ,2.49,-0.21,0.29,205,8,3.25,W 4 MPH Out 
Salvador Perez (R) ,KC ,C ,? ,@LAA (R) ,1.78,-0.12,4.02,205,8,3.25,W 4 MPH Out 
Derek Dietrich (L) ,MIA ,OF ,2,@STL (R) ,2.04,0.67,1.6,180,8.5,3.5,W 6 MPH R-L 
Scott Kingery (R) ,PHI ,3B (3B/SS) ,3,@CHC (L) ,2.37,-0.23,0.66,115,7.5,3,W 8 MPH R-L 
Willson Contreras (R) ,CHC ,C ,5,PHI (R) ,1.85,0.14,0.65,-135,7.5,4.5,W 8 MPH R-L 
Josh Reddick (L) ,HOU ,OF ,6,SEA (L) ,1.96,-0.26,1.5,-200,8.5,5,In Dome 
Nelson Cruz (R) ,SEA ,OF ,4,@HOU (R) ,1.71,0.49,3.13,170,8.5,3.5,In Dome 
Yulieski Gurriel (R) ,HOU ,1B ,5,SEA (L) ,1.95,0.09,0.37,-200,8.5,5,In Dome 
Cesar Hernandez (B) ,PHI ,2B ,1,@CHC (L) ,1.62,0.31,2.66,115,7.5,3,W 8 MPH R-L 
Yolmer Sanchez (B) ,CWS ,3B ,2,@MIN (R) ,1.94,0,3.06,150,9.5,4,W 8 MPH L-R 
Austin Barnes (R) ,LAD ,2B (2B/C) ,8,@PIT (R) ,2.18,-0.56,3.25,-120,8.5,5,W 2 MPH Out 
Jose Peraza (R) ,CIN ,SS ,7,COL (R) ,1.99,-0.24,0.6,115,9,3.75,W 3 MPH L-R 
Matt Kemp (R) ,LAD ,OF ,4,@PIT (R) ,1.64,0.53,11.68,-120,8.5,5,W 2 MPH Out 
Carlos Santana (B) ,PHI ,1B ,4,@CHC (L) ,1.76,0.49,0.74,115,7.5,3,W 8 MPH R-L 
Tucker Barnhart (B) ,CIN ,C ,2,COL (R) ,2.15,-0.06,0.66,115,9,3.75,W 3 MPH L-R 
Starlin Castro (R) ,MIA ,2B ,1,@STL (R) ,1.95,0.4,1.65,180,8.5,3.5,W 6 MPH R-L 
Ben Zobrist (B) ,CHC ,2B (2B/OF) ,1,PHI (R) ,1.5,0.7,0.72,-135,7.5,4.5,W 8 MPH R-L 
Robinson Chirinos (R) ,TEX ,C ,7,OAK (R) ,2.19,0.13,0.25,105,10.5,4.5,W 12 MPH In 
Teoscar Hernandez (R) ,TOR ,OF ,3,NYY (R) ,1.64,0.39,2.02,130,9.5,4,In Dome 
Kendrys Morales (B) ,TOR ,1B ,5,NYY (R) ,1.91,-0.74,0.04,130,9.5,4,In Dome 
Jackie Bradley (L) ,BOS ,OF ,9,DET (L) ,2.17,0.21,0.39,-225,9,5.25,W 6 MPH R-L 
Chris Young (R) ,LAA ,OF ,? ,KC (R) ,2.39,-0.41,0.36,-255,8,4.75,W 4 MPH Out 
Austin Romine (R) ,NYY ,C ,8,@TOR (R) ,1.79,1.1,25.44,-150,9.5,5.5,In Dome 
J.T. Realmuto (R) ,MIA ,C ,3,@STL (R) ,1.74,0.07,6.7,180,8.5,3.5,W 6 MPH R-L 
Jason Heyward (L) ,CHC ,OF ,2,PHI (R) ,2,0.4,0.35,-135,7.5,4.5,W 8 MPH R-L 
Delino DeShields Jr. (R) ,TEX ,OF ,9,OAK (R) ,1.73,-0.48,0.12,105,10.5,4.5,W 12 MPH In 
Devon Travis (R) ,TOR ,2B ,8,NYY (R) ,2.06,-0.39,0.18,130,9.5,4,In Dome 
Leonys Martin (L) ,DET ,OF ,6,@BOS (L) ,1.48,0.07,2.36,185,9,3.75,W 6 MPH R-L 
Aledmys Diaz (R) ,TOR ,SS ,9,NYY (R) ,1.98,-0.2,1.58,130,9.5,4,In Dome 
Russell Martin (R) ,TOR ,C ,7,NYY (R) ,2.34,-0.28,1.18,130,9.5,4,In Dome 
Logan Forsythe (R) ,LAD ,2B (2B/3B) ,7,@PIT (R) ,2.24,-0.56,3.07,-120,8.5,5,W 2 MPH Out 
Odubel Herrera (L) ,PHI ,OF ,2,@CHC (L) ,1.65,0.07,3.77,115,7.5,3,W 8 MPH R-L 
Ronny Rodriguez (R) ,DET ,3B (3B/SS) ,9,@BOS (L) ,2.14,-0.87,0,185,9,3.75,W 6 MPH R-L 
Max Muncy (L) ,LAD ,1B (1B/3B) ,2,@PIT (R) ,1.44,0.42,1.57,-120,8.5,5,W 2 MPH Out 
Alex Gordon (L) ,KC ,OF ,? ,@LAA (R) ,2.06,-0.3,0.92,205,8,3.25,W 4 MPH Out 
Ryon Healy (R) ,SEA ,1B ,6,@HOU (R) ,1.76,-0.26,0.49,170,8.5,3.5,In Dome 
Jurickson Profar (B) ,TEX ,SS ,4,OAK (R) ,1.71,0.22,0.62,105,10.5,4.5,W 12 MPH In 
Kevan Smith (R) ,CWS ,C ,5,@MIN (R) ,2.19,-1.16,0.07,150,9.5,4,W 8 MPH L-R 
Kevin Pillar (R) ,TOR ,OF ,6,NYY (R) ,1.79,-0.37,1.83,130,9.5,4,In Dome 
Tony Wolters (L) ,COL ,C ,8,@CIN (R) ,2.24,-0.02,4.08,-135,9,5.25,W 3 MPH L-R 
Sam Travis (R) ,BOS ,1B ,6,DET (L) ,2.3,0.87,0.69,-225,9,5.25,W 6 MPH R-L 
JT Riddle (L) ,MIA ,2B (2B/SS) ,7,@STL (R) ,2.12,-0.08,0.37,180,8.5,3.5,W 6 MPH R-L 
Isiah Kiner-Falefa (R) ,TEX ,2B (2B/3B) ,2,OAK (R) ,1.9,-0.08,0.3,105,10.5,4.5,W 12 MPH In 
Adam Engel (R) ,CWS ,OF ,7,@MIN (R) ,2.1,-0.89,1.28,150,9.5,4,W 8 MPH L-R 
Brian Anderson (R) ,MIA ,3B (3B/OF) ,5,@STL (R) ,1.77,0.35,3.57,180,8.5,3.5,W 6 MPH R-L 
Charlie Tilson (L) ,CWS ,OF ,8,@MIN (R) ,2.08,-1.16,0.29,150,9.5,4,W 8 MPH L-R 
Albert Almora (R) ,CHC ,OF ,8,PHI (R) ,1.66,-0.1,0.26,-135,7.5,4.5,W 8 MPH R-L 
Nick Williams (L) ,PHI ,OF ,6,@CHC (L) ,1.86,0.02,1.74,115,7.5,3,W 8 MPH R-L 
Miguel Rojas (R) ,MIA ,SS ,6,@STL (R) ,1.98,-0.73,2.45,180,8.5,3.5,W 6 MPH R-L 
Ramon Torres (B) ,KC ,2B (2B/3B) ,? ,@LAA (R) ,2.02,-0.35,0.08,205,8,3.25,W 4 MPH Out 
Mike Zunino (R) ,SEA ,C ,9,@HOU (R) ,1.82,0.09,1.47,170,8.5,3.5,In Dome 
Alcides Escobar (R) ,KC ,SS ,? ,@LAA (R) ,2.06,-0.35,1.67,205,8,3.25,W 4 MPH Out 
Martin Maldonado (R) ,LAA ,C ,? ,KC (R) ,1.9,-0.21,0.54,-255,8,4.75,W 4 MPH Out 
Ronald Guzman (L) ,TEX ,1B ,8,OAK (R) ,1.52,-0.45,0.04,105,10.5,4.5,W 12 MPH In 
Ryan LaMarre (R) ,MIN ,OF ,9,CWS (L) ,1.8,-0.05,0.45,-180,9.5,5.5,W 8 MPH L-R 
Guillermo Heredia (R) ,SEA ,OF ,8,@HOU (R) ,1.74,-0.64,2.77,170,8.5,3.5,In Dome 
Tony Kemp (L) ,HOU ,OF ,9,SEA (L) ,1.48,-0.54,0.89,-200,8.5,5,In Dome 
J.B. Shuck (L) ,MIA ,OF ,8,@STL (R) ,1.79,-0.84,0.17,180,8.5,3.5,W 6 MPH R-L 
Michael Hermosillo (R) ,LAA ,OF ,? ,KC (R) ,0.58,0,0.02,-255,8,4.75,W 4 MPH Out 
Jose Briceno (R) ,LAA ,C ,? ,KC (R) ,0.58,0.49,0.65,-255,8,4.75,W 4 MPH Out 
Abraham Almonte (B) ,KC ,OF ,? ,@LAA (R) ,0.52,-0.35,0.16,205,8,3.25,W 4 MPH Out 
Ryan Goins (L) ,KC ,2B ,? ,@LAA (R) ,0.56,-0.35,0.17,205,8,3.25,W 4 MPH Out 
Jefry Marte (R) ,LAA ,1B (1B/3B) ,? ,KC (R) ,0.39,-0.12,0.19,-255,8,4.75,W 4 MPH Out 
Drew Butera (R) ,KC ,C ,? ,@LAA (R) ,0.41,-0.44,0.06,205,8,3.25,W 4 MPH Out 
Neil Walker (B) ,NYY ,1B (1B/2B) ,OUT ,@TOR (R) ,0,0.17,0,-150,9.5,5.5,In Dome 
Andrew Romine (B) ,SEA ,2B (2B/OF) ,OUT ,@HOU (R) ,0,-0.44,0,170,8.5,3.5,In Dome 
Breyvic Valera (B) ,LAD ,2B (2B/SS) ,OUT ,@PIT (R) ,0,-0.58,0,-120,8.5,5,W 2 MPH Out 
Chris Iannetta (R) ,COL ,C ,OUT ,@CIN (R) ,0,0.57,0,-135,9,5.25,W 3 MPH L-R 
Dexter Fowler (B) ,STL ,OF ,OUT ,MIA (L) ,0,-0.28,0,-220,8.5,5,W 6 MPH R-L 
Chris Gimenez (R) ,CHC ,C ,OUT ,PHI (R) ,0,-0.41,0,-135,7.5,4.5,W 8 MPH R-L 
Cameron Maybin (R) ,MIA ,OF ,OUT ,@STL (R) ,0,-0.44,0,180,8.5,3.5,W 6 MPH R-L 
Bobby Wilson (R) ,MIN ,C ,OUT ,CWS (L) ,0,0.08,0,-180,9.5,5.5,W 8 MPH L-R 
Gregorio Petit (R) ,MIN ,2B (2B/SS) ,OUT ,CWS (L) ,0,0.28,0,-180,9.5,5.5,W 8 MPH L-R 
Gio Urshela (R) ,TOR ,SS ,OUT ,NYY (R) ,0,-0.37,0,130,9.5,4,In Dome 
Dixon Machado (R) ,DET ,2B ,OUT ,@BOS (L) ,0,-0.35,0,185,9,3.75,W 6 MPH R-L 
Luke Maile (R) ,TOR ,C ,OUT ,NYY (R) ,0,0.05,0,130,9.5,4,In Dome 
Elias Diaz (R) ,PIT ,C ,OUT ,LAD (L) ,0,-0.26,0,100,8.5,3.5,W 2 MPH Out 
Yasmani Grandal (B) ,LAD ,C ,OUT ,@PIT (R) ,0,-0.35,0,-120,8.5,5,W 2 MPH Out 
Kolten Wong (L) ,STL ,2B ,OUT ,MIA (L) ,0,-0.28,0,-220,8.5,5,W 6 MPH R-L 
Josh Bell (B) ,PIT ,1B ,OUT ,LAD (L) ,0,-0.47,0,100,8.5,3.5,W 2 MPH Out 
Lewis Brinson (R) ,MIA ,OF ,OUT ,@STL (R) ,0,-0.35,0,180,8.5,3.5,W 6 MPH R-L 
Jose Rondon (R) ,CWS ,2B (2B/SS) ,OUT ,@MIN (R) ,0,-0.43,0,150,9.5,4,W 8 MPH L-R 
Alex Blandino (R) ,CIN ,2B (2B/3B) ,OUT ,COL (R) ,0,-0.48,0,115,9,3.75,W 3 MPH L-R 
Ben Gamel (L) ,SEA ,OF ,OUT ,@HOU (R) ,0,0.35,0,170,8.5,3.5,In Dome 
Adam Frazier (L) ,PIT ,2B (2B/OF) ,OUT ,LAD (L) ,0,0,0,100,8.5,3.5,W 2 MPH Out 
Omar Narvaez (L) ,CWS ,C ,OUT ,@MIN (R) ,0,-1.05,0,150,9.5,4,W 8 MPH L-R 
Brock Holt (L) ,BOS ,2B (2B/SS) ,OUT ,DET (L) ,0,0.69,0,-225,9,5.25,W 6 MPH R-L 
Aaron Hicks (B) ,NYY ,OF ,OUT ,@TOR (R) ,0,0.98,0,-150,9.5,5.5,In Dome 
Bruce Maxwell (L) ,OAK ,C ,OUT ,@TEX (R) ,0,0.14,0,-125,10.5,6,W 12 MPH In 
Sandy Leon (B) ,BOS ,C ,OUT ,DET (L) ,0,0.57,0,-225,9,5.25,W 6 MPH R-L 
Bryan Holaday (R) ,MIA ,C ,OUT ,@STL (R) ,0,-0.38,0,180,8.5,3.5,W 6 MPH R-L 
Noel Cuevas (R) ,COL ,OF ,OUT ,@CIN (R) ,0,0.11,0,-135,9,5.25,W 3 MPH L-R 
Max Stassi (R) ,HOU ,C ,OUT ,SEA (L) ,0,0.05,0,-200,8.5,5,In Dome 
Tommy La Stella (L) ,CHC ,2B (2B/3B) ,OUT ,PHI (R) ,0,-0.15,0,-135,7.5,4.5,W 8 MPH R-L 
Jesmuel Valentin (B) ,PHI ,2B (2B/SS) ,OUT ,@CHC (L) ,0,-0.44,0,115,7.5,3,W 8 MPH R-L 
Joc Pederson (L) ,LAD ,OF ,OUT ,@PIT (R) ,0,0.06,0,-120,8.5,5,W 2 MPH Out 
Blake Swihart (B) ,BOS ,C (C/OF) ,OUT ,DET (L) ,0,0.08,0,-225,9,5.25,W 6 MPH R-L 
Tyler Austin (R) ,NYY ,1B ,OUT ,@TOR (R) ,0,0.37,0,-150,9.5,5.5,In Dome 
Daniel Palka (L) ,CWS ,OF ,OUT ,@MIN (R) ,0,-0.37,0,150,9.5,4,W 8 MPH L-R 
Ian Happ (B) ,CHC ,OF ,OUT ,PHI (R) ,0,0.07,0,-135,7.5,4.5,W 8 MPH R-L 
Luke Voit (R) ,STL ,1B ,OUT ,MIA (L) ,0,0.49,0,-220,8.5,5,W 6 MPH R-L 
Dylan Cozens (L) ,PHI ,OF ,OUT ,@CHC (L) ,0,-0.44,0,115,7.5,3,W 8 MPH R-L 
Mike Tauchman (L) ,COL ,OF ,OUT ,@CIN (R) ,0,-0.08,0,-135,9,5.25,W 3 MPH L-R 
Victor Reyes (B) ,DET ,OF ,OUT ,@BOS (L) ,0,-0.14,0,185,9,3.75,W 6 MPH R-L 
Brandon Dixon (R) ,CIN ,2B ,OUT ,COL (R) ,0,-0.17,0,115,9,3.75,W 3 MPH L-R 
Randal Grichuk (R) ,TOR ,OF ,OUT ,NYY (R) ,0,0,0,130,9.5,4,In Dome 
Francisco Pena (R) ,STL ,C ,OUT ,MIA (L) ,0,-0.35,0,-220,8.5,5,W 6 MPH R-L 
Gregory Polanco (L) ,PIT ,OF ,OUT ,LAD (L) ,0,-0.39,0,100,8.5,3.5,W 2 MPH Out 
J.P. Crawford (L) ,PHI ,SS ,OUT ,@CHC (L) ,0,-0.44,0,115,7.5,3,W 8 MPH R-L 
Curt Casali (R) ,CIN ,C ,OUT ,COL (R) ,0,0.3,0,115,9,3.75,W 3 MPH L-R 
Adam Duvall (R) ,CIN ,OF ,OUT ,COL (R) ,0,-0.43,0,115,9,3.75,W 3 MPH L-R 
Enrique Hernandez (R) ,LAD ,2B (2B/OF) ,OUT ,@PIT (R) ,0,-0.5,0,-120,8.5,5,W 2 MPH Out 
