Id,Name,Position,Team,Salary,Projected,Scored,Override,OppRank,OppRankTotal,Alerts
1864198,Luis Cessa,RP,NYY,4900,0,0,0,18,30,Injured:1
1864200,Steven Brault,RP,PIT,4600,0,9.15,0,20,30,
1864215,Neftali Feliz,RP,ARI,4000,0,0,0,13,30,Injured:1
1864217,Fernando Salas,RP,ARI,4000,0,5.8,0,13,30,
1864232,A.J. Schugel,RP,PIT,4000,0,0,0,20,30,Injured:1
1864234,Michael Feliz,RP,PIT,4000,0,6.25,0,20,30,
1864298,Ty Blach,SP,SF,5100,0,0,0,30,30,
1864300,Luis Escobar,SP,PIT,5000,0,0,0,20,30,
1864315,Anthony Banda,SP,TB,4800,0,0,0,17,30,
1864317,Scott Barlow,SP,KC,4800,0,0,0,23,30,
1864332,Tom Koehler,SP,LAD,4600,0,0,0,15,30,Injured:1
1864334,Justus Sheffield,SP,NYY,4600,0,0,0,18,30,
1864396,Matthias Dietz,SP,BAL,4000,0,0,0,1,30,WeatherAlert:1
1864398,Taylor Guerrieri,SP,TOR,4000,0,0,0,14,30,
1864400,Chris Rowley,SP,TOR,4000,0,0,0,14,30,
1864413,Vance Worley,SP,CIN,4000,0,0,0,26,30,
1864415,Burch Smith,SP,KC,4000,0,0,0,23,30,
1864430,Doug Fister,SP,TEX,4000,0,0,0,6,30,Injured:1
1864432,Clayton Blackburn,SP,TEX,4000,0,0,0,6,30,Injured:1
1864499,Lucas Sims,SP,ATL,5600,0,0,0,28,30,WeatherAlert:1
1864501,Ryan Yarbrough,SP,TB,5600,0,0,0,17,30,
1864516,Steven Wright,SP,BOS,5300,0,0,0,29,30,WeatherAlert:1
1864518,Stephen Gonsalves,SP,MIN,5300,0,0,0,21,30,
1864533,Phil Maton,RP,SD,4000,0,0,0,22,30,Injured:1|WeatherAlert:1
1864535,Roenis Elias,RP,SEA,4000,0,0,0,9,30,
1864550,Mike Morin,RP,SEA,4000,0,0,0,9,30,
1864552,Vicente Campos,RP,LAA,4000,0,0,0,8,30,
1864578,Tyler Mahle,SP,CIN,7000,0,0,0,26,30,
1864580,Sonny Gray,SP,NYY,7000,0,0,0,18,30,
1864639,Sergio Romo,RP,TB,4000,0,1.65,0,17,30,
1864641,John Axford,RP,TOR,4000,0,0,0,14,30,
1864656,Andrew Kittredge,RP,TB,4000,0,0,0,17,30,
1864658,Diego Castillo,RP,TB,4000,0,0,0,17,30,
1864673,Sam Tuivailala,RP,STL,4000,0,0,0,27,30,WeatherAlert:1
1864675,John Brebbia,RP,STL,4000,0,0,0,27,30,WeatherAlert:1
1864923,Connor Sadzeck,SP,TEX,4000,0,0,0,6,30,
1864938,Franklin Perez,SP,HOU,4000,0,0,0,16,30,
1864940,Cionel Perez,SP,HOU,4000,0,0,0,16,30,
1864955,Tyler Glasnow,RP,PIT,8100,0,0,0,20,30,
1864957,Mike Montgomery,RP,CHC,7000,0,0,0,10,30,
1864975,Sam Freeman,RP,ATL,4000,0,4.25,0,28,30,WeatherAlert:1
1864977,Arodys Vizcaino,RP,ATL,4000,0,0,0,28,30,WeatherAlert:1
1864992,Robbie Ross Jr.,RP,CWS,4000,0,0,0,3,30,Injured:1
1864994,Danny Farquhar,RP,CWS,4000,0,0,0,3,30,Injured:1
1865009,Craig Kimbrel,RP,BOS,4000,0,-1.55,0,29,30,WeatherAlert:1
1865011,Brad Brach,RP,BAL,4000,0,0,0,1,30,WeatherAlert:1
1865220,Grant Holmes,SP,OAK,4500,0,0,0,5,30,
1865222,Ivan Nova,SP,PIT,4400,0,0,0,20,30,
1865237,Ben Lively,SP,PHI,4400,0,0,0,12,30,
1865239,Braden Shipley,SP,ARI,4300,0,5,0,13,30,
1865254,Clay Holmes,SP,PIT,4000,0,0,0,20,30,
1865256,Kolby Allard,SP,ATL,4000,0,0,0,28,30,WeatherAlert:1
1865369,Joey Lucchesi,SP,SD,8100,0,0,0,22,30,Injured:1|WeatherAlert:1
1865371,Freddy Peralta,SP,MIL,8100,0,0,0,4,30,
1865384,Brent Suter,SP,MIL,7700,0,0,0,4,30,
1865386,Nathan Eovaldi,SP,TB,7600,0,0,0,17,30,
1865388,Luke Weaver,SP,STL,7500,0,0,0,27,30,WeatherAlert:1
1865401,Nick Kingham,SP,PIT,7200,0,0,0,20,30,
1865403,Zack Wheeler,SP,NYM,7100,12.22,-2.45,0,7,30,Starter:1|VegasBad:2|CrowdNegative:1|PlayerMatchupIsHorribad:1|CrowdPositive:1|StarGood:1|ThumbUp:2|WeatherAlert:1
1865712,Chris Archer,SP,TB,6700,0,0,0,17,30,Injured:1
1865714,Mike Leake,SP,SEA,6700,11.19,19.3,0,9,30,Starter:1|PlayerMatchupIsGreat:1|CrowdPositive:1|PlayerMatchupIsGood:1|PlayerMatchupIsHorribad:2|PlayerIsHot:1|VegasBad:1|ThumbUp:2
1865729,Tyler Anderson,SP,COL,6400,0,0,0,25,30,
1865731,Wade LeBlanc,SP,SEA,6300,0,0,0,9,30,
1865744,Mike Fiers,SP,DET,6100,0,0,0,19,30,
1865805,Johnny Cueto,SP,SF,11800,0,0,0,30,30,Injured:1
1865807,Robbie Ray,SP,ARI,11300,0,0,0,13,30,Injured:1
1865822,Patrick Corbin,SP,ARI,9900,0,0,0,13,30,
1865824,Gio Gonzalez,SP,WAS,9800,0,0,0,2,30,
1865839,Danny Salazar,SP,CLE,8800,0,0,0,24,30,Injured:1
1865841,Dylan Bundy,SP,BAL,8700,0,0,0,1,30,OptimalPick:1|WeatherAlert:1
1863760,Mitch Garver,C,MIN,2700,5.59,2,0,78,284,Starter:1|LineupSpot6:1|PlayerMatchupIsHorribad:1|PlayerMatchupIsGreat:2|VegasGood:2
1863762,Bobby Wilson,C,MIN,2700,0,0,0,78,284,
1863777,David Freitas,C,SEA,2600,4.93,2,0,112,284,Starter:1|LineupSpot9:1|PlayerMatchupIsGreat:1|PlayerMatchupIsHorribad:2|VegasBad:1
1863779,Carlos Perez,C,TEX,2600,0,0,0,142,284,
1863794,Stuart Turner,C,CIN,2400,0,0,0,208,284,
1863796,Hector Sanchez,C,SF,2400,0,0,0,89,284,
1863811,Mike Zunino,C,SEA,3400,0,0,0,112,284,
1863813,Devin Mesoraco,C,NYM,3300,6.28,3,0,68,284,Starter:1|LineupSpot6:1|PlayerMatchupIsHorribad:2|StarBad:1|WeatherAlert:1
1863828,Jacob Nottingham,C,MIL,3100,0,0,0,90,284,
1863830,Chance Sisco,C,BAL,3000,0,0,0,106,284,WeatherAlert:1
1863845,Austin Hedges,C,SD,2800,0,0,0,16,284,Injured:1|WeatherAlert:1
1863847,Curt Casali,C,CIN,2800,0,0,0,208,284,
1863860,Yangervis Solarte,2B/3B,TOR,3800,7.29,0,0,1,284,Starter:1|LineupSpot2:1|PlayerMatchupIsHorribad:3|PlayerMatchupIsGreat:1
1863862,Jedd Gyorko,2B/3B,STL,3500,8.59,0,0,146,284,Starter:1|LineupSpot6:1|PlayerMatchupIsHorribad:2|PlayerMatchupIsGreat:1|VegasBad:2|WeatherAlert:1
1863877,Luis Guillorme,2B/3B,NYM,2600,0,0,0,160,284,WeatherAlert:1
1863879,Tommy La Stella,2B/3B,CHC,2600,0,0,0,70,284,
1863894,Neil Walker,1B/2B,NYY,3300,7.36,3,0,179,284,Starter:1|LineupSpot7:1
1863896,Pat Valaika,1B/2B,COL,2500,0,0,0,56,284,
1863911,Luis Valbuena,1B/3B,LAA,3200,7.5,6,0,148,284,Starter:1|LineupSpot5:1|PlayerMatchupIsHorribad:2|PlayerMatchupIsGreat:1|VegasBad:1|ThumbUp:2
1863913,Wilmer Flores,1B/3B,NYM,3100,0,0,0,68,284,Injured:1|WeatherAlert:1
1863928,Ronny Rodriguez,3B/SS,DET,2800,0,0,0,171,284,
1863930,Phillip Evans,3B/SS,NYM,2700,0,0,0,68,284,WeatherAlert:1
1863945,Evan Gattis,C,HOU,3900,7.46,27,0,41,284,Starter:1|LineupSpot7:1|PlayerMatchupIsHorribad:2|PlayerMatchupIsGreat:2|PlayerIsCold:1|StarGood:1|ThumbDown:1
1863947,John Ryan Murphy,C,ARI,3700,6.21,10,0,74,284,Starter:1|LineupSpot4:1|PlayerMatchupIsHorribad:1|PlayerMatchupIsGreat:1
1863963,Jack Reinheimer,SS,ARI,3000,0,0,0,74,284,
1863965,Franklin Barreto,SS,OAK,3000,0,0,0,194,284,
1863978,Orlando Arcia,SS,MIL,2700,6.34,0,0,90,284,Starter:1|LineupSpot8:1|PlayerMatchupIsHorribad:1|PlayerMatchupIsGreat:1|PlayerIsCold:1|StarBad:1|VegasGood:1|ThumbDown:1
1863980,Corey Seager,SS,LAD,2500,0,0,0,153,284,Injured:1
1863995,Cesar Hernandez,2B,PHI,4100,8.17,5,0,146,284,Starter:1|LineupSpot1:1|PlayerMatchupIsGreat:2|ThumbDown:1
1863997,Josh Harrison,2B,PIT,3900,8.54,11,0,25,284,Starter:1|LineupSpot1:1|PlayerMatchupIsHorribad:1|PlayerMatchupIsGreat:2|ThumbDown:1
1864013,Kristopher Negron,2B/SS,ARI,2700,0,0,0,74,284,
1864015,Lourdes Gurriel Jr.,2B/SS,TOR,2700,0,0,0,77,284,
1864030,Engelb Vielma,2B/SS,BAL,2400,0,0,0,101,284,WeatherAlert:1
1864032,Grant Green,2B/SS,MIA,2300,0,0,0,125,284,
1864047,Michael Martinez,2B/OF,CLE,2400,0,0,0,215,284,
1864049,Ryder Jones,3B,SF,2900,0,0,0,89,284,
1864064,Freddie Freeman,1B,ATL,5300,10.52,20,0,224,284,Starter:1|LineupSpot3:1|PlayerMatchupIsGreat:3|PlayerIsHot:1|VegasGood:1|ThumbUp:1|WeatherAlert:1
1864066,Eric Thames,1B,MIL,5000,9.94,5,0,186,284,Starter:1|LineupSpot1:1|PlayerMatchupIsHorribad:1|PlayerMatchupIsGreat:2|PlayerIsCold:1|VegasBad:1
1864081,Carlos Santana,1B,PHI,3900,8.09,6,0,146,284,Starter:1|LineupSpot4:1|PlayerMatchupIsGreat:2|PlayerIsCold:1|ThumbDown:1
1864083,Yonder Alonso,1B,CLE,3600,7.64,7,0,215,284,Starter:1|LineupSpot5:1|PlayerMatchupIsGreat:1|PlayerMatchupIsHorribad:1|VegasBad:1
1864098,Boog Powell,OF,OAK,3100,0,0,0,61,284,Injured:1
1864100,Nicky Delmonico,OF,CWS,3000,0,0,0,242,284,Injured:1
1864115,Lonnie Chisenhall,OF,CLE,2900,7.29,0,0,215,284,Starter:1|LineupSpot8:1|PlayerMatchupIsGreat:1|PlayerMatchupIsHorribad:1|PlayerIsHot:1|VegasGood:1|ThumbDown:1
1864117,Jaycob Brugman,OF,BAL,2900,0,0,0,106,284,WeatherAlert:1
1864132,Jaff Decker,OF,ATL,2800,0,0,0,224,284,WeatherAlert:1
1864134,Avisail Garcia,OF,CWS,2800,0,0,0,107,284,Injured:1
1864151,Guillermo Heredia,OF,SEA,2700,5.04,8,0,112,284,Starter:1|LineupSpot8:1|PlayerMatchupIsGreat:1|PlayerMatchupIsHorribad:2|ThumbDown:1
1864153,Tyler Collins,OF,KC,2700,0,0,0,189,284,Injured:1
1864168,Jarrett Parker,OF,SF,2600,0,0,0,89,284,
1864170,Danny Ortiz,OF,PHI,2600,0,0,0,146,284,
1864185,Shane Peterson,OF,SD,2300,0,0,0,74,284,WeatherAlert:1
1864187,Yordan Alvarez,OF,HOU,2300,0,0,0,38,284,
1864252,Victor Martinez,1B,DET,2900,6.72,5,0,169,284,Starter:1|LineupSpot5:1|PlayerMatchupIsHorribad:2|PlayerMatchupIsGreat:1|VegasGood:1
1864254,Ryan McMahon,1B,COL,2900,0,0,0,71,284,
1864267,Xander Bogaerts,SS,BOS,4900,8.42,11,0,67,284,Starter:1|LineupSpot5:1|WindHelping:1|PlayerMatchupIsHorribad:1|ThumbUp:1|WeatherAlert:1
1864269,Carlos Correa,SS,HOU,4700,9.01,21,0,41,284,Starter:1|LineupSpot4:1|PlayerMatchupIsHorribad:2|PlayerMatchupIsGreat:3|PlayerIsCold:1
1864284,Bo Bichette,SS,TOR,3200,0,0,0,77,284,
1864286,Aledmys Diaz,SS,TOR,3200,6.97,3,0,77,284,Starter:1|LineupSpot7:1|PlayerMatchupIsHorribad:2|PlayerMatchupIsGreat:1|PlayerIsCold:1|ThumbUp:1
1864347,Ichiro Suzuki,OF,SEA,2000,0,0,0,7,284,
1864349,Leody Taveras,OF,TEX,2000,0,0,0,142,284,
1864364,Jeimer Candelario,3B,DET,4100,7.77,2,0,169,284,Starter:1|LineupSpot4:1|PlayerMatchupIsHorribad:1|PlayerMatchupIsGreat:1|VegasGood:2
1864366,Josh Donaldson,3B,TOR,3900,0,0,0,77,284,Injured:1
1864381,Rio Ruiz,3B,ATL,3100,0,0,0,224,284,WeatherAlert:1
1864383,Austin Riley,3B,ATL,3000,0,0,0,209,284,WeatherAlert:1
1864445,Joey Wendle,2B,TB,3200,0,5,0,208,284,
1864447,Rougned Odor,2B,TEX,3200,6.13,2,0,142,284,Starter:1|LineupSpot8:1|PlayerIsHot:1
1864462,Keston Hiura,2B,MIL,2700,0,0,0,90,284,
1864464,Robinson Cano,2B,SEA,2500,0,0,0,7,284,Injured:1
1864477,O'Koyea Dickson,1B/OF,LAD,3200,0,0,0,223,284,Injured:1
1864479,Stephen Cardullo,1B/OF,COL,2600,0,0,0,56,284,
1864574,Kevin McCarthy,RP,KC,4000,0,-8.75,0,23,30,
1864576,Raisel Iglesias,RP,CIN,4000,0,0,0,26,30,
1864595,Wade Davis,RP,COL,4000,0,0,0,25,30,
1864597,Pat Neshek,RP,PHI,4000,0,0,0,12,30,Injured:1
1864612,Jeremy Jeffress,RP,MIL,4000,0,0,0,4,30,
1864614,Brian Duensing,RP,CHC,4000,0,0,0,10,30,
1864735,Carlos Gonzalez,OF,COL,3900,8.71,0,0,71,284,Starter:1|LineupSpot4:1|PlayerMatchupIsHorribad:1|PlayerMatchupIsGreat:3|VegasBad:1|StarBad:1
1864737,Harrison Bader,OF,STL,3800,8.7,3,0,146,284,Starter:1|LineupSpot7:1|PlayerMatchupIsHorribad:2|PlayerMatchupIsGreat:1|StarBad:1|WeatherAlert:1
1864752,Jesse Winker,OF,CIN,3600,8.13,4,0,228,284,Starter:1|LineupSpot6:1|PlayerMatchupIsGreat:1|PlayerMatchupIsHorribad:1|ThumbUp:1
1864754,Ian Happ,OF,CHC,3600,0,0,0,70,284,
1864769,Tony Kemp,OF,HOU,3400,6.13,8,0,38,284,Starter:1|LineupSpot9:1|PlayerMatchupIsHorribad:2|PlayerMatchupIsGreat:1|ThumbDown:1
1864771,Mark Canha,OF,OAK,3400,6.86,7,0,194,284,Starter:1|LineupSpot7:1|PlayerMatchupIsGreat:1|ThumbDown:1
1865076,Taylor Rogers,RP,MIN,4000,0,0,0,21,30,
1865078,Myles Jaye,RP,MIN,4000,0,0,0,21,30,
1865091,Josh Fields,RP,LAD,4000,0,0,0,15,30,
1865093,Daniel Hudson,RP,LAD,4000,0,0,0,15,30,
1865095,Jose Leclerc,RP,TEX,4000,0,0,0,6,30,
1865108,Dellin Betances,RP,NYY,4000,0,5.65,0,18,30,
1865110,Adam Warren,RP,NYY,4000,0,0,0,18,30,
1865263,Dexter Fowler,OF,STL,3300,0,0,0,146,284,WeatherAlert:1
1865412,Max Kepler,OF,MIN,3300,8.04,0,0,257,284,Starter:1|LineupSpot5:1|PlayerMatchupIsGreat:3|VegasBad:1
1865414,Nick Williams,OF,PHI,3300,7.78,0,0,146,284,Starter:1|LineupSpot6:1|PlayerMatchupIsGreat:2|PlayerIsCold:1|ThumbUp:1|ThumbDown:1
1865416,Jarrod Dyson,OF,ARI,3200,6.45,8,0,95,284,Starter:1|LineupSpot8:1|PlayerMatchupIsGreat:1|ThumbUp:1
1865429,Monte Harrison,OF,MIA,3200,0,0,0,125,284,
1865431,Brett Phillips,OF,MIL,3200,0,0,0,186,284,
1865446,JaCoby Jones,OF,DET,3100,6.33,5,0,171,284,Starter:1|LineupSpot7:1|PlayerMatchupIsGreat:1|VegasBad:1|VegasGood:1|ThumbDown:1
1865448,Alex Verdugo,OF,LAD,3100,0,0,0,153,284,
1865612,Charlie Blackmon,OF,COL,5100,9.68,5,0,71,284,Starter:1|LineupSpot2:1|PlayerMatchupIsHorribad:1|PlayerMatchupIsGreat:3|PlayerIsCold:1|VegasGood:1
1865614,George Springer,OF,HOU,5000,10.01,5,0,41,284,Starter:1|LineupSpot1:1|PlayerMatchupIsHorribad:2|PlayerMatchupIsGreat:2|OptimalPick:1|PlayerIsHot:1
1865627,David Peralta,OF,ARI,4200,8.57,12,0,95,284,Starter:1|LineupSpot6:1|PlayerMatchupIsGreat:2|ThumbUp:1
1865629,Nelson Cruz,OF,SEA,4200,9.34,0,0,112,284,Starter:1|LineupSpot4:1|PlayerMatchupIsGreat:2|PlayerMatchupIsHorribad:1|OptimalPick:1|PlayerIsHot:1|ThumbUp:2
1865631,Nicholas Castellanos,OF,DET,4200,8.6,2,0,171,284,Starter:1|LineupSpot2:1|PlayerMatchupIsGreat:2|PlayerIsCold:1|VegasGood:2|ThumbUp:1
1865644,Kyle Schwarber,OF,CHC,4100,0,0,0,70,284,
1865646,Ronald Acuna Jr.,OF,ATL,4000,0,0,0,209,284,Injured:1|WeatherAlert:1
1868125,Sam Dyson,RP,SF,4000,0,0,0,30,30,
1868127,Tony Watson,RP,SF,4000,0,0,0,30,30,
1868129,Cory Gearrin,RP,SF,4000,0,-1.2,0,30,30,
1868142,Severino Gonzalez,RP,MIA,4000,0,0,0,11,30,
1868144,Ben Meyer,RP,MIA,4000,0,0,0,11,30,
1864192,Jose Castillo,RP,SD,4000,0,0,0,22,30,WeatherAlert:1
1864193,Adam Cimber,RP,SD,4000,0,16.15,0,22,30,WeatherAlert:1
1864206,Robert Gsellman,RP,NYM,4400,0,0,0,7,30,WeatherAlert:1
1864207,Andrew Moore,RP,SEA,4300,0,0,0,9,30,
1864210,Buck Farmer,RP,DET,4200,0,0,0,19,30,
1864224,Andrew Chafin,RP,ARI,4000,0,1.55,0,13,30,
1864225,Nick Burdi,RP,PIT,4000,0,0,0,20,30,Injured:1
1864291,Rookie Davis,SP,CIN,5100,0,0,0,26,30,Injured:1
1864292,Justin Nicolino,SP,CIN,5100,0,0,0,26,30,
1864306,Jeff Samardzija,SP,SF,5000,0,0,0,30,30,Injured:1
1864309,Ryan Helsley,SP,STL,4900,0,0,0,27,30,WeatherAlert:1
1864323,Brian Johnson,SP,BOS,4700,0,0,0,29,30,WeatherAlert:1
1864324,Ryan Borucki,SP,TOR,4700,0,0,0,14,30,
1864390,Tim Melville,SP,BAL,4000,0,0,0,1,30,WeatherAlert:1
1864391,David Holmberg,SP,BAL,4000,0,0,0,1,30,WeatherAlert:1
1864405,Miguel Diaz,SP,SD,4000,0,0,0,22,30,WeatherAlert:1
1864408,Colin Rea,SP,SD,4000,0,0,0,22,30,Injured:1|WeatherAlert:1
1864422,Jacob Turner,SP,DET,4000,0,0,0,19,30,
1864423,Felix Jorge,SP,MIN,4000,0,0,0,21,30,
1864492,Rogelio Armenteros,SP,HOU,5900,0,0,0,16,30,
1864493,Chad Bettis,SP,COL,5900,0,0,0,25,30,
1864507,Anibal Sanchez,SP,ATL,5500,0,0,0,28,30,WeatherAlert:1
1864510,Chris Flexen,SP,NYM,5400,0,0,0,7,30,WeatherAlert:1
1864524,Aaron Blair,SP,ATL,5100,0,0,0,28,30,WeatherAlert:1
1864525,Jason Vargas,SP,NYM,5100,0,0,0,7,30,WeatherAlert:1
1864542,Jose Alvarez,RP,LAA,4000,0,-3.2,0,8,30,
1864543,David Phelps,RP,SEA,4000,0,0,0,9,30,Injured:1
1864557,Tony Zych,RP,SEA,4000,0,0,0,9,30,Injured:1
1864560,Justin Anderson,RP,LAA,4000,0,1.65,0,8,30,
1864631,Heath Hembree,RP,BOS,4000,0,0,0,29,30,WeatherAlert:1
1864632,Gabriel Ynoa,RP,BAL,4000,0,0,0,1,30,Injured:1|WeatherAlert:1
1864649,Joe Biagini,RP,TOR,4000,0,1.05,0,14,30,
1864650,Jose Alvarado,RP,TB,4000,0,5.75,0,17,30,
1864664,Chris Young,RP,SD,4000,0,0,0,22,30,WeatherAlert:1
1864667,Trevor Rosenthal,RP,STL,4000,0,0,0,27,30,Injured:1|WeatherAlert:1
1864929,Edwin Jackson,SP,WAS,4000,0,0,0,2,30,
1864932,Chris Heston,SP,SF,4000,0,0,0,30,30,
1864933,Jordan Johnson,SP,SF,4000,0,0,0,30,30,
1864946,JoJo Romero,SP,PHI,4000,0,0,0,12,30,
1864947,Duane Underwood Jr.,SP,CHC,4000,0,0,0,10,30,
1864964,Jarlin Garcia,RP,MIA,5300,0,0,0,11,30,
1864965,David Paulino,RP,HOU,5200,0,0,0,16,30,
1864985,Dan Otero,RP,CLE,4000,0,0,0,24,30,
1864986,Zach McAllister,RP,CLE,4000,0,11.25,0,24,30,
1864999,Nick Goody,RP,CLE,4000,0,0,0,24,30,Injured:1
1865000,Tyler Olson,RP,CLE,4000,0,0.3,0,24,30,
1865017,Andrew Heaney,SP,LAA,8600,0,0,0,8,30,
1865018,Joe Musgrove,SP,PIT,8500,0,0,0,20,30,
1865229,Kyle Lloyd,SP,SD,4400,0,0,0,22,30,WeatherAlert:1
1865230,Jordan Zimmermann,SP,DET,4400,0,0,0,19,30,Injured:1
1865247,Brad Keller,SP,KC,4200,0,0,0,23,30,
1865248,Gregory Soto,SP,DET,4200,0,0,0,19,30,
1865378,Kyle Gibson,SP,MIN,7800,0,0,0,21,30,
1865379,Jose Quintana,SP,CHC,7800,0,0,0,10,30,
1865393,Sean Newcomb,SP,ATL,7300,0,0,0,28,30,WeatherAlert:1
1865396,Clayton Richard,SP,SD,7300,0,0,0,22,30,WeatherAlert:1
1865703,Julio Teheran,SP,ATL,6900,0,0,0,28,30,Injured:1|WeatherAlert:1
1865704,Adam Wainwright,SP,STL,6900,0,0,0,27,30,Injured:1|WeatherAlert:1
1865721,Alec Hansen,SP,CWS,6500,0,0,0,3,30,
1865722,Cal Quantrill,SP,SD,6500,0,0,0,22,30,WeatherAlert:1
1865736,Tyler Chatwood,SP,CHC,6300,8.68,11.05,0,10,30,Starter:1|PlayerMatchupIsHorribad:3|CrowdPositive:3|PlayerMatchupIsGreat:1|VegasGood:1|VegasBad:1|ThumbUp:1
1865739,Jharel Cotton,SP,OAK,6200,0,0,0,5,30,
1865813,Miles Mikolas,SP,STL,10900,20.9,13.9,0,27,30,Starter:1|VegasGood:3|PlayerMatchupIsGreat:3|CrowdNegative:1|CrowdPositive:1|PlayerMatchupIsGood:1|ThumbUp:1|WeatherAlert:1
1865816,Noah Syndergaard,SP,NYM,10500,0,0,0,7,30,Injured:1|WeatherAlert:1
1865830,Carlos Martinez,SP,STL,9300,0,0,0,27,30,WeatherAlert:1
1865831,Walker Buehler,SP,LAD,9300,0,0,0,15,30,Injured:1
1863768,Tom Murphy,C,COL,2700,6.28,15,0,56,284,Starter:1|LineupSpot8:1|PlayerMatchupIsHorribad:2|PlayerMatchupIsGreat:1
1863769,Tony Wolters,C,COL,2700,0,0,0,71,284,
1863772,Anthony Recker,C,ARI,2600,0,0,0,74,284,
1863786,Carson Kelly,C,STL,2500,0,0,0,146,284,WeatherAlert:1
1863787,Drew Butera,C,KC,2500,0,0,0,158,284,
1863804,Luis Torrens,C,SD,2000,0,0,0,16,284,WeatherAlert:1
1863805,Keibert Ruiz,C,LAD,2000,0,0,0,153,284,
1863819,Tucker Barnhart,C,CIN,3200,7.36,19,0,228,284,Starter:1|LineupSpot2:1|PlayerMatchupIsGreat:2|PlayerMatchupIsHorribad:1|ThumbDown:1
1863822,Erik Kratz,C,MIL,3200,0,0,0,90,284,
1863836,Brett Nicholas,C,TEX,2900,0,0,0,142,284,
1863837,Matt Wieters,C,WAS,2900,0,0,0,119,284,Injured:1
1863854,Roberto Perez,C,CLE,2700,0,0,0,159,284,Injured:1
1863855,Omar Narvaez,C,CWS,2700,6.05,10,0,242,284,Starter:1|LineupSpot6:1|PlayerMatchupIsGreat:2|PlayerMatchupIsHorribad:1|PlayerIsHot:1|VegasBad:1|ThumbDown:1
1863869,David Bote,2B/3B,CHC,3100,0,0,0,148,284,
1863872,Ronald Torreyes,2B/3B,NYY,3000,0,0,0,54,284,
1863886,Jose Bautista,3B/OF,NYM,3300,0,0,0,68,284,WeatherAlert:1
1863887,Cory Spangenberg,3B/OF,SD,3300,8.31,5,0,74,284,Starter:1|LineupSpot5:1|PlayerMatchupIsHorribad:2|PlayerMatchupIsGreat:1|PlayerIsHot:1|VegasBad:2|StarBad:1|ThumbUp:1|WeatherAlert:1
1863904,Christian Walker,1B,ARI,3200,0,0,0,74,284,
1863905,Logan Morrison,1B,MIN,3200,6.93,4,0,257,284,Starter:1|LineupSpot7:1|PlayerMatchupIsGreat:3|VegasGood:2
1863919,Yairo Munoz,3B/SS,STL,3600,8.96,0,0,146,284,Starter:1|LineupSpot8:1|PlayerMatchupIsHorribad:2|PlayerMatchupIsGreat:1|VegasBad:2|WeatherAlert:1
1863922,Tyler Saladino,3B/SS,MIL,3300,0,0,0,90,284,Injured:1
1863936,Andrew Romine,OF/SS,SEA,2600,0,0,0,7,284,
1863937,Alexi Amarista,OF/SS,DET,2400,0,0,0,169,284,
1863955,Jose Iglesias,SS,DET,3200,6.5,20,0,171,284,Starter:1|LineupSpot8:1|PlayerMatchupIsGreat:1|VegasBad:1|VegasGood:1|ThumbDown:1
1863956,Cole Tucker,SS,PIT,3100,0,0,0,23,284,
1863970,Thairo Estrada,SS,NYY,2900,0,0,0,54,284,
1863973,Tyler Smith,SS,ATL,2700,0,0,0,209,284,WeatherAlert:1
1863987,Carter Kieboom,SS,WAS,2000,0,0,0,119,284,
1863988,Jose Altuve,2B,HOU,5000,10.59,0,0,41,284,Starter:1|LineupSpot3:1|PlayerMatchupIsHorribad:2|PlayerMatchupIsGreat:3|StarGood:1
1864006,Jose Rondon,2B/SS,CWS,3500,0,0,0,107,284,
1864007,Adalberto Mondesi,2B/SS,KC,3200,0,0,0,189,284,
1864021,Tzu-Wei Lin,2B/SS,BOS,2600,0,0,0,170,284,WeatherAlert:1
1864024,Adrian Sanchez,2B/SS,WAS,2600,0,0,0,119,284,
1864038,Adam Frazier,2B/OF,PIT,3300,0,0,0,23,284,
1864039,Willie Calhoun,2B/OF,TEX,3300,0,0,0,142,284,
1864056,Ke'Bryan Hayes,3B,PIT,2700,0,0,0,25,284,
1864057,Tim Beckham,3B,BAL,2700,0,0,0,101,284,Injured:1|WeatherAlert:1
1864071,Brandon Belt,1B,SF,4400,0,0,0,89,284,Injured:1
1864074,Eric Hosmer,1B,SD,4200,9.18,14,0,74,284,Starter:1|LineupSpot2:1|PlayerMatchupIsHorribad:2|PlayerMatchupIsGreat:1|ThumbUp:1|WeatherAlert:1
1864088,Ronald Guzman,1B,TEX,3500,9.07,2,0,142,284,Starter:1|LineupSpot6:1|PlayerMatchupIsGreat:1|PlayerIsHot:1
1864089,Yuli Gurriel,1B,HOU,3500,7.99,10,0,41,284,Starter:1|LineupSpot5:1|PlayerMatchupIsHorribad:2|PlayerMatchupIsGreat:1|OptimalPick:1|ThumbUp:1
1864108,Matt Joyce,OF,OAK,3000,0,0,0,61,284,Injured:1
1864109,Stephen Piscotty,OF,OAK,3000,6.37,4,0,194,284,Starter:1|LineupSpot8:1|PlayerMatchupIsGreat:1
1864123,Andrew Stevenson,OF,WAS,2900,0,0,0,90,284,
1864126,Mike Tauchman,OF,COL,2900,0,0,0,71,284,
1864127,Noel Cuevas,OF,COL,2900,0,0,0,56,284,
1864140,Cameron Maybin,OF,MIA,2800,0,0,0,125,284,
1864141,Lewis Brinson,OF,MIA,2800,0,0,0,125,284,
1864160,Magneuris Sierra,OF,MIA,2700,0,0,0,109,284,
1864161,Braxton Lee,OF,MIA,2700,0,0,0,109,284,
1864175,Dariel Alvarez,OF,BAL,2500,0,0,0,101,284,Injured:1|WeatherAlert:1
1864178,Moises Sierra,OF,WAS,2500,0,0,0,119,284,
1864179,JB Shuck,OF,MIA,2500,5.09,2,0,109,284,Starter:1|LineupSpot8:1|PlayerMatchupIsGreat:1|PlayerMatchupIsHorribad:2|PlayerIsCold:1|StarBad:1
1864242,Justin Bour,1B,MIA,3200,8.29,6,0,109,284,Starter:1|LineupSpot4:1|PlayerMatchupIsGreat:2|PlayerMatchupIsHorribad:1|PlayerIsCold:1
1864243,Brad Miller,1B,MIL,3200,0,0,0,186,284,
1864260,Mike Ford,1B,SEA,2300,0,0,0,7,284,Injured:1
1864261,AJ Reed,1B,HOU,2300,0,0,0,38,284,
1864278,Paul DeJong,SS,STL,3700,0,0,0,146,284,Injured:1|WeatherAlert:1
1864279,Nick Ahmed,SS,ARI,3600,0,0,0,74,284,
1864338,Liam Hendriks,RP,OAK,4000,0,3.05,0,5,30,
1864339,Danny Coulombe,RP,OAK,4000,0,0.75,0,5,30,
1864342,Khalil Lee,OF,KC,2100,0,0,0,189,284,
1864356,Kris Bryant,3B,CHC,4900,9.28,0,0,148,284,Starter:1|LineupSpot3:1|PlayerMatchupIsGreat:3|PlayerIsCold:1|ThumbDown:1
1864357,Eugenio Suarez,3B,CIN,4800,8.83,7,0,208,284,Starter:1|LineupSpot5:1|PlayerMatchupIsGreat:3|PlayerMatchupIsHorribad:1|ThumbUp:1
1864374,Maikel Franco,3B,PHI,3500,0,0,0,153,284,
1864375,Rafael Devers,3B,BOS,3400,7.28,16,0,170,284,Starter:1|LineupSpot6:1|WindHelping:1|WeatherAlert:1
1864435,Chasen Shreve,RP,NYY,4000,0,0,0,18,30,
1864436,Ben Heller,RP,NYY,4000,0,0,0,18,30,Injured:1
1864439,Starlin Castro,2B,MIA,3700,6.96,8,0,125,284,Starter:1|LineupSpot5:1|PlayerMatchupIsGreat:1|PlayerMatchupIsHorribad:1|PlayerIsCold:1|ThumbUp:1
1864453,Kolten Wong,2B,STL,2800,0,0,0,283,284,WeatherAlert:1
1864454,Brandon Dixon,2B,CIN,2800,0,0,0,208,284,
1864471,Steve Pearce,1B/OF,TOR,3500,0,0,0,77,284,Injured:1
1864472,Niko Goodrum,1B/OF,DET,3400,0,7,0,169,284,
1864566,Dylan Floro,RP,CIN,4000,0,0,0,26,30,
1864569,Miguel Almonte,RP,KC,4000,0,0,0,23,30,
1864587,Lou Trivino,RP,OAK,4000,0,0,0,5,30,
1864588,Emilio Pagan,RP,OAK,4000,0,0,0,5,30,
1864605,Carlos Estevez,RP,COL,4000,0,0,0,25,30,Injured:1
1864606,Seranthony Dominguez,RP,PHI,4000,0,3.65,0,12,30,
1864620,Justin Wilson,RP,CHC,4000,0,0,0,10,30,
1864623,Randy Rosario,RP,CHC,4000,0,0,0,10,30,
1864730,Andrew McCutchen,OF,SF,4000,8.26,0,0,214,284,Starter:1|LineupSpot3:1|PlayerMatchupIsGreat:3|PlayerMatchupIsHorribad:1
1864744,Albert Almora Jr.,OF,CHC,3800,8.27,0,0,148,284,Starter:1|LineupSpot1:1|PlayerMatchupIsGreat:1|VegasGood:1
1864745,Gregory Polanco,OF,PIT,3700,7,4,0,23,284,Starter:1|LineupSpot7:1|PlayerMatchupIsHorribad:1|PlayerMatchupIsGreat:2
1864762,Leury Garcia,OF,CWS,3400,0,0,0,242,284,Injured:1
1864763,Bradley Zimmer,OF,CLE,3400,0,0,0,215,284,
1864970,Ryan Pressly,RP,MIN,4000,0,7.05,0,21,30,
1865069,Zack Jones,RP,MIN,4000,0,0,0,21,30,Injured:1
1865070,Shane Greene,RP,DET,4000,0,0,0,19,30,
1865083,Daniel Corcino,RP,LAD,4000,0,3.15,0,15,30,
1865084,Dennis Santana,RP,LAD,4000,0,0,0,15,30,
1865101,Erik Goeddel,RP,LAD,4000,0,0,0,15,30,
1865102,Scott Alexander,RP,LAD,4000,0,0,0,15,30,
1865423,Carlos Gomez,OF,TB,3200,6.84,2,0,233,284,Starter:1|LineupSpot7:1|PlayerMatchupIsGreat:1|PlayerMatchupIsHorribad:2|PlayerIsCold:1
1865424,Jayson Werth,OF,SEA,3200,0,0,0,112,284,
1865438,Jackie Bradley Jr.,OF,BOS,3100,6.73,0,0,170,284,Starter:1|LineupSpot9:1|WindHelping:1|VegasGood:1|WeatherAlert:1
1865441,Jabari Blash,OF,LAA,3100,5.46,0,0,186,284,Starter:1|LineupSpot8:1|PlayerMatchupIsHorribad:3|VegasBad:1
1865621,Shohei Ohtani,OF,LAA,4500,0,0,0,148,284,Injured:1
1865622,Teoscar Hernandez,OF,TOR,4400,9.52,0,0,77,284,Starter:1|LineupSpot3:1|PlayerMatchupIsHorribad:2|PlayerMatchupIsGreat:1|OptimalPick:1|PlayerIsHot:1|VegasBad:1
1865636,Rhys Hoskins,OF,PHI,4200,9.56,6,0,153,284,Starter:1|LineupSpot2:1|PlayerMatchupIsGreat:3
1865639,Brandon Nimmo,OF,NYM,4100,9.6,4,0,160,284,Starter:1|LineupSpot3:1|PlayerMatchupIsGreat:1|VegasGood:1|StarGood:1|WeatherAlert:1
1868117,Shawn Kelley,RP,WAS,4000,0,0,0,2,30,
1868120,Tim Collins,RP,WAS,4000,0,0,0,2,30,
1868134,Kyle Barraclough,RP,MIA,4000,0,4.25,0,11,30,
1868135,Drew Rucinski,RP,MIA,4000,0,0,0,11,30,
1868152,Joe Smith,RP,HOU,4000,0,0,0,16,30,Injured:1
1868153,Tony Sipp,RP,HOU,4000,0,0,0,16,30,
1864199,Yonny Chirinos,RP,TB,4700,0,0,0,17,30,
1864201,Rafael Montero,RP,NYM,4500,0,0,0,7,30,Injured:1|WeatherAlert:1
1864216,Yoshihisa Hirano,RP,ARI,4000,0,1.65,0,13,30,
1864218,T.J. McFarland,RP,ARI,4000,0,0,0,13,30,
1864233,Dovydas Neverauskas,RP,PIT,4000,0,-1.55,0,20,30,
1864235,Tyler Pill,RP,ARI,4000,0,0,0,13,30,
1864297,Wei-Yin Chen,SP,MIA,5100,0,0,0,11,30,
1864299,Daniel Gossett,SP,OAK,5100,0,0,0,5,30,Injured:1
1864314,Rubby De La Rosa,SP,ARI,4800,0,0,0,13,30,Injured:1
1864316,Danny Duffy,SP,KC,4800,0,0,0,23,30,
1864331,Aaron Slegers,SP,MIN,4600,0,0,0,21,30,
1864333,Matt Moore,SP,TEX,4600,0,0,0,6,30,
1864397,Nick Tepesch,SP,TOR,4000,0,0,0,14,30,
1864399,Jon Harris,SP,TOR,4000,0,0,0,14,30,
1864414,Kyle Zimmer,SP,KC,4000,0,0,0,23,30,
1864416,Jesse Hahn,SP,KC,4000,0,0,0,23,30,
1864431,Paolo Espino,SP,TEX,4000,0,0,0,6,30,
1864485,Rich Hill,SP,LAD,6000,0,0,0,15,30,Injured:1
1864500,Reynaldo Lopez,SP,CWS,5600,0,0,0,3,30,
1864502,Jake Faria,SP,TB,5600,0,0,0,17,30,Injured:1
1864515,Hector Santiago,SP,CWS,5300,0,0,0,3,30,
1864517,Hector Velazquez,SP,BOS,5300,0,4.45,0,29,30,WeatherAlert:1
1864532,Jeff Ferrell,RP,BAL,4000,0,0,0,1,30,Injured:1|WeatherAlert:1
1864534,Jordan Hicks,RP,STL,4000,0,12.5,0,27,30,WeatherAlert:1
1864549,Eduardo Paredes,RP,LAA,4000,0,0,0,8,30,
1864551,James Pazos,RP,SEA,4000,0,0.75,0,9,30,
1864579,Tanner Roark,SP,WAS,7000,13.3,12.7,0,2,30,Starter:1|VegasBad:1|StarBad:1|PlayerMatchupIsGreat:1|PlayerMatchupIsHorribad:2|ThumbUp:1
1864581,Collin McHugh,SP,HOU,7000,0,1.7,0,16,30,
1864640,Chaz Roe,RP,TB,4000,0,4.4,0,17,30,
1864642,Jonny Venters,RP,TB,4000,0,0.15,0,17,30,
1864657,Roberto Osuna,RP,TOR,4000,0,0,0,14,30,Injured:1
1864659,Chih-Wei Hu,RP,TB,4000,0,0,0,17,30,
1864674,Ryan Sherriff,RP,STL,4000,0,0,0,27,30,WeatherAlert:1
1864924,Ariel Jurado,SP,TEX,4000,0,0,0,6,30,
1864939,Jesus Luzardo,SP,OAK,4000,0,0,0,5,30,
1864941,Antonio Senzatela,SP,COL,4000,0,0,0,25,30,Injured:1
1864956,Frankie Montas,RP,OAK,7900,0,0,0,5,30,
1864958,Seth Lugo,RP,NYM,6500,0,0,0,7,30,WeatherAlert:1
1864974,Peter Moylan,RP,ATL,4000,0,0,0,28,30,WeatherAlert:1
1864976,Chad Bell,RP,ATL,4000,0,0,0,28,30,WeatherAlert:1
1864991,Neil Ramirez,RP,CLE,4000,0,0,0,24,30,
1864993,Adam Wilk,RP,CLE,4000,0,0,0,24,30,
1865008,Richard Bleier,RP,BAL,4000,0,0,0,1,30,WeatherAlert:1
1865010,Mychal Givens,RP,BAL,4000,0,0,0,1,30,WeatherAlert:1
1865221,Williams Perez,SP,CHC,4500,0,0,0,10,30,Injured:1
1865223,Tim Cooney,SP,CLE,4400,0,0,0,24,30,Injured:1
1865236,Adam Conley,SP,MIA,4400,0,2.25,0,11,30,
1865238,Kris Medlen,SP,ARI,4300,0,0,0,13,30,
1865240,Austin Pruitt,SP,TB,4300,0,7.6,0,17,30,
1865253,Nik Turley,SP,PIT,4000,0,0,0,20,30,Injured:1
1865255,P.J. Conlon,SP,NYM,4000,0,0,0,7,30,WeatherAlert:1
1865368,Clay Buchholz,SP,ARI,8200,11.23,3,0,13,30,Starter:1|VegasGood:1|PlayerMatchupIsHorribad:2|PlayerMatchupIsBad:1|ThumbDown:2
1865370,Jakob Junis,SP,KC,8100,0,0,0,23,30,
1865385,Kevin Gausman,SP,BAL,7600,0,0,0,1,30,WeatherAlert:1
1865387,Trevor Richards,SP,MIA,7600,10.35,16.5,0,11,30,Starter:1|PlayerMatchupIsGreat:1|CrowdNegative:3|PlayerMatchupIsHorribad:1|PlayerMatchupIsBad:1
1865402,Jake Odorizzi,SP,MIN,7200,16.69,9.85,0,21,30,Starter:1|PlayerMatchupIsHorribad:1|CrowdPositive:1|PlayerMatchupIsGood:2|VegasGood:1|ThumbDown:1
1865404,Marco Gonzales,SP,SEA,7100,0,0,0,9,30,
1865711,Mike Soroka,SP,ATL,6700,0,0,0,28,30,Injured:1|WeatherAlert:1
1865713,Alex Reyes,SP,STL,6700,0,0,0,27,30,Injured:1|WeatherAlert:1
1865728,Nate Karns,SP,KC,6400,0,0,0,23,30,
1865730,Drew Smyly,SP,CHC,6400,0,0,0,10,30,Injured:1
1865806,Gerrit Cole,SP,HOU,11600,0,0,0,16,30,
1865808,Mike Clevinger,SP,CLE,11100,0,0,0,24,30,
1865821,Carlos Carrasco,SP,CLE,10000,0,0,0,24,30,OptimalPick:1
1865823,Cole Hamels,SP,TEX,9900,0,0,0,6,30,
1865825,Rick Porcello,SP,BOS,9700,0,0,0,29,30,WeatherAlert:1
1865838,Hyun-Jin Ryu,SP,LAD,8900,0,0,0,15,30,Injured:1
1865840,David Price,SP,BOS,8800,0,0,0,29,30,WeatherAlert:1
1863761,Grayson Greiner,C,DET,2700,0,0,0,171,284,
1863763,Pedro Severino,C,WAS,2700,5.56,3,0,119,284,Starter:1|LineupSpot8:1|PlayerMatchupIsHorribad:1|PlayerIsCold:1|VegasBad:1|VegasGood:1
1863778,Jason Castro,C,MIN,2600,0,0,0,257,284,Injured:1
1863780,Sean Murphy,C,OAK,2600,0,0,0,194,284,
1863793,Austin Wynns,C,BAL,2400,2.97,3,0,101,284,Starter:1|LineupSpot9:1|WindHelping:1|PlayerMatchupIsHorribad:1|VegasGood:1|WeatherAlert:1
1863795,Miguel Montero,C,WAS,2400,0,0,0,90,284,
1863797,Cam Gallagher,C,KC,2300,0,0,0,158,284,
1863810,Luke Maile,C,TOR,3400,5.21,0,0,77,284,Starter:1|LineupSpot8:1|PlayerMatchupIsHorribad:3|VegasBad:1
1863812,Elias Diaz,C,PIT,3300,6.37,11,0,25,284,Starter:1|LineupSpot5:1|PlayerMatchupIsHorribad:2|PlayerMatchupIsGreat:2|ThumbUp:1
1863827,Brian McCann,C,HOU,3100,6.69,2,0,38,284,Starter:1|LineupSpot8:1|PlayerMatchupIsHorribad:2|PlayerMatchupIsGreat:1|PlayerIsCold:1
1863829,Travis d'Arnaud,C,NYM,3000,0,0,0,68,284,Injured:1|WeatherAlert:1
1863844,Francisco Pena,C,STL,2800,0,0,0,146,284,WeatherAlert:1
1863846,Martin Maldonado,C,LAA,2800,6.21,0,0,186,284,Starter:1|LineupSpot9:1|PlayerMatchupIsHorribad:2|VegasBad:1|ThumbDown:1
1863861,Matt Carpenter,2B/3B,STL,3800,7.85,5,0,283,284,Starter:1|LineupSpot1:1|PlayerMatchupIsGreat:2|PlayerMatchupIsHorribad:1|WeatherAlert:1
1863863,Christian Arroyo,2B/3B,TB,3400,6.52,3,0,233,284,Starter:1|LineupSpot6:1|PlayerMatchupIsGreat:1|PlayerMatchupIsHorribad:2|VegasGood:1
1863878,Alex Blandino,2B/3B,CIN,2600,0,0,0,208,284,
1863880,Marco Hernandez,2B/3B,BOS,2500,0,0,0,170,284,Injured:1|WeatherAlert:1
1863895,Jose Fernandez,1B/2B,LAA,2900,6.45,0,0,148,284,Starter:1|LineupSpot7:1|PlayerMatchupIsHorribad:2|PlayerMatchupIsGreat:1
1863897,Stephen Vogt,1B/C,MIL,3200,0,0,0,186,284,Injured:1
1863910,Pablo Sandoval,1B/3B,SF,3300,6.36,0,0,89,284,Starter:1|LineupSpot6:1|PlayerMatchupIsHorribad:1|VegasGood:1|StarBad:1
1863912,David Freese,1B/3B,PIT,3100,0,2,0,25,284,
1863914,Matt Skole,1B/3B,CWS,2900,0,0,0,242,284,
1863927,Gio Urshela,3B/SS,TOR,2800,0,0,0,77,284,
1863929,Miguel Rojas,3B/SS,MIA,2800,6.04,0,0,125,284,Starter:1|LineupSpot7:1|PlayerMatchupIsGreat:1|PlayerMatchupIsHorribad:1|PlayerIsCold:1|ThumbDown:1
1863944,Buster Posey,C,SF,4000,7.82,2,0,214,284,Starter:1|LineupSpot2:1|PlayerMatchupIsGreat:2|PlayerMatchupIsHorribad:1|StarBad:1
1863946,Willson Contreras,C,CHC,3800,8.29,3,0,148,284,Starter:1|LineupSpot6:1|PlayerMatchupIsGreat:2|PlayerIsCold:1|VegasGood:1
1863962,Isan Diaz,SS,MIL,3100,0,0,0,186,284,
1863964,Jorge Mateo,SS,OAK,3000,0,0,0,194,284,
1863979,Zach Vincej,SS,SEA,2500,0,0,0,112,284,
1863981,Orlando Calixte,SS,SF,2500,0,0,0,214,284,
1863996,DJ LeMahieu,2B,COL,4000,7.89,5,0,56,284,Starter:1|LineupSpot1:1|PlayerMatchupIsHorribad:1|PlayerMatchupIsGreat:1|VegasGood:1
1863998,Yoan Moncada,2B,CWS,3900,9.17,14,0,242,284,Starter:1|LineupSpot1:1|PlayerMatchupIsGreat:3
1864014,Luis Sardinas,2B/SS,BAL,2700,0,0,0,101,284,Injured:1|WeatherAlert:1
1864016,Danny Espinosa,2B/SS,TOR,2700,0,0,0,1,284,
1864029,Eric Sogard,2B/SS,MIL,2500,0,8,0,186,284,
1864031,Christian Colon,2B/SS,ATL,2300,0,0,0,209,284,WeatherAlert:1
1864033,Jesmuel Valentin,2B/SS,PHI,2300,0,5,0,146,284,
1864046,Howie Kendrick,2B/OF,WAS,2500,0,0,0,119,284,Injured:1
1864048,Jesus Sanchez,OF,TB,2100,0,0,0,208,284,
1864063,Joe Rizzo,3B,SEA,2000,0,0,0,7,284,
1864065,Paul Goldschmidt,1B,ARI,5200,9.53,14,0,74,284,Starter:1|LineupSpot2:1|PlayerMatchupIsHorribad:1|PlayerMatchupIsGreat:1|StarBad:1|ThumbUp:2
1864080,Mark Reynolds,1B,WAS,4000,7.25,0,0,119,284,Starter:1|LineupSpot6:1|PlayerMatchupIsHorribad:1|PlayerMatchupIsGreat:1|PlayerIsCold:1|VegasBad:1
1864082,Greg Bird,1B,NYY,3700,8.16,0,0,179,284,Starter:1|LineupSpot3:1|PlayerMatchupIsGreat:1|VegasBad:2
1864099,Lane Adams,OF,CHC,3100,0,0,0,148,284,
1864101,Brandon Guyer,OF,CLE,3000,0,0,0,159,284,Injured:1
1864116,Jacob May,OF,CWS,2900,0,0,0,242,284,
1864118,Anthony Santander,OF,BAL,2900,0,0,0,101,284,WeatherAlert:1
1864133,Willy Garcia,OF,CWS,2800,0,0,0,107,284,Injured:1
1864135,Kevin Kiermaier,OF,TB,2800,0,0,0,208,284,Injured:1
1864150,Blake Swihart,OF,BOS,2700,0,0,0,170,284,WeatherAlert:1
1864152,Chris Young,OF,LAA,2700,0,0,0,186,284,
1864154,Bubba Starling,OF,KC,2700,0,0,0,158,284,
1864167,Andrew Toles,OF,LAD,2600,0,0,0,153,284,Injured:1
1864169,Hunter Pence,OF,SF,2600,6.18,3,0,214,284,Starter:1|LineupSpot7:1|PlayerMatchupIsGreat:2|PlayerMatchupIsHorribad:1|PlayerIsCold:1
1864184,Ezequiel Carrera,OF,ATL,2300,0,0,0,224,284,WeatherAlert:1
1864186,Kyle Tucker,OF,HOU,2300,0,0,0,38,284,
1864251,Daniel Vogelbach,1B,SEA,2900,0,0,0,7,284,
1864253,Chris Shaw,1B,SF,2900,0,0,0,89,284,
1864268,Jean Segura,SS,SEA,4800,8.1,7,0,112,284,Starter:1|LineupSpot2:1|PlayerMatchupIsGreat:2|PlayerMatchupIsHorribad:1
1864270,Trea Turner,SS,WAS,4500,8.02,3,0,119,284,Starter:1|LineupSpot2:1|PlayerMatchupIsHorribad:1|PlayerMatchupIsGreat:1|ThumbUp:2
1864285,Troy Tulowitzki,SS,TOR,3200,0,0,0,77,284,Injured:1
1864287,Josh Hader,RP,MIL,4000,0,0,0,4,30,
1864348,Alex Kirilloff,OF,MIN,2000,0,0,0,257,284,
1864350,Heliot Ramos,OF,SF,2000,0,0,0,214,284,
1864363,Alex Bregman,3B,HOU,4200,9.27,5,0,41,284,Starter:1|LineupSpot2:1|PlayerMatchupIsHorribad:2|PlayerMatchupIsGreat:2
1864365,Todd Frazier,3B,NYM,3900,8.37,4,0,68,284,Starter:1|LineupSpot2:1|PlayerMatchupIsHorribad:2|PlayerIsHot:1|WeatherAlert:1
1864367,Anthony Rendon,3B,WAS,3900,9.26,0,0,119,284,Starter:1|LineupSpot4:1|PlayerMatchupIsHorribad:1|PlayerMatchupIsGreat:1|VegasBad:1|ThumbUp:1
1864380,Nick Senzel,3B,CIN,3200,0,0,0,208,284,
1864382,Ryan Flaherty,3B,ATL,3100,0,0,0,224,284,WeatherAlert:1
1864444,Joe Panik,2B,SF,3300,7.25,4,0,89,284,Starter:1|LineupSpot1:1|PlayerMatchupIsHorribad:1|PlayerIsCold:1|VegasGood:1
1864446,Luis Urias,2B,SD,3200,0,0,0,16,284,WeatherAlert:1
1864461,Jemile Weeks,2B,CHC,2700,0,0,0,70,284,Injured:1
1864463,Ryan Goins,2B,KC,2600,6.13,0,0,189,284,Starter:1|LineupSpot7:1|PlayerMatchupIsHorribad:1|StarGood:1
1864478,Marwin Gonzalez,1B/OF,HOU,3200,0,0,0,38,284,
1864480,Efren Navarro,1B/OF,CHC,2600,0,0,0,70,284,
1864575,Tim Hill,RP,KC,4000,0,0,0,23,30,
1864577,Travis Wood,RP,DET,4000,0,0,0,19,30,
1864596,Jake McGee,RP,COL,4000,0,0,0,25,30,
1864598,Luis Garcia,RP,PHI,4000,0,-8.4,0,12,30,
1864611,Victor Arano,RP,PHI,4000,0,0,0,12,30,
1864613,Brandon Morrow,RP,CHC,4000,0,0,0,10,30,
1864615,Fernando Rodriguez Jr.,RP,CHC,4000,0,0,0,10,30,Injured:1
1864736,Johnny Field,OF,TB,3800,0,0,0,233,284,
1864738,Marcell Ozuna,OF,STL,3800,7.14,7,0,146,284,Starter:1|LineupSpot4:1|PlayerMatchupIsHorribad:2|WeatherAlert:1
1864753,Gorkys Hernandez,OF,SF,3600,7.18,2,0,214,284,Starter:1|LineupSpot8:1|PlayerMatchupIsGreat:2|PlayerMatchupIsHorribad:1
1864755,Jason Heyward,OF,CHC,3600,8.28,2,0,70,284,Starter:1|LineupSpot2:1|PlayerMatchupIsHorribad:2|PlayerMatchupIsGreat:1|PlayerIsHot:1|VegasGood:1
1864770,Josh Reddick,OF,HOU,3400,7.68,12,0,38,284,Starter:1|LineupSpot6:1|PlayerMatchupIsHorribad:2|PlayerMatchupIsGreat:2|PlayerIsCold:1
1864772,Dylan Cozens,OF,PHI,3400,0,0,0,146,284,Injured:1
1865075,Daniel Stumpf,RP,DET,4000,0,0,0,19,30,Injured:1
1865077,Addison Reed,RP,MIN,4000,0,0,0,21,30,
1865092,Edward Paredes,RP,LAD,4000,0,8.25,0,15,30,
1865094,Tony Cingrani,RP,LAD,4000,0,0,0,15,30,Injured:1
1865109,David Robertson,RP,NYY,4000,0,0,0,18,30,
1865111,Branden Pinder,RP,NYY,4000,0,0,0,18,30,Injured:1
1865262,Austin Hays,OF,BAL,3300,0,0,0,101,284,WeatherAlert:1
1865264,John Andreoli,OF,SEA,3300,0,0,0,112,284,
1865413,Chad Pinder,OF,OAK,3300,0,0,0,194,284,
1865415,Raimel Tapia,OF,COL,3300,0,0,0,71,284,
1865430,Gerardo Parra,OF,COL,3200,7.5,15,0,71,284,Starter:1|LineupSpot6:1|PlayerMatchupIsHorribad:1|PlayerMatchupIsGreat:3|ThumbUp:1
1865432,Keon Broxton,OF,MIL,3200,0,0,0,90,284,
1865447,Victor Reyes,OF,DET,3100,0,0,0,169,284,
1865449,Jacoby Ellsbury,OF,NYY,3100,0,0,0,179,284,
1865611,Bryce Harper,OF,WAS,5400,8.74,8,0,90,284,Starter:1|LineupSpot3:1|PlayerMatchupIsGreat:1|VegasGood:1
1865613,Giancarlo Stanton,OF,NYY,5000,8.69,0,0,54,284,Starter:1|LineupSpot4:1|PlayerMatchupIsHorribad:1|PlayerMatchupIsGreat:2|PlayerIsCold:1|VegasBad:1|ThumbUp:1
1865628,Justin Upton,OF,LAA,4200,8.93,9,0,186,284,Starter:1|LineupSpot3:1|PlayerMatchupIsHorribad:2|PlayerMatchupIsGreat:1|PlayerIsCold:1|ThumbUp:2
1865630,Scott Schebler,OF,CIN,4200,9.66,8,0,228,284,Starter:1|LineupSpot1:1|PlayerMatchupIsGreat:2|PlayerMatchupIsHorribad:1|VegasGood:1
1865645,Corey Dickerson,OF,PIT,4000,8.11,3,0,23,284,Starter:1|LineupSpot2:1|PlayerMatchupIsHorribad:1|PlayerMatchupIsGreat:2|PlayerIsCold:1|VegasGood:1
1865647,Denard Span,OF,SEA,4000,0,0,0,7,284,
1868126,Mark Melancon,RP,SF,4000,0,0,0,30,30,
1868128,Brad Ziegler,RP,MIA,4000,0,3.65,0,11,30,
1868143,Tyler Kinley,RP,MIA,4000,0,0,0,11,30,
1868145,Julian Fernandez,RP,SF,4000,0,0,0,30,30,Injured:1
1864144,Caleb Ferguson,SP,LAD,6100,11.66,6.8,0,15,30,Starter:1|VegasGood:1|CrowdPositive:1|PlayerMatchupIsGreat:1|PlayerMatchupIsHorribad:2
1864145,Joe Ross,SP,WAS,6100,0,0,0,2,30,Injured:1
1864208,Jackson Stephens,RP,CIN,4300,0,0,0,26,30,
1864209,Mark Leiter Jr.,RP,PHI,4300,0,0,0,12,30,
1864223,Archie Bradley,RP,ARI,4000,0,0,0,13,30,
1864226,Silvino Bracho,RP,ARI,4000,0,3.05,0,13,30,
1864240,Sean Reid-Foley,SP,TOR,4500,0,0,0,14,30,
1864241,John Gant,SP,STL,4500,0,0,0,27,30,WeatherAlert:1
1864307,Kendall Graveman,SP,OAK,5000,0,0,0,5,30,
1864308,David Hess,SP,BAL,4900,7.64,-4.5,0,1,30,Starter:1|WindHurting:1|VegasBad:1|CrowdNegative:2|PlayerMatchupIsBad:1|PlayerMatchupIsHorribad:2|ThumbDown:1|WeatherAlert:1
1864322,Chris Bassitt,SP,OAK,4800,0,0,0,5,30,
1864325,Brandon Finnegan,SP,CIN,4700,0,0,0,26,30,
1864326,Chase Anderson,SP,MIL,4700,10.86,29.95,0,4,30,Starter:1|PlayerMatchupIsHorribad:3|CrowdPositive:3|CrowdNegative:1|PlayerIsCold:1|VegasBad:1|StarBad:1|VegasGood:1|ThumbDown:1
1864388,Dylan Cease,SP,CWS,4000,0,0,0,3,30,
1864389,Brandon Workman,SP,BOS,4000,0,0,0,29,30,WeatherAlert:1
1864406,Walker Lockett,SP,SD,4000,0,0,0,22,30,WeatherAlert:1
1864407,Dillon Overton,SP,SD,4000,0,0,0,22,30,WeatherAlert:1
1864421,Richard Lovelady,SP,KC,4000,0,0,0,23,30,
1864424,Victor Alcantara,SP,DET,4000,0,0,0,19,30,
1864425,Tyler Duffey,SP,MIN,4000,0,0,0,21,30,
1864490,Hisashi Iwakuma,SP,SEA,5900,0,0,0,9,30,Injured:1
1864491,Fernando Romero,SP,MIN,5900,0,0,0,21,30,
1864508,Eric Lauer,SP,SD,5500,0,0,0,22,30,WeatherAlert:1
1864509,Zach Davies,SP,MIL,5500,0,0,0,4,30,Injured:1
1864526,Alex Cobb,SP,BAL,5100,0,0,0,1,30,WeatherAlert:1
1864527,Matt Andriese,SP,TB,5100,0,0,0,17,30,
1864540,Ryan Cook,RP,SEA,4000,0,-0.3,0,9,30,
1864541,Juan Nicasio,RP,SEA,4000,0,0,0,9,30,Injured:1
1864558,Dan Altavilla,RP,SEA,4000,0,0,0,9,30,Injured:1
1864559,Keynan Middleton,RP,LAA,4000,0,0,0,8,30,Injured:1
1864633,Chris Lee,RP,BAL,4000,0,0,0,1,30,WeatherAlert:1
1864634,Justin Haley,RP,BOS,4000,0,0,0,29,30,WeatherAlert:1
1864647,Aaron Loup,RP,TOR,4000,0,3.65,0,14,30,
1864648,Ryan Weber,RP,TB,4000,0,0,0,17,30,
1864651,Hunter Wood,RP,TB,4000,0,0,0,17,30,
1864665,Greg Holland,RP,STL,4000,0,0,0,27,30,Injured:1|WeatherAlert:1
1864666,Brad Hand,RP,SD,4000,0,3.65,0,22,30,WeatherAlert:1
1864930,Tommy Milone,SP,WAS,4000,0,0,0,2,30,Injured:1
1864931,Matt Cain,SP,SF,4000,0,0,0,30,30,
1864948,Eddie Butler,SP,CHC,4000,0,0,0,10,30,Injured:1
1864949,Jake Stinnett,SP,CHC,4000,0,0,0,10,30,
1864963,Merandy Gonzalez,RP,MIA,5300,0,0,0,11,30,
1864966,Grant Dayton,RP,ATL,5100,0,0,0,28,30,Injured:1|WeatherAlert:1
1864983,Shane Carle,RP,ATL,4000,0,5.5,0,28,30,WeatherAlert:1
1864984,Andrew Miller,RP,CLE,4000,0,0,0,24,30,Injured:1
1865001,Lisalverto Bonilla,RP,CLE,4000,0,0,0,24,30,Injured:1
1865002,Bruce Rondon,RP,CWS,4000,0,0,0,3,30,
1865016,Jimmy Nelson,SP,MIL,8700,0,0,0,4,30,Injured:1
1865019,Jordan Montgomery,SP,NYY,8500,0,0,0,18,30,Injured:1
1865228,Matt Strahm,SP,SD,4400,3.55,14.75,0,22,30,Starter:1|VegasBad:1|PlayerMatchupIsGreat:1|CrowdNegative:1|CrowdPositive:1|PlayerMatchupIsBad:1|PlayerMatchupIsHorribad:2|WeatherAlert:1
1865231,Artie Lewicki,SP,DET,4400,0,0,0,19,30,
1865245,Keegan Akin,SP,BAL,4200,0,0,0,1,30,WeatherAlert:1
1865246,Homer Bailey,SP,CIN,4200,0,0,0,26,30,Injured:1
1865376,Chad Kuhl,SP,PIT,7800,0,0,0,20,30,
1865377,Felix Hernandez,SP,SEA,7800,0,0,0,9,30,
1865394,Shane Bieber,SP,CLE,7300,0,0,0,24,30,
1865395,Sam Gaviglio,SP,TOR,7300,0,0,0,14,30,
1865652,James Paxton,SP,SEA,12500,0,0,0,9,30,
1865653,Justin Verlander,SP,HOU,12400,0,0,0,16,30,
1865705,Trevor Cahill,SP,OAK,6900,0,0,0,5,30,Injured:1
1865706,Zach Eflin,SP,PHI,6900,0,0,0,12,30,
1865719,Andrew Triggs,SP,OAK,6600,0,0,0,5,30,Injured:1
1865720,Zack Godley,SP,ARI,6500,0,0,0,13,30,
1865737,Michael Kopech,SP,CWS,6200,0,0,0,3,30,
1865738,Anthony DeSclafani,SP,CIN,6200,0,0,0,26,30,
1865800,Luis Severino,SP,NYY,12300,0,0,0,18,30,
1865814,Kenta Maeda,SP,LAD,10800,0,0,0,15,30,Injured:1
1865815,Stephen Strasburg,SP,WAS,10800,0,0,0,2,30,Injured:1
1865832,Jaime Barria,SP,LAA,9200,12.08,6.45,0,8,30,Starter:1|PlayerMatchupIsGreat:1|CrowdPositive:1|PlayerMatchupIsBad:2|VegasGood:1|ThumbDown:2
1865833,Ervin Santana,SP,MIN,9200,0,0,0,21,30,Injured:1
1863770,Andrew Knapp,C,PHI,2700,0,0,0,146,284,
1863771,Alex Avila,C,ARI,2600,0,0,0,95,284,
1863785,Jesus Sucre,C,TB,2500,0,0,0,233,284,
1863788,Juan Centeno,C,TEX,2500,0,0,0,142,284,
1863802,Jarrod Saltalamacchia,C,DET,2100,0,0,0,169,284,
1863803,Rocky Gale,C,LAD,2100,0,0,0,223,284,
1863820,Robinson Chirinos,C,TEX,3200,8.57,2,0,142,284,Starter:1|LineupSpot7:1|PlayerMatchupIsGreat:2
1863821,Nick Hundley,C,SF,3200,0,0,0,214,284,
1863835,James McCann,C,DET,2900,0,0,0,171,284,Injured:1
1863838,Tim Federowicz,C,HOU,2900,0,0,0,41,284,
1863852,Alfredo Gonzalez,C,CWS,2700,0,0,0,107,284,
1863853,Dustin Garneau,C,CWS,2700,0,0,0,107,284,
1863870,Logan Forsythe,2B/3B,LAD,3000,0,0,0,223,284,
1863871,Wilmer Difo,2B/3B,WAS,3000,6.31,3,0,119,284,Starter:1|LineupSpot9:1|PlayerMatchupIsHorribad:1|VegasBad:1
1863885,Brian Anderson,3B/OF,MIA,3600,8.4,7,0,125,284,Starter:1|LineupSpot2:1|PlayerMatchupIsGreat:1|PlayerMatchupIsHorribad:1|OptimalPick:1
1863888,Charlie Culberson,3B/OF,ATL,3000,6.45,4,0,209,284,Starter:1|LineupSpot8:1|PlayerMatchupIsGreat:2|VegasGood:1|ThumbDown:1|WeatherAlert:1
1863889,Renato Nunez,3B/OF,BAL,2900,0,0,0,101,284,WeatherAlert:1
1863902,Austin Barnes,2B/C,LAD,3100,0,0,0,223,284,
1863903,Chris Herrmann,C/OF,SEA,2600,0,0,0,7,284,Injured:1
1863920,Taylor Motter,3B/SS,MIN,3400,0,0,0,78,284,
1863921,Johan Camargo,3B/SS,ATL,3300,6.91,7,0,224,284,Starter:1|LineupSpot6:1|PlayerMatchupIsGreat:2|StarGood:1|WeatherAlert:1
1863935,Sean Rodriguez,OF/SS,PIT,2700,0,6,0,25,284,
1863938,Mike Freeman,OF/SS,CHC,2400,0,0,0,70,284,
1863939,Gary Sanchez,C,NYY,4200,0,0,0,54,284,
1863952,Yadier Molina,C,STL,3500,7.89,2,0,146,284,Starter:1|LineupSpot5:1|PlayerMatchupIsHorribad:2|PlayerMatchupIsGreat:1|VegasGood:2|WeatherAlert:1
1863954,Fernando Tatis Jr.,SS,SD,3200,0,0,0,16,284,WeatherAlert:1
1863971,Pedro Florimon,SS,PHI,2900,0,0,0,146,284,Injured:1
1863972,Jordy Mercer,SS,PIT,2800,6.03,11,0,25,284,Starter:1|LineupSpot8:1|PlayerMatchupIsHorribad:1|PlayerMatchupIsGreat:2|PlayerIsHot:1|ThumbDown:1
1863989,Ozzie Albies,2B,ATL,4900,9.16,20,0,224,284,Starter:1|LineupSpot1:1|PlayerMatchupIsGreat:3|StarBad:1|WeatherAlert:1
1863990,Scooter Gennett,2B,CIN,4800,9.81,5,0,228,284,Starter:1|LineupSpot4:1|PlayerMatchupIsGreat:2|PlayerMatchupIsHorribad:1|VegasGood:1
1864004,Eduardo Nunez,2B/SS,BOS,3600,9.08,5,0,67,284,Starter:1|LineupSpot1:1|WindHelping:1|PlayerMatchupIsHorribad:1|PlayerMatchupIsGreat:1|PlayerIsCold:1|WeatherAlert:1
1864005,Ketel Marte,2B/SS,ARI,3500,6.55,23,0,95,284,Starter:1|LineupSpot7:1|PlayerMatchupIsGreat:1|PlayerIsHot:1|ThumbDown:1
1864008,Dilson Herrera,2B/SS,CIN,3100,0,0,0,208,284,Injured:1
1864022,Gift Ngoepe,2B/SS,TOR,2600,0,0,0,77,284,
1864023,Darwin Barney,2B/SS,TEX,2600,0,0,0,142,284,
1864040,Kike Hernandez,2B/OF,LAD,3300,0,5,0,223,284,
1864041,Jose Pirela,2B/OF,SD,3200,6.37,3,0,16,284,Starter:1|LineupSpot3:1|PlayerMatchupIsHorribad:3|PlayerIsCold:1|WeatherAlert:1
1864054,Kaleb Cowart,3B,LAA,2800,0,0,0,148,284,Injured:1
1864055,Lucas Erceg,3B,MIL,2800,0,0,0,186,284,
1864058,Nolan Jones,3B,CLE,2500,0,0,0,215,284,
1864072,Joey Votto,1B,CIN,4300,9.97,18,0,228,284,Starter:1|LineupSpot3:1|PlayerMatchupIsGreat:2|PlayerMatchupIsHorribad:1|PlayerIsHot:1|VegasGood:1|ThumbDown:1
1864073,Jesus Aguilar,1B,MIL,4300,0,0,0,90,284,
1864090,Josh Bell,1B,PIT,3400,7.18,17,0,23,284,Starter:1|LineupSpot6:1|PlayerMatchupIsHorribad:1|PlayerMatchupIsGreat:2|PlayerIsHot:1
1864091,Ryon Healy,1B,SEA,3400,6.89,28,0,112,284,Starter:1|LineupSpot6:1|PlayerMatchupIsGreat:1|PlayerMatchupIsHorribad:1|ThumbDown:1
1864107,Jim Adduci,OF,DET,3000,0,0,0,169,284,
1864110,Roman Quinn,OF,PHI,3000,0,0,0,146,284,
1864124,Steven Duggar,OF,SF,2900,0,0,0,89,284,
1864125,Gregor Blanco,OF,SF,2900,0,0,0,89,284,
1864142,Matt den Dekker,OF,NYM,2700,0,0,0,160,284,WeatherAlert:1
1864143,Danny Santana,OF,ATL,2700,0,0,0,224,284,Injured:1|WeatherAlert:1
1864159,Franklin Gutierrez,OF,LAD,2700,0,0,0,223,284,Injured:1
1864162,Jake Marisnick,OF,HOU,2700,0,0,0,41,284,
1864176,Jahmai Jones,OF,LAA,2500,0,0,0,186,284,
1864177,Shane Robinson,OF,NYY,2500,0,0,0,54,284,
1864244,Peter Alonso,1B,NYM,3100,0,0,0,68,284,WeatherAlert:1
1864245,Bobby Bradley,1B,CLE,3100,0,0,0,215,284,
1864259,Evan White,1B,SEA,2500,0,0,0,112,284,
1864262,Chris Carter,1B,LAA,2100,0,0,0,186,284,
1864276,Andrelton Simmons,SS,LAA,3800,0,0,0,186,284,Injured:1
1864277,Marcus Semien,SS,OAK,3800,8.43,3,0,194,284,Starter:1|LineupSpot2:1|PlayerMatchupIsGreat:1|PlayerIsCold:1|ThumbDown:1
1864340,Eric Young Jr.,OF,LAA,2100,0,0,0,148,284,
1864341,Cameron Perkins,OF,SEA,2100,0,0,0,112,284,
1864355,Nolan Arenado,3B,COL,5000,8.29,0,0,56,284,Starter:1|LineupSpot3:1|PlayerMatchupIsHorribad:1|PlayerMatchupIsGreat:2|PlayerIsCold:1
1864358,Travis Shaw,3B,MIL,4500,8.86,20,0,186,284,Starter:1|LineupSpot4:1|PlayerMatchupIsHorribad:1|PlayerMatchupIsGreat:2|PlayerIsCold:1
1864372,Evan Longoria,3B,SF,3600,7.15,3,0,214,284,Starter:1|LineupSpot5:1|PlayerMatchupIsGreat:2|PlayerMatchupIsHorribad:1|VegasBad:1
1864373,Yolmer Sanchez,3B,CWS,3500,8.21,16,0,242,284,Starter:1|LineupSpot2:1|PlayerMatchupIsGreat:2
1864437,Alen Hanson,2B,SF,3800,0,0,0,89,284,
1864438,Ian Kinsler,2B,LAA,3700,8.23,9,0,186,284,Starter:1|LineupSpot1:1|PlayerMatchupIsHorribad:2|VegasBad:1|ThumbUp:1
1864452,Micah Johnson,2B,TB,2800,0,0,0,208,284,
1864455,Chase Utley,2B,LAD,2800,0,0,0,153,284,Injured:1
1864469,Matt Adams,1B/OF,WAS,3900,0,0,0,90,284,
1864470,Ian Desmond,1B/OF,COL,3600,6.42,5,0,56,284,Starter:1|LineupSpot7:1|PlayerMatchupIsHorribad:1|PlayerMatchupIsGreat:1|VegasGood:1
1864567,Brian Flynn,RP,KC,4000,0,0,0,23,30,
1864568,Kelvin Herrera,RP,KC,4000,0,-1.55,0,23,30,
1864586,Jandel Gustave,RP,HOU,4000,0,0,0,16,30,Injured:1
1864589,Francis Martes,RP,HOU,4000,0,0,0,16,30,
1864603,Rayan Gonzalez,RP,COL,4000,0,0,0,25,30,Injured:1
1864604,Bryan Shaw,RP,COL,4000,0,1.05,0,25,30,
1864621,Dan Jennings,RP,MIL,4000,0,0,0,4,30,
1864622,Cory Mazzoni,RP,CHC,4000,0,0,0,10,30,
1864729,Aaron Hicks,OF,NYY,4000,8.07,7,0,179,284,Starter:1|LineupSpot6:1|StarBad:1
1864746,Hunter Renfroe,OF,SD,3700,6.64,0,0,16,284,Starter:1|LineupSpot4:1|PlayerMatchupIsHorribad:3|VegasBad:2|StarBad:1|WeatherAlert:1
1864747,Phillip Ervin,OF,CIN,3700,0,0,0,208,284,
1864760,Derek Fisher,OF,HOU,3500,0,0,0,38,284,
1864761,Jon Jay,OF,ARI,3400,8.14,28,0,95,284,Starter:1|LineupSpot1:1|PlayerMatchupIsGreat:1|PlayerIsCold:1|VegasBad:1|ThumbDown:1
1864968,Zach Duke,RP,MIN,4000,0,2.15,0,21,30,
1864969,Fernando Rodney,RP,MIN,4000,0,6.25,0,21,30,
1865085,Kenley Jansen,RP,LAD,4000,0,0,0,15,30,
1865086,Tony Barnette,RP,TEX,4000,0,9.3,0,6,30,
1865100,Shawn Tolleson,RP,TEX,4000,0,0,0,6,30,Injured:1
1865103,Alex Claudio,RP,TEX,4000,0,-5.85,0,6,30,
1865421,Anthony Alford,OF,TOR,3200,0,0,0,77,284,
1865422,Dwight Smith Jr.,OF,TOR,3200,0,0,0,1,284,
1865439,Dalton Pompey,OF,TOR,3100,0,0,0,1,284,Injured:1
1865440,Alex Dickerson,OF,SD,3100,0,0,0,74,284,Injured:1|WeatherAlert:1
1865606,Mike Trout,OF,LAA,5900,11.02,33,0,186,284,Starter:1|LineupSpot2:1|PlayerMatchupIsHorribad:2|PlayerMatchupIsGreat:1|VegasBad:1|ThumbUp:1
1865619,A.J. Pollock,OF,ARI,4600,0,0,0,74,284,Injured:1
1865620,Tommy Pham,OF,STL,4500,8.68,5,0,146,284,Starter:1|LineupSpot2:1|PlayerMatchupIsHorribad:2|PlayerMatchupIsGreat:1|WeatherAlert:1
1865637,Lorenzo Cain,OF,MIL,4200,7.36,4,0,90,284,Starter:1|LineupSpot3:1|PlayerMatchupIsHorribad:1|PlayerMatchupIsGreat:1|VegasBad:1
1865638,Starling Marte,OF,PIT,4100,8.8,23,0,25,284,Starter:1|LineupSpot3:1|PlayerMatchupIsHorribad:1|PlayerMatchupIsGreat:3
1868118,Sean Doolittle,RP,WAS,4000,0,0,0,2,30,
1868119,Justin Miller,RP,WAS,4000,0,0,0,2,30,
1868136,Brett Graves,RP,MIA,4000,0,0,0,11,30,Injured:1
1868137,Nick Wittgren,RP,MIA,4000,0,0,0,11,30,Injured:1
1868150,Will Harris,RP,HOU,4000,0,0,0,16,30,
1868151,Chris Hatcher,RP,OAK,4000,0,4.7,0,5,30,
1868154,Yusmeiro Petit,RP,OAK,4000,0,0,0,5,30,
1863953,Rob Whalen,RP,SEA,5100,0,0,0,9,30,
1864096,Dane Dunning,SP,CWS,4000,0,0,0,3,30,
1864195,Dereck Rodriguez,RP,SF,5000,0,0,0,30,30,
1864197,Chris Volstad,RP,CWS,4900,0,0,0,3,30,
1864220,Randall Delgado,RP,ARI,4000,0,0,0,13,30,Injured:1
1864222,Kyle Crick,RP,PIT,4000,0,0,0,20,30,
1864227,Steve Hathaway,RP,ARI,4000,0,0,0,13,30,
1864229,Enny Romero,RP,PIT,4000,0,0,0,20,30,Injured:1
1864231,Richard Rodriguez,RP,PIT,4000,0,0,0,20,30,Injured:1
1864301,Mitch Keller,SP,PIT,5000,0,0,0,20,30,
1864303,Daniel Norris,SP,DET,5000,0,0,0,19,30,Injured:1
1864305,Dillon Peters,SP,MIA,5000,0,0,0,11,30,
1864310,Phil Hughes,SP,SD,4900,0,0,0,22,30,WeatherAlert:1
1864312,A.J. Puk,SP,OAK,4900,0,0,0,5,30,
1864335,A.J. Griffin,SP,NYM,4500,0,0,0,7,30,WeatherAlert:1
1864386,Adrian Sampson,SP,TEX,4000,0,0,0,6,30,Injured:1
1864393,Ty Buttrey,SP,BOS,4000,0,0,0,29,30,WeatherAlert:1
1864395,Roniel Raudes,SP,BOS,4000,0,0,0,29,30,WeatherAlert:1
1864418,Foster Griffin,SP,KC,4000,0,0,0,23,30,
1864420,Hunter Greene,SP,CIN,4000,0,0,0,26,30,
1864427,Zack Littell,SP,MIN,4000,0,0,0,21,30,
1864429,Kyle Funkhouser,SP,DET,4000,0,0,0,19,30,
1864504,Ian Kennedy,SP,KC,5600,10.42,24.4,0,23,30,Starter:1|PlayerMatchupIsGreat:1|CrowdNegative:2|PlayerMatchupIsBad:2|PlayerMatchupIsHorribad:1|VegasBad:2|ThumbDown:1
1864506,A.J. Cole,SP,NYY,5600,0,0,0,18,30,
1864511,Marco Estrada,SP,TOR,5400,0,0,0,14,30,
1864513,Wade Miley,SP,MIL,5400,0,0,0,4,30,
1864536,Blake Wood,RP,LAA,4000,0,0,0,8,30,Injured:1
1864538,Jim Johnson,RP,LAA,4000,0,0,0,8,30,
1864545,Alex Colome,RP,SEA,4000,0,2.25,0,9,30,
1864547,Chasen Bradford,RP,SEA,4000,0,0,0,9,30,
1864636,Tanner Scott,RP,BAL,4000,0,0,0,1,30,WeatherAlert:1
1864638,Seunghwan Oh,RP,TOR,4000,0,0,0,14,30,
1864661,Luke Gregerson,RP,STL,4000,0,0,0,27,30,Injured:1|WeatherAlert:1
1864663,Bud Norris,RP,STL,4000,0,0,0,27,30,WeatherAlert:1
1864668,Tyler Lyons,RP,STL,4000,0,0,0,27,30,Injured:1|WeatherAlert:1
1864670,Mike Mayers,RP,STL,4000,0,-0.35,0,27,30,WeatherAlert:1
1864672,Kirby Yates,RP,SD,4000,0,1.65,0,22,30,WeatherAlert:1
1864775,Jeurys Familia,RP,NYM,4000,0,0,0,7,30,Injured:1|WeatherAlert:1
1864926,Jonathon Niese,SP,NYY,4000,0,0,0,18,30,Injured:1
1864928,Albert Abreu,SP,NYY,4000,0,0,0,18,30,
1864935,Brett Anderson,SP,OAK,4000,0,0,0,5,30,Injured:1
1864937,Raul Alcantara,SP,OAK,4000,0,0,0,5,30,
1864960,Brad Peacock,RP,HOU,5800,0,2.75,0,16,30,
1864962,Austin Gomber,RP,STL,5300,0,0,0,27,30,WeatherAlert:1
1864967,Hunter Harvey,RP,BAL,5100,0,0,0,1,30,Injured:1|WeatherAlert:1
1864972,Hansel Robles,RP,NYM,4000,0,0,0,7,30,WeatherAlert:1
1864995,Luis Avilan,RP,CWS,4000,0,0,0,3,30,
1864997,Ryan Merritt,RP,CLE,4000,0,0,0,24,30,Injured:1
1865004,Perci Garner,RP,CLE,4000,0,0,0,24,30,Injured:1
1865006,Darren O'Day,RP,BAL,4000,0,6.25,0,1,30,WeatherAlert:1
1865225,Carson Fulmer,SP,CWS,4400,0,0,0,3,30,
1865227,Mike Wright Jr.,SP,BAL,4400,0,0,0,1,30,WeatherAlert:1
1865232,Edinson Volquez,SP,TEX,4400,0,0,0,6,30,Injured:1
1865234,Martin Perez,SP,TEX,4400,0,0,0,6,30,Injured:1
1865257,Jesse Biddle,SP,ATL,4000,0,-3.05,0,28,30,WeatherAlert:1
1865259,Ricardo Sanchez,SP,ATL,4000,0,0,0,28,30,WeatherAlert:1
1865372,Aaron Sanchez,SP,TOR,8000,0,0,0,14,30,
1865374,Chris Stratton,SP,SF,7900,14.5,10.95,0,30,30,Starter:1|PlayerMatchupIsGreat:1|CrowdNegative:3|PlayerMatchupIsHorribad:2|CrowdPositive:1|StarGood:1|ThumbDown:2
1865381,Carlos Rodon,SP,CWS,7700,0,0,0,3,30,
1865383,Dallas Keuchel,SP,HOU,7700,0,0,0,16,30,
1865715,Nick Tropeano,SP,LAA,6700,0,0,0,8,30,
1865717,Matt Shoemaker,SP,LAA,6600,0,0,0,8,30,Injured:1
1865724,Alex Meyer,SP,LAA,6500,0,0,0,8,30,Injured:1
1865726,Andrew Suarez,SP,SF,6500,0,0,0,30,30,
1865810,Chris Sale,SP,BOS,11100,0,0,0,29,30,WeatherAlert:1
1865812,Jose Berrios,SP,MIN,11100,0,0,0,21,30,
1865817,J.A. Happ,SP,TOR,10400,0,0,0,14,30,
1865819,Jack Flaherty,SP,STL,10200,0,0,0,27,30,WeatherAlert:1
1863782,Jacob Stallings,C,PIT,2500,0,0,0,25,284,
1863784,Caleb Joseph,C,BAL,2500,0,0,0,101,284,WeatherAlert:1
1863789,Spencer Kieboom,C,WAS,2500,0,0,0,119,284,
1863791,Jose Lobaton,C,NYM,2400,0,0,0,160,284,WeatherAlert:1
1863814,Yan Gomes,C,CLE,3300,6.71,0,0,159,284,Starter:1|LineupSpot7:1|PlayerMatchupIsHorribad:1|PlayerIsHot:1|ThumbUp:1
1863816,Chris Iannetta,C,COL,3300,0,5,0,56,284,
1863818,Jose Briceno,C,LAA,3200,0,0,0,186,284,
1863823,Francisco Mejia,C,CLE,3100,0,0,0,215,284,
1863825,A.J. Ellis,C,SD,3100,5.62,7,0,16,284,Starter:1|LineupSpot8:1|PlayerMatchupIsHorribad:3|WeatherAlert:1
1863848,Cameron Rupp,C,TEX,2800,0,0,0,142,284,
1863850,Jett Bandy,C,MIL,2800,0,0,0,90,284,
1863857,Austin Jackson,OF,SF,3100,0,0,0,214,284,
1863859,Daniel Descalso,2B/3B,ARI,3800,8.75,11,0,95,284,Starter:1|LineupSpot5:1|PlayerMatchupIsGreat:2|OptimalPick:1|ThumbUp:1
1863882,Phil Gosselin,2B/3B,ATL,2400,0,0,0,209,284,WeatherAlert:1
1863884,Adam Rosales,2B/3B,PHI,2200,0,0,0,153,284,
1863891,Rob Segedin,3B/OF,LAD,2900,0,0,0,223,284,
1863893,Patrick Kivlehan,3B/OF,CIN,2300,0,0,0,208,284,
1863916,Chase Headley,1B/3B,SD,2400,0,0,0,74,284,WeatherAlert:1
1863918,Jung Ho Kang,3B/SS,PIT,3700,0,0,0,25,284,Injured:1
1863923,Jorge Polanco,3B/SS,MIN,3000,0,0,0,78,284,Injured:1
1863925,Scott Kingery,3B/SS,PHI,3000,6.49,22,0,153,284,Starter:1|LineupSpot5:1|PlayerMatchupIsGreat:2|PlayerMatchupIsHorribad:1|PlayerIsHot:1|ThumbDown:1
1863948,Austin Romine,C,NYY,3700,6,5,0,54,284,Starter:1|LineupSpot8:1|PlayerMatchupIsHorribad:1|VegasGood:1
1863950,Tyler Flowers,C,ATL,3600,7.54,5,0,209,284,Starter:1|LineupSpot5:1|PlayerMatchupIsGreat:2|WeatherAlert:1
1863958,Ryan Mountcastle,SS,BAL,3100,0,0,0,101,284,WeatherAlert:1
1863960,Addison Russell,SS,CHC,3100,6.66,3,0,148,284,Starter:1|LineupSpot8:1|PlayerMatchupIsGreat:1|PlayerMatchupIsHorribad:1|PlayerIsCold:1|VegasGood:1|StarGood:1
1863983,Andres Gimenez,SS,NYM,2000,0,0,0,160,284,WeatherAlert:1
1863985,Delvin Perez,SS,STL,2000,0,0,0,146,284,WeatherAlert:1
1863992,Gleyber Torres,2B,NYY,4100,7.75,3,0,54,284,Starter:1|LineupSpot9:1|PlayerMatchupIsHorribad:1|PlayerMatchupIsGreat:1
1863994,Jed Lowrie,2B,OAK,4100,7.77,4,0,61,284,Starter:1|LineupSpot3:1|PlayerMatchupIsHorribad:3|PlayerMatchupIsGreat:1|PlayerIsCold:1|StarBad:1|ThumbUp:1
1864018,Hanser Alberto,2B/SS,TEX,2700,0,0,0,142,284,
1864020,Chase d'Arnaud,2B/SS,SF,2700,0,0,0,214,284,
1864025,Yadiel Rivera,2B/SS,MIA,2600,0,0,0,125,284,
1864027,Cliff Pennington,2B/SS,TEX,2500,0,0,0,142,284,
1864050,Martin Prado,3B,MIA,2900,0,0,0,125,284,Injured:1
1864052,David Wright,3B,NYM,2800,0,0,0,68,284,Injured:1|WeatherAlert:1
1864059,Kyle Farmer,3B,LAD,2500,0,0,0,223,284,
1864061,Michael Chavis,3B,BOS,2300,0,0,0,67,284,WeatherAlert:1
1864084,Lucas Duda,1B,KC,3600,0,0,0,189,284,Injured:1
1864086,Jake Bauers,1B,TB,3500,6.47,5,0,208,284,Starter:1|LineupSpot2:1|PlayerMatchupIsGreat:2|PlayerMatchupIsHorribad:1|OptimalPick:1|PlayerIsHot:1|VegasBad:1
1864093,Tyler Austin,1B,NYY,3400,0,0,0,54,284,
1864095,Luke Voit,1B,STL,3300,0,0,0,146,284,WeatherAlert:1
1864120,Matt Szczur,OF,SD,2900,0,0,0,16,284,WeatherAlert:1
1864122,Brett Eibner,OF,TEX,2900,0,0,0,142,284,Injured:1
1864129,Mark Zagunis,OF,CHC,2900,0,0,0,148,284,
1864131,Steven Souza Jr.,OF,ARI,2800,0,0,0,74,284,Injured:1
1864156,Chad Huffman,OF,DET,2700,0,0,0,171,284,
1864158,Ryan Rua,OF,TEX,2700,0,0,0,142,284,
1864163,Nick Martini,OF,OAK,2700,0,0,0,61,284,
1864165,Rob Refsnyder,OF,TB,2600,5.58,2,0,233,284,Starter:1|LineupSpot9:1|PlayerMatchupIsGreat:1|PlayerMatchupIsHorribad:2|PlayerIsCold:1
1864188,Jake Smolinski,OF,OAK,2300,0,0,0,194,284,
1864190,Daniel Nava,OF,PIT,2100,0,0,0,23,284,
1864247,Hunter Dozier,1B,KC,3100,5.32,14,0,158,284,Starter:1|LineupSpot6:1|PlayerMatchupIsHorribad:2|PlayerIsCold:1|VegasGood:1|VegasBad:1
1864249,Tommy Joseph,1B,TEX,3100,0,0,0,142,284,
1864272,Brandon Crawford,SS,SF,4100,7.85,2,0,89,284,Starter:1|LineupSpot4:1|PlayerMatchupIsHorribad:1
1864274,Dansby Swanson,SS,ATL,3900,8.08,5,0,209,284,Starter:1|LineupSpot2:1|PlayerMatchupIsGreat:2|ThumbUp:1|WeatherAlert:1
1864281,Jurickson Profar,SS,TEX,3500,8.21,5,0,142,284,Starter:1|LineupSpot3:1|PlayerMatchupIsGreat:2
1864283,Willy Adames,SS,TB,3300,7.19,10,0,233,284,Starter:1|LineupSpot5:1|PlayerMatchupIsGreat:2|PlayerMatchupIsHorribad:2
1864352,Austin Beck,OF,OAK,2000,0,0,0,194,284,
1864354,Jose Ramirez,3B,CLE,5500,10.33,7,0,215,284,Starter:1|LineupSpot3:1|PlayerMatchupIsGreat:2|PlayerMatchupIsHorribad:1|PlayerIsCold:1|VegasGood:1|ThumbUp:2
1864359,Jake Lamb,3B,ARI,4400,9.81,2,0,95,284,Starter:1|LineupSpot3:1|PlayerMatchupIsGreat:2|OptimalPick:1|PlayerIsHot:1
1864361,Christian Villanueva,3B,SD,4200,0,2,0,16,284,WeatherAlert:1
1864384,Yandy Diaz,3B,CLE,2900,0,0,0,159,284,
1864433,Jonathan Holder,RP,NYY,4000,0,0,0,18,30,
1864440,Jason Kipnis,2B,CLE,3500,6.48,0,0,215,284,Starter:1|LineupSpot6:1|PlayerMatchupIsGreat:1|PlayerMatchupIsHorribad:1|VegasGood:1|ThumbUp:1
1864442,Tyler Wade,2B,NYY,3400,0,0,0,179,284,
1864465,Max Schrock,2B,OAK,2100,0,0,0,61,284,
1864467,Cody Bellinger,1B/OF,LAD,4200,9.88,18,0,153,284,Starter:1|LineupSpot5:1|PlayerMatchupIsHorribad:1|PlayerMatchupIsGreat:1|ThumbUp:1
1864474,Trey Mancini,1B/OF,BAL,3300,6.91,3,0,101,284,Starter:1|LineupSpot5:1|WindHelping:1|VegasBad:1|WeatherAlert:1
1864476,Ji-Man Choi,1B/OF,TB,3200,0,0,0,208,284,
1864583,Ken Giles,RP,HOU,4000,0,5.65,0,16,30,
1864585,Blake Treinen,RP,OAK,4000,0,0,0,5,30,
1864590,Sam Howard,RP,COL,4000,0,0,0,25,30,
1864592,Adam Ottavino,RP,COL,4000,0,0,0,25,30,Injured:1
1864594,Mike Dunn,RP,COL,4000,0,0,0,25,30,Injured:1
1864617,Pedro Strop,RP,CHC,4000,0,0,0,10,30,
1864619,Steve Cishek,RP,CHC,4000,0,0,0,10,30,
1864624,Carl Edwards Jr.,RP,CHC,4000,0,0,0,10,30,Injured:1
1864740,Derek Dietrich,OF,MIA,3800,8.11,5,0,109,284,Starter:1|LineupSpot1:1|PlayerMatchupIsGreat:1|PlayerMatchupIsHorribad:1|PlayerIsCold:1|ThumbUp:1
1864742,David Dahl,OF,COL,3800,0,0,0,71,284,Injured:1
1864749,Michael Conforto,OF,NYM,3600,8.9,2,0,160,284,Starter:1|LineupSpot1:1|PlayerMatchupIsGreat:1|PlayerIsCold:1|StarGood:1|WeatherAlert:1
1864751,Tyler O'Neill,OF,STL,3600,0,0,0,146,284,WeatherAlert:1
1864774,Melky Cabrera,OF,CLE,3300,0,0,0,215,284,
1865079,Drew VerHagen,RP,DET,4000,0,0,0,19,30,
1865081,Trevor Hildenberger,RP,MIN,4000,0,7.15,0,21,30,
1865088,Matt Bush,RP,TEX,4000,0,5.65,0,6,30,
1865090,Pedro Baez,RP,LAD,4000,0,0,0,15,30,
1865417,Jay Bruce,OF,NYM,3200,7.07,9,0,160,284,Starter:1|LineupSpot5:1|PlayerIsCold:1|VegasGood:1|StarGood:1|WeatherAlert:1
1865419,Tyler Naquin,OF,CLE,3200,0,0,0,215,284,Injured:1
1865426,Yusniel Diaz,OF,LAD,3200,0,0,0,223,284,
1865428,Victor Robles,OF,WAS,3200,0,0,0,119,284,
1865451,Billy McKinney,OF,NYY,3100,0,0,0,179,284,
1865453,Austin Slater,OF,SF,3100,0,0,0,214,284,
1865615,Christian Yelich,OF,MIL,4900,9.42,7,0,186,284,Starter:1|LineupSpot2:1|PlayerMatchupIsHorribad:1|PlayerMatchupIsGreat:2|VegasGood:1|ThumbUp:1
1865617,Eddie Rosario,OF,MIN,4700,9.17,5,0,257,284,Starter:1|LineupSpot2:1|PlayerMatchupIsGreat:3|VegasGood:1
1865624,Matt Kemp,OF,LAD,4400,8.25,4,0,223,284,Starter:1|LineupSpot4:1|PlayerMatchupIsGreat:3|PlayerIsCold:1|ThumbUp:1
1865626,Joc Pederson,OF,LAD,4300,8.6,28,0,153,284,Starter:1|LineupSpot8:1|PlayerMatchupIsHorribad:1|PlayerMatchupIsGreat:1|StarBad:1|ThumbUp:2
1868130,Hunter Strickland,RP,SF,4000,0,0,0,30,30,
1868132,Reyes Moronta,RP,SF,4000,0,0,0,30,30,
1868139,Chris O'Grady,RP,MIA,4000,0,0,0,11,30,Injured:1
1868141,Tayron Guerrero,RP,MIA,4000,0,0,0,11,30,
1864202,Dan Winkler,RP,ATL,4500,0,0,0,28,30,WeatherAlert:1
1864204,Erasmo Ramirez,RP,SEA,4500,0,0,0,9,30,Injured:1
1864211,Austin Voth,RP,WAS,4200,0,0,0,2,30,
1864213,Elieser Hernandez,RP,MIA,4100,0,0,0,11,30,
1864236,Edgar Santana,RP,PIT,4000,0,0,0,20,30,
1864238,Anthony Swarzak,RP,NYM,4000,0,0,0,7,30,WeatherAlert:1
1864294,Yovani Gallardo,SP,TEX,5100,0,0,0,6,30,
1864296,Chance Adams,SP,NYY,5100,0,0,0,18,30,
1864319,Matt Harvey,SP,CIN,4800,0,0,0,26,30,
1864321,Derek Holland,SP,SF,4800,0,0,0,30,30,
1864328,Andrew Cashner,SP,BAL,4600,0,0,0,1,30,WeatherAlert:1
1864330,Jason Hammel,SP,KC,4600,0,0,0,23,30,
1864402,Bryan Mitchell,SP,SD,4000,0,0,0,22,30,WeatherAlert:1
1864404,Luis Perdomo,SP,SD,4000,0,0,0,22,30,WeatherAlert:1
1864409,Dakota Hudson,SP,STL,4000,0,0,0,27,30,WeatherAlert:1
1864411,Trevor Oaks,SP,KC,4000,0,0,0,23,30,
1864486,Brandon Woodruff,SP,MIL,6000,0,0,0,4,30,
1864488,Brandon McCarthy,SP,ATL,5900,0,0,0,28,30,WeatherAlert:1
1864495,Bartolo Colon,SP,TEX,5800,8,-8.5,0,6,30,Starter:1|VegasBad:1|CrowdPositive:1|StarGood:2|PlayerMatchupIsGreat:1|PlayerMatchupIsHorribad:2|PlayerIsCold:1|ThumbDown:2
1864497,Scott Kazmir,SP,ATL,5700,0,0,0,28,30,Injured:1|WeatherAlert:1
1864520,Marcos Molina,SP,NYM,5200,0,0,0,7,30,WeatherAlert:1
1864522,Miguel Gonzalez,SP,CWS,5200,0,0,0,3,30,Injured:1
1864529,Andrew Albers,SP,SEA,5100,0,0,0,9,30,
1864531,Matt Barnes,RP,BOS,4000,0,3.65,0,29,30,WeatherAlert:1
1864554,Christian Bergman,RP,SEA,4000,0,0,0,9,30,
1864556,Parker Bridwell,RP,LAA,4000,0,0,0,8,30,
1864561,Robert Stephenson,RP,CIN,4000,0,0,0,26,30,
1864563,Jared Hughes,RP,CIN,4000,0,0,0,26,30,
1864643,Tyler Clippard,RP,TOR,4000,0,2.25,0,14,30,
1864645,Evan Scribner,RP,TB,4000,0,0,0,17,30,Injured:1
1864652,Vidal Nuno,RP,TB,4000,0,0,0,17,30,
1864654,Danny Barnes,RP,TOR,4000,0,0,0,14,30,
1864942,Yency Almonte,SP,COL,4000,0,0,0,25,30,
1864944,Peter Lambert,SP,COL,4000,0,0,0,25,30,
1864951,Adbert Alzolay,SP,CHC,4000,0,0,0,10,30,
1864953,Marcos Diplan,SP,MIL,4000,0,0,0,4,30,
1864979,Max Fried,RP,ATL,4000,0,0,0,28,30,WeatherAlert:1
1864981,Jose Ramirez,RP,ATL,4000,0,0,0,28,30,Injured:1|WeatherAlert:1
1864988,Joakim Soria,RP,CWS,4000,0,0.75,0,3,30,
1864990,Nate Jones,RP,CWS,4000,0,-0.45,0,3,30,
1865013,Pedro Araujo,RP,BAL,4000,0,0,0,1,30,Injured:1|WeatherAlert:1
1865015,Austin Maddox,RP,BOS,4000,0,0,0,29,30,Injured:1|WeatherAlert:1
1865216,John Lamb,SP,LAA,4500,0,0,0,8,30,Injured:1
1865218,Brock Stewart,SP,LAD,4500,0,0,0,15,30,
1865241,Dietrich Enns,SP,MIN,4300,0,0,0,21,30,
1865243,Jen-Ho Tseng,SP,CHC,4300,0,0,0,10,30,
1865250,Lucas Giolito,SP,CWS,4100,0,0,0,3,30,
1865252,Jorge De La Rosa,SP,ARI,4000,0,0,0,13,30,Injured:1
1865363,Masahiro Tanaka,SP,NYY,8400,0,0,0,18,30,Injured:1
1865365,Matthew Boyd,SP,DET,8300,0,0,0,19,30,
1865367,Jon Lester,SP,CHC,8300,0,0,0,10,30,
1865390,Trevor Williams,SP,PIT,7400,9.11,-0.05,0,20,30,Starter:1|VegasBad:1|PlayerMatchupIsHorribad:1|PlayerMatchupIsBad:2|PlayerIsCold:1|ThumbUp:1
1865392,Dinelson Lamet,SP,SD,7400,0,0,0,22,30,Injured:1|WeatherAlert:1
1865397,Alex Wood,SP,LAD,7300,0,0,0,15,30,Injured:1
1865399,Daniel Mengden,SP,OAK,7300,11.25,-6.7,0,5,30,Starter:1|VegasBad:2|PlayerMatchupIsHorribad:3|CrowdNegative:1|StarGood:1|ThumbUp:1|ThumbDown:1
1865650,Corey Kluber,SP,CLE,13600,0,0,0,24,30,
1865708,Blaine Hardy,SP,DET,6800,6.38,17.1,0,19,30,Starter:1|PlayerMatchupIsHorribad:2|CrowdPositive:2|PlayerMatchupIsGreat:1|VegasGood:1|StarGood:1|ThumbDown:1
1865710,Taijuan Walker,SP,ARI,6700,0,0,0,13,30,Injured:1
1865733,Erick Fedde,SP,WAS,6300,0,0,0,2,30,
1865735,Sean Manaea,SP,OAK,6300,0,0,0,5,30,
1865740,Jerad Eickhoff,SP,PHI,6200,0,0,0,12,30,Injured:1
1865742,Jaime Garcia,SP,TOR,6100,10.54,6.45,0,14,30,Starter:1|PlayerMatchupIsGreat:3|VegasBad:1|StarBad:1
1865801,Aaron Nola,SP,PHI,12000,20.84,34,0,12,30,Starter:1|VegasGood:1|PlayerMatchupIsHorribad:3|PlayerMatchupIsGreat:1|CrowdPositive:1|StarGood:1
1865803,Trevor Bauer,SP,CLE,11800,0,0,0,24,30,
1865826,Michael Wacha,SP,STL,9700,0,0,0,27,30,WeatherAlert:1
1865828,Nick Pivetta,SP,PHI,9600,0,0,0,12,30,
1865835,Tyson Ross,SP,SD,9100,0,0,0,22,30,WeatherAlert:1
1865837,Jake Arrieta,SP,PHI,9100,0,0,0,12,30,
1863764,Tomas Telis,C,MIA,2700,0,0,0,109,284,
1863766,Bryan Holaday,C,MIA,2700,0,0,0,125,284,
1863773,Jeff Mathis,C,ARI,2600,0,0,0,74,284,Injured:1
1863775,Christian Vazquez,C,BOS,2600,5.77,10,0,67,284,Starter:1|LineupSpot8:1|WindHelping:1|PlayerMatchupIsHorribad:2|WeatherAlert:1
1863798,Tony Cruz,C,CIN,2300,0,0,0,208,284,
1863800,Tuffy Gosewisch,C,SEA,2200,0,0,0,112,284,
1863807,Javier Baez,2B/SS,CHC,4200,8.63,0,0,148,284,Starter:1|LineupSpot7:1|PlayerMatchupIsGreat:2|OptimalPick:1|VegasGood:2
1863809,Kurt Suzuki,C,ATL,3400,0,0,0,209,284,WeatherAlert:1
1863832,Andrew Susac,C,BAL,2900,0,0,0,101,284,WeatherAlert:1
1863834,Mike Marjama,C,SEA,2900,0,0,0,112,284,
1863839,Jonathan Lucroy,C,OAK,2900,6.54,0,0,194,284,Starter:1|LineupSpot9:1|PlayerMatchupIsGreat:1|PlayerIsHot:1
1863841,Kevin Plawecki,C,NYM,2800,0,0,0,68,284,WeatherAlert:1
1863843,Chris Stewart,C,ATL,2800,0,0,0,209,284,WeatherAlert:1
1863864,Erik Gonzalez,2B/3B,CLE,3300,0,0,0,159,284,
1863866,Isiah Kiner-Falefa,2B/3B,TEX,3200,0,0,0,142,284,
1863868,Miguel Gomez,2B/3B,SF,3100,0,0,0,89,284,
1863873,T.J. Rivera,2B/3B,NYM,2800,0,0,0,68,284,WeatherAlert:1
1863875,Ramon Torres,2B/3B,KC,2700,0,0,0,189,284,
1863898,John Hicks,1B/C,DET,3000,6.62,7,0,171,284,Starter:1|LineupSpot6:1|PlayerMatchupIsGreat:1|VegasBad:2
1863900,Taylor Davis,1B/C,CHC,2500,0,0,0,148,284,
1863907,Matt Davidson,1B/3B,CWS,3800,7.54,18,0,107,284,Starter:1|LineupSpot5:1|PlayerIsCold:1|StarBad:1
1863909,Jefry Marte,1B/3B,LAA,3300,0,0,0,186,284,Injured:1
1863932,Dusty Coleman,3B/SS,SD,2600,0,0,0,16,284,WeatherAlert:1
1863934,Chris Taylor,OF/SS,LAD,4300,9.34,12,0,223,284,Starter:1|LineupSpot1:1|PlayerMatchupIsGreat:3
1863941,Francisco Cervelli,C,PIT,4000,0,0,0,25,284,Injured:1
1863943,Yasmani Grandal,C,LAD,4000,7.35,12,0,153,284,Starter:1|LineupSpot6:1|PlayerMatchupIsGreat:1|ThumbUp:1
1863967,Gavin Cecchini,SS,NYM,2900,0,0,0,68,284,WeatherAlert:1
1863969,Ehire Adrianza,SS,MIN,2900,7.9,33,0,78,284,Starter:1|LineupSpot8:1|PlayerMatchupIsHorribad:1|PlayerMatchupIsGreat:3|PlayerIsHot:1|VegasBad:1
1863974,Richard Urena,SS,TOR,2700,0,0,0,1,284,
1863976,Alcides Escobar,SS,KC,2700,5.87,0,0,158,284,Starter:1|LineupSpot8:1|PlayerMatchupIsHorribad:1|PlayerIsCold:1
1863999,Dustin Pedroia,2B,BOS,3900,0,0,0,67,284,Injured:1|WeatherAlert:1
1864002,Daniel Robertson,2B/SS,TB,3800,0,0,0,233,284,Injured:1
1864009,Breyvic Valera,2B/SS,LAD,3100,0,0,0,153,284,
1864011,Gregorio Petit,2B/SS,MIN,2900,0,0,0,78,284,
1864034,Andres Blanco,2B/SS,SF,2100,0,0,0,89,284,
1864036,Whit Merrifield,2B/OF,KC,3900,8.49,6,0,158,284,Starter:1|LineupSpot1:1|PlayerMatchupIsGreat:1|PlayerMatchupIsHorribad:1
1864043,Hernan Perez,2B/OF,MIL,3100,0,0,0,90,284,
1864045,Drew Robinson,2B/OF,TEX,2700,0,0,0,142,284,
1864068,Anthony Rizzo,1B,CHC,4600,8.99,0,0,70,284,Starter:1|LineupSpot4:1|PlayerMatchupIsHorribad:3|PlayerMatchupIsGreat:2|VegasBad:1|ThumbUp:1
1864070,Jose Martinez,1B,STL,4500,11.64,0,0,146,284,Starter:1|LineupSpot3:1|PlayerMatchupIsHorribad:2|PlayerMatchupIsGreat:1|WeatherAlert:1
1864075,Justin Smoak,1B,TOR,4100,7.07,2,0,1,284,Starter:1|LineupSpot4:1|PlayerMatchupIsHorribad:3|PlayerMatchupIsGreat:1|PlayerIsCold:1|ThumbUp:2
1864077,Matt Olson,1B,OAK,4100,8.79,0,0,61,284,Starter:1|LineupSpot5:1|PlayerMatchupIsHorribad:2|PlayerMatchupIsGreat:2|PlayerIsCold:1|ThumbUp:2
1864079,Miguel Cabrera,1B,DET,4000,7.12,2,0,171,284,Starter:1|LineupSpot3:1|PlayerMatchupIsGreat:1|VegasGood:1|StarGood:1|ThumbUp:1
1864102,Ben Revere,OF,CIN,3000,0,0,0,228,284,
1864104,Billy Hamilton,OF,CIN,3000,6.97,2,0,228,284,Starter:1|LineupSpot9:1|PlayerMatchupIsGreat:2|PlayerMatchupIsHorribad:1|ThumbDown:1
1864106,Zack Granite,OF,MIN,3000,0,0,0,257,284,
1864111,Domingo Santana,OF,MIL,3000,7.7,0,0,90,284,Starter:1|LineupSpot5:1|PlayerMatchupIsHorribad:1|PlayerMatchupIsGreat:2|PlayerIsCold:1|ThumbDown:1
1864113,Jeremy Hazelbaker,OF,ARI,2900,0,0,0,95,284,
1864136,Rymer Liriano,OF,LAA,2800,0,0,0,186,284,
1864138,Byron Buxton,OF,MIN,2800,0,0,0,78,284,Injured:1
1864147,Joey Rickard,OF,BAL,2700,6.52,18,0,101,284,Starter:1|LineupSpot1:1|WindHelping:1|PlayerIsCold:1|VegasBad:2|StarGood:1|WeatherAlert:1
1864149,Alex Presley,OF,BAL,2700,0,0,0,106,284,WeatherAlert:1
1864172,Peter Bourjos,OF,ATL,2500,0,0,0,209,284,WeatherAlert:1
1864174,Craig Gentry,OF,BAL,2500,5.42,6,0,101,284,Starter:1|LineupSpot8:1|WindHelping:1|VegasBad:1|StarBad:1|WeatherAlert:1
1864181,Rusney Castillo,OF,BOS,2400,0,0,0,67,284,WeatherAlert:1
1864183,Alejandro De Aza,OF,WAS,2400,0,0,0,90,284,
1864256,Chris Davis,1B,BAL,2600,0,0,0,106,284,WeatherAlert:1
1864258,Sam Travis,1B,BOS,2500,0,0,0,67,284,WeatherAlert:1
1864263,Nick Pratto,1B,KC,2100,0,0,0,189,284,
1864265,Manny Machado,SS,BAL,5100,8.7,5,0,101,284,Starter:1|LineupSpot3:1|WindHelping:1|PlayerMatchupIsGreat:1|PlayerIsCold:1|StarGood:1|ThumbDown:1|WeatherAlert:1
1864288,Jacob Barnes,RP,MIL,4000,0,2.25,0,4,30,
1864290,Taylor Williams,RP,MIL,4000,0,5.65,0,4,30,
1864343,Chris Heisey,OF,MIN,2100,0,0,0,78,284,Injured:1
1864345,Daniel Robertson,OF,ARI,2000,0,0,0,74,284,
1864368,Matt Chapman,3B,OAK,3900,8.29,19,0,194,284,Starter:1|LineupSpot6:1|PlayerMatchupIsGreat:1|PlayerIsHot:1|ThumbUp:1
1864370,Justin Turner,3B,LAD,3700,8.07,10,0,223,284,Starter:1|LineupSpot3:1|PlayerMatchupIsGreat:2|ThumbDown:1
1864377,Danny Valencia,3B,BAL,3300,7.88,11,0,101,284,Starter:1|LineupSpot4:1|WindHelping:1|PlayerMatchupIsGreat:1|VegasBad:1|StarGood:1|WeatherAlert:1
1864379,Matt Duffy,3B,TB,3200,7.03,2,0,233,284,Starter:1|LineupSpot1:1|PlayerMatchupIsGreat:1|PlayerMatchupIsHorribad:3
1864449,Devon Travis,2B,TOR,2900,5.83,5,0,77,284,Starter:1|LineupSpot9:1|PlayerMatchupIsHorribad:3|ThumbDown:1
1864451,Christopher Bostick,2B,PIT,2800,0,0,0,25,284,
1864456,Daniel Castro,2B,COL,2800,0,0,0,56,284,
1864458,Gordon Beckham,2B,SEA,2700,0,0,0,112,284,
1864460,Dixon Machado,2B,DET,2700,5.35,5,0,171,284,Starter:1|LineupSpot9:1|PlayerMatchupIsHorribad:1|PlayerMatchupIsGreat:1|PlayerIsCold:1|VegasGood:1|VegasBad:1|ThumbDown:1
1864481,Michael Morse,1B/OF,SF,2400,0,0,0,214,284,Injured:1
1864483,Max Muncy,1B/3B,LAD,4700,9.87,19,0,153,284,Starter:1|LineupSpot2:1|PlayerMatchupIsHorribad:1|PlayerMatchupIsGreat:1|PlayerIsHot:1|ThumbUp:2
1864565,Justin Grimm,RP,KC,4000,0,0,0,23,30,Injured:1
1864570,Wandy Peralta,RP,CIN,4000,0,0,0,26,30,
1864572,Austin Brice,RP,CIN,4000,0,0,0,26,30,
1864599,Tommy Hunter,RP,PHI,4000,0,3.65,0,12,30,
1864601,Zac Rosscup,RP,COL,4000,0,0,0,25,30,Injured:1
1864608,Scott Oberg,RP,COL,4000,0,0,0,25,30,Injured:1
1864610,Adam Morgan,RP,PHI,4000,0,0,0,12,30,
1864731,Ender Inciarte,OF,ATL,3900,7.33,22,0,224,284,Starter:1|LineupSpot7:1|PlayerMatchupIsGreat:2|PlayerIsCold:1|ThumbDown:1|WeatherAlert:1
1864733,Travis Jankowski,OF,SD,3900,8.31,0,0,74,284,Starter:1|LineupSpot1:1|PlayerMatchupIsHorribad:2|PlayerMatchupIsGreat:1|ThumbDown:1|WeatherAlert:1
1864756,Adam Jones,OF,BAL,3500,7.63,6,0,101,284,Starter:1|LineupSpot2:1|WindHelping:1|PlayerMatchupIsGreat:1|WeatherAlert:1
1864758,Franchy Cordero,OF,SD,3500,0,0,0,74,284,Injured:1|WeatherAlert:1
1864765,Kevin Pillar,OF,TOR,3400,7.38,3,0,77,284,Starter:1|LineupSpot5:1|PlayerMatchupIsHorribad:2|StarBad:1|ThumbUp:1|ThumbDown:1
1864767,Franmil Reyes,OF,SD,3400,0,0,0,16,284,WeatherAlert:1
1865072,Louis Coleman,RP,DET,4000,0,-1.7,0,19,30,
1865074,Warwick Saupold,RP,DET,4000,0,-2.95,0,19,30,
1865097,Ronald Herrera,RP,TEX,4000,0,0,0,6,30,
1865099,Yimi Garcia,RP,LAD,4000,0,-0.35,0,15,30,
1865104,Adam Liberatore,RP,LAD,4000,0,0,0,15,30,
1865106,Chris Martin,RP,TEX,4000,0,0,0,6,30,
1865433,Yasmany Tomas,OF,ARI,3100,0,0,0,74,284,
1865435,Socrates Brito,OF,ARI,3100,0,0,0,95,284,
1865437,Ryan Cordell,OF,CWS,3100,0,0,0,107,284,
1865442,Michael Hermosillo,OF,LAA,3100,0,0,0,186,284,
1865444,Jorge Bonifacio,OF,KC,3100,0,0,0,158,284,Injured:1
1865608,Andrew Benintendi,OF,BOS,5700,10.47,18,0,170,284,Starter:1|LineupSpot2:1|WindHelping:1|PlayerMatchupIsGreat:1|ThumbUp:1|WeatherAlert:1
1865610,J.D. Martinez,OF,BOS,5500,10.53,9,0,67,284,Starter:1|LineupSpot3:1|WindHelping:1|PlayerMatchupIsHorribad:1|PlayerMatchupIsGreat:1|ThumbUp:2|WeatherAlert:1
1865633,Nomar Mazara,OF,TEX,4200,0,0,0,142,284,
1865635,Juan Soto,OF,WAS,4200,0,0,0,90,284,
1865640,Nick Markakis,OF,ATL,4100,7.58,13,0,224,284,Starter:1|LineupSpot4:1|PlayerMatchupIsGreat:2|ThumbUp:1|WeatherAlert:1
1865642,Yasiel Puig,OF,LAD,4100,8.67,25,0,223,284,Starter:1|LineupSpot7:1|PlayerMatchupIsGreat:3|ThumbUp:1
1868114,Joaquin Benoit,RP,WAS,4000,0,0,0,2,30,Injured:1
1868116,Sammy Solis,RP,WAS,4000,0,0,0,2,30,
1868121,Aaron Barrett,RP,WAS,4000,0,0,0,2,30,Injured:1
1868123,Matt Grace,RP,WAS,4000,0,3.05,0,2,30,
1868146,Sandy Alcantara,RP,MIA,4000,0,0,0,11,30,
1868148,Ryan Buchter,RP,OAK,4000,0,0,0,5,30,Injured:1
1868155,Chris Smith,RP,OAK,4000,0,0,0,5,30,
1864001,Chase De Jong,SP,SEA,5100,0,0,0,9,30,
1864194,JC Ramirez,RP,LAA,5000,0,0,0,8,30,Injured:1
1864205,Alec Asher,RP,MIL,4500,0,0,0,4,30,
1864212,Brady Rodgers,RP,HOU,4200,0,0,0,16,30,
1864219,Michael Blazek,RP,ARI,4000,0,0,0,13,30,
1864230,Felipe Vazquez,RP,PIT,4000,0,0,0,20,30,
1864237,Jerry Blevins,RP,NYM,4000,0,0,0,7,30,WeatherAlert:1
1864293,Lance Lynn,SP,MIN,5100,0,0,0,21,30,
1864304,Mike Minor,SP,TEX,5000,0,0,0,6,30,
1864311,Julio Urias,SP,LAD,4900,0,0,0,15,30,Injured:1
1864318,Eric Skoglund,SP,KC,4800,0,0,0,23,30,Injured:1
1864329,Josh Staumont,SP,KC,4600,0,0,0,23,30,
1864336,Jalen Beeks,SP,BOS,4500,0,0,0,29,30,WeatherAlert:1
1864392,Joe Kelly,SP,BOS,4000,0,0.75,0,29,30,WeatherAlert:1
1864403,Robbie Erlin,SP,SD,4000,0,0,0,22,30,WeatherAlert:1
1864410,Conner Greene,SP,STL,4000,0,0,0,27,30,WeatherAlert:1
1864417,Daniel Wright,SP,CIN,4000,0,0,0,26,30,
1864428,Spencer Turnbull,SP,DET,4000,0,0,0,19,30,
1864487,Shelby Miller,SP,ARI,5900,0,0,0,13,30,Injured:1
1864494,Francisco Liriano,SP,DET,5800,0,0,0,19,30,Injured:1
1864498,Michael Fulmer,SP,DET,5700,0,0,0,19,30,
1864505,Amir Garrett,SP,CIN,5600,0,2.25,0,26,30,
1864512,Ryan Carpenter,SP,DET,5400,0,0,0,19,30,Injured:1
1864519,Corbin Burnes,SP,MIL,5300,0,0,0,4,30,
1864523,Ricky Nolasco,SP,KC,5200,0,0,0,23,30,
1864530,Tyler Thornburg,RP,BOS,4000,0,0,0,29,30,Injured:1|WeatherAlert:1
1864537,Blake Parker,RP,LAA,4000,0,0,0,8,30,
1864544,Oliver Drake,RP,LAA,4000,0,3.05,0,8,30,
1864548,Edwin Diaz,RP,SEA,4000,0,6.25,0,9,30,
1864555,Casey Lawrence,RP,SEA,4000,0,0,0,9,30,
1864562,David Hernandez,RP,CIN,4000,0,9.65,0,26,30,
1864637,Preston Guilmet,RP,TOR,4000,0,0,0,14,30,
1864644,Craig Breslow,RP,TOR,4000,0,0,0,14,30,
1864655,Ryne Stanek,RP,TB,4000,3.83,10.5,0,17,30,Starter:1|PlayerMatchupIsGreat:2|PlayerMatchupIsHorribad:2|CrowdPositive:1|StarGood:1|ThumbDown:2
1864662,Brett Cecil,RP,STL,4000,0,0,0,27,30,WeatherAlert:1
1864669,Dominic Leone,RP,STL,4000,0,0,0,27,30,Injured:1|WeatherAlert:1
1864927,Chad Green,SP,NYY,4000,0,6.4,0,18,30,
1864934,Odrisamer Despaigne,SP,MIA,4000,0,0,0,11,30,
1864945,Franklyn Kilome,SP,PHI,4000,0,0,0,12,30,
1864952,Luis Ortiz,SP,MIL,4000,0,0,0,4,30,
1864959,Matt Koch,RP,ARI,6100,0,0,0,13,30,
1864973,Jacob Rhame,RP,NYM,4000,0,4.25,0,7,30,WeatherAlert:1
1864980,A.J. Minter,RP,ATL,4000,0,6.25,0,28,30,WeatherAlert:1
1864987,Xavier Cedeno,RP,CWS,4000,0,2.75,0,3,30,
1864998,Jace Fry,RP,CWS,4000,0,6.25,0,3,30,
1865005,Tyler Danish,RP,CWS,4000,0,0,0,3,30,Injured:1
1865012,Carson Smith,RP,BOS,4000,0,0,0,29,30,Injured:1|WeatherAlert:1
1865217,Sal Romano,SP,CIN,4500,10.41,17,0,26,30,Starter:1|PlayerMatchupIsGreat:1|CrowdNegative:2|StarBad:2|ThumbDown:3
1865224,Josh Tomlin,SP,CLE,4400,0,2.75,0,24,30,
1865235,Tyler Beede,SP,SF,4400,0,0,0,30,30,
1865242,Jeff Locke,SP,MIA,4300,0,0,0,11,30,
1865249,Jake Thompson,SP,PHI,4200,0,0,0,12,30,
1865260,Cody Anderson,SP,CLE,4000,0,0,0,24,30,Injured:1
1865366,Vince Velasquez,SP,PHI,8300,0,0,0,12,30,
1865373,Jon Gray,SP,COL,8000,17.59,21.3,0,25,30,Starter:1|VegasBad:1|PlayerMatchupIsHorribad:3|PlayerMatchupIsGreat:1
1865380,Yu Darvish,SP,CHC,7800,0,0,0,10,30,Injured:1
1865391,Zack Greinke,SP,ARI,7400,0,0,0,13,30,
1865398,Dan Straily,SP,MIA,7300,0,0,0,11,30,
1865405,Kyle Freeland,SP,COL,7100,0,0,0,25,30,
1865649,Max Scherzer,SP,WAS,14400,0,0,0,2,30,
1865702,Steven Matz,SP,NYM,6900,0,0,0,7,30,WeatherAlert:1
1865709,Junior Guerra,SP,MIL,6800,0,0,0,4,30,
1865716,Luiz Gohara,SP,ATL,6600,0,0,0,28,30,WeatherAlert:1
1865723,Jordan Lyles,SP,SD,6500,0,0,0,22,30,WeatherAlert:1
1865727,Drew Pomeranz,SP,BOS,6400,0,0,0,29,30,Injured:1|WeatherAlert:1
1865734,Jose Urena,SP,MIA,6300,0,0,0,11,30,
1865741,Jhoulys Chacin,SP,MIL,6200,0,0,0,4,30,
1865804,Clayton Kershaw,SP,LAD,11800,0,0,0,15,30,Injured:1
1865811,Blake Snell,SP,TB,11100,0,0,0,17,30,
1865818,Charlie Morton,SP,HOU,10400,0,0,0,16,30,
1865829,Tyler Skaggs,SP,LAA,9500,0,0,0,8,30,
1865836,Caleb Smith,SP,MIA,9100,0,0,0,11,30,
1863767,Josh Phegley,C,OAK,2700,0,0,0,194,284,
1863774,Tomas Nido,C,NYM,2600,0,0,0,68,284,WeatherAlert:1
1863781,Chris Gimenez,C,CHC,2600,0,0,0,148,284,
1863792,Welington Castillo,C,CWS,2400,0,0,0,107,284,Injured:1
1863799,Kyle Higashioka,C,NYY,2300,0,0,0,54,284,
1863806,Jhonatan Solano,C,WAS,2000,0,0,0,119,284,Injured:1
1863817,Rene Rivera,C,LAA,3200,0,0,0,186,284,Injured:1
1863824,Sandy Leon,C,BOS,3100,0,0,0,170,284,WeatherAlert:1
1863831,Zack Collins,C,CWS,2900,0,0,0,242,284,
1863842,Rob Brantly,C,ATL,2800,0,0,0,224,284,WeatherAlert:1
1863849,Manny Pina,C,MIL,2800,6.52,0,0,90,284,Starter:1|LineupSpot7:1|PlayerMatchupIsHorribad:1|PlayerMatchupIsGreat:1|PlayerIsCold:1|VegasGood:2|ThumbDown:1
1863856,Raffy Lopez,C,SD,2700,0,0,0,74,284,WeatherAlert:1
1863867,Brandon Drury,2B/3B,NYY,3200,0,0,0,54,284,
1863874,Jace Peterson,2B/3B,BAL,2700,0,0,0,106,284,WeatherAlert:1
1863881,Josh Rutledge,2B/3B,SF,2500,0,0,0,214,284,
1863892,Steve Selsky,3B/OF,BOS,2600,0,0,0,67,284,WeatherAlert:1
1863899,Victor Caratini,1B/C,CHC,2800,0,0,0,70,284,
1863906,Miguel Sano,1B/3B,MIN,4000,9.16,9,0,78,284,Starter:1|LineupSpot4:1|PlayerMatchupIsHorribad:1|PlayerMatchupIsGreat:3|VegasGood:1
1863917,Eduardo Escobar,3B/SS,MIN,4600,7.51,5,0,78,284,Starter:1|LineupSpot3:1|PlayerMatchupIsHorribad:1|PlayerMatchupIsGreat:2|VegasBad:1
1863924,J.P. Crawford,3B/SS,PHI,3000,6.11,8,0,146,284,Starter:1|LineupSpot8:1|PlayerMatchupIsGreat:1|VegasBad:1
1863931,Mitch Walding,3B/SS,PHI,2700,0,0,0,146,284,
1863942,Salvador Perez,C,KC,4000,7.73,5,0,158,284,Starter:1|LineupSpot3:1|PlayerMatchupIsHorribad:1|VegasBad:1|ThumbUp:1
1863949,Max Stassi,C,HOU,3700,0,0,0,41,284,
1863957,Max Moroff,SS,PIT,3100,0,0,0,23,284,
1863961,Mauricio Dubon,SS,MIL,3100,0,0,0,90,284,
1863968,Adeiny Hechavarria,SS,TB,2900,0,0,0,233,284,Injured:1
1863975,Freddy Galvis,SS,SD,2700,5.95,5,0,74,284,Starter:1|LineupSpot6:1|PlayerMatchupIsHorribad:2|PlayerIsCold:1|VegasGood:1|ThumbUp:1|WeatherAlert:1
1863982,Alex Mejia,SS,STL,2200,0,0,0,146,284,WeatherAlert:1
1863986,Royce Lewis,SS,MIN,2000,0,0,0,78,284,
1863993,Daniel Murphy,2B,WAS,4100,8.23,0,0,90,284,Starter:1|LineupSpot5:1|PlayerMatchupIsGreat:1|StarBad:1
1864000,Asdrubal Cabrera,2B,NYM,3800,7.66,0,0,160,284,Starter:1|LineupSpot4:1|StarGood:1|ThumbUp:1|WeatherAlert:1
1864012,Rosell Herrera,2B/SS,KC,2800,0,0,0,189,284,
1864019,Matt Reynolds,2B/SS,WAS,2700,0,0,0,119,284,
1864026,Kelby Tomlinson,2B/SS,SF,2600,0,0,0,214,284,
1864037,Dee Gordon,2B/OF,SEA,3800,7.91,11,0,7,284,Starter:1|LineupSpot1:1|PlayerMatchupIsHorribad:2|PlayerMatchupIsGreat:2|PlayerIsCold:1|ThumbDown:1
1864044,Nick Franklin,2B/OF,MIL,2800,0,0,0,186,284,Injured:1
1864051,Deven Marrero,3B,ARI,2800,0,0,0,74,284,
1864062,Will Middlebrooks,3B,PHI,2100,0,0,0,153,284,
1864069,Mitch Moreland,1B,BOS,4500,8.69,7,0,170,284,Starter:1|LineupSpot4:1|WindHelping:1|PlayerMatchupIsGreat:1|ThumbUp:2|WeatherAlert:1
1864076,C.J. Cron,1B,TB,4100,8.88,4,0,233,284,Starter:1|LineupSpot4:1|PlayerMatchupIsGreat:2|PlayerMatchupIsHorribad:2|VegasGood:1
1864087,Albert Pujols,1B,LAA,3500,8.04,0,0,186,284,Starter:1|LineupSpot4:1|PlayerMatchupIsHorribad:2|PlayerIsHot:1|VegasBad:1
1864094,Dominic Smith,1B,NYM,3300,7.05,3,0,160,284,Starter:1|LineupSpot7:1|WeatherAlert:1
1864103,Abraham Almonte,OF,KC,3000,6.52,2,0,189,284,Starter:1|LineupSpot9:1|PlayerMatchupIsHorribad:1|PlayerIsCold:1|VegasGood:2
1864114,Adam Engel,OF,CWS,2900,5.73,3,0,107,284,Starter:1|LineupSpot9:1|PlayerMatchupIsHorribad:1|PlayerIsCold:1|ThumbUp:1
1864121,Mason Williams,OF,CIN,2900,0,0,0,228,284,
1864128,Aaron Altherr,OF,PHI,2900,0,0,0,153,284,
1864139,Carlos Tocci,OF,TEX,2800,0,0,0,142,284,
1864148,Colby Rasmus,OF,BAL,2700,0,0,0,106,284,Injured:1|WeatherAlert:1
1864155,Ryan LaMarre,OF,MIN,2700,3.31,5,0,78,284,Starter:1|LineupSpot9:1|PlayerMatchupIsHorribad:2|PlayerMatchupIsGreat:2|PlayerIsCold:1|VegasBad:1|StarBad:1
1864166,Kole Calhoun,OF,LAA,2600,0,0,0,148,284,Injured:1
1864173,Luis Robert,OF,CWS,2500,0,0,0,107,284,
1864180,Marcus Wilson,OF,ARI,2400,0,0,0,74,284,
1864191,Blake Rutherford,OF,CWS,2100,0,0,0,242,284,
1864248,Kennys Vargas,1B,MIN,3100,0,0,0,78,284,
1864255,Tyler White,1B,HOU,2700,0,0,0,41,284,
1864266,Francisco Lindor,SS,CLE,5000,10.59,14,0,215,284,Starter:1|LineupSpot1:1|PlayerMatchupIsGreat:2|PlayerMatchupIsHorribad:1|VegasGood:1|ThumbUp:1
1864273,Didi Gregorius,SS,NYY,4000,8.69,28,0,179,284,Starter:1|LineupSpot5:1|PlayerMatchupIsGreat:1
1864280,Elvis Andrus,SS,TEX,3600,0,0,0,142,284,Injured:1
1864337,Santiago Casilla,RP,OAK,4000,0,4.25,0,5,30,
1864344,Ryan Raburn,OF,WAS,2100,0,0,0,119,284,Injured:1
1864351,Lazaro Armenteros,OF,OAK,2000,0,0,0,194,284,
1864362,Miguel Andujar,3B,NYY,4200,0,0,0,54,284,
1864369,Kyle Seager,3B,SEA,3700,6.36,3,0,7,284,Starter:1|LineupSpot5:1|PlayerMatchupIsHorribad:2|PlayerMatchupIsGreat:1|StarBad:1
1864376,Colin Moran,3B,PIT,3300,7.26,9,0,23,284,Starter:1|LineupSpot4:1|PlayerMatchupIsHorribad:1|PlayerMatchupIsGreat:2|PlayerIsCold:1
1864434,Aroldis Chapman,RP,NYY,4000,0,6.25,0,18,30,
1864441,Jonathan Villar,2B,MIL,3500,7.75,5,0,186,284,Starter:1|LineupSpot6:1|PlayerMatchupIsHorribad:1|PlayerMatchupIsGreat:1|PlayerIsHot:1|VegasGood:1
1864448,Tim Locastro,2B,LAD,3000,0,0,0,223,284,
1864459,Taylor Featherston,2B,MIN,2700,0,0,0,78,284,
1864466,Ryan Braun,1B/OF,MIL,4800,0,0,0,90,284,
1864473,Jose Osuna,1B/OF,PIT,3300,0,0,0,25,284,
1864484,Jorge Soler,OF,KC,4000,6.87,0,0,158,284,Starter:1|LineupSpot4:1|PlayerMatchupIsHorribad:1|PlayerIsCold:1|ThumbUp:2
1864571,Jason Adam,RP,KC,4000,0,0,0,23,30,
1864582,Chris Devenski,RP,HOU,4000,0,0,0,16,30,
1864593,Pedro Beato,RP,PHI,4000,0,0,0,12,30,Injured:1
1864600,Chris Rusin,RP,COL,4000,0,4.25,0,25,30,
1864607,Edubray Ramos,RP,PHI,4000,0,2.15,0,12,30,
1864618,Matt Albers,RP,MIL,4000,0,0,0,4,30,
1864625,Luke Farrell,RP,CHC,4000,0,11.3,0,10,30,
1864732,Curtis Granderson,OF,TOR,3900,8.67,3,0,1,284,Starter:1|LineupSpot1:1|PlayerMatchupIsHorribad:3|PlayerMatchupIsGreat:1|VegasBad:1|ThumbUp:1
1864739,Wil Myers,OF,SD,3800,0,0,0,16,284,Injured:1|WeatherAlert:1
1864743,Odubel Herrera,OF,PHI,3800,8.37,7,0,146,284,Starter:1|LineupSpot3:1|PlayerMatchupIsGreat:2|PlayerIsCold:1|StarGood:1
1864750,Daniel Palka,OF,CWS,3600,8.41,8,0,242,284,Starter:1|LineupSpot4:1|PlayerMatchupIsGreat:2|ThumbUp:1
1864757,Randal Grichuk,OF,TOR,3500,8.62,5,0,77,284,Starter:1|LineupSpot6:1|PlayerMatchupIsHorribad:2|PlayerMatchupIsGreat:1|StarBad:1|ThumbUp:1
1864764,Mark Trumbo,OF,BAL,3400,6.99,11,0,101,284,Starter:1|LineupSpot7:1|WindHelping:1|PlayerIsCold:1|VegasBad:1|WeatherAlert:1
1864768,Delino DeShields,OF,TEX,3400,8.61,14,0,142,284,Starter:1|LineupSpot2:1|PlayerMatchupIsGreat:2|StarBad:1|ThumbDown:1
1865071,Alex Wilson,RP,DET,4000,0,3.8,0,19,30,
1865082,Alex Faedo,RP,DET,4000,0,0,0,19,30,
1865089,Jake Diekman,RP,TEX,4000,0,0,0,6,30,
1865096,Keone Kela,RP,TEX,4000,0,0,0,6,30,
1865107,Nick Gardewine,RP,TEX,4000,0,0,0,6,30,
1865411,Adam Duvall,OF,CIN,3300,6.81,2,0,208,284,Starter:1|LineupSpot7:1|PlayerMatchupIsGreat:2|PlayerMatchupIsHorribad:1|VegasBad:1
1865418,Preston Tucker,OF,ATL,3200,0,4,0,224,284,WeatherAlert:1
1865425,Ben Gamel,OF,SEA,3200,5.95,11,0,7,284,Starter:1|LineupSpot7:1|PlayerMatchupIsHorribad:2|PlayerMatchupIsGreat:1|StarGood:1
1865436,Rey Fuentes,OF,ARI,3100,0,0,0,95,284,
1865443,Taylor Trammell,OF,CIN,3100,0,0,0,228,284,
1865450,Estevan Florial,OF,NYY,3100,0,0,0,179,284,
1865609,Aaron Judge,OF,NYY,5600,9.98,5,0,54,284,Starter:1|LineupSpot2:1|PlayerMatchupIsHorribad:1|PlayerMatchupIsGreat:1|StarGood:1|ThumbUp:1
1865616,Michael Brantley,OF,CLE,4700,9.31,3,0,215,284,Starter:1|LineupSpot2:1|PlayerMatchupIsGreat:2|PlayerMatchupIsHorribad:1|StarBad:1|ThumbUp:2
1865623,Leonys Martin,OF,DET,4400,9.22,4,0,169,284,Starter:1|LineupSpot1:1|PlayerMatchupIsHorribad:1|PlayerMatchupIsGreat:2|PlayerIsHot:1|VegasGood:1|ThumbUp:1
1865634,Adam Eaton,OF,WAS,4200,7.18,3,0,90,284,Starter:1|LineupSpot1:1|PlayerMatchupIsHorribad:1|VegasBad:1|StarGood:1
1865641,Yoenis Cespedes,OF,NYM,4100,0,0,0,68,284,Injured:1|WeatherAlert:1
1865648,Mitch Haniger,OF,SEA,4000,8.16,32,0,112,284,Starter:1|LineupSpot3:1|PlayerMatchupIsGreat:2|PlayerMatchupIsHorribad:1|PlayerIsCold:1
1868115,Ryan Madson,RP,WAS,4000,0,0,0,2,30,
1868122,Wander Suero,RP,WAS,4000,0,2.25,0,2,30,
1868133,Drew Steckenrider,RP,MIA,4000,0,0,0,11,30,
1868140,Jose Valdez,RP,SF,4000,0,0,0,30,30,Injured:1
1868147,Reymin Guduan,RP,HOU,4000,0,0,0,16,30,
1864097,Ian Clarkin,SP,CWS,4000,0,0,0,3,30,
1864196,Aaron Wilkerson,RP,MIL,5000,0,0,0,4,30,
1864203,Shawn Morimando,RP,CLE,4500,0,0,0,24,30,
1864214,Brad Boxberger,RP,ARI,4000,0,0,0,13,30,
1864221,Bo Schultz,RP,PIT,4000,0,0,0,20,30,
1864228,Troy Scribner,RP,ARI,4000,0,0,0,13,30,
1864239,AJ Ramos,RP,NYM,4000,0,0,0,7,30,Injured:1|WeatherAlert:1
1864295,Tim Lincecum,SP,TEX,5100,0,0,0,6,30,Injured:1
1864302,Brent Honeywell,SP,TB,5000,0,0,0,17,30,Injured:1
1864313,Jeff Hoffman,SP,COL,4900,0,0,0,25,30,
1864320,Cody Reed,SP,CIN,4800,0,0,0,26,30,
1864327,Taylor Clarke,SP,ARI,4600,0,0,0,13,30,
1864387,Chi Chi Gonzalez,SP,TEX,4000,0,0,0,6,30,Injured:1
1864394,Asher Wojciechowski,SP,BAL,4000,0,0,0,1,30,WeatherAlert:1
1864401,Nate Pearson,SP,TOR,4000,0,0,0,14,30,
1864412,Wily Peralta,SP,KC,4000,0,0,0,23,30,
1864419,Scott Blewett,SP,KC,4000,0,0,0,23,30,
1864426,Tyler Alexander,SP,DET,4000,0,0,0,19,30,
1864489,Marcus Stroman,SP,TOR,5900,0,0,0,14,30,Injured:1
1864496,German Marquez,SP,COL,5800,0,0,0,25,30,
1864503,Ariel Miranda,SP,SEA,5600,0,0,0,9,30,
1864514,James Shields,SP,CWS,5300,7.02,18.75,0,3,30,Starter:1|VegasBad:1|CrowdNegative:3|PlayerMatchupIsHorribad:2|CrowdPositive:1|VegasGood:1|ThumbDown:2
1864521,Matt Wisler,SP,ATL,5200,0,0,0,28,30,WeatherAlert:1
1864528,Jaime Schultz,SP,TB,5100,0,0,0,17,30,
1864539,Nick Vincent,RP,SEA,4000,0,0,0,9,30,Injured:1
1864546,Noe Ramirez,RP,LAA,4000,0,0,0,8,30,
1864553,Cam Bedrosian,RP,LAA,4000,0,3.05,0,8,30,
1864564,Blaine Boyer,RP,KC,4000,0,0,0,23,30,Injured:1
1864635,Jayson Aquino,RP,BAL,4000,0,0,0,1,30,WeatherAlert:1
1864646,Ryan Tepera,RP,TOR,4000,0,0,0,14,30,
1864653,Deck McGuire,RP,TOR,4000,0,0,0,14,30,
1864660,Craig Stammen,RP,SD,4000,0,-1.55,0,22,30,WeatherAlert:1
1864671,Matt Bowman,RP,STL,4000,0,0,0,27,30,Injured:1|WeatherAlert:1
1864776,Tim Peterson,RP,NYM,4000,0,0,0,7,30,WeatherAlert:1
1864925,Brett Martin,SP,TEX,4000,0,0,0,6,30,
1864936,Paul Blackburn,SP,OAK,4000,0,0,0,5,30,
1864943,Sixto Sanchez,SP,PHI,4000,0,0,0,12,30,
1864950,Oscar De La Cruz,SP,CHC,4000,0,0,0,10,30,
1864954,Domingo German,RP,NYY,8500,0,0,0,18,30,
1864961,Adalberto Mejia,RP,MIN,5600,0,0,0,21,30,
1864971,Paul Sewald,RP,NYM,4000,0,-0.8,0,7,30,WeatherAlert:1
1864978,Jacob Lindgren,RP,ATL,4000,0,0,0,28,30,Injured:1|WeatherAlert:1
1864982,Luke Jackson,RP,ATL,4000,0,4.25,0,28,30,WeatherAlert:1
1864989,Oliver Perez,RP,CLE,4000,0,0,0,24,30,
1864996,Evan Marshall,RP,CLE,4000,0,0,0,24,30,
1865003,Cody Allen,RP,CLE,4000,0,0,0,24,30,
1865007,Zach Britton,RP,BAL,4000,0,2.45,0,1,30,WeatherAlert:1
1865014,Miguel Castro,RP,BAL,4000,0,3.6,0,1,30,WeatherAlert:1
1865219,Joan Gregorio,SP,SF,4500,0,0,0,30,30,Injured:1
1865226,Chris Tillman,SP,BAL,4400,0,0,0,1,30,Injured:1|WeatherAlert:1
1865233,Jesse Chavez,SP,TEX,4400,0,0,0,6,30,
1865244,Dylan Covey,SP,CWS,4200,0,0,0,3,30,
1865251,Wilmer Font,SP,TB,4100,0,0,0,17,30,
1865258,Kyle Wright,SP,ATL,4000,0,0,0,28,30,WeatherAlert:1
1865364,Adam Plutko,SP,CLE,8300,13.08,3.9,0,24,30,Starter:1|VegasGood:1|CrowdNegative:3|PlayerMatchupIsGreat:1|PlayerMatchupIsBad:1|ThumbDown:2
1865375,Kyle Hendricks,SP,CHC,7900,0,0,0,10,30,
1865382,Garrett Richards,SP,LAA,7700,0,0,0,8,30,
1865389,Jeremy Hellickson,SP,WAS,7500,0,0,0,2,30,Injured:1
1865400,Jameson Taillon,SP,PIT,7200,0,0,0,20,30,
1865651,Jacob deGrom,SP,NYM,13200,0,0,0,7,30,WeatherAlert:1
1865707,Luis Castillo,SP,CIN,6800,0,0,0,26,30,
1865718,CC Sabathia,SP,NYY,6600,12.9,17.95,0,18,30,Starter:1|VegasGood:1|PlayerMatchupIsGood:1|PlayerMatchupIsHorribad:1|CrowdPositive:1|ThumbUp:1
1865725,Manny Banuelos,SP,LAD,6500,0,0,0,15,30,
1865732,Michael Pineda,SP,MIN,6300,0,0,0,21,30,Injured:1
1865743,Jose De Leon,SP,TB,6100,0,0,0,17,30,
1865802,Mike Foltynewicz,SP,ATL,11800,20.53,21.45,0,28,30,Starter:1|VegasGood:1|CrowdNegative:1|PlayerMatchupIsGood:1|PlayerMatchupIsHorribad:2|CrowdPositive:1|VegasBad:1|ThumbUp:2|WeatherAlert:1
1865809,Eduardo Rodriguez,SP,BOS,11100,21,14.75,0,29,30,Starter:1|WindHurting:1|VegasGood:1|CrowdNegative:2|PlayerMatchupIsBad:2|ThumbUp:1|WeatherAlert:1
1865820,Madison Bumgarner,SP,SF,10100,0,0,0,30,30,
1865827,Lance McCullers Jr.,SP,HOU,9600,12.81,20.95,0,16,30,Starter:1|VegasGood:1|PlayerMatchupIsHorribad:3|CrowdNegative:2|ThumbDown:2
1865834,Ross Stripling,SP,LAD,9200,0,0,0,15,30,
1863765,Chad Wallach,C,MIA,2700,0,0,0,125,284,
1863776,Steven Baron,C,STL,2600,0,0,0,146,284,WeatherAlert:1
1863783,Mike Ohlman,C,BOS,2500,0,0,0,67,284,WeatherAlert:1
1863790,Bruce Maxwell,C,OAK,2500,0,0,0,61,284,
1863801,Juan Graterol,C,LAA,2100,0,0,0,186,284,
1863808,Charlie Tilson,OF,CWS,2700,5.64,5,0,242,284,Starter:1|LineupSpot8:1|PlayerMatchupIsGreat:2|PlayerMatchupIsHorribad:1|ThumbDown:1
1863815,Derek Norris,C,DET,3300,0,0,0,171,284,
1863826,Raudy Read,C,WAS,3100,0,0,0,119,284,Injured:1
1863833,Russell Martin,C,TOR,2900,0,0,0,77,284,
1863840,Jorge Alfaro,C,PHI,2900,6.84,0,0,153,284,Starter:1|LineupSpot7:1|PlayerMatchupIsGreat:3|PlayerIsCold:1
1863851,Kevan Smith,C,CWS,2700,0,0,0,107,284,
1863858,Steve Lombardozzi,2B/OF,OAK,2300,0,0,0,61,284,
1863865,Zack Cozart,2B/3B,LAA,3300,7.39,2,0,186,284,Starter:1|LineupSpot6:1|PlayerMatchupIsHorribad:2|PlayerIsCold:1|StarGood:1
1863876,Pete Kozma,2B/3B,DET,2700,0,0,0,171,284,
1863883,Ty Kelly,2B/3B,NYM,2200,0,0,0,160,284,WeatherAlert:1
1863890,Cody Asche,3B/OF,KC,2900,0,0,0,189,284,
1863901,Ryan Lavarnway,1B/C,PIT,2400,0,0,0,25,284,
1863908,Pedro Alvarez,1B/3B,BAL,3300,0,0,0,106,284,WeatherAlert:1
1863915,Cheslor Cuthbert,1B/3B,KC,2800,0,0,0,158,284,Injured:1
1863926,Jose Reyes,3B/SS,NYM,2900,0,0,0,160,284,WeatherAlert:1
1863933,Ruben Tejada,3B/SS,BAL,2500,0,0,0,101,284,WeatherAlert:1
1863940,J.T. Realmuto,C,MIA,4100,8.05,3,0,125,284,Starter:1|LineupSpot3:1|PlayerMatchupIsGreat:2|PlayerMatchupIsHorribad:1|OptimalPick:1|ThumbUp:1
1863951,Wilson Ramos,C,TB,3500,8.22,16,0,233,284,Starter:1|LineupSpot3:1|PlayerMatchupIsGreat:1|PlayerMatchupIsHorribad:2|PlayerIsCold:1|ThumbUp:1
1863959,Erick Aybar,SS,MIN,3100,0,0,0,78,284,
1863966,Amed Rosario,SS,NYM,2900,5.79,0,0,68,284,Starter:1|LineupSpot8:1|PlayerMatchupIsHorribad:2|StarGood:1|ThumbDown:1|WeatherAlert:1
1863977,JT Riddle,SS,MIA,2700,5.75,9,0,109,284,Starter:1|LineupSpot6:1|PlayerMatchupIsGreat:1|PlayerMatchupIsHorribad:2|StarBad:1
1863984,Allen Cordoba,SS,SD,2000,0,0,0,16,284,Injured:1|WeatherAlert:1
1863991,Brian Dozier,2B,MIN,4300,10.15,0,0,78,284,Starter:1|LineupSpot1:1|PlayerMatchupIsHorribad:1|PlayerMatchupIsGreat:3|PlayerIsCold:1|VegasBad:2|StarGood:1
1864003,Brock Holt,2B/SS,BOS,3600,6.59,9,0,170,284,Starter:1|LineupSpot7:1|WindHelping:1|PlayerIsCold:1|ThumbDown:1|WeatherAlert:1
1864010,Greg Garcia,2B/SS,STL,2900,0,3,0,283,284,WeatherAlert:1
1864017,Nolan Fontana,2B/SS,LAA,2700,0,0,0,148,284,
1864028,Cristhian Adames,2B/SS,MIA,2500,0,0,0,109,284,
1864035,Ben Zobrist,2B/OF,CHC,4200,7.5,2,0,70,284,Starter:1|LineupSpot5:1|PlayerMatchupIsHorribad:2|PlayerMatchupIsGreat:2|StarGood:1
1864042,Chris Owings,2B/OF,ARI,3100,0,0,0,74,284,
1864053,Brandon Snyder,3B,TB,2800,0,0,0,233,284,
1864060,Colton Welker,3B,COL,2500,0,0,0,56,284,
1864067,Edwin Encarnacion,1B,CLE,4900,9.24,0,0,159,284,Starter:1|LineupSpot4:1|PlayerMatchupIsHorribad:1|PlayerMatchupIsGreat:1|PlayerIsCold:1|VegasGood:1|ThumbUp:2
1864078,Jose Abreu,1B,CWS,4000,9.1,0,0,107,284,Starter:1|LineupSpot3:1|PlayerMatchupIsGreat:1
1864085,Ryan Zimmerman,1B,WAS,3600,0,0,0,119,284,Injured:1
1864092,Joe Mauer,1B,MIN,3400,0,0,0,257,284,Injured:1
1864105,Robbie Grossman,OF,MIN,3000,0,0,0,78,284,
1864112,Jordan Luplow,OF,PIT,2900,0,0,0,25,284,
1864119,Manuel Margot,OF,SD,2900,5.88,10,0,16,284,Starter:1|LineupSpot7:1|PlayerMatchupIsHorribad:3|PlayerIsCold:1|WeatherAlert:1
1864130,Jacob Hannemann,OF,CHC,2900,0,0,0,70,284,
1864137,Jake Cave,OF,MIN,2800,0,0,0,257,284,OptimalPick:1
1864146,Trayce Thompson,OF,CWS,2700,0,0,0,107,284,
1864157,Mikie Mahtook,OF,DET,2700,0,0,0,171,284,
1864164,Michael Saunders,OF,TOR,2600,0,0,0,1,284,
1864171,Juan Lagares,OF,NYM,2500,0,0,0,68,284,Injured:1|WeatherAlert:1
1864182,Paulo Orlando,OF,KC,2400,0,0,0,158,284,
1864189,Kirk Nieuwenhuis,OF,SEA,2200,0,0,0,7,284,
1864246,Kendrys Morales,1B,TOR,3100,0,2,0,1,284,
1864250,Garrett Cooper,1B,MIA,3100,0,0,0,125,284,Injured:1
1864257,Brock Stassi,1B,MIN,2600,0,0,0,257,284,
1864264,Mike Napoli,1B,CLE,2000,0,0,0,159,284,Injured:1
1864271,Trevor Story,SS,COL,4400,7.96,10,0,56,284,Starter:1|LineupSpot5:1|PlayerMatchupIsHorribad:1|PlayerMatchupIsGreat:2|StarBad:1|ThumbUp:2
1864275,Tim Anderson,SS,CWS,3800,7.16,0,0,107,284,Starter:1|LineupSpot7:1
1864282,Jose Peraza,SS,CIN,3400,6.31,3,0,208,284,Starter:1|LineupSpot8:1|PlayerMatchupIsGreat:2|PlayerMatchupIsHorribad:1|VegasGood:1|ThumbDown:1
1864289,Corey Knebel,RP,MIL,4000,0,0,0,4,30,
1864346,Garrett Whitley,OF,TB,2000,0,0,0,233,284,
1864353,Mickey Moniak,OF,PHI,2000,0,0,0,146,284,
1864360,Mike Moustakas,3B,KC,4300,9.12,0,0,189,284,Starter:1|LineupSpot2:1|PlayerMatchupIsGreat:1|PlayerMatchupIsHorribad:1|PlayerIsCold:1
1864371,Adrian Beltre,3B,TEX,3600,9.25,8,0,142,284,Starter:1|LineupSpot4:1|PlayerMatchupIsGreat:2|StarBad:1
1864378,Vladimir Guerrero Jr.,3B,TOR,3300,0,0,0,77,284,
1864385,Trevor Plouffe,3B,TEX,2900,0,0,0,142,284,
1864443,Jonathan Schoop,2B,BAL,3300,7.16,7,0,101,284,Starter:1|LineupSpot6:1|WindHelping:1|PlayerMatchupIsGreat:1|WeatherAlert:1
1864450,Johnny Giavotella,2B,MIA,2900,0,0,0,125,284,
1864457,Carlos Asuaje,2B,SD,2700,0,0,0,74,284,WeatherAlert:1
1864468,Joey Gallo,1B/OF,TEX,4200,7.94,4,0,142,284,Starter:1|LineupSpot5:1|PlayerIsCold:1
1864475,J.D. Davis,1B/OF,HOU,3300,0,0,0,41,284,
1864482,Scott Van Slyke,1B/OF,MIA,2200,0,0,0,125,284,
1864573,Michael Lorenzen,RP,CIN,4000,0,0,0,26,30,
1864584,Josh Lucas,RP,OAK,4000,0,0,0,5,30,
1864591,Jerry Vasto,RP,COL,4000,0,0,0,25,30,
1864602,Brooks Pounders,RP,COL,4000,0,0,0,25,30,
1864609,Hector Neris,RP,PHI,4000,0,0,0,12,30,
1864616,Boone Logan,RP,MIL,4000,0,0,0,4,30,
1864734,Clint Frazier,OF,NYY,3900,0,0,0,54,284,
1864741,Dustin Fowler,OF,OAK,3800,9.14,8,0,61,284,Starter:1|LineupSpot1:1|PlayerMatchupIsHorribad:2|PlayerMatchupIsGreat:2|PlayerIsCold:1|VegasGood:1|StarBad:1
1864748,Michael A. Taylor,OF,WAS,3700,7.73,5,0,119,284,Starter:1|LineupSpot7:1|PlayerMatchupIsHorribad:1|PlayerMatchupIsGreat:1|VegasGood:1
1864759,Mac Williamson,OF,SF,3500,0,0,0,214,284,
1864766,Mallex Smith,OF,TB,3400,7.1,5,0,208,284,Starter:1|LineupSpot8:1|PlayerMatchupIsGreat:2|PlayerMatchupIsHorribad:1|PlayerIsHot:1|StarGood:1
1864773,Greg Allen,OF,CLE,3300,5.69,0,0,215,284,Starter:1|LineupSpot9:1|PlayerMatchupIsGreat:1|PlayerMatchupIsHorribad:2
1865073,Matt Magill,RP,MIN,4000,0,0,0,21,30,
1865080,Joe Jimenez,RP,DET,4000,0,0,0,19,30,
1865087,Austin Bibens-Dirkx,RP,TEX,4000,0,0,0,6,30,
1865098,Yohander Mendez,RP,TEX,4000,0,0,0,6,30,
1865105,Jesen Therrien,RP,LAD,4000,0,0,0,15,30,Injured:1
1865112,Trevor Gott,RP,WAS,4000,0,0,0,2,30,
1865261,Cedric Mullins,OF,BAL,3300,0,0,0,101,284,WeatherAlert:1
1865420,Rajai Davis,OF,CLE,3200,0,0,0,159,284,
1865427,Brian Goodwin,OF,WAS,3200,0,0,0,90,284,
1865434,Cesar Puello,OF,ARI,3100,0,0,0,74,284,
1865445,Alex Gordon,OF,KC,3100,6.94,0,0,189,284,Starter:1|LineupSpot5:1|PlayerMatchupIsHorribad:1|VegasBad:1|ThumbDown:1
1865452,Rafael Bautista,OF,WAS,3100,0,0,0,119,284,Injured:1
1865607,Mookie Betts,OF,BOS,5800,0,0,0,67,284,WeatherAlert:1
1865618,Khris Davis,OF,OAK,4700,9.38,2,0,194,284,Starter:1|LineupSpot4:1|PlayerMatchupIsGreat:2|PlayerIsCold:1|ThumbUp:2
1865625,Austin Meadows,OF,PIT,4300,0,0,0,23,284,
1865632,Shin-soo Choo,OF,TEX,4200,9.61,22,0,142,284,Starter:1|LineupSpot1:1|PlayerMatchupIsGreat:1
1865643,Brett Gardner,OF,NYY,4100,8.99,3,0,179,284,Starter:1|LineupSpot1:1|PlayerMatchupIsGreat:1|PlayerIsCold:1
1868113,Brandon Kintzler,RP,WAS,4000,0,0,0,2,30,Injured:1
1868124,Koda Glover,RP,WAS,4000,0,0,0,2,30,Injured:1
1868131,Will Smith,RP,SF,4000,0,8.25,0,30,30,
1868138,Brian Ellington,RP,MIA,4000,0,0,0,11,30,Injured:1
1868149,Hector Rondon,RP,HOU,4000,0,0,0,16,30,
