Name,Team,Game,Pos,Yahoo,FanDuel,DraftKings
Andrew Benintendi,Red Sox,BOS,LF,10.8,16.9,12.77
J.D. Martinez,Red Sox,BOS,RF,10.52,16.55,12.33
Mike Trout,Angels,LAA,CF,10.43,16.03,12.02
Aaron Judge,Yankees,NYY,RF,10.35,16.14,11.86
Eddie Rosario,Twins,MIN,LF,9.58,14.94,11.49
Giancarlo Stanton,Yankees,NYY,RF,9.33,14.58,10.85
Khris Davis,Athletics,OAK,LF,9.18,14.41,10.71
Jose Ramirez,Indians,CLE,3B,8.93,13.79,10.4
Mitch Moreland,Red Sox,BOS,1B,8.49,13.33,10
Brett Gardner,Yankees,NYY,LF,8.48,13.06,10.02
Greg Bird,Yankees,NYY,1B,8.39,13.17,9.78
Brian Dozier,Twins,MIN,2B,8.41,13.08,9.84
Nolan Arenado,Rockies,COL,3B,8.25,12.88,9.77
Matt Olson,Athletics,OAK,1B,8.26,12.86,9.6
Brandon Nimmo,Mets,NYM,LF,8.31,12.73,9.69
Anthony Rizzo,Cubs,CHC,1B,8.19,12.87,9.54
Gary Sanchez,Yankees,NYY,C,8.13,12.74,9.45
Francisco Lindor,Indians,CLE,SS,8.17,12.61,9.58
Xander Bogaerts,Red Sox,BOS,SS,8.01,12.55,9.5
Gleyber Torres,Yankees,NYY,SS,7.93,12.4,9.37
Scooter Gennett,Reds,CIN,2B,7.7,12.1,9.25
Charlie Blackmon,Rockies,COL,CF,7.77,12.04,9.28
Matt Joyce,Athletics,OAK,RF,7.85,12.15,9.13
Eugenio Suarez,Reds,CIN,SS,7.77,12.18,9.1
Manny Machado,Orioles,BAL,3B,7.73,12.03,9.18
Miguel Sano,Twins,MIN,DH,7.74,12.15,9.04
Adrian Beltre,Rangers,TEX,3B,7.69,12.04,9.14
Nicholas Castellanos,Tigers,DET,3B,7.67,11.87,9.25
Kris Bryant,Cubs,CHC,3B,7.75,12.02,9.06
Justin Upton,Angels,LAA,RF,7.69,12.02,8.98
Aaron Hicks,Yankees,NYY,CF,7.7,11.93,9.02
Chad Pinder,Athletics,OAK,SS,7.61,11.85,9.03
Edwin Encarnacion,Indians,CLE,3B,7.68,12.01,8.87
Tommy Pham,Cardinals,STL,CF,7.62,11.84,8.93
Michael Brantley,Indians,CLE,LF,7.52,11.79,8.88
Jose Abreu,White Sox,CWS,1B,7.53,11.7,8.96
Trea Turner,Nationals,WSH,2B,7.58,11.62,9.03
Kyle Schwarber,Cubs,CHC,LF,7.6,11.81,8.82
Justin Smoak,Blue Jays,TOR,1B,7.59,11.77,8.77
Logan Morrison,Twins,MIN,1B,7.54,11.68,8.72
Marcus Semien,Athletics,OAK,3B,7.42,11.49,8.9
Shin-Soo Choo,Rangers,TEX,RF,7.5,11.58,8.79
Nomar Mazara,Rangers,TEX,RF,7.41,11.58,8.71
Jeimer Candelario,Tigers,DET,3B,7.45,11.54,8.72
Chris Taylor,Dodgers,LAD,SS,7.4,11.44,8.73
Whit Merrifield,Royals,KC,2B,7.36,11.27,8.81
Jed Lowrie,Athletics,OAK,SS,7.27,11.29,8.59
Willson Contreras,Cubs,CHC,C,7.18,11.15,8.48
Matt Chapman,Athletics,OAK,3B,7.21,11.18,8.44
Teoscar Hernandez,Blue Jays,TOR,CF,7.14,11.1,8.49
Matt Carpenter,Cardinals,STL,3B,7.25,11.21,8.37
Max Muncy,Dodgers,LAD,1B,7.19,11.2,8.32
Austin Meadows,Pirates,PIT,CF,7.12,10.95,8.55
Joey Gallo,Rangers,TEX,LF,7.2,11.21,8.27
Ben Zobrist,Cubs,CHC,2B,7.1,11.08,8.38
Eduardo Nunez,Red Sox,BOS,SS,7,10.84,8.6
Bryce Harper,Nationals,WSH,RF,7.14,11.11,8.32
George Springer,Astros,HOU,RF,7.1,11.02,8.39
Joey Votto,Reds,CIN,1B,7.14,10.97,8.38
Freddie Freeman,Braves,ATL,1B,7.1,10.96,8.38
Daniel Palka,White Sox,CWS,1B,7,10.89,8.39
Michael Conforto,Mets,NYM,LF,7.1,10.96,8.31
Eduardo Escobar,Twins,MIN,SS,7,10.94,8.32
Max Kepler,Twins,MIN,RF,7.05,10.99,8.19
Miguel Andujar,Yankees,NYY,3B,6.95,10.8,8.35
Marcell Ozuna,Cardinals,STL,CF,6.93,10.86,8.26
Todd Frazier,Mets,NYM,3B,7,10.92,8.1
Niko Goodrum,Tigers,DET,SS,6.96,10.76,8.23
Javier Baez,Cubs,CHC,2B,6.87,10.75,8.23
Leonys Martin,Tigers,DET,CF,6.95,10.73,8.23
Trevor Story,Rockies,COL,SS,6.93,10.79,8.17
Jose Martinez,Cardinals,STL,RF,6.84,10.68,8.13
Matt Adams,Nationals,WSH,1B,6.79,10.7,8.01
Didi Gregorius,Yankees,NYY,SS,6.78,10.61,8.08
Tim Anderson,White Sox,CWS,SS,6.78,10.48,8.1
Miguel Cabrera,Tigers,DET,1B,6.77,10.52,8
Harrison Bader,Cardinals,STL,CF,6.74,10.44,8.07
Adam Jones,Orioles,BAL,CF,6.67,10.35,8.1
Brock Holt,Red Sox,BOS,3B,6.69,10.34,7.98
DJ LeMahieu,Rockies,COL,2B,6.61,10.27,8.03
Carlos Gonzalez,Rockies,COL,LF,6.65,10.33,7.94
Yasiel Puig,Dodgers,LAD,RF,6.69,10.36,7.91
Yoan Moncada,White Sox,CWS,2B,6.72,10.31,7.94
Juan Soto,Nationals,WSH,RF,6.62,10.28,7.91
Anthony Rendon,Nationals,WSH,3B,6.66,10.33,7.78
Alex Bregman,Astros,HOU,3B,6.65,10.27,7.81
Robinson Chirinos,Rangers,TEX,C,6.67,10.32,7.73
Neil Walker,Yankees,NYY,2B,6.62,10.3,7.75
Hunter Renfroe,Padres,SD,RF,6.54,10.22,7.74
Danny Valencia,Orioles,BAL,3B,6.5,10.14,7.81
Jose Altuve,Astros,HOU,2B,6.46,9.93,7.85
Zack Cozart,Angels,LAA,SS,6.51,10.05,7.64
Andrelton Simmons,Angels,LAA,SS,6.41,9.92,7.75
Ian Kinsler,Angels,LAA,2B,6.48,9.97,7.68
Adam Duvall,Reds,CIN,1B,6.44,10.1,7.54
Andrew McCutchen,Giants,SF,CF,6.46,10.01,7.59
Ian Desmond,Rockies,COL,SS,6.41,9.98,7.58
Ronald Guzman,Rangers,TEX,1B,6.39,10,7.55
Jackie Bradley Jr.,Red Sox,BOS,CF,6.42,9.96,7.56
Tyler Austin,Yankees,NYY,1B,6.37,10.02,7.45
Isiah Kiner-Falefa,Rangers,TEX,SS,6.34,9.81,7.57
Jurickson Profar,Rangers,TEX,2B,6.35,9.89,7.48
Jason Heyward,Cubs,CHC,RF,6.24,9.74,7.52
Asdrubal Cabrera,Mets,NYM,SS,6.26,9.74,7.52
Matt Davidson,White Sox,CWS,3B,6.32,9.88,7.36
Mark Canha,Athletics,OAK,LF,6.3,9.81,7.41
Randal Grichuk,Blue Jays,TOR,CF,6.25,9.75,7.36
Yangervis Solarte,Blue Jays,TOR,3B,6.2,9.68,7.38
Jake Lamb,Diamondbacks,ARI,3B,6.25,9.75,7.21
Stephen Piscotty,Athletics,OAK,RF,6.2,9.66,7.29
Ozzie Albies,Braves,ATL,SS,6.17,9.54,7.39
Matt Kemp,Dodgers,LAD,CF,6.12,9.55,7.38
Yairo Munoz,Cardinals,STL,SS,6.09,9.55,7.36
Buster Posey,Giants,SF,C,6.15,9.54,7.36
Christian Villanueva,Padres,SD,3B,6.13,9.64,7.23
Dexter Fowler,Cardinals,STL,CF,6.21,9.64,7.23
Yadier Molina,Cardinals,STL,C,6.07,9.53,7.31
Christian Yelich,Brewers,MIL,LF,6.14,9.48,7.31
Yasmani Grandal,Dodgers,LAD,C,6.15,9.58,7.19
Rafael Devers,Red Sox,BOS,3B,6.1,9.5,7.26
Yonder Alonso,Indians,CLE,1B,6.14,9.53,7.16
Justin Turner,Dodgers,LAD,2B,6.09,9.48,7.19
Trey Mancini,Orioles,BAL,1B,6.08,9.4,7.24
Joc Pederson,Dodgers,LAD,CF,6.06,9.4,7.08
Jean Segura,Mariners,SEA,SS,5.95,9.17,7.29
Scott Schebler,Reds,CIN,RF,6.02,9.35,7.09
Eric Hosmer,Padres,SD,1B,5.96,9.29,7.1
Gerardo Parra,Rockies,COL,LF,5.88,9.18,7.19
Jonathan Schoop,Orioles,BAL,2B,5.9,9.25,7.1
Travis Shaw,Brewers,MIL,1B,5.99,9.33,7
Carlos Correa,Astros,HOU,SS,5.95,9.31,6.98
Robbie Grossman,Twins,MIN,LF,5.99,9.27,6.99
Justin Bour,Marlins,MIA,1B,6,9.27,6.98
Salvador Perez,Royals,KC,C,5.86,9.25,6.97
Paul Goldschmidt,Diamondbacks,ARI,1B,5.98,9.28,6.94
Jose Pirela,Padres,SD,2B,5.89,9.11,7.11
Luis Valbuena,Angels,LAA,3B,5.91,9.26,6.91
Ender Inciarte,Braves,ATL,CF,5.89,9.01,7.14
Michael A. Taylor,Nationals,WSH,CF,5.94,9.08,7.04
Jesus Aguilar,Brewers,MIL,1B,5.88,9.2,6.91
Albert Almora Jr.,Cubs,CHC,CF,5.8,9.08,7.02
Nelson Cruz,Mariners,SEA,RF,5.89,9.17,6.92
Cody Bellinger,Dodgers,LAD,1B,5.91,9.17,6.89
Lonnie Chisenhall,Indians,CLE,3B,5.86,9.14,6.9
John Ryan Murphy,Diamondbacks,ARI,C,5.81,9.1,6.91
Kendrys Morales,Blue Jays,TOR,1B,5.83,9.09,6.92
Yolmer Sanchez,White Sox,CWS,2B,5.78,8.91,7.04
Matt Skole,White Sox,CWS,3B,5.85,9.05,6.88
Kevin Plawecki,Mets,NYM,C,5.84,8.99,6.88
Ehire Adrianza,Twins,MIN,2B,5.79,9,6.87
Rougned Odor,Rangers,TEX,2B,5.75,8.99,6.84
Jorge Soler,Royals,KC,RF,5.82,9.02,6.81
Jay Bruce,Mets,NYM,RF,5.78,8.97,6.84
Jonathan Lucroy,Athletics,OAK,C,5.75,8.89,6.91
Jose Iglesias,Tigers,DET,SS,5.73,8.85,6.88
Sandy Leon,Red Sox,BOS,C,5.64,8.87,6.75
Curt Casali,Reds,CIN,C,5.71,8.85,6.73
Mitch Garver,Twins,MIN,C,5.7,8.82,6.73
Delino DeShields,Rangers,TEX,CF,5.71,8.73,6.73
Francisco Cervelli,Pirates,PIT,C,5.67,8.8,6.63
Evan Gattis,Astros,HOU,DH,5.6,8.8,6.61
Mark Trumbo,Orioles,BAL,1B,5.58,8.66,6.69
Addison Russell,Cubs,CHC,2B,5.6,8.67,6.66
Kurt Suzuki,Braves,ATL,C,5.57,8.68,6.62
Nick Markakis,Braves,ATL,RF,5.54,8.63,6.65
Russell Martin,Blue Jays,TOR,C,5.65,8.77,6.51
Albert Pujols,Angels,LAA,1B,5.48,8.6,6.61
Bradley Zimmer,Indians,CLE,CF,5.56,8.59,6.61
Gorkys Hernandez,Giants,SF,CF,5.54,8.49,6.71
Franmil Reyes,Padres,SD,RF,5.52,8.59,6.6
Mike Moustakas,Royals,KC,3B,5.53,8.64,6.54
Derek Dietrich,Marlins,MIA,2B,5.54,8.55,6.57
Brandon Crawford,Giants,SF,SS,5.47,8.51,6.59
Domingo Santana,Brewers,MIL,RF,5.52,8.51,6.52
Lorenzo Cain,Brewers,MIL,CF,5.5,8.41,6.56
Evan Longoria,Giants,SF,3B,5.41,8.42,6.49
Josh Bell,Pirates,PIT,1B,5.41,8.46,6.4
Tucker Barnhart,Reds,CIN,C,5.41,8.33,6.5
Kolten Wong,Cardinals,STL,2B,5.43,8.39,6.41
Johan Camargo,Braves,ATL,SS,5.41,8.38,6.38
Mitch Haniger,Mariners,SEA,LF,5.4,8.37,6.38
Mac Williamson,Giants,SF,RF,5.36,8.32,6.4
Chris Iannetta,Rockies,COL,C,5.43,8.38,6.32
J.T. Realmuto,Marlins,MIA,C,5.35,8.24,6.43
Victor Martinez,Tigers,DET,DH,5.32,8.26,6.4
Jarrod Dyson,Diamondbacks,ARI,CF,5.38,8.2,6.45
Adrian Gonzalez,Mets,NYM,1B,5.29,8.25,6.37
Erik Gonzalez,Indians,CLE,2B,5.3,8.25,6.36
Preston Tucker,Braves,ATL,LF,5.26,8.29,6.25
Josh Harrison,Pirates,PIT,3B,5.27,8.13,6.38
Bruce Maxwell,Athletics,OAK,C,5.28,8.21,6.27
Joe Panik,Giants,SF,2B,5.26,8.12,6.35
Charlie Tilson,White Sox,CWS,CF,5.26,8.04,6.42
Victor Reyes,Tigers,DET,RF,5.2,8.08,6.36
Starlin Castro,Marlins,MIA,SS,5.18,8.08,6.31
Dee Gordon,Mariners,SEA,2B,5.21,7.92,6.44
Kevin Pillar,Blue Jays,TOR,CF,5.2,7.98,6.28
Aledmys Diaz,Blue Jays,TOR,SS,5.18,8.05,6.21
Billy Hamilton,Reds,CIN,CF,5.22,7.91,6.31
JaCoby Jones,Tigers,DET,3B,5.19,8.03,6.16
Ryan LaMarre,Twins,MIN,CF,5.11,7.87,6.25
Christian Vazquez,Red Sox,BOS,C,5.09,7.9,6.2
Jason Kipnis,Indians,CLE,2B,5.18,7.98,6.08
Nick Ahmed,Diamondbacks,ARI,SS,5.09,7.95,6.08
James McCann,Tigers,DET,C,5.09,7.89,6.12
Max Stassi,Astros,HOU,C,5.11,7.99,6
Chris Young,Angels,LAA,CF,5.14,7.96,6.01
Colin Moran,Pirates,PIT,3B,5.06,7.9,6.06
Jesse Winker,Reds,CIN,LF,5.13,7.9,6.05
Luke Maile,Blue Jays,TOR,C,5.08,7.91,6.04
Carlos Santana,Phillies,PHI,C,5.12,7.94,5.96
Jon Jay,Royals,KC,CF,5.02,7.75,6.14
Greg Garcia,Cardinals,STL,SS,5.07,7.85,6.01
Adam Engel,White Sox,CWS,CF,5.07,7.77,6.05
Jose Peraza,Reds,CIN,2B,4.95,7.59,6.11
Manuel Margot,Padres,SD,CF,5.01,7.67,6.01
Gregory Polanco,Pirates,PIT,RF,5.01,7.75,5.89
Ryon Healy,Mariners,SEA,3B,4.92,7.7,5.94
Cesar Hernandez,Phillies,PHI,CF,5,7.63,5.95
Odubel Herrera,Phillies,PHI,LF,4.94,7.64,5.93
Blake Swihart,Red Sox,BOS,C,4.93,7.65,5.9
David Peralta,Diamondbacks,ARI,LF,4.92,7.61,5.93
Corey Dickerson,Pirates,PIT,LF,4.88,7.56,5.95
Amed Rosario,Mets,NYM,SS,4.88,7.51,6
Greg Allen,Indians,CLE,CF,4.92,7.54,5.89
Yan Gomes,Indians,CLE,C,4.88,7.61,5.76
Devon Travis,Blue Jays,TOR,2B,4.84,7.48,5.83
Yulieski Gurriel,Astros,HOU,DH,4.76,7.41,5.82
A.J. Ellis,Padres,SD,C,4.85,7.5,5.72
Wilmer Difo,Nationals,WSH,SS,4.76,7.37,5.79
Bobby Wilson,Twins,MIN,C,4.77,7.49,5.64
Dansby Swanson,Braves,ATL,SS,4.79,7.44,5.66
Ryan Braun,Brewers,MIL,LF,4.8,7.41,5.66
Denard Span,Mariners,SEA,CF,4.76,7.33,5.67
Brian Anderson,Marlins,MIA,3B,4.72,7.3,5.69
Kyle Seager,Mariners,SEA,3B,4.72,7.38,5.56
Jonathan Villar,Brewers,MIL,SS,4.72,7.22,5.7
Hunter Dozier,Royals,KC,3B,4.72,7.27,5.61
Marwin Gonzalez,Astros,HOU,SS,4.64,7.23,5.55
Cameron Maybin,Marlins,MIA,CF,4.7,7.17,5.6
Nick Williams,Phillies,PHI,LF,4.63,7.22,5.55
Ji-Man Choi,Brewers,MIL,1B,4.68,7.23,5.5
Omar Narvaez,White Sox,CWS,C,4.68,7.08,5.59
Ketel Marte,Diamondbacks,ARI,SS,4.6,7.05,5.54
Austin Jackson,Giants,SF,CF,4.58,7.07,5.49
Mike Zunino,Mariners,SEA,C,4.6,7.15,5.4
C.J. Cron,Rays,TB,1B,4.58,7.09,5.42
Trayce Thompson,White Sox,CWS,CF,4.58,7.11,5.36
Freddy Galvis,Padres,SD,2B,4.53,6.98,5.47
Jake Marisnick,Astros,HOU,CF,4.51,7.06,5.35
Tony Wolters,Rockies,COL,C,4.52,6.98,5.34
Socrates Brito,Diamondbacks,ARI,RF,4.43,6.85,5.44
Logan Forsythe,Dodgers,LAD,2B,4.49,6.95,5.28
Francisco Pena,Cardinals,STL,C,4.39,6.79,5.34
Chris Owings,Diamondbacks,ARI,SS,4.41,6.81,5.27
Martin Maldonado,Angels,LAA,C,4.37,6.8,5.24
Miguel Rojas,Marlins,MIA,SS,4.37,6.76,5.26
Aaron Altherr,Phillies,PHI,LF,4.31,6.7,5.03
Chris Davis,Orioles,BAL,1B,4.31,6.71,5.02
Jordy Mercer,Pirates,PIT,SS,4.26,6.6,5.13
Deven Marrero,Diamondbacks,ARI,3B,4.2,6.57,5.02
Nick Hundley,Giants,SF,C,4.16,6.51,5.01
Pablo Sandoval,Giants,SF,3B,4.16,6.5,5
Ben Gamel,Mariners,SEA,RF,4.17,6.39,5.06
Alex Gordon,Royals,KC,LF,4.16,6.39,4.96
Dixon Machado,Tigers,DET,SS,4.1,6.36,4.93
Alcides Escobar,Royals,KC,SS,3.97,6.18,4.87
Carlos Gomez,Rays,TB,CF,4.06,6.24,4.78
Daniel Robertson,Rays,TB,SS,4.05,6.23,4.73
Ramon Torres,Royals,KC,SS,3.93,6.08,4.83
Guillermo Heredia,Mariners,SEA,LF,4.01,6.09,4.79
Pedro Severino,Nationals,WSH,C,3.92,6.05,4.67
Wilson Ramos,Rays,TB,C,3.84,6,4.66
Jorge Alfaro,Phillies,PHI,C,3.86,5.94,4.69
Manny Pina,Brewers,MIL,C,3.72,5.76,4.46
Maikel Franco,Phillies,PHI,3B,3.7,5.76,4.46
Drew Butera,Royals,KC,C,3.71,5.77,4.4
Scott Kingery,Phillies,PHI,2B,3.65,5.58,4.43
Joey Wendle,Rays,TB,2B,3.62,5.55,4.41
J.T. Riddle,Marlins,MIA,SS,3.52,5.46,4.34
Mallex Smith,Rays,TB,CF,3.57,5.41,4.29
Abraham Almonte,Royals,KC,CF,3.5,5.39,4.21
Orlando Arcia,Brewers,MIL,SS,3.47,5.33,4.2
Johnny Field,Rays,TB,CF,3.47,5.34,4.16
Matt Duffy,Rays,TB,3B,3.43,5.24,4.2
Lewis Brinson,Marlins,MIA,CF,3.21,4.97,3.83
J.B. Shuck,Marlins,MIA,LF,3.02,4.62,3.71
Steve Pearce,Blue Jays,TOR,1B,2.05,3.19,2.43
Joe Mauer,Twins,MIN,C,1.99,3.08,2.36
Dustin Fowler,Athletics,OAK,CF,1.85,2.87,2.22
Ian Happ,Cubs,CHC,2B,1.74,2.72,2.02
Kevan Smith,White Sox,CWS,C,1.58,2.46,1.95
Mitch Walding,Phillies,PHI,3B,1.62,2.52,1.88
Franchy Cordero,Padres,SD,SS,1.54,2.39,1.84
Boog Powell,Athletics,OAK,CF,1.48,2.3,1.78
Giovanny Urshela,Blue Jays,TOR,3B,1.4,2.19,1.72
Luke Voit,Cardinals,STL,1B,1.41,2.22,1.66
Troy Tulowitzki,Blue Jays,TOR,SS,1.39,2.14,1.67
Mark Reynolds,Nationals,WSH,3B,1.39,2.16,1.63
Austin Romine,Yankees,NYY,C,1.36,2.13,1.62
Pedro Alvarez,Orioles,BAL,3B,1.33,2.1,1.56
Curtis Granderson,Blue Jays,TOR,CF,1.35,2.09,1.56
Jose Reyes,Mets,NYM,SS,1.34,2.06,1.59
Brian Goodwin,Nationals,WSH,RF,1.3,2.02,1.53
Tommy La Stella,Cubs,CHC,2B,1.28,2.01,1.53
John Hicks,Tigers,DET,C,1.28,2,1.54
J.P. Crawford,Phillies,PHI,SS,1.3,2.01,1.52
Rajai Davis,Indians,CLE,CF,1.3,1.98,1.55
Starling Marte,Pirates,PIT,LF,1.28,1.97,1.55
Jedd Gyorko,Cardinals,STL,2B,1.28,2.01,1.52
Sam Travis,Red Sox,BOS,1B,1.28,1.97,1.54
Brandon Guyer,Indians,CLE,LF,1.29,2,1.5
Jose Rondon,White Sox,CWS,SS,1.26,1.96,1.52
Chance Sisco,Orioles,BAL,C,1.27,1.98,1.49
Josh Phegley,Athletics,OAK,C,1.26,1.95,1.48
Devin Mesoraco,Mets,NYM,C,1.26,1.96,1.47
Ronny Rodriguez,Tigers,DET,SS,1.24,1.92,1.5
Jose Bautista,Mets,NYM,RF,1.24,1.92,1.43
Chris Gimenez,Cubs,CHC,C,1.22,1.88,1.43
Jose Briceno,Angels,LAA,C,1.2,1.86,1.42
Austin Barnes,Dodgers,LAD,C,1.21,1.86,1.41
Tyler Flowers,Braves,ATL,C,1.19,1.85,1.39
Melky Cabrera,Indians,CLE,CF,1.16,1.81,1.39
Craig Gentry,Orioles,BAL,CF,1.17,1.79,1.41
Joey Rickard,Orioles,BAL,CF,1.16,1.79,1.4
Kaleb Cowart,Angels,LAA,3B,1.15,1.79,1.37
Brandon Dixon,Reds,CIN,2B,1.13,1.75,1.35
Michael Hermosillo,Angels,LAA,CF,1.14,1.74,1.36
Gregorio Petit,Twins,MIN,2B,1.11,1.72,1.36
Adam Frazier,Pirates,PIT,2B,1.11,1.72,1.33
J.D. Davis,Astros,HOU,3B,1.12,1.72,1.32
Roberto Perez,Indians,CLE,C,1.12,1.74,1.29
Noel Cuevas,Rockies,COL,CF,1.08,1.66,1.34
Hunter Pence,Giants,SF,RF,1.08,1.68,1.3
Mike Tauchman,Rockies,COL,LF,1.08,1.66,1.31
Ryan McMahon,Rockies,COL,3B,1.09,1.67,1.3
Enrique Hernandez,Dodgers,LAD,LF,1.09,1.69,1.27
Tony Kemp,Astros,HOU,LF,1.07,1.67,1.29
Jace Peterson,Orioles,BAL,2B,1.09,1.66,1.27
Alex Blandino,Reds,CIN,SS,1.06,1.62,1.26
Tim Federowicz,Astros,HOU,C,1.03,1.6,1.23
Cory Spangenberg,Padres,SD,2B,1.03,1.59,1.23
Carlos Tocci,Rangers,TEX,CF,1.01,1.57,1.24
Dylan Cozens,Phillies,PHI,RF,1.02,1.6,1.2
Erik Kratz,Brewers,MIL,C,1.01,1.56,1.21
Breyvic Valera,Dodgers,LAD,2B,0.99,1.55,1.19
Carlos Perez,Rangers,TEX,C,1,1.54,1.2
Hernan Perez,Brewers,MIL,3B,0.98,1.51,1.2
Travis Jankowski,Padres,SD,CF,0.97,1.46,1.18
Jose Lobaton,Mets,NYM,C,0.96,1.48,1.14
Daniel Descalso,Diamondbacks,ARI,3B,0.96,1.5,1.12
David Freese,Pirates,PIT,3B,0.96,1.48,1.14
Sean Rodriguez,Pirates,PIT,2B,0.95,1.47,1.1
Luis Guillorme,Mets,NYM,SS,0.92,1.42,1.13
Adrian Sanchez,Nationals,WSH,2B,0.91,1.42,1.12
Spencer Kieboom,Nationals,WSH,C,0.92,1.43,1.1
Elias Diaz,Pirates,PIT,C,0.87,1.35,1.05
Ryan Flaherty,Braves,ATL,2B,0.86,1.33,1.03
Adeiny Hechavarria,Rays,TB,SS,0.85,1.31,1.04
Jefry Marte,Angels,LAA,1B,0.85,1.32,1.01
Brad Miller,Rays,TB,SS,0.84,1.29,0.99
Andrew Romine,Mariners,SEA,SS,0.83,1.27,1
Alex Avila,Diamondbacks,ARI,C,0.84,1.3,0.97
David Freitas,Mariners,SEA,C,0.83,1.28,0.98
Eric Sogard,Brewers,MIL,2B,0.82,1.26,0.98
Alen Hanson,Giants,SF,SS,0.81,1.24,0.96
Yadiel Rivera,Marlins,MIA,2B,0.8,1.23,0.96
Christian Arroyo,Rays,TB,SS,0.78,1.21,0.94
Andrew Knapp,Phillies,PHI,C,0.77,1.19,0.92
Jesmuel Valentin,Phillies,PHI,2B,0.76,1.18,0.92
Ryan Goins,Royals,KC,2B,0.75,1.18,0.91
Raffy Lopez,Padres,SD,C,0.76,1.2,0.89
Bryan Holaday,Marlins,MIA,C,0.75,1.17,0.91
Peter Bourjos,Braves,ATL,CF,0.75,1.16,0.9
Charlie Culberson,Braves,ATL,3B,0.75,1.16,0.9
Rob Refsnyder,Rays,TB,1B,0.75,1.13,0.88
Jeff Mathis,Diamondbacks,ARI,C,0.71,1.08,0.84
Matt Szczur,Padres,SD,LF,0.7,1.08,0.82
Jesus Sucre,Rays,TB,C,0.67,1.04,0.82
Raudy Read,Nationals,WSH,C,0.48,0.75,0.59
