Position,Name + ID,Name,ID,Roster Position,Salary,Game Info,TeamAbbrev,AvgPointsPerGame
M/F,Miguel Almiron (10598037),Miguel Almiron,10598037,M/F/UTIL,12200,ATL vs MTL 01:00PM ET,ATL,21.54
F,Sebastian Giovinco (10598040),Sebastian Giovinco,10598040,F/UTIL,10800,TOR vs CHI 03:00PM ET,TOR,13.17
F,Josef Martinez (10598042),Josef Martinez,10598042,F/UTIL,9900,ATL vs MTL 01:00PM ET,ATL,11.57
M,Julian Gressel (10597915),Julian Gressel,10597915,M/UTIL,8500,ATL vs MTL 01:00PM ET,ATL,12.21
F,Jozy Altidore (10598044),Jozy Altidore,10598044,F/UTIL,8500,TOR vs CHI 03:00PM ET,TOR,12
M,Victor Vazquez (10597917),Victor Vazquez,10597917,M/UTIL,8300,TOR vs CHI 03:00PM ET,TOR,2.75
F,Hector Villalba (10598046),Hector Villalba,10598046,F/UTIL,8200,ATL vs MTL 01:00PM ET,ATL,10.25
F,Nemanja Nikolic (10598048),Nemanja Nikolic,10598048,F/UTIL,7800,TOR vs CHI 03:00PM ET,CHI,13.08
M,Ager Aketxe (10597919),Ager Aketxe,10597919,M/UTIL,7700,TOR vs CHI 03:00PM ET,TOR,8.25
M,Borek Dockal (10597921),Borek Dockal,10597921,M/UTIL,7500,PHI vs DC 03:30PM ET,PHI,9.65
F,C.J. Sapong (10598050),C.J. Sapong,10598050,F/UTIL,7500,PHI vs DC 03:30PM ET,PHI,9.62
F,Tosaint Ricketts (10598052),Tosaint Ricketts,10598052,F/UTIL,7400,TOR vs CHI 03:00PM ET,TOR,7.33
M/F,Ignacio Piatti (10597923),Ignacio Piatti,10597923,M/F/UTIL,7300,ATL vs MTL 01:00PM ET,MTL,16.67
M,Ezequiel Barco (10597926),Ezequiel Barco,10597926,M/UTIL,7200,ATL vs MTL 01:00PM ET,ATL,5.38
F,Romario Williams (10598054),Romario Williams,10598054,F/UTIL,7100,ATL vs MTL 01:00PM ET,ATL,3.5
F,Brandon Vazquez (10598056),Brandon Vazquez,10598056,F/UTIL,6800,ATL vs MTL 01:00PM ET,ATL,3
M,Fabrice-Jean Picault (10597928),Fabrice-Jean Picault,10597928,M/UTIL,6800,PHI vs DC 03:30PM ET,PHI,9.67
M,Yamil Asad (10597930),Yamil Asad,10597930,M/UTIL,6600,PHI vs DC 03:30PM ET,DC,13.17
F,David Accam (10598058),David Accam,10598058,F/UTIL,6300,PHI vs DC 03:30PM ET,PHI,6.21
D,Greg Garza (10597799),Greg Garza,10597799,D/UTIL,6200,ATL vs MTL 01:00PM ET,ATL,9.35
M,Aleksandar Katai (10597932),Aleksandar Katai,10597932,M/UTIL,6200,TOR vs CHI 03:00PM ET,CHI,9.95
GK,Brad Guzan (10597780),Brad Guzan,10597780,GK,6000,ATL vs MTL 01:00PM ET,ATL,7.5
D,Mikey Ambrose (10597801),Mikey Ambrose,10597801,D/UTIL,6000,ATL vs MTL 01:00PM ET,ATL,11.5
F,Jordan Hamilton (10598060),Jordan Hamilton,10598060,F/UTIL,6000,TOR vs CHI 03:00PM ET,TOR,8.38
GK,Mitch Hildebrandt (10597781),Mitch Hildebrandt,10597781,GK,5900,ATL vs MTL 01:00PM ET,ATL,0
GK,Alec Kann (10597782),Alec Kann,10597782,GK,5900,ATL vs MTL 01:00PM ET,ATL,0
D,Jose Hernandez (10597803),Jose Hernandez,10597803,D/UTIL,5700,ATL vs MTL 01:00PM ET,ATL,0
GK,Clint Irwin (10597783),Clint Irwin,10597783,GK,5700,TOR vs CHI 03:00PM ET,TOR,5.67
M,Saphir Taider (10597934),Saphir Taider,10597934,M/UTIL,5600,ATL vs MTL 01:00PM ET,MTL,7.71
GK,Alexander Bono (10597784),Alexander Bono,10597784,GK,5600,TOR vs CHI 03:00PM ET,TOR,1
GK,Caleb Patterson-Sewell (10597785),Caleb Patterson-Sewell,10597785,GK,5600,TOR vs CHI 03:00PM ET,TOR,0
D,Justin Morrow (10597805),Justin Morrow,10597805,D/UTIL,5600,TOR vs CHI 03:00PM ET,TOR,4
GK,Andre Blake (10597786),Andre Blake,10597786,GK,5500,PHI vs DC 03:30PM ET,PHI,6.83
D, Fabinho (10597807), Fabinho,10597807,D/UTIL,5500,PHI vs DC 03:30PM ET,PHI,5.75
F,Fabian Herbers (10598062),Fabian Herbers,10598062,F/UTIL,5500,PHI vs DC 03:30PM ET,PHI,6.17
M,Andrew Carleton (10597936),Andrew Carleton,10597936,M/UTIL,5400,ATL vs MTL 01:00PM ET,ATL,2.33
GK,John McCarthy (10597787),John McCarthy,10597787,GK,5400,PHI vs DC 03:30PM ET,PHI,0
GK,Jake McGuire (10597788),Jake McGuire,10597788,GK,5400,PHI vs DC 03:30PM ET,PHI,0
D,Nicolas Hasler (10597809),Nicolas Hasler,10597809,D/UTIL,5400,TOR vs CHI 03:00PM ET,TOR,4.1
D, Auro (10597811), Auro,10597811,D/UTIL,5300,TOR vs CHI 03:00PM ET,TOR,2.58
F,Ben Spencer (10598064),Ben Spencer,10598064,F/UTIL,5300,TOR vs CHI 03:00PM ET,TOR,3
F,Jeisson Vargas (10598066),Jeisson Vargas,10598066,F/UTIL,5200,ATL vs MTL 01:00PM ET,MTL,8.18
M, Ilsinho (10597938), Ilsinho,10597938,M/UTIL,5200,PHI vs DC 03:30PM ET,PHI,1.12
D,Gregory van der Wiel (10597813),Gregory van der Wiel,10597813,D/UTIL,5200,TOR vs CHI 03:00PM ET,TOR,4.17
D,Sal Zizzo (10597815),Sal Zizzo,10597815,D/UTIL,5100,ATL vs MTL 01:00PM ET,ATL,0.5
F,Jay Simpson (10598068),Jay Simpson,10598068,F/UTIL,5100,PHI vs DC 03:30PM ET,PHI,0
D,Keegan Rosenberry (10597817),Keegan Rosenberry,10597817,D/UTIL,5000,PHI vs DC 03:30PM ET,PHI,7.21
M,Haris Medunjanin (10597940),Haris Medunjanin,10597940,M/UTIL,5000,PHI vs DC 03:30PM ET,PHI,5.71
D,Matt Polster (10597819),Matt Polster,10597819,D/UTIL,5000,TOR vs CHI 03:00PM ET,CHI,10.25
D,Chris McCann (10597821),Chris McCann,10597821,D/UTIL,4900,ATL vs MTL 01:00PM ET,ATL,4.79
M,Marco Delgado (10597942),Marco Delgado,10597942,M/UTIL,4900,TOR vs CHI 03:00PM ET,TOR,1.25
M,Djordje Mihailovic (10597944),Djordje Mihailovic,10597944,M/UTIL,4900,TOR vs CHI 03:00PM ET,CHI,0
M,Luciano Acosta (10597946),Luciano Acosta,10597946,M/UTIL,4800,PHI vs DC 03:30PM ET,DC,8.45
F,Darren Mattocks (10598070),Darren Mattocks,10598070,F/UTIL,4800,PHI vs DC 03:30PM ET,DC,6.9
D,Mitchell Taintor (10597823),Mitchell Taintor,10597823,D/UTIL,4800,TOR vs CHI 03:00PM ET,TOR,13
M,Ryan Telfer (10597948),Ryan Telfer,10597948,M/UTIL,4800,TOR vs CHI 03:00PM ET,TOR,6.38
D,Franco Escobar (10597825),Franco Escobar,10597825,D/UTIL,4700,ATL vs MTL 01:00PM ET,ATL,4.42
M/F,Patrick Mullins (10597950),Patrick Mullins,10597950,M/F/UTIL,4700,PHI vs DC 03:30PM ET,DC,1.42
F,Cory Burke (10598072),Cory Burke,10598072,F/UTIL,4700,PHI vs DC 03:30PM ET,PHI,3.75
D,Brandon Vincent (10597827),Brandon Vincent,10597827,D/UTIL,4700,TOR vs CHI 03:00PM ET,CHI,9.29
F,Matteo Mancosu (10598074),Matteo Mancosu,10598074,F/UTIL,4600,ATL vs MTL 01:00PM ET,MTL,6.5
M,Bastian Schweinsteiger (10597953),Bastian Schweinsteiger,10597953,M/UTIL,4600,TOR vs CHI 03:00PM ET,CHI,7.75
M,Darlington Nagbe (10597955),Darlington Nagbe,10597955,M/UTIL,4500,ATL vs MTL 01:00PM ET,ATL,4.07
F,Anthony Jackson-Hamel (10598076),Anthony Jackson-Hamel,10598076,F/UTIL,4500,ATL vs MTL 01:00PM ET,MTL,1.38
D,Matthew Real (10597829),Matthew Real,10597829,D/UTIL,4500,PHI vs DC 03:30PM ET,PHI,4.25
M/F,Zoltan Stieber (10598078),Zoltan Stieber,10598078,M/F/UTIL,4500,PHI vs DC 03:30PM ET,DC,3.75
D,Raymon Gaddis (10597831),Raymon Gaddis,10597831,D/UTIL,4400,PHI vs DC 03:30PM ET,PHI,3.92
M,Jay Chapman (10597957),Jay Chapman,10597957,M/UTIL,4400,TOR vs CHI 03:00PM ET,TOR,4.83
F,Michael de Leeuw (10598081),Michael de Leeuw,10598081,F/UTIL,4400,TOR vs CHI 03:00PM ET,CHI,0
M,Kevin Kratz (10597959),Kevin Kratz,10597959,M/UTIL,4300,ATL vs MTL 01:00PM ET,ATL,2.25
M,Eric Ayuk (10597961),Eric Ayuk,10597961,M/UTIL,4300,PHI vs DC 03:30PM ET,PHI,0
D,Leandro Gonzalez Pirez (10597833),Leandro Gonzalez Pirez,10597833,D/UTIL,4200,ATL vs MTL 01:00PM ET,ATL,3.62
M,Paul Arriola (10597963),Paul Arriola,10597963,M/UTIL,4200,PHI vs DC 03:30PM ET,DC,5.75
F,Dane Kelly (10598083),Dane Kelly,10598083,F/UTIL,4200,PHI vs DC 03:30PM ET,DC,0
M,Jonathan Osorio (10597965),Jonathan Osorio,10597965,M/UTIL,4200,TOR vs CHI 03:00PM ET,TOR,4.25
F,Diego Campos (10598085),Diego Campos,10598085,F/UTIL,4200,TOR vs CHI 03:00PM ET,CHI,5.81
D,Michael Parkhurst (10597835),Michael Parkhurst,10597835,D/UTIL,4100,ATL vs MTL 01:00PM ET,ATL,4.43
M,Jeff Larentowicz (10597967),Jeff Larentowicz,10597967,M/UTIL,4100,ATL vs MTL 01:00PM ET,ATL,3.68
M/F,Raheem Edwards (10598087),Raheem Edwards,10598087,M/F/UTIL,4100,ATL vs MTL 01:00PM ET,MTL,7.42
F,Bruno Miranda (10598090),Bruno Miranda,10598090,F/UTIL,4100,PHI vs DC 03:30PM ET,DC,0
M,Drew Conner (10597969),Drew Conner,10597969,M/UTIL,4100,TOR vs CHI 03:00PM ET,CHI,3.17
F,Luis Solignac (10598092),Luis Solignac,10598092,F/UTIL,4100,TOR vs CHI 03:00PM ET,CHI,4.62
D,Daniel Lovitz (10597839),Daniel Lovitz,10597839,D/UTIL,4000,ATL vs MTL 01:00PM ET,MTL,7.36
M,Alejandro Silva (10597971),Alejandro Silva,10597971,M/UTIL,4000,ATL vs MTL 01:00PM ET,MTL,3.25
GK,Steve Clark (10597789),Steve Clark,10597789,GK,4000,PHI vs DC 03:30PM ET,DC,18.5
D,Taylor Kemp (10597837),Taylor Kemp,10597837,D/UTIL,4000,PHI vs DC 03:30PM ET,DC,0
F,Alan Gordon (10598094),Alan Gordon,10598094,F/UTIL,4000,TOR vs CHI 03:00PM ET,CHI,1
GK,David Ousted (10597790),David Ousted,10597790,GK,3900,PHI vs DC 03:30PM ET,DC,1.4
GK,Travis Worra (10597791),Travis Worra,10597791,GK,3900,PHI vs DC 03:30PM ET,DC,0
D,Ashtone Morgan (10597843),Ashtone Morgan,10597843,D/UTIL,3900,TOR vs CHI 03:00PM ET,TOR,3.92
D,Chris Duvall (10597845),Chris Duvall,10597845,D/UTIL,3800,ATL vs MTL 01:00PM ET,MTL,5.17
F,Dominic Oduro (10598096),Dominic Oduro,10598096,F/UTIL,3800,ATL vs MTL 01:00PM ET,MTL,2
D,Oniel Fisher (10597841),Oniel Fisher,10597841,D/UTIL,3800,PHI vs DC 03:30PM ET,DC,2.67
M,Anthony Fontana (10597973),Anthony Fontana,10597973,M/UTIL,3800,PHI vs DC 03:30PM ET,PHI,5.58
GK,Richard Sanchez (10597792),Richard Sanchez,10597792,GK,3800,TOR vs CHI 03:00PM ET,CHI,6.75
D,Miles Robinson (10597847),Miles Robinson,10597847,D/UTIL,3700,ATL vs MTL 01:00PM ET,ATL,4
D,Joseph Mora (10597849),Joseph Mora,10597849,D/UTIL,3700,PHI vs DC 03:30PM ET,DC,4.69
GK,Patrick McLain (10597793),Patrick McLain,10597793,GK,3700,TOR vs CHI 03:00PM ET,CHI,0
GK,Stefan Cleveland (10597794),Stefan Cleveland,10597794,GK,3700,TOR vs CHI 03:00PM ET,CHI,0
D,Drew Moor (10597851),Drew Moor,10597851,D/UTIL,3700,TOR vs CHI 03:00PM ET,TOR,4
M,Michael Bradley (10597975),Michael Bradley,10597975,M/UTIL,3700,TOR vs CHI 03:00PM ET,TOR,3.75
F,Elliot Collier (10598098),Elliot Collier,10598098,F/UTIL,3700,TOR vs CHI 03:00PM ET,CHI,3.75
GK,Evan Bush (10597795),Evan Bush,10597795,GK,3600,ATL vs MTL 01:00PM ET,MTL,10.29
F,Jon Gallagher (10598100),Jon Gallagher,10598100,F/UTIL,3600,ATL vs MTL 01:00PM ET,ATL,0
D,Rafael Ramos (10597853),Rafael Ramos,10597853,D/UTIL,3600,TOR vs CHI 03:00PM ET,CHI,3.25
D,Chris Mavinga (10597855),Chris Mavinga,10597855,D/UTIL,3600,TOR vs CHI 03:00PM ET,TOR,5
F,Ayo Akinola (10598102),Ayo Akinola,10598102,F/UTIL,3600,TOR vs CHI 03:00PM ET,TOR,0
F,Jon Bakero (10598104),Jon Bakero,10598104,F/UTIL,3600,TOR vs CHI 03:00PM ET,CHI,0.75
GK,Clement Diop (10597796),Clement Diop,10597796,GK,3500,ATL vs MTL 01:00PM ET,MTL,0
GK,James Pantemis (10597797),James Pantemis,10597797,GK,3500,ATL vs MTL 01:00PM ET,MTL,0
GK,Jason Beaulieu (10597798),Jason Beaulieu,10597798,GK,3500,ATL vs MTL 01:00PM ET,MTL,0
M,Michael Petrasso (10597977),Michael Petrasso,10597977,M/UTIL,3500,ATL vs MTL 01:00PM ET,MTL,2.88
D,Auston Trusty (10597857),Auston Trusty,10597857,D/UTIL,3500,PHI vs DC 03:30PM ET,PHI,3.29
D,Nick DeLeon (10597859),Nick DeLeon,10597859,D/UTIL,3500,PHI vs DC 03:30PM ET,DC,4.08
D,Jack Elliott (10597861),Jack Elliott,10597861,D/UTIL,3400,PHI vs DC 03:30PM ET,PHI,1.9
M,Alejandro Bedoya (10597979),Alejandro Bedoya,10597979,M/UTIL,3400,PHI vs DC 03:30PM ET,PHI,6.29
D,Julian Dunn-Johnson (10597863),Julian Dunn-Johnson,10597863,D/UTIL,3400,TOR vs CHI 03:00PM ET,TOR,2.75
D,Mark McKenzie (10597865),Mark McKenzie,10597865,D/UTIL,3300,PHI vs DC 03:30PM ET,PHI,0.5
D,Chris Odoi-Atsem (10597867),Chris Odoi-Atsem,10597867,D/UTIL,3300,PHI vs DC 03:30PM ET,DC,4
M,Ulises Segura (10597981),Ulises Segura,10597981,M/UTIL,3300,PHI vs DC 03:30PM ET,DC,6.5
D,Jason Hernandez (10597869),Jason Hernandez,10597869,D/UTIL,3300,TOR vs CHI 03:00PM ET,TOR,0
D,Eriq Zavaleta (10597871),Eriq Zavaleta,10597871,D/UTIL,3300,TOR vs CHI 03:00PM ET,TOR,1.83
D,Nick Hagglund (10597873),Nick Hagglund,10597873,D/UTIL,3300,TOR vs CHI 03:00PM ET,TOR,0.5
D,Jorge Corrales (10597875),Jorge Corrales,10597875,D/UTIL,3200,TOR vs CHI 03:00PM ET,CHI,0
M,Dax McCarty (10597983),Dax McCarty,10597983,M/UTIL,3200,TOR vs CHI 03:00PM ET,CHI,5.12
D,George Bello (10597877),George Bello,10597877,D/UTIL,3100,ATL vs MTL 01:00PM ET,ATL,0
M,Oliver Shannon (10597985),Oliver Shannon,10597985,M/UTIL,3100,ATL vs MTL 01:00PM ET,ATL,0
M,Christopher Goslin (10597987),Christopher Goslin,10597987,M/UTIL,3100,ATL vs MTL 01:00PM ET,ATL,0
M,Andrew Wheeler-Omiunu (10597989),Andrew Wheeler-Omiunu,10597989,M/UTIL,3100,ATL vs MTL 01:00PM ET,ATL,0
M,Lagos Kunga (10597991),Lagos Kunga,10597991,M/UTIL,3100,ATL vs MTL 01:00PM ET,ATL,0
M,Samuel Piette (10597993),Samuel Piette,10597993,M/UTIL,3100,ATL vs MTL 01:00PM ET,MTL,3.46
M,Ken Krolicki (10597995),Ken Krolicki,10597995,M/UTIL,3100,ATL vs MTL 01:00PM ET,MTL,2.39
M,Marco Donadel (10597997),Marco Donadel,10597997,M/UTIL,3100,ATL vs MTL 01:00PM ET,MTL,0
M,Louis Beland-Goyette (10597999),Louis Beland-Goyette,10597999,M/UTIL,3100,ATL vs MTL 01:00PM ET,MTL,0.33
M,Shamit Shome (10598001),Shamit Shome,10598001,M/UTIL,3100,ATL vs MTL 01:00PM ET,MTL,0
M,David Choiniere (10598003),David Choiniere,10598003,M/UTIL,3100,ATL vs MTL 01:00PM ET,MTL,0.75
M,Warren Creavalle (10598005),Warren Creavalle,10598005,M/UTIL,3100,PHI vs DC 03:30PM ET,PHI,0
M,Derrick Jones (10598007),Derrick Jones,10598007,M/UTIL,3100,PHI vs DC 03:30PM ET,PHI,0
M,Marcus Epps (10598009),Marcus Epps,10598009,M/UTIL,3100,PHI vs DC 03:30PM ET,PHI,0
M,Adam Najem (10598011),Adam Najem,10598011,M/UTIL,3100,PHI vs DC 03:30PM ET,PHI,0
M,Junior Moreno (10598013),Junior Moreno,10598013,M/UTIL,3100,PHI vs DC 03:30PM ET,DC,3.25
M,Christopher Durkin (10598015),Christopher Durkin,10598015,M/UTIL,3100,PHI vs DC 03:30PM ET,DC,1.38
M,Ian Harkes (10598017),Ian Harkes,10598017,M/UTIL,3100,PHI vs DC 03:30PM ET,DC,1
M,Jared Jeffrey (10598019),Jared Jeffrey,10598019,M/UTIL,3100,PHI vs DC 03:30PM ET,DC,0
M,Russell Canouse (10598021),Russell Canouse,10598021,M/UTIL,3100,PHI vs DC 03:30PM ET,DC,0
M,Liam Fraser (10598023),Liam Fraser,10598023,M/UTIL,3100,TOR vs CHI 03:00PM ET,TOR,2.75
M,Mariano Mino (10598025),Mariano Mino,10598025,M/UTIL,3100,TOR vs CHI 03:00PM ET,TOR,3.5
M,Aidan Daniels (10598027),Aidan Daniels,10598027,M/UTIL,3100,TOR vs CHI 03:00PM ET,TOR,2.75
M,Mohammed Adams (10598029),Mohammed Adams,10598029,M/UTIL,3100,TOR vs CHI 03:00PM ET,CHI,3.5
M,Tony Tchani (10598031),Tony Tchani,10598031,M/UTIL,3100,TOR vs CHI 03:00PM ET,CHI,3.25
M,Brandt Bronico (10598033),Brandt Bronico,10598033,M/UTIL,3100,TOR vs CHI 03:00PM ET,CHI,0
M,Daniel Johnson (10598035),Daniel Johnson,10598035,M/UTIL,3100,TOR vs CHI 03:00PM ET,CHI,1.25
D,Kevin Ellis (10597879),Kevin Ellis,10597879,D/UTIL,3000,TOR vs CHI 03:00PM ET,CHI,2.25
D,Frederic Brillant (10597881),Frederic Brillant,10597881,D/UTIL,2900,PHI vs DC 03:30PM ET,DC,3.04
D,Johan Kappelhof (10597883),Johan Kappelhof,10597883,D/UTIL,2800,TOR vs CHI 03:00PM ET,CHI,3.42
D,Victor Cabrera (10597885),Victor Cabrera,10597885,D/UTIL,2700,ATL vs MTL 01:00PM ET,MTL,4.71
D,Jukka Raitala (10597887),Jukka Raitala,10597887,D/UTIL,2700,ATL vs MTL 01:00PM ET,MTL,3.36
D,Jonathan Campbell (10597889),Jonathan Campbell,10597889,D/UTIL,2700,TOR vs CHI 03:00PM ET,CHI,3.38
D,Rod Fanni (10597891),Rod Fanni,10597891,D/UTIL,2600,ATL vs MTL 01:00PM ET,MTL,4.12
D,Rudy Camacho (10597893),Rudy Camacho,10597893,D/UTIL,2600,ATL vs MTL 01:00PM ET,MTL,1.75
D,Kyle Fisher (10597895),Kyle Fisher,10597895,D/UTIL,2600,ATL vs MTL 01:00PM ET,MTL,0
D,Zakaria Diallo (10597897),Zakaria Diallo,10597897,D/UTIL,2600,ATL vs MTL 01:00PM ET,MTL,0
D,Olivier Mbaizo (10597899),Olivier Mbaizo,10597899,D/UTIL,2600,PHI vs DC 03:30PM ET,PHI,0
D,Richie Marquez (10597901),Richie Marquez,10597901,D/UTIL,2600,PHI vs DC 03:30PM ET,PHI,0
D,Joshua Yaro (10597903),Joshua Yaro,10597903,D/UTIL,2600,PHI vs DC 03:30PM ET,PHI,0
D,Steve Birnbaum (10597905),Steve Birnbaum,10597905,D/UTIL,2600,PHI vs DC 03:30PM ET,DC,2.33
D,Kofi Opare (10597907),Kofi Opare,10597907,D/UTIL,2600,PHI vs DC 03:30PM ET,DC,0
D,Jalen Robinson (10597909),Jalen Robinson,10597909,D/UTIL,2600,PHI vs DC 03:30PM ET,DC,0
D,Grant Lillard (10597911),Grant Lillard,10597911,D/UTIL,2600,TOR vs CHI 03:00PM ET,CHI,3.5
D,Christian Dean (10597913),Christian Dean,10597913,D/UTIL,2600,TOR vs CHI 03:00PM ET,CHI,4.25
