Position,Name + ID,Name,ID,Roster Position,Salary,Game Info,TeamAbbrev,AvgPointsPerGame
SP,Jacob deGrom (10838591),Jacob deGrom,10838591,P,13400,LAD@NYM 06/23/2018 07:15PM ET,NYM,25.62
SP,Justin Verlander (10838837),Justin Verlander,10838837,P,13300,KC@HOU 06/23/2018 07:15PM ET,HOU,28.18
SP,Gerrit Cole (10838838),Gerrit Cole,10838838,P,13200,KC@HOU 06/23/2018 07:15PM ET,HOU,28.38
SP,Chris Sale (10838839),Chris Sale,10838839,P,12700,SEA@BOS 06/23/2018 07:15PM ET,BOS,25.57
SP,Charlie Morton (10838840),Charlie Morton,10838840,P,12200,KC@HOU 06/23/2018 07:15PM ET,HOU,22.27
SP,Clayton Kershaw (10838841),Clayton Kershaw,10838841,P,11800,LAD@NYM 06/23/2018 07:15PM ET,LAD,17.47
SP,James Paxton (10838843),James Paxton,10838843,P,10700,SEA@BOS 06/23/2018 07:15PM ET,SEA,22.29
SP,Tyler Skaggs (10838842),Tyler Skaggs,10838842,P,10700,TOR@LAA 06/23/2018 09:07PM ET,LAA,18.96
SP,Noah Syndergaard (10838844),Noah Syndergaard,10838844,P,10500,LAD@NYM 06/23/2018 07:15PM ET,NYM,20.14
SP,Lance McCullers Jr. (10838592),Lance McCullers Jr.,10838592,P,10200,KC@HOU 06/23/2018 07:15PM ET,HOU,18.09
SP,J.A. Happ (10838845),J.A. Happ,10838845,P,10100,TOR@LAA 06/23/2018 09:07PM ET,TOR,20.97
SP,David Price (10838846),David Price,10838846,P,9700,SEA@BOS 06/23/2018 07:15PM ET,BOS,17.08
RP,Ross Stripling (10838847),Ross Stripling,10838847,P,9700,LAD@NYM 06/23/2018 07:15PM ET,LAD,12.72
SP,Kenta Maeda (10838848),Kenta Maeda,10838848,P,9400,LAD@NYM 06/23/2018 07:15PM ET,LAD,13.65
SP,Walker Buehler (10838849),Walker Buehler,10838849,P,9300,LAD@NYM 06/23/2018 07:15PM ET,LAD,19.88
SP,Rick Porcello (10838850),Rick Porcello,10838850,P,9100,SEA@BOS 06/23/2018 07:15PM ET,BOS,18.76
SP,Alex Wood (10838851),Alex Wood,10838851,P,9100,LAD@NYM 06/23/2018 07:15PM ET,LAD,14.13
SP,Hyun-Jin Ryu (10838852),Hyun-Jin Ryu,10838852,P,8900,LAD@NYM 06/23/2018 07:15PM ET,LAD,17.22
SP,Andrew Heaney (10838853),Andrew Heaney,10838853,P,8800,TOR@LAA 06/23/2018 09:07PM ET,LAA,17.45
SP,Eduardo Rodriguez (10838593),Eduardo Rodriguez,10838593,P,8500,SEA@BOS 06/23/2018 07:15PM ET,BOS,19.24
SP,Steven Wright (10838854),Steven Wright,10838854,P,8500,SEA@BOS 06/23/2018 07:15PM ET,BOS,9.94
SP,Dallas Keuchel (10838855),Dallas Keuchel,10838855,P,8400,KC@HOU 06/23/2018 07:15PM ET,HOU,14.37
SP,Jakob Junis (10838856),Jakob Junis,10838856,P,8200,KC@HOU 06/23/2018 07:15PM ET,KC,15.38
SP,Garrett Richards (10838857),Garrett Richards,10838857,P,7800,TOR@LAA 06/23/2018 09:07PM ET,LAA,15.74
SP,Jaime Barria (10838594),Jaime Barria,10838594,P,7400,TOR@LAA 06/23/2018 09:07PM ET,LAA,14.04
SP,Marco Estrada (10838858),Marco Estrada,10838858,P,7200,TOR@LAA 06/23/2018 09:07PM ET,TOR,12.90
SP,Sam Gaviglio (10838859),Sam Gaviglio,10838859,P,7200,TOR@LAA 06/23/2018 09:07PM ET,TOR,12.6
SP,Collin McHugh (10838860),Collin McHugh,10838860,P,7000,KC@HOU 06/23/2018 07:15PM ET,HOU,6.09
SP,Marco Gonzales (10838862),Marco Gonzales,10838862,P,6900,SEA@BOS 06/23/2018 07:15PM ET,SEA,15.17
SP,Zack Wheeler (10838861),Zack Wheeler,10838861,P,6900,LAD@NYM 06/23/2018 07:15PM ET,NYM,13.77
SP,Steven Matz (10838863),Steven Matz,10838863,P,6900,LAD@NYM 06/23/2018 07:15PM ET,NYM,12.97
RP,Nick Tropeano (10838864),Nick Tropeano,10838864,P,6700,TOR@LAA 06/23/2018 09:07PM ET,LAA,11.91
SP,John Lamb (10838865),John Lamb,10838865,P,6700,TOR@LAA 06/23/2018 09:07PM ET,LAA,10.08
SP,Matt Shoemaker (10838867),Matt Shoemaker,10838867,P,6600,TOR@LAA 06/23/2018 09:07PM ET,LAA,13.95
SP,Rich Hill (10838866),Rich Hill,10838866,P,6600,LAD@NYM 06/23/2018 07:15PM ET,LAD,10.31
SP,Alex Meyer (10838868),Alex Meyer,10838868,P,6500,TOR@LAA 06/23/2018 09:07PM ET,LAA,0
SP,Wade LeBlanc (10838869),Wade LeBlanc,10838869,P,6400,SEA@BOS 06/23/2018 07:15PM ET,SEA,11.51
SP,Drew Pomeranz (10838871),Drew Pomeranz,10838871,P,6400,SEA@BOS 06/23/2018 07:15PM ET,BOS,7.81
SP,Nate Karns (10838870),Nate Karns,10838870,P,6400,KC@HOU 06/23/2018 07:15PM ET,KC,0
SP,Felix Hernandez (10838872),Felix Hernandez,10838872,P,6300,SEA@BOS 06/23/2018 07:15PM ET,SEA,12.31
SP,Caleb Ferguson (10838595),Caleb Ferguson,10838595,P,6200,LAD@NYM 06/23/2018 07:15PM ET,LAD,6.6
OF,Mike Trout (10838599),Mike Trout,10838599,OF,6100,TOR@LAA 06/23/2018 09:07PM ET,LAA,11.72
RP,Seth Lugo (10838873),Seth Lugo,10838873,P,6100,LAD@NYM 06/23/2018 07:15PM ET,NYM,7.12
OF,Mookie Betts (10838600),Mookie Betts,10838600,OF,6000,SEA@BOS 06/23/2018 07:15PM ET,BOS,12.78
SP,Hisashi Iwakuma (10838875),Hisashi Iwakuma,10838875,P,5900,SEA@BOS 06/23/2018 07:15PM ET,SEA,0
SP,Rogelio Armenteros (10838874),Rogelio Armenteros,10838874,P,5900,KC@HOU 06/23/2018 07:15PM ET,HOU,0
RP,Brad Peacock (10838876),Brad Peacock,10838876,P,5800,KC@HOU 06/23/2018 07:15PM ET,HOU,4.18
SP,Aaron Sanchez (10838877),Aaron Sanchez,10838877,P,5700,TOR@LAA 06/23/2018 09:07PM ET,TOR,11.31
SP,Ariel Miranda (10838878),Ariel Miranda,10838878,P,5600,SEA@BOS 06/23/2018 07:15PM ET,SEA,13.25
SP,Marcus Stroman (10838596),Marcus Stroman,10838596,P,5600,TOR@LAA 06/23/2018 09:07PM ET,TOR,6.51
OF,Andrew Benintendi (10838601),Andrew Benintendi,10838601,OF,5500,SEA@BOS 06/23/2018 07:15PM ET,BOS,10.34
OF,J.D. Martinez (10838602),J.D. Martinez,10838602,OF,5400,SEA@BOS 06/23/2018 07:15PM ET,BOS,10.55
SP,Jaime Garcia (10838880),Jaime Garcia,10838880,P,5400,TOR@LAA 06/23/2018 09:07PM ET,TOR,8.68
SP,Chris Flexen (10838879),Chris Flexen,10838879,P,5400,LAD@NYM 06/23/2018 07:15PM ET,NYM,-2.68
SP,Hector Velazquez (10838882),Hector Velazquez,10838882,P,5300,SEA@BOS 06/23/2018 07:15PM ET,BOS,5.04
2B,Jose Altuve (10838603),Jose Altuve,10838603,2B,5300,KC@HOU 06/23/2018 07:15PM ET,HOU,9.17
SP,Danny Duffy (10838881),Danny Duffy,10838881,P,5300,KC@HOU 06/23/2018 07:15PM ET,KC,11.24
RP,David Paulino (10838883),David Paulino,10838883,P,5200,KC@HOU 06/23/2018 07:15PM ET,HOU,0
SP,Ricky Nolasco (10838884),Ricky Nolasco,10838884,P,5200,KC@HOU 06/23/2018 07:15PM ET,KC,0
SP,Marcos Molina (10838885),Marcos Molina,10838885,P,5200,LAD@NYM 06/23/2018 07:15PM ET,NYM,0
RP,Rob Whalen (10838886),Rob Whalen,10838886,P,5100,SEA@BOS 06/23/2018 07:15PM ET,SEA,7.8
SP,Andrew Albers (10838887),Andrew Albers,10838887,P,5100,SEA@BOS 06/23/2018 07:15PM ET,SEA,0
SP,Chase De Jong (10838888),Chase De Jong,10838888,P,5100,SEA@BOS 06/23/2018 07:15PM ET,SEA,0
SP,Ian Kennedy (10838597),Ian Kennedy,10838597,P,5100,KC@HOU 06/23/2018 07:15PM ET,KC,11.07
SS,Carlos Correa (10838604),Carlos Correa,10838604,SS,5100,KC@HOU 06/23/2018 07:15PM ET,HOU,8.66
3B,Alex Bregman (10838605),Alex Bregman,10838605,3B,5000,KC@HOU 06/23/2018 07:15PM ET,HOU,8.77
OF,George Springer (10838606),George Springer,10838606,OF,5000,KC@HOU 06/23/2018 07:15PM ET,HOU,9.19
SP,Jason Hammel (10838890),Jason Hammel,10838890,P,5000,KC@HOU 06/23/2018 07:15PM ET,KC,10.06
RP,JC Ramirez (10838889),JC Ramirez,10838889,P,5000,TOR@LAA 06/23/2018 09:07PM ET,LAA,0.3
SS,Xander Bogaerts (10838607),Xander Bogaerts,10838607,SS,4900,SEA@BOS 06/23/2018 07:15PM ET,BOS,8.85
SP,Brad Keller (10838892),Brad Keller,10838892,P,4900,KC@HOU 06/23/2018 07:15PM ET,KC,3.47
SP,Julio Urias (10838891),Julio Urias,10838891,P,4900,LAD@NYM 06/23/2018 07:15PM ET,LAD,0
SS,Jean Segura (10838608),Jean Segura,10838608,SS,4800,SEA@BOS 06/23/2018 07:15PM ET,SEA,9.59
OF,Nelson Cruz (10838609),Nelson Cruz,10838609,OF,4800,SEA@BOS 06/23/2018 07:15PM ET,SEA,9.03
SP,Eric Skoglund (10838893),Eric Skoglund,10838893,P,4800,KC@HOU 06/23/2018 07:15PM ET,KC,8.37
SP,Brian Johnson (10838896),Brian Johnson,10838896,P,4700,SEA@BOS 06/23/2018 07:15PM ET,BOS,3.81
SP,Forrest Whitley (10838894),Forrest Whitley,10838894,P,4700,KC@HOU 06/23/2018 07:15PM ET,HOU,0
SP,Ryan Borucki (10838895),Ryan Borucki,10838895,P,4700,TOR@LAA 06/23/2018 09:07PM ET,TOR,0
OF,Brandon Nimmo (10838614),Brandon Nimmo,10838614,OF,4700,LAD@NYM 06/23/2018 07:15PM ET,NYM,8.17
OF,Mitch Haniger (10838612),Mitch Haniger,10838612,OF,4600,SEA@BOS 06/23/2018 07:15PM ET,SEA,8.6
SP,Josh Staumont (10838899),Josh Staumont,10838899,P,4600,KC@HOU 06/23/2018 07:15PM ET,KC,0
SP,Tom Koehler (10838897),Tom Koehler,10838897,P,4600,LAD@NYM 06/23/2018 07:15PM ET,LAD,0
SP,Yadier Alvarez (10838898),Yadier Alvarez,10838898,P,4600,LAD@NYM 06/23/2018 07:15PM ET,LAD,0
SP,Jason Vargas (10838900),Jason Vargas,10838900,P,4600,LAD@NYM 06/23/2018 07:15PM ET,NYM,4.62
SP,Jalen Beeks (10838901),Jalen Beeks,10838901,P,4500,SEA@BOS 06/23/2018 07:15PM ET,BOS,-1
RP,Erasmo Ramirez (10838906),Erasmo Ramirez,10838906,P,4500,SEA@BOS 06/23/2018 07:15PM ET,SEA,1.08
OF,Justin Upton (10838613),Justin Upton,10838613,OF,4500,TOR@LAA 06/23/2018 09:07PM ET,LAA,8.25
SP,Sean Reid-Foley (10838903),Sean Reid-Foley,10838903,P,4500,TOR@LAA 06/23/2018 09:07PM ET,TOR,0
SP,Brock Stewart (10838902),Brock Stewart,10838902,P,4500,LAD@NYM 06/23/2018 07:15PM ET,LAD,2.59
RP,Rafael Montero (10838904),Rafael Montero,10838904,P,4500,LAD@NYM 06/23/2018 07:15PM ET,NYM,0
SP,A.J. Griffin (10838905),A.J. Griffin,10838905,P,4500,LAD@NYM 06/23/2018 07:15PM ET,NYM,0
SP,Mike Leake (10838598),Mike Leake,10838598,P,4400,SEA@BOS 06/23/2018 07:15PM ET,SEA,12.09
SP,Felix Pena (10838908),Felix Pena,10838908,P,4400,TOR@LAA 06/23/2018 09:07PM ET,LAA,5.47
1B/3B,Max Muncy (10838610),Max Muncy,10838610,1B/3B,4400,LAD@NYM 06/23/2018 07:15PM ET,LAD,7.77
RP,Robert Gsellman (10838907),Robert Gsellman,10838907,P,4400,LAD@NYM 06/23/2018 07:15PM ET,NYM,4.05
1B,Mitch Moreland (10838619),Mitch Moreland,10838619,1B,4300,SEA@BOS 06/23/2018 07:15PM ET,BOS,7.93
RP,Andrew Moore (10838909),Andrew Moore,10838909,P,4300,SEA@BOS 06/23/2018 07:15PM ET,SEA,0
C,Evan Gattis (10838615),Evan Gattis,10838615,C,4300,KC@HOU 06/23/2018 07:15PM ET,HOU,7.29
3B,Rafael Devers (10838617),Rafael Devers,10838617,3B,4200,SEA@BOS 06/23/2018 07:15PM ET,BOS,7.03
1B,Yuli Gurriel (10838618),Yuli Gurriel,10838618,1B,4200,KC@HOU 06/23/2018 07:15PM ET,HOU,6.97
RP,Brady Rodgers (10838910),Brady Rodgers,10838910,P,4200,KC@HOU 06/23/2018 07:15PM ET,HOU,0
OF,Michael Conforto (10838624),Michael Conforto,10838624,OF,4200,LAD@NYM 06/23/2018 07:15PM ET,NYM,6.72
1B,Ryon Healy (10838621),Ryon Healy,10838621,1B,4100,SEA@BOS 06/23/2018 07:15PM ET,SEA,7.37
OF,Teoscar Hernandez (10838616),Teoscar Hernandez,10838616,OF,4100,TOR@LAA 06/23/2018 09:07PM ET,TOR,8.84
2B/3B,Yangervis Solarte (10838622),Yangervis Solarte,10838622,2B/3B,4100,TOR@LAA 06/23/2018 09:07PM ET,TOR,7.85
OF,Yoenis Cespedes (10838620),Yoenis Cespedes,10838620,OF,4100,LAD@NYM 06/23/2018 07:15PM ET,NYM,8.27
SP,Travis Lakins (10838914),Travis Lakins,10838914,P,4000,SEA@BOS 06/23/2018 07:15PM ET,BOS,0
SP,Roniel Raudes (10838916),Roniel Raudes,10838916,P,4000,SEA@BOS 06/23/2018 07:15PM ET,BOS,0
SP,Bryan Mata (10838918),Bryan Mata,10838918,P,4000,SEA@BOS 06/23/2018 07:15PM ET,BOS,0
SP,Tanner Houck (10838923),Tanner Houck,10838923,P,4000,SEA@BOS 06/23/2018 07:15PM ET,BOS,0
RP,Dan Altavilla (10838928),Dan Altavilla,10838928,P,4000,SEA@BOS 06/23/2018 07:15PM ET,SEA,3.44
SP,Darwinzon Hernandez (10838929),Darwinzon Hernandez,10838929,P,4000,SEA@BOS 06/23/2018 07:15PM ET,BOS,0
SP,Mike Shawaryn (10838935),Mike Shawaryn,10838935,P,4000,SEA@BOS 06/23/2018 07:15PM ET,BOS,0
SP,Jake Thompson (10838937),Jake Thompson,10838937,P,4000,SEA@BOS 06/23/2018 07:15PM ET,BOS,0
RP,Nick Rumbelow (10838940),Nick Rumbelow,10838940,P,4000,SEA@BOS 06/23/2018 07:15PM ET,SEA,4.34
SP,Jason Groome (10838942),Jason Groome,10838942,P,4000,SEA@BOS 06/23/2018 07:15PM ET,BOS,0
SP,Brandon Workman (10838967),Brandon Workman,10838967,P,4000,SEA@BOS 06/23/2018 07:15PM ET,BOS,3.65
RP,Nick Vincent (10838971),Nick Vincent,10838971,P,4000,SEA@BOS 06/23/2018 07:15PM ET,SEA,2.48
RP,Ryan Cook (10838972),Ryan Cook,10838972,P,4000,SEA@BOS 06/23/2018 07:15PM ET,SEA,2.67
RP,Craig Kimbrel (10838974),Craig Kimbrel,10838974,P,4000,SEA@BOS 06/23/2018 07:15PM ET,BOS,4.05
RP,Juan Nicasio (10838975),Juan Nicasio,10838975,P,4000,SEA@BOS 06/23/2018 07:15PM ET,SEA,2.49
SP,Joe Kelly (10838977),Joe Kelly,10838977,P,4000,SEA@BOS 06/23/2018 07:15PM ET,BOS,3.26
RP,David Phelps (10838983),David Phelps,10838983,P,4000,SEA@BOS 06/23/2018 07:15PM ET,SEA,0
RP,Alex Colome (10838984),Alex Colome,10838984,P,4000,SEA@BOS 06/23/2018 07:15PM ET,SEA,2.46
RP,James Pazos (10838988),James Pazos,10838988,P,4000,SEA@BOS 06/23/2018 07:15PM ET,SEA,2.73
RP,Austin Maddox (10838990),Austin Maddox,10838990,P,4000,SEA@BOS 06/23/2018 07:15PM ET,BOS,0
RP,Tyler Thornburg (10838995),Tyler Thornburg,10838995,P,4000,SEA@BOS 06/23/2018 07:15PM ET,BOS,0
RP,Matt Barnes (10838997),Matt Barnes,10838997,P,4000,SEA@BOS 06/23/2018 07:15PM ET,BOS,3.92
RP,Heath Hembree (10839000),Heath Hembree,10839000,P,4000,SEA@BOS 06/23/2018 07:15PM ET,BOS,3.57
RP,Christian Bergman (10839004),Christian Bergman,10839004,P,4000,SEA@BOS 06/23/2018 07:15PM ET,SEA,24.55
RP,Casey Lawrence (10839007),Casey Lawrence,10839007,P,4000,SEA@BOS 06/23/2018 07:15PM ET,SEA,1.1
RP,Tony Zych (10839010),Tony Zych,10839010,P,4000,SEA@BOS 06/23/2018 07:15PM ET,SEA,0
SP,Ty Buttrey (10839014),Ty Buttrey,10839014,P,4000,SEA@BOS 06/23/2018 07:15PM ET,BOS,0
RP,Edwin Diaz (10839017),Edwin Diaz,10839017,P,4000,SEA@BOS 06/23/2018 07:15PM ET,SEA,4.40
RP,Chasen Bradford (10839020),Chasen Bradford,10839020,P,4000,SEA@BOS 06/23/2018 07:15PM ET,SEA,3.48
RP,Roenis Elias (10839021),Roenis Elias,10839021,P,4000,SEA@BOS 06/23/2018 07:15PM ET,SEA,7.54
RP,Robby Scott (10839022),Robby Scott,10839022,P,4000,SEA@BOS 06/23/2018 07:15PM ET,BOS,-4.45
RP,Carson Smith (10839025),Carson Smith,10839025,P,4000,SEA@BOS 06/23/2018 07:15PM ET,BOS,2.68
2B/OF,Whit Merrifield (10838635),Whit Merrifield,10838635,2B/OF,4000,KC@HOU 06/23/2018 07:15PM ET,KC,7.90
SP,Trevor Oaks (10838912),Trevor Oaks,10838912,P,4000,KC@HOU 06/23/2018 07:15PM ET,KC,3.05
SP,Franklin Perez (10838913),Franklin Perez,10838913,P,4000,KC@HOU 06/23/2018 07:15PM ET,HOU,0
SP,Nolan Watson (10838919),Nolan Watson,10838919,P,4000,KC@HOU 06/23/2018 07:15PM ET,KC,0
SP,J.B. Bukauskas (10838920),J.B. Bukauskas,10838920,P,4000,KC@HOU 06/23/2018 07:15PM ET,HOU,0
RP,Tim Hill (10838925),Tim Hill,10838925,P,4000,KC@HOU 06/23/2018 07:15PM ET,KC,1.94
SP,Foster Griffin (10838926),Foster Griffin,10838926,P,4000,KC@HOU 06/23/2018 07:15PM ET,KC,0
SP,Scott Blewett (10838927),Scott Blewett,10838927,P,4000,KC@HOU 06/23/2018 07:15PM ET,KC,0
RP,Kevin McCarthy (10838930),Kevin McCarthy,10838930,P,4000,KC@HOU 06/23/2018 07:15PM ET,KC,2.67
RP,Heath Fillmyer (10838932),Heath Fillmyer,10838932,P,4000,KC@HOU 06/23/2018 07:15PM ET,KC,0
RP,Francis Martes (10838941),Francis Martes,10838941,P,4000,KC@HOU 06/23/2018 07:15PM ET,HOU,0
SP,Richard Lovelady (10838945),Richard Lovelady,10838945,P,4000,KC@HOU 06/23/2018 07:15PM ET,KC,0
SP,Cionel Perez (10838946),Cionel Perez,10838946,P,4000,KC@HOU 06/23/2018 07:15PM ET,HOU,0
RP,Tony Sipp (10838948),Tony Sipp,10838948,P,4000,KC@HOU 06/23/2018 07:15PM ET,HOU,2.94
RP,Blaine Boyer (10838952),Blaine Boyer,10838952,P,4000,KC@HOU 06/23/2018 07:15PM ET,KC,-0.36
RP,Will Harris (10838955),Will Harris,10838955,P,4000,KC@HOU 06/23/2018 07:15PM ET,HOU,2.84
RP,Hector Rondon (10838957),Hector Rondon,10838957,P,4000,KC@HOU 06/23/2018 07:15PM ET,HOU,3.41
SP,Wily Peralta (10838960),Wily Peralta,10838960,P,4000,KC@HOU 06/23/2018 07:15PM ET,KC,2.68
RP,Joe Smith (10838962),Joe Smith,10838962,P,4000,KC@HOU 06/23/2018 07:15PM ET,HOU,2.39
RP,Justin Grimm (10838966),Justin Grimm,10838966,P,4000,KC@HOU 06/23/2018 07:15PM ET,KC,-0.25
RP,Brandon Maurer (10838981),Brandon Maurer,10838981,P,4000,KC@HOU 06/23/2018 07:15PM ET,KC,-0.02
RP,Brian Flynn (10838982),Brian Flynn,10838982,P,4000,KC@HOU 06/23/2018 07:15PM ET,KC,2.07
SP,Burch Smith (10838986),Burch Smith,10838986,P,4000,KC@HOU 06/23/2018 07:15PM ET,KC,2.63
RP,Ken Giles (10838987),Ken Giles,10838987,P,4000,KC@HOU 06/23/2018 07:15PM ET,HOU,2.30
SP,Jesse Hahn (10838996),Jesse Hahn,10838996,P,4000,KC@HOU 06/23/2018 07:15PM ET,KC,0
RP,Jandel Gustave (10839009),Jandel Gustave,10839009,P,4000,KC@HOU 06/23/2018 07:15PM ET,HOU,0
RP,Chris Devenski (10839019),Chris Devenski,10839019,P,4000,KC@HOU 06/23/2018 07:15PM ET,HOU,3.93
SP,Kyle Zimmer (10839023),Kyle Zimmer,10839023,P,4000,KC@HOU 06/23/2018 07:15PM ET,KC,0
RP,Miguel Almonte (10839028),Miguel Almonte,10839028,P,4000,KC@HOU 06/23/2018 07:15PM ET,KC,0
OF,Shohei Ohtani (10838625),Shohei Ohtani,10838625,OF,4000,TOR@LAA 06/23/2018 09:07PM ET,LAA,4.20
RP,Justin Anderson (10838921),Justin Anderson,10838921,P,4000,TOR@LAA 06/23/2018 09:07PM ET,LAA,3.47
SP,Griffin Canning (10838924),Griffin Canning,10838924,P,4000,TOR@LAA 06/23/2018 09:07PM ET,LAA,0
SP,T.J. Zeuch (10838934),T.J. Zeuch,10838934,P,4000,TOR@LAA 06/23/2018 09:07PM ET,TOR,0
SP,Chris Rowley (10838938),Chris Rowley,10838938,P,4000,TOR@LAA 06/23/2018 09:07PM ET,TOR,0
RP,Keynan Middleton (10838939),Keynan Middleton,10838939,P,4000,TOR@LAA 06/23/2018 09:07PM ET,LAA,3.08
SP,Chris Rodriguez (10838943),Chris Rodriguez,10838943,P,4000,TOR@LAA 06/23/2018 09:07PM ET,LAA,0
SP,Nate Pearson (10838947),Nate Pearson,10838947,P,4000,TOR@LAA 06/23/2018 09:07PM ET,TOR,0
RP,Tyler Clippard (10838951),Tyler Clippard,10838951,P,4000,TOR@LAA 06/23/2018 09:07PM ET,TOR,3.41
RP,Jim Johnson (10838953),Jim Johnson,10838953,P,4000,TOR@LAA 06/23/2018 09:07PM ET,LAA,2.72
RP,Craig Breslow (10838954),Craig Breslow,10838954,P,4000,TOR@LAA 06/23/2018 09:07PM ET,TOR,0
RP,Blake Parker (10838956),Blake Parker,10838956,P,4000,TOR@LAA 06/23/2018 09:07PM ET,LAA,3.48
RP,John Axford (10838958),John Axford,10838958,P,4000,TOR@LAA 06/23/2018 09:07PM ET,TOR,2.53
RP,Seunghwan Oh (10838959),Seunghwan Oh,10838959,P,4000,TOR@LAA 06/23/2018 09:07PM ET,TOR,3.11
RP,Blake Wood (10838961),Blake Wood,10838961,P,4000,TOR@LAA 06/23/2018 09:07PM ET,LAA,2.66
SP,Nick Tepesch (10838964),Nick Tepesch,10838964,P,4000,TOR@LAA 06/23/2018 09:07PM ET,TOR,0
RP,Preston Guilmet (10838973),Preston Guilmet,10838973,P,4000,TOR@LAA 06/23/2018 09:07PM ET,TOR,1.01
RP,Jose Alvarez (10838976),Jose Alvarez,10838976,P,4000,TOR@LAA 06/23/2018 09:07PM ET,LAA,3.05
RP,Ryan Tepera (10838978),Ryan Tepera,10838978,P,4000,TOR@LAA 06/23/2018 09:07PM ET,TOR,3.64
RP,Aaron Loup (10838980),Aaron Loup,10838980,P,4000,TOR@LAA 06/23/2018 09:07PM ET,TOR,1.86
RP,Vicente Campos (10838992),Vicente Campos,10838992,P,4000,TOR@LAA 06/23/2018 09:07PM ET,LAA,0
RP,Cam Bedrosian (10838993),Cam Bedrosian,10838993,P,4000,TOR@LAA 06/23/2018 09:07PM ET,LAA,2.38
RP,Deck McGuire (10838994),Deck McGuire,10838994,P,4000,TOR@LAA 06/23/2018 09:07PM ET,LAA,3.09
RP,Parker Bridwell (10839001),Parker Bridwell,10839001,P,4000,TOR@LAA 06/23/2018 09:07PM ET,LAA,-12.45
RP,Akeel Morris (10839002),Akeel Morris,10839002,P,4000,TOR@LAA 06/23/2018 09:07PM ET,LAA,0.99
RP,Danny Barnes (10839003),Danny Barnes,10839003,P,4000,TOR@LAA 06/23/2018 09:07PM ET,TOR,2.16
RP,Roberto Osuna (10839008),Roberto Osuna,10839008,P,4000,TOR@LAA 06/23/2018 09:07PM ET,TOR,2.61
SP,Jon Harris (10839011),Jon Harris,10839011,P,4000,TOR@LAA 06/23/2018 09:07PM ET,TOR,0
RP,Eduardo Paredes (10839016),Eduardo Paredes,10839016,P,4000,TOR@LAA 06/23/2018 09:07PM ET,LAA,1.07
SP,Joe Biagini (10839018),Joe Biagini,10839018,P,4000,TOR@LAA 06/23/2018 09:07PM ET,TOR,1.87
RP,Noe Ramirez (10839024),Noe Ramirez,10839024,P,4000,TOR@LAA 06/23/2018 09:07PM ET,LAA,4.21
SP,Taylor Guerrieri (10839026),Taylor Guerrieri,10839026,P,4000,TOR@LAA 06/23/2018 09:07PM ET,TOR,0
3B,Todd Frazier (10838626),Todd Frazier,10838626,3B,4000,LAD@NYM 06/23/2018 07:15PM ET,NYM,7.60
RP,Dennis Santana (10838911),Dennis Santana,10838911,P,4000,LAD@NYM 06/23/2018 07:15PM ET,LAD,2.72
SP,P.J. Conlon (10838915),P.J. Conlon,10838915,P,4000,LAD@NYM 06/23/2018 07:15PM ET,NYM,-2.82
SP,Thomas Szapucki (10838917),Thomas Szapucki,10838917,P,4000,LAD@NYM 06/23/2018 07:15PM ET,NYM,0
SP,David Peterson (10838922),David Peterson,10838922,P,4000,LAD@NYM 06/23/2018 07:15PM ET,NYM,0
SP,Jordan Sheffield (10838931),Jordan Sheffield,10838931,P,4000,LAD@NYM 06/23/2018 07:15PM ET,LAD,0
SP,Anthony Kay (10838933),Anthony Kay,10838933,P,4000,LAD@NYM 06/23/2018 07:15PM ET,NYM,0
SP,Justin Dunn (10838936),Justin Dunn,10838936,P,4000,LAD@NYM 06/23/2018 07:15PM ET,NYM,0
SP,Dustin May (10838944),Dustin May,10838944,P,4000,LAD@NYM 06/23/2018 07:15PM ET,LAD,0
RP,Anthony Swarzak (10838949),Anthony Swarzak,10838949,P,4000,LAD@NYM 06/23/2018 07:15PM ET,NYM,3.78
RP,Jerry Blevins (10838950),Jerry Blevins,10838950,P,4000,LAD@NYM 06/23/2018 07:15PM ET,NYM,1.00
RP,Kenley Jansen (10838963),Kenley Jansen,10838963,P,4000,LAD@NYM 06/23/2018 07:15PM ET,LAD,3.44
RP,Pedro Baez (10838965),Pedro Baez,10838965,P,4000,LAD@NYM 06/23/2018 07:15PM ET,LAD,3.43
RP,Josh Fields (10838968),Josh Fields,10838968,P,4000,LAD@NYM 06/23/2018 07:15PM ET,LAD,2.85
RP,Edward Paredes (10838969),Edward Paredes,10838969,P,4000,LAD@NYM 06/23/2018 07:15PM ET,LAD,4.1
RP,Daniel Hudson (10838970),Daniel Hudson,10838970,P,4000,LAD@NYM 06/23/2018 07:15PM ET,LAD,2.93
RP,AJ Ramos (10838979),AJ Ramos,10838979,P,4000,LAD@NYM 06/23/2018 07:15PM ET,NYM,1.75
RP,Jeurys Familia (10838985),Jeurys Familia,10838985,P,4000,LAD@NYM 06/23/2018 07:15PM ET,NYM,3.62
RP,Chris Beck (10838989),Chris Beck,10838989,P,4000,LAD@NYM 06/23/2018 07:15PM ET,NYM,2.75
RP,Yimi Garcia (10838991),Yimi Garcia,10838991,P,4000,LAD@NYM 06/23/2018 07:15PM ET,LAD,1.84
RP,Scott Alexander (10838998),Scott Alexander,10838998,P,4000,LAD@NYM 06/23/2018 07:15PM ET,LAD,2.35
RP,Erik Goeddel (10838999),Erik Goeddel,10838999,P,4000,LAD@NYM 06/23/2018 07:15PM ET,LAD,4.96
RP,Jesen Therrien (10839005),Jesen Therrien,10839005,P,4000,LAD@NYM 06/23/2018 07:15PM ET,LAD,0
RP,Adam Liberatore (10839006),Adam Liberatore,10839006,P,4000,LAD@NYM 06/23/2018 07:15PM ET,LAD,2.46
RP,Jamie Callahan (10839012),Jamie Callahan,10839012,P,4000,LAD@NYM 06/23/2018 07:15PM ET,NYM,0
RP,Paul Sewald (10839013),Paul Sewald,10839013,P,4000,LAD@NYM 06/23/2018 07:15PM ET,NYM,3.53
RP,Tim Peterson (10839015),Tim Peterson,10839015,P,4000,LAD@NYM 06/23/2018 07:15PM ET,NYM,5.81
RP,Tony Cingrani (10839027),Tony Cingrani,10839027,P,4000,LAD@NYM 06/23/2018 07:15PM ET,LAD,3.12
2B,Dustin Pedroia (10838628),Dustin Pedroia,10838628,2B,3900,SEA@BOS 06/23/2018 07:15PM ET,BOS,3
2B/OF,Dee Gordon (10838632),Dee Gordon,10838632,2B/OF,3900,SEA@BOS 06/23/2018 07:15PM ET,SEA,7.54
3B,Josh Donaldson (10838627),Josh Donaldson,10838627,3B,3900,TOR@LAA 06/23/2018 09:07PM ET,TOR,7.81
3B,Kyle Seager (10838639),Kyle Seager,10838639,3B,3800,SEA@BOS 06/23/2018 07:15PM ET,SEA,7.04
OF,Derek Fisher (10838634),Derek Fisher,10838634,OF,3800,KC@HOU 06/23/2018 07:15PM ET,HOU,4.14
2B,Ian Kinsler (10838630),Ian Kinsler,10838630,2B,3800,TOR@LAA 06/23/2018 09:07PM ET,LAA,7.21
OF,Curtis Granderson (10838637),Curtis Granderson,10838637,OF,3800,TOR@LAA 06/23/2018 09:07PM ET,TOR,6.02
OF,Joc Pederson (10838629),Joc Pederson,10838629,OF,3800,LAD@NYM 06/23/2018 07:15PM ET,LAD,6.02
C,Yasmani Grandal (10838638),Yasmani Grandal,10838638,C,3800,LAD@NYM 06/23/2018 07:15PM ET,LAD,7.19
OF,Denard Span (10838642),Denard Span,10838642,OF,3700,SEA@BOS 06/23/2018 07:15PM ET,SEA,7.43
1B/OF,J.D. Davis (10838643),J.D. Davis,10838643,1B/OF,3700,KC@HOU 06/23/2018 07:15PM ET,HOU,4.24
C,Salvador Perez (10838646),Salvador Perez,10838646,C,3700,KC@HOU 06/23/2018 07:15PM ET,KC,6.98
3B,Mike Moustakas (10838649),Mike Moustakas,10838649,3B,3700,KC@HOU 06/23/2018 07:15PM ET,KC,7.90
OF,Randal Grichuk (10838645),Randal Grichuk,10838645,OF,3700,TOR@LAA 06/23/2018 09:07PM ET,TOR,6.12
SS,Andrelton Simmons (10838665),Andrelton Simmons,10838665,SS,3700,TOR@LAA 06/23/2018 09:07PM ET,LAA,7.66
2B,Asdrubal Cabrera (10838631),Asdrubal Cabrera,10838631,2B,3700,LAD@NYM 06/23/2018 07:15PM ET,NYM,7.61
1B/OF,Cody Bellinger (10838640),Cody Bellinger,10838640,1B/OF,3700,LAD@NYM 06/23/2018 07:15PM ET,LAD,7.80
1B/OF,Marwin Gonzalez (10838651),Marwin Gonzalez,10838651,1B/OF,3600,KC@HOU 06/23/2018 07:15PM ET,HOU,6.24
1B,Lucas Duda (10838653),Lucas Duda,10838653,1B,3600,KC@HOU 06/23/2018 07:15PM ET,KC,6.22
1B,Albert Pujols (10838650),Albert Pujols,10838650,1B,3600,TOR@LAA 06/23/2018 09:07PM ET,LAA,7.09
1B,Justin Smoak (10838655),Justin Smoak,10838655,1B,3600,TOR@LAA 06/23/2018 09:07PM ET,TOR,7.29
OF,Matt Kemp (10838647),Matt Kemp,10838647,OF,3600,LAD@NYM 06/23/2018 07:15PM ET,LAD,7.22
3B,Justin Turner (10838648),Justin Turner,10838648,3B,3600,LAD@NYM 06/23/2018 07:15PM ET,LAD,6.03
1B,Dominic Smith (10838654),Dominic Smith,10838654,1B,3600,LAD@NYM 06/23/2018 07:15PM ET,NYM,4.58
OF/SS,Chris Taylor (10838662),Chris Taylor,10838662,SS/OF,3600,LAD@NYM 06/23/2018 07:15PM ET,LAD,7.85
OF,John Andreoli (10838659),John Andreoli,10838659,OF,3500,SEA@BOS 06/23/2018 07:15PM ET,SEA,5
2B/SS,Brock Holt (10838667),Brock Holt,10838667,2B/SS,3500,SEA@BOS 06/23/2018 07:15PM ET,BOS,6.02
C,Max Stassi (10838657),Max Stassi,10838657,C,3500,KC@HOU 06/23/2018 07:15PM ET,HOU,6.42
OF,Tony Kemp (10838658),Tony Kemp,10838658,OF,3500,KC@HOU 06/23/2018 07:15PM ET,HOU,5.73
1B,Kendrys Morales (10838673),Kendrys Morales,10838673,1B,3500,TOR@LAA 06/23/2018 09:07PM ET,TOR,5.81
OF,Yasiel Puig (10838656),Yasiel Puig,10838656,OF,3500,LAD@NYM 06/23/2018 07:15PM ET,LAD,7.23
3B/OF,Jose Bautista (10838660),Jose Bautista,10838660,3B/OF,3500,LAD@NYM 06/23/2018 07:15PM ET,NYM,4.85
2B/SS,Eduardo Nunez (10838682),Eduardo Nunez,10838682,2B/SS,3400,SEA@BOS 06/23/2018 07:15PM ET,BOS,5.69
OF,Josh Reddick (10838666),Josh Reddick,10838666,OF,3400,KC@HOU 06/23/2018 07:15PM ET,HOU,6.15
2B/SS,Adalberto Mondesi (10838685),Adalberto Mondesi,10838685,2B/SS,3400,KC@HOU 06/23/2018 07:15PM ET,KC,6.75
3B,Vladimir Guerrero Jr. (10838664),Vladimir Guerrero Jr.,10838664,3B,3400,TOR@LAA 06/23/2018 09:07PM ET,TOR,0
OF,Kevin Pillar (10838669),Kevin Pillar,10838669,OF,3400,TOR@LAA 06/23/2018 09:07PM ET,TOR,6.95
1B/3B,Wilmer Flores (10838670),Wilmer Flores,10838670,1B/3B,3400,LAD@NYM 06/23/2018 07:15PM ET,NYM,4.52
C,Devin Mesoraco (10838672),Devin Mesoraco,10838672,C,3400,LAD@NYM 06/23/2018 07:15PM ET,NYM,5.38
OF,Ben Gamel (10838678),Ben Gamel,10838678,OF,3300,SEA@BOS 06/23/2018 07:15PM ET,SEA,5.32
1B,Sam Travis (10838679),Sam Travis,10838679,1B,3300,SEA@BOS 06/23/2018 07:15PM ET,BOS,3.5
C,Mike Zunino (10838687),Mike Zunino,10838687,C,3300,SEA@BOS 06/23/2018 07:15PM ET,SEA,6.04
OF,Jorge Soler (10838675),Jorge Soler,10838675,OF,3300,KC@HOU 06/23/2018 07:15PM ET,KC,7.62
1B/OF,Steve Pearce (10838676),Steve Pearce,10838676,1B/OF,3300,TOR@LAA 06/23/2018 09:07PM ET,TOR,7.04
1B/3B,Jefry Marte (10838680),Jefry Marte,10838680,1B/3B,3300,TOR@LAA 06/23/2018 09:07PM ET,LAA,3.95
C,Luke Maile (10838684),Luke Maile,10838684,C,3300,TOR@LAA 06/23/2018 09:07PM ET,TOR,6.33
2B/3B,Zack Cozart (10838699),Zack Cozart,10838699,2B/3B,3300,TOR@LAA 06/23/2018 09:07PM ET,LAA,6.28
SS,David Fletcher (10838704),David Fletcher,10838704,SS,3300,TOR@LAA 06/23/2018 09:07PM ET,LAA,4.33
1B,Peter Alonso (10838674),Peter Alonso,10838674,1B,3300,LAD@NYM 06/23/2018 07:15PM ET,NYM,0
OF,Jayson Werth (10838689),Jayson Werth,10838689,OF,3200,SEA@BOS 06/23/2018 07:15PM ET,SEA,0
C,Brian McCann (10838707),Brian McCann,10838707,C,3200,KC@HOU 06/23/2018 07:15PM ET,HOU,5.06
SS,Bo Bichette (10838688),Bo Bichette,10838688,SS,3200,TOR@LAA 06/23/2018 09:07PM ET,TOR,0
OF,Jabari Blash (10838690),Jabari Blash,10838690,OF,3200,TOR@LAA 06/23/2018 09:07PM ET,LAA,2
OF,Jahmai Jones (10838691),Jahmai Jones,10838691,OF,3200,TOR@LAA 06/23/2018 09:07PM ET,LAA,0
OF,Anthony Alford (10838692),Anthony Alford,10838692,OF,3200,TOR@LAA 06/23/2018 09:07PM ET,TOR,3
2B,Devon Travis (10838695),Devon Travis,10838695,2B,3200,TOR@LAA 06/23/2018 09:07PM ET,TOR,5.32
SS,Troy Tulowitzki (10838696),Troy Tulowitzki,10838696,SS,3200,TOR@LAA 06/23/2018 09:07PM ET,TOR,0
OF,Dwight Smith Jr. (10838697),Dwight Smith Jr.,10838697,OF,3200,TOR@LAA 06/23/2018 09:07PM ET,TOR,4.53
1B/3B,Luis Valbuena (10838708),Luis Valbuena,10838708,1B/3B,3200,TOR@LAA 06/23/2018 09:07PM ET,LAA,4.85
1B/OF,O'Koyea Dickson (10838693),O'Koyea Dickson,10838693,1B/OF,3200,LAD@NYM 06/23/2018 07:15PM ET,LAD,0
OF,Yusniel Diaz (10838698),Yusniel Diaz,10838698,OF,3200,LAD@NYM 06/23/2018 07:15PM ET,LAD,0
3B/SS,Phillip Evans (10838701),Phillip Evans,10838701,3B/SS,3200,LAD@NYM 06/23/2018 07:15PM ET,NYM,0.43
OF,Jay Bruce (10838703),Jay Bruce,10838703,OF,3200,LAD@NYM 06/23/2018 07:15PM ET,NYM,5.02
3B/SS,Jose Reyes (10838705),Jose Reyes,10838705,3B/SS,3200,LAD@NYM 06/23/2018 07:15PM ET,NYM,2.55
C,Mike Marjama (10838713),Mike Marjama,10838713,C,3100,SEA@BOS 06/23/2018 07:15PM ET,SEA,2.1
2B/SS,Tzu-Wei Lin (10838721),Tzu-Wei Lin,10838721,2B/SS,3100,SEA@BOS 06/23/2018 07:15PM ET,BOS,2.71
OF,Jorge Bonifacio (10838711),Jorge Bonifacio,10838711,OF,3100,KC@HOU 06/23/2018 07:15PM ET,KC,0
OF,Alex Gordon (10838718),Alex Gordon,10838718,OF,3100,KC@HOU 06/23/2018 07:15PM ET,KC,5.78
1B,Hunter Dozier (10838727),Hunter Dozier,10838727,1B,3100,KC@HOU 06/23/2018 07:15PM ET,KC,4.88
OF,Michael Hermosillo (10838712),Michael Hermosillo,10838712,OF,3100,TOR@LAA 06/23/2018 09:07PM ET,LAA,2.17
OF,Dalton Pompey (10838714),Dalton Pompey,10838714,OF,3100,TOR@LAA 06/23/2018 09:07PM ET,TOR,1.6
3B,Kaleb Cowart (10838719),Kaleb Cowart,10838719,3B,3100,TOR@LAA 06/23/2018 09:07PM ET,LAA,3
OF,Tim Locastro (10838710),Tim Locastro,10838710,OF,3100,LAD@NYM 06/23/2018 07:15PM ET,LAD,2.62
C,Travis d'Arnaud (10838715),Travis d'Arnaud,10838715,C,3100,LAD@NYM 06/23/2018 07:15PM ET,NYM,6.5
3B/OF,Rob Segedin (10838716),Rob Segedin,10838716,3B/OF,3100,LAD@NYM 06/23/2018 07:15PM ET,LAD,0
SS,Amed Rosario (10838720),Amed Rosario,10838720,SS,3100,LAD@NYM 06/23/2018 07:15PM ET,NYM,5.36
C,Kevin Plawecki (10838723),Kevin Plawecki,10838723,C,3100,LAD@NYM 06/23/2018 07:15PM ET,NYM,5.33
1B,Daniel Vogelbach (10838730),Daniel Vogelbach,10838730,1B,3000,SEA@BOS 06/23/2018 07:15PM ET,SEA,4.65
OF,Jackie Bradley Jr. (10838735),Jackie Bradley Jr.,10838735,OF,3000,SEA@BOS 06/23/2018 07:15PM ET,BOS,5.33
C,Tim Federowicz (10838726),Tim Federowicz,10838726,C,3000,KC@HOU 06/23/2018 07:15PM ET,HOU,3.5
2B/SS,Rosell Herrera (10838732),Rosell Herrera,10838732,2B/SS,3000,KC@HOU 06/23/2018 07:15PM ET,KC,2.75
1B/3B,Cheslor Cuthbert (10838743),Cheslor Cuthbert,10838743,1B/3B,3000,KC@HOU 06/23/2018 07:15PM ET,KC,4.9
2B/SS,Lourdes Gurriel Jr. (10838728),Lourdes Gurriel Jr.,10838728,2B/SS,3000,TOR@LAA 06/23/2018 09:07PM ET,TOR,5.24
C,Jose Briceno (10838731),Jose Briceno,10838731,C,3000,TOR@LAA 06/23/2018 09:07PM ET,LAA,7.25
OF,Chris Young (10838734),Chris Young,10838734,OF,3000,TOR@LAA 06/23/2018 09:07PM ET,LAA,3.88
OF,Kole Calhoun (10838736),Kole Calhoun,10838736,OF,3000,TOR@LAA 06/23/2018 09:07PM ET,LAA,4.13
2B/OF,Kike Hernandez (10838724),Kike Hernandez,10838724,2B/OF,3000,LAD@NYM 06/23/2018 07:15PM ET,LAD,4.96
2B/3B,Ramon Torres (10838738),Ramon Torres,10838738,2B/3B,2900,KC@HOU 06/23/2018 07:15PM ET,KC,3.22
C,Russell Martin (10838740),Russell Martin,10838740,C,2900,TOR@LAA 06/23/2018 09:07PM ET,TOR,5.46
OF,Rymer Liriano (10838742),Rymer Liriano,10838742,OF,2900,TOR@LAA 06/23/2018 09:07PM ET,LAA,0
SS,Aledmys Diaz (10838745),Aledmys Diaz,10838745,SS,2900,TOR@LAA 06/23/2018 09:07PM ET,TOR,5.51
2B/SS,Nolan Fontana (10838746),Nolan Fontana,10838746,2B/SS,2900,TOR@LAA 06/23/2018 09:07PM ET,LAA,2
OF,Alex Verdugo (10838737),Alex Verdugo,10838737,OF,2900,LAD@NYM 06/23/2018 07:15PM ET,LAD,5.22
SS,Gavin Cecchini (10838741),Gavin Cecchini,10838741,SS,2900,LAD@NYM 06/23/2018 07:15PM ET,NYM,0
1B/OF,Blake Swihart (10838778),Blake Swihart,10838778,1B/OF,2800,SEA@BOS 06/23/2018 07:15PM ET,BOS,2.27
3B/OF,Cody Asche (10838749),Cody Asche,10838749,3B/OF,2800,KC@HOU 06/23/2018 07:15PM ET,KC,0
OF,Tyler Collins (10838751),Tyler Collins,10838751,OF,2800,KC@HOU 06/23/2018 07:15PM ET,KC,0
OF,Bubba Starling (10838755),Bubba Starling,10838755,OF,2800,KC@HOU 06/23/2018 07:15PM ET,KC,0
OF,Jake Marisnick (10838757),Jake Marisnick,10838757,OF,2800,KC@HOU 06/23/2018 07:15PM ET,HOU,3.5
OF,Abraham Almonte (10838758),Abraham Almonte,10838758,OF,2800,KC@HOU 06/23/2018 07:15PM ET,KC,4.05
C,Martin Maldonado (10838756),Martin Maldonado,10838756,C,2800,TOR@LAA 06/23/2018 09:07PM ET,LAA,5.28
3B/SS,Gio Urshela (10838774),Gio Urshela,10838774,3B/SS,2800,TOR@LAA 06/23/2018 09:07PM ET,TOR,3.94
3B,David Wright (10838748),David Wright,10838748,3B,2800,LAD@NYM 06/23/2018 07:15PM ET,NYM,0
2B/3B,T.J. Rivera (10838752),T.J. Rivera,10838752,2B/3B,2800,LAD@NYM 06/23/2018 07:15PM ET,NYM,0
OF,Franklin Gutierrez (10838754),Franklin Gutierrez,10838754,OF,2800,LAD@NYM 06/23/2018 07:15PM ET,LAD,0
2B/3B,Ty Kelly (10838759),Ty Kelly,10838759,2B/3B,2800,LAD@NYM 06/23/2018 07:15PM ET,NYM,0
OF,Kyle Lewis (10838768),Kyle Lewis,10838768,OF,2700,SEA@BOS 06/23/2018 07:15PM ET,SEA,0
C,Sandy Leon (10838771),Sandy Leon,10838771,C,2700,SEA@BOS 06/23/2018 07:15PM ET,BOS,4.91
C,David Freitas (10838776),David Freitas,10838776,C,2700,SEA@BOS 06/23/2018 07:15PM ET,SEA,3.52
C,Christian Vazquez (10838777),Christian Vazquez,10838777,C,2700,SEA@BOS 06/23/2018 07:15PM ET,BOS,4.35
1B,Tyler White (10838769),Tyler White,10838769,1B,2700,KC@HOU 06/23/2018 07:15PM ET,HOU,2
SS,Alcides Escobar (10838796),Alcides Escobar,10838796,SS,2700,KC@HOU 06/23/2018 07:15PM ET,KC,4.89
SS,Richard Urena (10838764),Richard Urena,10838764,SS,2700,TOR@LAA 06/23/2018 09:07PM ET,TOR,2.91
1B,Chris Carter (10838770),Chris Carter,10838770,1B,2700,TOR@LAA 06/23/2018 09:07PM ET,LAA,0
C,Rene Rivera (10838772),Rene Rivera,10838772,C,2700,TOR@LAA 06/23/2018 09:07PM ET,LAA,5.14
1B/2B,Jose Fernandez (10838780),Jose Fernandez,10838780,1B/2B,2700,TOR@LAA 06/23/2018 09:07PM ET,LAA,4
2B/SS,Breyvic Valera (10838761),Breyvic Valera,10838761,2B/SS,2700,LAD@NYM 06/23/2018 07:15PM ET,LAD,1.95
2B,Chase Utley (10838763),Chase Utley,10838763,2B,2700,LAD@NYM 06/23/2018 07:15PM ET,LAD,4.18
2B/C,Austin Barnes (10838765),Austin Barnes,10838765,C/2B,2700,LAD@NYM 06/23/2018 07:15PM ET,LAD,3.19
C,Tomas Nido (10838767),Tomas Nido,10838767,C,2700,LAD@NYM 06/23/2018 07:15PM ET,NYM,2.05
OF,Matt den Dekker (10838773),Matt den Dekker,10838773,OF,2700,LAD@NYM 06/23/2018 07:15PM ET,NYM,0
C/OF,Chris Herrmann (10838788),Chris Herrmann,10838788,C/OF,2600,SEA@BOS 06/23/2018 07:15PM ET,SEA,1.5
OF,Guillermo Heredia (10838792),Guillermo Heredia,10838792,OF,2600,SEA@BOS 06/23/2018 07:15PM ET,SEA,3.77
2B/SS,Andrew Romine (10838793),Andrew Romine,10838793,2B/SS,2600,SEA@BOS 06/23/2018 07:15PM ET,SEA,1.77
2B,Ryan Goins (10838795),Ryan Goins,10838795,2B,2600,KC@HOU 06/23/2018 07:15PM ET,KC,3.49
OF,Michael Saunders (10838785),Michael Saunders,10838785,OF,2600,TOR@LAA 06/23/2018 09:07PM ET,TOR,0
2B/SS,Danny Espinosa (10838786),Danny Espinosa,10838786,2B/SS,2600,TOR@LAA 06/23/2018 09:07PM ET,TOR,0
2B/SS,Gift Ngoepe (10838790),Gift Ngoepe,10838790,2B/SS,2600,TOR@LAA 06/23/2018 09:07PM ET,TOR,0.69
OF,Eric Young Jr. (10838797),Eric Young Jr.,10838797,OF,2600,TOR@LAA 06/23/2018 09:07PM ET,LAA,0
OF,Brandon Marsh (10838800),Brandon Marsh,10838800,OF,2600,TOR@LAA 06/23/2018 09:07PM ET,LAA,0
2B/3B,Logan Forsythe (10838782),Logan Forsythe,10838782,2B/3B,2600,LAD@NYM 06/23/2018 07:15PM ET,LAD,4.79
OF,Andrew Toles (10838784),Andrew Toles,10838784,OF,2600,LAD@NYM 06/23/2018 07:15PM ET,LAD,0
2B/3B,Luis Guillorme (10838798),Luis Guillorme,10838798,2B/3B,2600,LAD@NYM 06/23/2018 07:15PM ET,NYM,2.26
2B,Robinson Cano (10838801),Robinson Cano,10838801,2B,2500,SEA@BOS 06/23/2018 07:15PM ET,SEA,8.03
2B/3B,Marco Hernandez (10838803),Marco Hernandez,10838803,2B/3B,2500,SEA@BOS 06/23/2018 07:15PM ET,BOS,0
C,Mike Ohlman (10838805),Mike Ohlman,10838805,C,2500,SEA@BOS 06/23/2018 07:15PM ET,BOS,0
3B/OF,Steve Selsky (10838806),Steve Selsky,10838806,3B/OF,2500,SEA@BOS 06/23/2018 07:15PM ET,BOS,0
2B,Gordon Beckham (10838809),Gordon Beckham,10838809,2B,2500,SEA@BOS 06/23/2018 07:15PM ET,SEA,3.17
1B,Evan White (10838811),Evan White,10838811,1B,2500,SEA@BOS 06/23/2018 07:15PM ET,SEA,0
C,Drew Butera (10838810),Drew Butera,10838810,C,2500,KC@HOU 06/23/2018 07:15PM ET,KC,3.63
OF,Seuly Matias (10838812),Seuly Matias,10838812,OF,2500,KC@HOU 06/23/2018 07:15PM ET,KC,0
OF,Jo Adell (10838813),Jo Adell,10838813,OF,2500,TOR@LAA 06/23/2018 09:07PM ET,LAA,0
OF,Juan Lagares (10838802),Juan Lagares,10838802,OF,2500,LAD@NYM 06/23/2018 07:15PM ET,NYM,4
3B,Kyle Farmer (10838808),Kyle Farmer,10838808,3B,2500,LAD@NYM 06/23/2018 07:15PM ET,LAD,2.66
OF,Rusney Castillo (10838815),Rusney Castillo,10838815,OF,2400,SEA@BOS 06/23/2018 07:15PM ET,BOS,0
OF,Paulo Orlando (10838816),Paulo Orlando,10838816,OF,2400,KC@HOU 06/23/2018 07:15PM ET,KC,3.36
SS,Corey Seager (10838814),Corey Seager,10838814,SS,2400,LAD@NYM 06/23/2018 07:15PM ET,LAD,7.23
C,Jose Lobaton (10838817),Jose Lobaton,10838817,C,2400,LAD@NYM 06/23/2018 07:15PM ET,NYM,2.95
1B,Mike Ford (10838820),Mike Ford,10838820,1B,2300,SEA@BOS 06/23/2018 07:15PM ET,SEA,0
SS,Zach Vincej (10838822),Zach Vincej,10838822,SS,2300,SEA@BOS 06/23/2018 07:15PM ET,SEA,0
OF,Kyle Tucker (10838818),Kyle Tucker,10838818,OF,2300,KC@HOU 06/23/2018 07:15PM ET,HOU,0
1B,AJ Reed (10838819),AJ Reed,10838819,1B,2300,KC@HOU 06/23/2018 07:15PM ET,HOU,0
OF,Yordan Alvarez (10838821),Yordan Alvarez,10838821,OF,2300,KC@HOU 06/23/2018 07:15PM ET,HOU,0
C,Cam Gallagher (10838823),Cam Gallagher,10838823,C,2300,KC@HOU 06/23/2018 07:15PM ET,KC,3.62
3B,Michael Chavis (10838824),Michael Chavis,10838824,3B,2200,SEA@BOS 06/23/2018 07:15PM ET,BOS,0
C,Tuffy Gosewisch (10838825),Tuffy Gosewisch,10838825,C,2200,SEA@BOS 06/23/2018 07:15PM ET,SEA,0
OF,Kirk Nieuwenhuis (10838826),Kirk Nieuwenhuis,10838826,OF,2200,SEA@BOS 06/23/2018 07:15PM ET,SEA,0
SS,Andres Gimenez (10838827),Andres Gimenez,10838827,SS,2200,LAD@NYM 06/23/2018 07:15PM ET,NYM,0
OF,Cameron Perkins (10838829),Cameron Perkins,10838829,OF,2100,SEA@BOS 06/23/2018 07:15PM ET,SEA,0
OF,Khalil Lee (10838830),Khalil Lee,10838830,OF,2100,KC@HOU 06/23/2018 07:15PM ET,KC,0
1B,Nick Pratto (10838831),Nick Pratto,10838831,1B,2100,KC@HOU 06/23/2018 07:15PM ET,KC,0
SS,Logan Warmoth (10838832),Logan Warmoth,10838832,SS,2100,TOR@LAA 06/23/2018 09:07PM ET,TOR,0
C,Rocky Gale (10838828),Rocky Gale,10838828,C,2100,LAD@NYM 06/23/2018 07:15PM ET,LAD,0
OF,Ichiro Suzuki (10838834),Ichiro Suzuki,10838834,OF,2000,SEA@BOS 06/23/2018 07:15PM ET,SEA,2.87
3B,Joe Rizzo (10838836),Joe Rizzo,10838836,3B,2000,SEA@BOS 06/23/2018 07:15PM ET,SEA,0
C,Juan Graterol (10838833),Juan Graterol,10838833,C,2000,TOR@LAA 06/23/2018 09:07PM ET,LAA,3
C,Keibert Ruiz (10838835),Keibert Ruiz,10838835,C,2000,LAD@NYM 06/23/2018 07:15PM ET,LAD,0
