DraftKings,RotoGrinders
Shin-soo Choo,Shin-Soo Choo
Joey Wendle,Joseph Wendle
Ben Gamel,Benjamin Gamel
JB Shuck,J.B. Shuck
Greg Bird,Gregory Bird
Jackie Bradley Jr.,Jackie Bradley
JT Riddle,J.T. Riddle
Yuli Gurriel,Yulieski Gurriel
Albert Almora Jr.,Albert Almora
Michael A. Taylor,Michael Taylor
Nicholas Castellanos,Nick Castellanos
Jake Bauers,Jakob Bauers
Kike Hernandez,Enrique Hernandez
Vince Velasquez,Vincent Velasquez
Gio Urshela,Giovanny Urshela
Matthew Boyd,Matt Boyd
Lance McCullers Jr.,Lance McCullers
Albert Almora Jr.,Albert Almora
Matt Strahm,Matthew Strahm
Mike Foltynewicz,Michael Foltynewicz
Jose Fernandez,Jose Miguel Fernandez
Rob Refsnyder,Robert Refsnyder
