"F1","F2","M1","M2","D1","D2","GK","Util"
10492980,10492984,10492903,10492907,10492835,10492855,10492815,10492925
10492980,10492998,10492903,10492907,10492831,10492863,10492812,10492925
10492980,10492984,10492903,10492907,10492847,10492849,10492812,10492925
10492980,10492984,10492909,10492916,10492825,10492831,10492812,10492966
10492980,10492998,10492903,10492907,10492827,10492835,10492817,10492925
10492980,10492984,10492909,10492916,10492827,10492835,10492817,10492964
10492980,10492998,10492909,10492916,10492831,10492863,10492812,10492964
10492980,10492984,10492909,10492916,10492829,10492849,10492812,10492964
10492980,10492984,10492903,10492911,10492827,10492835,10492815,10492875
10492980,10492984,10492911,10492918,10492827,10492831,10492815,10492942
10492980,10493004,10492903,10492907,10492829,10492845,10492815,10492925
10492980,10492984,10492909,10492916,10492847,10492863,10492812,10492968
10492980,10492984,10492903,10492907,10492831,10492879,10492817,10492925
10492980,10492984,10492903,10492909,10492825,10492831,10492817,10492863
10492980,10492998,10492909,10492916,10492847,10492849,10492812,10492966
10492980,10492982,10492909,10492916,10492829,10492845,10492812,10492966
10492980,10492984,10492903,10492909,10492829,10492845,10492812,10492855
10492980,10492984,10492911,10492918,10492825,10492835,10492815,10492946
10492980,10492984,10492909,10492916,10492831,10492849,10492817,10492968
10492980,10492984,10492911,10492918,10492831,10492849,10492812,10492946
10492980,10492990,10492909,10492916,10492825,10492831,10492817,10492964
10492980,10492982,10492903,10492907,10492875,10492885,10492815,10492925
10492980,10492998,10492911,10492918,10492825,10492831,10492812,10492942
10492980,10492998,10492909,10492916,10492829,10492855,10492812,10492968
10492980,10492984,10492907,10492918,10492827,10492835,10492815,10492885
10492980,10492984,10492903,10492907,10492827,10492845,10492824,10492925
10492980,10492984,10492909,10492911,10492847,10492849,10492812,10492879
10492980,10492990,10492911,10492918,10492825,10492831,10492815,10492863
10492980,10492998,10492909,10492916,10492825,10492863,10492817,10492966
10492980,10492984,10492911,10492918,10492829,10492847,10492812,10492942
10492980,10492982,10492909,10492916,10492847,10492879,10492812,10492964
10492980,10492984,10492909,10492964,10492831,10492845,10492812,10492968
10492980,10492982,10492903,10492925,10492827,10492835,10492815,10492956
10492980,10492990,10492909,10492916,10492827,10492875,10492817,10492966
10492980,10492984,10492909,10492911,10492831,10492833,10492812,10492863
10492980,10492998,10492909,10492916,10492835,10492875,10492817,10492968
10492980,10492998,10492911,10492918,10492829,10492845,10492812,10492946
10492980,10492998,10492909,10492916,10492827,10492835,10492818,10492966
10492980,10492982,10492911,10492918,10492827,10492875,10492815,10492946
10492980,10492982,10492909,10492966,10492831,10492863,10492812,10492968
10492980,10492984,10492909,10492916,10492847,10492885,10492817,10492966
10492980,10492984,10492903,10492909,10492827,10492875,10492817,10492885
10492980,10492984,10492909,10492916,10492827,10492849,10492819,10492966
10492980,10492984,10492909,10492916,10492825,10492827,10492818,10492968
10492980,10492984,10492907,10492964,10492825,10492831,10492812,10492863
10492980,10492982,10492911,10492918,10492835,10492885,10492815,10492942
10492980,10492984,10492907,10492925,10492827,10492829,10492815,10492956
10492980,10492990,10492911,10492918,10492829,10492845,10492815,10492942
10492980,10492984,10492909,10492916,10492831,10492847,10492814,10492964
10492980,10492984,10492909,10492964,10492855,10492863,10492812,10492966
10492980,10492984,10492909,10492966,10492825,10492835,10492817,10492968
10492980,10492982,10492909,10492916,10492825,10492863,10492812,10492970
10492980,10492984,10492903,10492916,10492831,10492863,10492812,10493006
10492980,10492982,10492916,10492964,10492825,10492831,10492812,10492968
10492980,10492984,10492903,10492907,10492829,10492875,10492823,10492925
10492980,10492990,10492909,10492916,10492827,10492835,10492819,10492968
10492980,10492988,10492909,10492916,10492847,10492849,10492817,10492964
10492980,10492998,10492907,10492925,10492829,10492845,10492812,10492855
10492980,10492982,10492903,10492907,10492879,10492899,10492812,10492925
10492980,10492984,10492903,10492907,10492827,10492849,10492817,10492956
10492980,10492984,10492911,10492916,10492829,10492845,10492812,10492865
10492980,10492984,10492916,10492964,10492845,10492847,10492812,10492966
10492980,10492984,10492907,10492909,10492827,10492835,10492819,10492875
10492980,10492984,10492909,10492916,10492825,10492863,10492813,10492964
10492980,10492990,10492911,10492942,10492827,10492835,10492815,10492946
10492980,10492998,10492909,10492916,10492825,10492831,10492814,10492968
10492980,10492984,10492903,10492907,10492825,10492879,10492812,10492956
10492980,10492988,10492909,10492916,10492827,10492885,10492817,10492968
10492980,10492990,10492903,10492907,10492829,10492855,10492824,10492925
10492980,10492984,10492909,10492925,10492825,10492863,10492812,10493000
10492980,10492982,10492911,10492918,10492849,10492879,10492812,10492942
10492980,10492998,10492903,10492907,10492825,10492831,10492817,10492956
10492980,10492984,10492909,10492916,10492829,10492863,10492814,10492966
10492980,10492984,10492903,10492916,10492847,10492849,10492817,10492879
10492980,10492982,10492909,10492916,10492841,10492849,10492812,10492968
10492980,10492984,10492903,10492907,10492845,10492875,10492815,10492956
10492980,10492990,10492903,10492907,10492837,10492849,10492817,10492925
10492980,10492990,10492909,10492916,10492831,10492863,10492818,10492966
10492980,10492984,10492911,10492916,10492825,10492863,10492812,10493012
10492980,10492984,10492909,10492966,10492829,10492879,10492812,10492968
10492980,10492984,10492903,10492925,10492835,10492847,10492817,10492956
10492980,10492984,10492909,10492964,10492831,10492875,10492817,10492966
10492980,10492984,10492909,10492916,10492845,10492879,10492812,10492970
10492980,10492984,10492903,10492916,10492827,10492835,10492818,10492885
10492980,10492990,10492909,10492916,10492847,10492879,10492817,10492968
10492980,10492984,10492916,10492966,10492849,10492855,10492812,10492968
10492980,10492984,10492907,10492916,10492835,10492875,10492817,10492885
10492980,10492984,10492909,10492916,10492829,10492845,10492813,10492968
10492980,10492988,10492911,10492918,10492829,10492855,10492815,10492946
10492980,10492998,10492903,10492907,10492849,10492879,10492818,10492925
10492980,10492984,10492916,10492966,10492827,10492863,10492817,10492968
10492980,10492984,10492905,10492911,10492829,10492845,10492815,10492855
10492980,10492998,10492909,10492916,10492827,10492875,10492819,10492964
10492980,10493004,10492909,10492916,10492849,10492879,10492817,10492966
10492980,10492990,10492903,10492907,10492851,10492865,10492815,10492925
10492980,10492998,10492909,10492916,10492829,10492845,10492814,10492964
10492980,10492984,10492916,10492964,10492825,10492849,10492817,10492966
10492980,10492984,10492907,10492916,10492825,10492831,10492817,10492833
10492980,10492990,10492903,10492907,10492847,10492879,10492819,10492925
10492980,10492982,10492903,10492907,10492827,10492835,10492823,10492875
