Id,Name,Position,Team,Salary,Projected,Scored,Override,OppRank,OppRankTotal,Alerts
1861155,Michael Wacha,SP,STL,10000,0,0,0,26,30,
1861156,Tyson Ross,SP,SD,9600,0,0,0,23,30,
1861170,Jameson Taillon,SP,PIT,8100,0,0,0,21,30,
1861173,Freddy Peralta,SP,MIL,8100,0,0,0,4,30,
1861187,Nick Kingham,SP,PIT,7100,0,0,0,21,30,
1861188,Nathan Eovaldi,SP,TB,7100,0,0,0,12,30,
1861205,Felix Hernandez,SP,SEA,6500,0,0,0,10,30,
1861206,Ivan Nova,SP,PIT,6400,0,0,0,21,30,
1861220,Hisashi Iwakuma,SP,SEA,5900,0,0,0,10,30,Injured:1
1861223,Ryan Yarbrough,SP,TB,5600,14.3,12.7,0,12,30,Starter:1|PlayerMatchupIsGreat:1|CrowdPositive:1|CrowdNegative:1|PlayerMatchupIsHorribad:1|StarBad:1|ThumbUp:1
1861237,Miguel Gonzalez,SP,CWS,5200,0,0,0,3,30,Injured:1
1861238,David Hess,SP,BAL,5200,0,0,0,1,30,
1861255,Alex Cobb,SP,BAL,4800,0,0,0,1,30,
1861256,Anthony Banda,SP,TB,4800,0,0,0,12,30,
1861270,Josh Tomlin,SP,CLE,4400,0,0,0,19,30,
1861273,Mike Wright Jr.,SP,BAL,4400,0,0,0,1,30,
1861274,Kyle Lloyd,SP,SD,4400,0,0,0,23,30,
1861287,Clay Holmes,SP,PIT,4000,0,0,0,21,30,
1861288,Cody Anderson,SP,CLE,4000,0,0,0,19,30,Injured:1
1861305,Nate Pearson,SP,TOR,4000,0,0,0,17,30,
1861306,Chris Rowley,SP,TOR,4000,0,0,0,17,30,
1861323,Matt Cain,SP,SF,4000,0,0,0,30,30,
1861324,Chris Heston,SP,SF,4000,0,0,0,30,30,
1861337,JC Ramirez,RP,LAA,5000,0,0,0,9,30,Injured:1
1861338,Aaron Wilkerson,RP,MIL,5000,0,0,0,4,30,
1861355,Felipe Vazquez,RP,PIT,4000,0,0,0,21,30,
1861356,Enny Romero,RP,PIT,4000,0,0,0,21,30,Injured:1
1861373,Zach McAllister,RP,CLE,4000,0,0.15,0,19,30,
1861374,Danny Farquhar,RP,CWS,4000,0,0,0,3,30,Injured:1
1861387,Ryan Merritt,RP,CLE,4000,0,0,0,19,30,Injured:1
1861388,Jace Fry,RP,CWS,4000,0,0,0,3,30,
1861391,Darren O'Day,RP,BAL,4000,0,0,0,1,30,
1861405,Jayson Aquino,RP,BAL,4000,0,0,0,1,30,
1861406,Chris Lee,RP,BAL,4000,0,0,0,1,30,
1861423,Danny Barnes,RP,TOR,4000,0,9.75,0,17,30,
1861424,Jose Alvarado,RP,TB,4000,0,0,0,12,30,
1861438,Greg Holland,RP,STL,4000,0,0,0,26,30,Injured:1
1861441,Kirby Yates,RP,SD,4000,0,0,0,23,30,
1861455,Jim Johnson,RP,LAA,4000,0,1.05,0,9,30,
1861456,Blake Parker,RP,LAA,4000,0,0,0,9,30,
1861473,Noe Ramirez,RP,LAA,4000,0,8.5,0,9,30,
1861474,Tony Zych,RP,SEA,4000,0,0,0,10,30,Injured:1
1861488,Dan Jennings,RP,MIL,4000,0,0,0,4,30,
1861491,Carl Edwards Jr.,RP,CHC,4000,0,0,0,11,30,Injured:1
1861505,Jose Valdez,RP,SF,4000,0,0,0,30,30,Injured:1
1861506,Drew Steckenrider,RP,MIA,4000,0,3.65,0,8,30,
1861523,J.D. Martinez,OF,BOS,5300,11.85,2,0,203,285,Starter:1|LineupSpot3:1|PlayerMatchupIsGreat:2|ThumbUp:2
1861524,Michael Brantley,OF,CLE,4800,9.32,14,0,209,285,Starter:1|LineupSpot2:1|PlayerMatchupIsGreat:2|VegasGood:2|StarBad:1|ThumbUp:2
1861538,Mitch Haniger,OF,SEA,4000,8.16,0,0,234,285,Starter:1|LineupSpot3:1|PlayerMatchupIsGreat:2|PlayerMatchupIsHorribad:1|PlayerIsCold:1
1861541,Harrison Bader,OF,STL,3900,0,0,0,279,285,
1861555,Mac Williamson,OF,SF,3600,6.84,0,0,257,285,Starter:1|LineupSpot7:1|PlayerMatchupIsGreat:3|PlayerMatchupIsHorribad:1|VegasBad:1
1861556,Jon Jay,OF,ARI,3500,0,4,0,203,285,
1861573,Steven Souza Jr.,OF,ARI,3200,0,0,0,241,285,Injured:1
1861574,Yasmany Tomas,OF,ARI,3200,0,0,0,241,285,
1861588,Jarrod Dyson,OF,ARI,3100,0,0,0,203,285,
1861591,Ryan Cordell,OF,CWS,3100,0,0,0,160,285,
1861605,Domingo Santana,OF,MIL,3000,0,0,0,197,285,
1861606,Melky Cabrera,OF,CLE,2900,7.34,6,0,209,285,Starter:1|LineupSpot6:1|PlayerMatchupIsGreat:1|VegasGood:3
1861623,Jarrett Parker,OF,SF,2800,0,0,0,154,285,
1861624,Hunter Pence,OF,SF,2800,0,0,0,257,285,
1861638,Jahmai Jones,OF,LAA,2500,0,0,0,108,285,
1861641,Daniel Nava,OF,PIT,2400,0,0,0,163,285,
1861655,Travis Shaw,3B,MIL,4200,0,0,0,22,285,
1861656,Jake Lamb,3B,ARI,4100,9.08,20,0,203,285,Starter:1|LineupSpot3:1|PlayerMatchupIsGreat:3|PlayerIsHot:1
1861673,Kaleb Cowart,3B,LAA,2800,0,0,0,108,285,Injured:1
1861674,Lucas Erceg,3B,MIL,2800,0,0,0,22,285,
1861688,Willy Adames,SS,TB,3300,4.97,9,0,244,285,Starter:1|LineupSpot6:1|PlayerMatchupIsGreat:1|PlayerMatchupIsHorribad:3|PlayerIsCold:1
1861691,Aledmys Diaz,SS,TOR,3200,6.59,0,0,200,285,Starter:1|LineupSpot8:1|PlayerMatchupIsGreat:1|PlayerMatchupIsHorribad:2
1861705,Zach Vincej,SS,SEA,2600,0,0,0,234,285,
1861706,Orlando Calixte,SS,SF,2500,0,0,0,257,285,
1861723,Jake Bauers,1B,TB,3500,4.98,29,0,152,285,Starter:1|LineupSpot2:1|PlayerMatchupIsGreat:1|PlayerMatchupIsHorribad:2|PlayerIsHot:1
1861724,Ryon Healy,1B,SEA,3500,7.21,16,0,234,285,Starter:1|LineupSpot6:1|PlayerMatchupIsGreat:2|PlayerMatchupIsHorribad:1|PlayerIsCold:1
1861738,Mike Ford,1B,SEA,2700,0,0,0,21,285,Injured:1
1861741,Mike Napoli,1B,CLE,2000,0,0,0,212,285,Injured:1
1861742,Javier Baez,2B/SS,CHC,4600,8.36,22,0,180,285,Starter:1|LineupSpot7:1|PlayerMatchupIsGreat:2|PlayerIsCold:1
1861755,Lourdes Gurriel Jr.,2B/SS,TOR,2700,0,0,0,200,285,
1861756,Gift Ngoepe,2B/SS,TOR,2700,0,0,0,200,285,
1861773,Dee Gordon,2B/OF,SEA,3800,8.03,0,0,21,285,Starter:1|LineupSpot1:1|PlayerMatchupIsHorribad:2|PlayerMatchupIsGreat:2|PlayerIsCold:1|ThumbDown:1
1861774,Adam Frazier,2B/OF,PIT,3300,0,0,0,32,285,
1861791,Rene Rivera,C,LAA,3400,0,0,0,108,285,Injured:1
1861792,Yan Gomes,C,CLE,3300,6.52,11,0,212,285,Starter:1|LineupSpot8:1|PlayerMatchupIsGreat:1|PlayerMatchupIsHorribad:1|OptimalPick:1|PlayerIsHot:1|VegasGood:1|ThumbUp:1
1861805,Jacob Stallings,C,PIT,2800,0,0,0,163,285,
1861806,Kevan Smith,C,CWS,2800,6.37,3,0,160,285,Starter:1|LineupSpot6:1|PlayerMatchupIsHorribad:1
1861823,Zack Collins,C,CWS,2600,0,0,0,82,285,
1861824,Mike Ohlman,C,BOS,2600,0,0,0,203,285,
1861841,Ian Kinsler,2B,LAA,3600,9.26,0,0,108,285,Starter:1|LineupSpot1:1|PlayerMatchupIsHorribad:2|PlayerMatchupIsGreat:1|PlayerIsHot:1
1861842,Starlin Castro,2B,MIA,3600,7.88,0,0,190,285,Starter:1|LineupSpot1:1|PlayerMatchupIsGreat:1|PlayerMatchupIsHorribad:1
1861855,Kolten Wong,2B,STL,2800,0,0,0,136,285,
1861856,Carlos Asuaje,2B,SD,2700,0,0,0,202,285,
1861859,Matt Davidson,1B/3B,CWS,3900,7.16,0,0,160,285,Starter:1|LineupSpot5:1|PlayerIsCold:1|StarBad:1
1861873,Zack Cozart,2B/3B,LAA,3300,7.52,0,0,108,285,Starter:1|LineupSpot5:1|PlayerMatchupIsHorribad:2|PlayerIsCold:1|StarGood:1
1861874,Miguel Gomez,2B/3B,SF,3300,0,0,0,257,285,
1861891,Stephen Vogt,1B/C,MIL,3100,0,0,0,22,285,Injured:1
1861892,Victor Caratini,1B/C,CHC,3100,0,0,0,179,285,
1861152,Carlos Carrasco,SP,CLE,10700,27.69,39.35,0,19,30,Starter:1|VegasGood:1|CrowdNegative:1|PlayerMatchupIsGreat:1|PlayerMatchupIsBad:1|ThumbDown:2
1861159,David Price,SP,BOS,9200,0,0,0,28,30,
1861166,Jaime Barria,SP,LAA,8500,0,0,0,9,30,
1861177,Yu Darvish,SP,CHC,7900,0,0,0,11,30,Injured:1
1861184,Chad Kuhl,SP,PIT,7200,0,0,0,21,30,
1861191,Aaron Sanchez,SP,TOR,6900,0,0,0,17,30,
1861202,Alec Hansen,SP,CWS,6500,0,0,0,3,30,
1861209,Clayton Richard,SP,SD,6400,0,0,0,23,30,
1861216,Carlos Rodon,SP,CWS,6000,0,0,0,3,30,
1861227,Jose Urena,SP,MIA,5600,0,0,0,8,30,
1861234,Hector Santiago,SP,CWS,5300,0,2.25,0,3,30,
1861241,Jaime Schultz,SP,TB,5100,0,0,0,12,30,
1861252,Phil Hughes,SP,SD,4900,0,5.9,0,23,30,
1861259,Brandon Woodruff,SP,MIL,4700,0,0,0,4,30,
1861266,John Gant,SP,STL,4500,0,0,0,26,30,
1861277,Adam Conley,SP,MIA,4400,0,10.25,0,8,30,
1861284,Marco Estrada,SP,TOR,4100,0,0,0,17,30,OptimalPick:1
1861291,Ian Clarkin,SP,CWS,4000,0,0,0,3,30,Injured:1
1861295,Brandon Workman,SP,BOS,4000,0,5.8,0,28,30,
1861302,Ryne Stanek,SP,TB,4000,0,0,0,12,30,
1861309,Bryan Mitchell,SP,SD,4000,0,0,0,23,30,
1861316,Eddie Butler,SP,CHC,4000,0,0,0,11,30,Injured:1
1861320,Duane Underwood Jr.,SP,CHC,4000,0,0,0,11,30,
1861327,Tyler Glasnow,RP,PIT,8000,0,0,0,21,30,
1861334,Jarlin Garcia,RP,MIA,5300,0,0,0,8,30,
1861341,Shawn Morimando,RP,CLE,4500,0,0,0,19,30,
1861345,Steven Brault,RP,PIT,4200,0,0,0,21,30,
1861352,Yoshihisa Hirano,RP,ARI,4000,0,0,0,14,30,
1861359,Steve Hathaway,RP,ARI,4000,0,0,0,14,30,
1861370,Oliver Perez,RP,CLE,4000,0,1.5,0,19,30,
1861377,Dan Otero,RP,CLE,4000,0,0,0,19,30,
1861384,Cody Allen,RP,CLE,4000,0,0,0,19,30,
1861395,Mychal Givens,RP,BAL,4000,0,-1.4,0,1,30,
1861402,Jeff Ferrell,RP,BAL,4000,0,0,0,1,30,Injured:1
1861409,Miguel Castro,RP,BAL,4000,0,0,0,1,30,
1861420,Ryan Tepera,RP,TOR,4000,0,0,0,17,30,
1861427,Chih-Wei Hu,RP,TB,4000,0,0,0,12,30,
1861434,Luke Gregerson,RP,STL,4000,0,0,0,26,30,Injured:1
1861445,Ryan Sherriff,RP,STL,4000,0,0,0,26,30,
1861452,Matt Strahm,RP,SD,4000,0,0,0,23,30,
1861459,Ryan Cook,RP,SEA,4000,0,3.05,0,10,30,
1861470,Christian Bergman,RP,SEA,4000,0,0,0,10,30,
1861477,Dan Altavilla,RP,SEA,4000,0,0,0,10,30,Injured:1
1861484,Brandon Morrow,RP,CHC,4000,0,0,0,11,30,
1861495,Taylor Williams,RP,MIL,4000,0,0,0,4,30,
1861502,Will Smith,RP,SF,4000,0,0,0,30,30,
1861509,Brett Graves,RP,MIA,4000,0,0,0,8,30,Injured:1
1861520,Mike Trout,OF,LAA,6000,10.68,30,0,108,285,Starter:1|LineupSpot2:1|PlayerMatchupIsHorribad:2|PlayerMatchupIsGreat:1|PlayerIsCold:1
1861527,A.J. Pollock,OF,ARI,4600,0,0,0,241,285,Injured:1
1861534,Lorenzo Cain,OF,MIL,4200,9.96,8,0,197,285,Starter:1|LineupSpot1:1|PlayerMatchupIsHorribad:1|PlayerMatchupIsGreat:2
1861545,Derek Dietrich,OF,MIA,3800,0,0,0,23,285,
1861552,Kevin Pillar,OF,TOR,3600,7.39,0,0,200,285,Starter:1|LineupSpot5:1|PlayerMatchupIsGreat:1|PlayerMatchupIsHorribad:1|VegasBad:1|ThumbDown:1
1861559,Jason Heyward,OF,CHC,3500,8.39,17,0,179,285,Starter:1|LineupSpot2:1|PlayerMatchupIsHorribad:1|PlayerMatchupIsGreat:1
1861570,John Andreoli,OF,SEA,3400,0,0,0,234,285,
1861577,Leury Garcia,OF,CWS,3200,0,0,0,82,285,Injured:1
1861584,Mark Zagunis,OF,CHC,3200,0,0,0,180,285,
1861595,Dalton Pompey,OF,TOR,3100,0,0,0,200,285,Injured:1
1861602,Colby Rasmus,OF,BAL,3000,0,0,0,142,285,Injured:1
1861609,Manuel Margot,OF,SD,2900,0,0,0,127,285,
1861620,Guillermo Heredia,OF,SEA,2800,6.28,5,0,234,285,Starter:1|LineupSpot7:1|PlayerMatchupIsGreat:2|PlayerMatchupIsHorribad:1
1861627,Trayce Thompson,OF,CWS,2700,0,0,0,160,285,
1861634,Craig Gentry,OF,BAL,2600,0,7,0,142,285,
1861645,Cameron Perkins,OF,SEA,2200,0,0,0,234,285,
1861652,Jose Ramirez,3B,CLE,5600,11.6,8,0,209,285,Starter:1|LineupSpot3:1|PlayerMatchupIsGreat:2|PlayerIsCold:1|VegasGood:3|ThumbUp:2
1861659,Yolmer Sanchez,3B,CWS,3500,7.78,9,0,82,285,Starter:1|LineupSpot2:1|PlayerMatchupIsHorribad:1|PlayerMatchupIsGreat:1
1861670,Tim Beckham,3B,BAL,2800,0,0,0,142,285,Injured:1
1861677,Joe Rizzo,3B,SEA,2000,0,0,0,21,285,
1861684,Paul DeJong,SS,STL,3800,0,0,0,279,285,Injured:1
1861695,Addison Russell,SS,CHC,3100,6.07,4,0,180,285,Starter:1|LineupSpot8:1|PlayerMatchupIsGreat:1|PlayerIsCold:1|StarGood:1|ThumbDown:1
1861702,JT Riddle,SS,MIA,2800,0,0,0,23,285,
1861709,Delvin Perez,SS,STL,2000,0,0,0,279,285,
1861720,C.J. Cron,1B,TB,4000,8.19,6,0,244,285,Starter:1|LineupSpot4:1|PlayerMatchupIsGreat:2|PlayerMatchupIsHorribad:2|PlayerIsHot:1|ThumbUp:1|ThumbDown:1
1861727,Sam Travis,1B,BOS,3300,0,0,0,203,285,
1861734,Brad Miller,1B,MIL,3000,0,0,0,22,285,
1861745,Eduardo Nunez,2B/SS,BOS,3400,7.88,2,0,203,285,Starter:1|LineupSpot7:1|PlayerMatchupIsGreat:2
1861752,Danny Espinosa,2B/SS,TOR,2800,0,0,0,200,285,
1861759,Yadiel Rivera,2B/SS,MIA,2600,5.48,9,0,190,285,Starter:1|LineupSpot8:1|PlayerMatchupIsGreat:1|PlayerMatchupIsHorribad:1|PlayerIsCold:1
1861770,Michael Morse,1B/OF,SF,2400,0,0,0,257,285,Injured:1
1861777,Hernan Perez,2B/OF,MIL,3000,7.46,8,0,197,285,Starter:1|LineupSpot5:1|PlayerMatchupIsHorribad:1|PlayerMatchupIsGreat:2|VegasGood:1
1861784,Willson Contreras,C,CHC,3900,8.01,2,0,180,285,Starter:1|LineupSpot5:1|PlayerMatchupIsGreat:2|PlayerIsCold:1
1861788,Nick Hundley,C,SF,3500,8.86,4,0,257,285,Starter:1|LineupSpot6:1|PlayerMatchupIsGreat:3|PlayerMatchupIsHorribad:1|PlayerIsHot:1
1861795,Francisco Mejia,C,CLE,3100,0,0,0,209,285,
1861802,Andrew Susac,C,BAL,2900,0,0,0,142,285,
1861809,Austin Hedges,C,SD,2800,0,0,0,127,285,Injured:1
1861813,Chad Wallach,C,MIA,2800,0,0,0,190,285,
1861820,David Freitas,C,SEA,2700,0,0,0,234,285,
1861827,Steven Baron,C,STL,2600,0,0,0,279,285,
1861834,Tuffy Gosewisch,C,SEA,2300,0,0,0,234,285,
1861838,Yoan Moncada,2B,CWS,3900,8.41,0,0,82,285,Starter:1|LineupSpot1:1|PlayerMatchupIsHorribad:1|PlayerMatchupIsGreat:2
1861845,Jonathan Schoop,2B,BAL,3300,8.4,0,0,142,285,Starter:1|LineupSpot3:1|PlayerMatchupIsHorribad:1|PlayerMatchupIsGreat:1|ThumbDown:1
1861852,Devon Travis,2B,TOR,2900,7.35,5,0,200,285,Starter:1|LineupSpot9:1|PlayerMatchupIsGreat:1|PlayerMatchupIsHorribad:1|PlayerIsCold:1|VegasBad:1
1861863,Luis Valbuena,1B/3B,LAA,3200,5.22,5,0,141,285,Starter:1|LineupSpot8:1|PlayerMatchupIsHorribad:2|PlayerIsCold:1|VegasGood:1
1861870,Jedd Gyorko,2B/3B,STL,3500,6.89,14,0,279,285,Starter:1|LineupSpot6:1|PlayerMatchupIsGreat:1|PlayerMatchupIsHorribad:2|PlayerIsCold:1
1861877,Marco Hernandez,2B/3B,BOS,2600,0,0,0,201,285,Injured:1
1861888,Cory Spangenberg,3B/OF,SD,3100,8.62,16,0,202,285,Starter:1|LineupSpot5:1|PlayerMatchupIsGreat:2|PlayerMatchupIsHorribad:1|VegasBad:1|StarBad:1|ThumbUp:1
1861895,Sean Rodriguez,OF/SS,PIT,2800,0,2,0,163,285,
1861145,Chris Sale,SP,BOS,11800,0,0,0,28,30,
1861147,Johnny Cueto,SP,SF,11800,0,0,0,30,30,Injured:1
1861162,Danny Salazar,SP,CLE,8800,0,0,0,19,30,Injured:1
1861164,Joe Musgrove,SP,PIT,8500,12.59,16.7,0,21,30,Starter:1|VegasBad:2|PlayerMatchupIsHorribad:2|CrowdNegative:1|PlayerMatchupIsGreat:2
1861179,Mike Leake,SP,SEA,7500,0,0,0,10,30,
1861181,Shane Bieber,SP,CLE,7300,0,0,0,19,30,
1861196,Chris Archer,SP,TB,6700,0,0,0,12,30,Injured:1
1861198,Chris Stratton,SP,SF,6700,0,0,0,30,30,
1861213,Michael Kopech,SP,CWS,6200,0,0,0,3,30,
1861215,Marco Gonzales,SP,SEA,6100,0,0,0,10,30,
1861230,Trevor Richards,SP,MIA,5500,0,0,0,8,30,
1861232,Wade Miley,SP,MIL,5400,0,0,0,4,30,
1861245,Brent Honeywell,SP,TB,5000,0,0,0,12,30,Injured:1
1861247,Jeff Samardzija,SP,SF,5000,0,0,0,30,30,Injured:1
1861249,Luis Escobar,SP,PIT,4900,0,0,0,21,30,
1861262,Dylan Covey,SP,CWS,4600,0,0,0,3,30,
1861264,Elieser Hernandez,SP,MIA,4600,0,0,0,8,30,
1861279,Braden Shipley,SP,ARI,4300,0,3.15,0,14,30,
1861281,Lucas Giolito,SP,CWS,4200,5.28,4.45,0,3,30,Starter:1|VegasBad:2|CrowdNegative:1|PlayerMatchupIsHorribad:2|PlayerMatchupIsBad:1|ThumbDown:2
1861296,Asher Wojciechowski,SP,BAL,4000,0,0,0,1,30,
1861298,Matthias Dietz,SP,BAL,4000,0,0,0,1,30,
1861313,Dakota Hudson,SP,STL,4000,0,0,0,26,30,
1861315,Walker Lockett,SP,SD,4000,0,0,0,23,30,
1861330,Caleb Smith,RP,MIA,6400,0,0,0,8,30,
1861332,Austin Gomber,RP,STL,5300,0,-1.85,0,26,30,
1861347,Brad Boxberger,RP,ARI,4000,0,3.65,0,14,30,
1861349,Neftali Feliz,RP,ARI,4000,0,0,0,14,30,Injured:1
1861362,Kyle Crick,RP,PIT,4000,0,-4.45,0,21,30,
1861364,Archie Bradley,RP,ARI,4000,0,4.45,0,14,30,
1861366,Michael Feliz,RP,PIT,4000,0,0,0,21,30,
1861379,Neil Ramirez,RP,CLE,4000,0,6.25,0,19,30,
1861381,Bruce Rondon,RP,CWS,4000,0,5.05,0,3,30,
1861396,Craig Kimbrel,RP,BOS,4000,0,7.65,0,28,30,
1861398,Tyler Thornburg,RP,BOS,4000,0,0,0,28,30,Injured:1
1861413,Craig Breslow,RP,TOR,4000,0,0,0,17,30,
1861415,Chaz Roe,RP,TB,4000,0,0,0,12,30,
1861430,Tim Mayza,RP,TOR,4000,0,0,0,17,30,
1861432,Chris Young,RP,SD,4000,0,0,0,23,30,
1861447,Phil Maton,RP,SD,4000,0,0,0,23,30,Injured:1
1861449,Jose Castillo,RP,SD,4000,0,0,0,23,30,
1861464,Jose Alvarez,RP,LAA,4000,0,6.25,0,9,30,
1861466,James Pazos,RP,SEA,4000,0,5.65,0,10,30,
1861479,Fernando Rodriguez Jr.,RP,CHC,4000,0,0,0,11,30,Injured:1
1861481,Pedro Strop,RP,CHC,4000,0,5.65,0,11,30,
1861483,Brian Duensing,RP,CHC,4000,0,0,0,11,30,
1861496,Josh Hader,RP,MIL,4000,0,3.95,0,4,30,
1861498,Brad Ziegler,RP,MIA,4000,0,2.9,0,8,30,
1861513,Tayron Guerrero,RP,MIA,4000,0,0,0,8,30,
1861515,Ben Meyer,RP,MIA,4000,0,0,0,8,30,
1861530,Justin Upton,OF,LAA,4300,10.61,3,0,108,285,Starter:1|LineupSpot3:1|PlayerMatchupIsHorribad:2|PlayerMatchupIsGreat:1
1861532,Denard Span,OF,SEA,4200,6.04,2,0,21,285,Starter:1|LineupSpot8:1|PlayerMatchupIsHorribad:2|PlayerMatchupIsGreat:1|VegasGood:1
1861547,Hunter Renfroe,OF,SD,3700,6.93,2,0,127,285,Starter:1|LineupSpot3:1|PlayerMatchupIsHorribad:1|StarBad:1
1861549,Albert Almora Jr.,OF,CHC,3700,7.88,15,0,180,285,Starter:1|LineupSpot1:1|PlayerMatchupIsGreat:1
1861564,Mark Trumbo,OF,BAL,3400,7.14,2,0,142,285,Starter:1|LineupSpot5:1|PlayerMatchupIsHorribad:1|PlayerIsCold:1|VegasBad:1
1861566,Mallex Smith,OF,TB,3400,7.15,8,0,152,285,Starter:1|LineupSpot7:1|PlayerMatchupIsGreat:1|PlayerMatchupIsHorribad:1|PlayerIsHot:1|StarGood:1
1861581,Dwight Smith Jr.,OF,TOR,3200,0,0,0,272,285,
1861583,Jayson Werth,OF,SEA,3200,0,0,0,234,285,
1861596,Alex Dickerson,OF,SD,3100,0,0,0,202,285,Injured:1
1861598,Lane Adams,OF,CHC,3100,0,0,0,180,285,
1861600,Austin Jackson,OF,SF,3100,0,0,0,257,285,
1861613,Jacob May,OF,CWS,2800,0,0,0,82,285,
1861615,Avisail Garcia,OF,CWS,2800,0,0,0,160,285,Injured:1
1861630,Kole Calhoun,OF,LAA,2700,0,0,0,141,285,Injured:1
1861632,Magneuris Sierra,OF,MIA,2700,0,0,0,23,285,
1861647,Blake Rutherford,OF,CWS,2100,0,0,0,82,285,
1861649,Eric Young Jr.,OF,LAA,2100,0,0,0,108,285,
1861664,Colin Moran,3B,PIT,3200,0,0,0,32,285,
1861666,Ke'Bryan Hayes,3B,PIT,3000,0,0,0,163,285,
1861681,Xander Bogaerts,SS,BOS,4700,7.69,10,0,203,285,Starter:1|LineupSpot5:1|PlayerMatchupIsGreat:1|PlayerIsCold:1|ThumbUp:1
1861683,Tim Anderson,SS,CWS,3800,6.77,0,0,160,285,Starter:1|LineupSpot7:1|PlayerMatchupIsGreat:1|VegasBad:2
1861698,Jack Reinheimer,SS,ARI,3000,0,0,0,241,285,
1861700,Adeiny Hechavarria,SS,TB,2800,0,0,0,244,285,Injured:1
1861713,Anthony Rizzo,1B,CHC,4700,9.02,16,0,179,285,Starter:1|LineupSpot4:1|PlayerMatchupIsHorribad:1|PlayerMatchupIsGreat:2|ThumbUp:1
1861715,Jesus Aguilar,1B,MIL,4500,9.59,0,0,197,285,Starter:1|LineupSpot4:1|PlayerMatchupIsHorribad:1|PlayerMatchupIsGreat:2
1861730,Chris Shaw,1B,SF,3200,0,0,0,154,285,
1861732,Bobby Bradley,1B,CLE,3100,0,0,0,209,285,
1861747,Ketel Marte,2B/SS,ARI,3100,6.4,10,0,203,285,Starter:1|LineupSpot6:1|PlayerMatchupIsGreat:2|OptimalPick:1|ThumbDown:1
1861749,Greg Garcia,2B/SS,STL,2900,0,0,0,136,285,
1861764,Ryan Braun,1B/OF,MIL,4400,9.6,5,0,197,285,Starter:1|LineupSpot3:1|PlayerMatchupIsHorribad:2|PlayerMatchupIsGreat:2|PlayerIsHot:1|VegasBad:1
1861766,Ji-Man Choi,1B/OF,TB,3300,0,0,0,152,285,
1861781,Francisco Cervelli,C,PIT,4100,0,0,0,163,285,Injured:1
1861783,Buster Posey,C,SF,4000,9.26,8,0,257,285,Starter:1|LineupSpot2:1|PlayerMatchupIsGreat:3|PlayerMatchupIsHorribad:1|StarBad:1
1861798,Jacob Nottingham,C,MIL,3100,0,0,0,197,285,
1861800,Mike Marjama,C,SEA,3000,0,0,0,234,285,
1861815,Omar Narvaez,C,CWS,2700,0,0,0,82,285,
1861817,Roberto Perez,C,CLE,2700,0,0,0,212,285,Injured:1
1861830,Welington Castillo,C,CWS,2500,0,0,0,160,285,Injured:1
1861832,Carson Kelly,C,STL,2500,0,0,0,279,285,
1861847,Christopher Bostick,2B,PIT,3100,0,0,0,163,285,
1861849,Micah Johnson,2B,TB,3100,0,0,0,152,285,
1861864,Pablo Sandoval,1B/3B,SF,3100,0,0,0,257,285,
1861866,Chase Headley,1B/3B,SD,2400,0,0,0,202,285,
1861881,Yairo Munoz,3B/SS,STL,3700,5.95,11,0,279,285,Starter:1|LineupSpot8:1|PlayerMatchupIsGreat:1|PlayerMatchupIsHorribad:2|PlayerIsCold:1|ThumbUp:1|ThumbDown:1
1861883,Miguel Rojas,3B/SS,MIA,2900,5.86,0,0,190,285,Starter:1|LineupSpot7:1|PlayerMatchupIsGreat:1|PlayerMatchupIsHorribad:1|PlayerIsCold:1
1861898,Chris Herrmann,C/OF,SEA,2700,0,0,0,21,285,Injured:1
1861149,Patrick Corbin,SP,ARI,11200,23.84,8.6,0,14,30,Starter:1|VegasGood:1|PlayerMatchupIsHorribad:4|CrowdNegative:1|ThumbDown:2
1861151,Miles Mikolas,SP,STL,10900,0,0,0,26,30,
1861158,Eduardo Rodriguez,SP,BOS,9400,0,0,0,28,30,
1861160,Andrew Heaney,SP,LAA,9100,14.5,-4.05,0,9,30,Starter:1|PlayerMatchupIsGreat:1|PlayerMatchupIsHorribad:2|CrowdNegative:1|StarBad:1
1861183,Sam Gaviglio,SP,TOR,7300,11.16,-2.5,0,17,30,Starter:1|PlayerMatchupIsGreat:4|CrowdPositive:1|CrowdNegative:1
1861185,Clay Buchholz,SP,ARI,7200,0,0,0,14,30,
1861192,Adam Wainwright,SP,STL,6900,0,0,0,26,30,Injured:1
1861194,Jhoulys Chacin,SP,MIL,6800,0,0,0,4,30,
1861217,Garrett Richards,SP,LAA,6000,0,0,0,9,30,
1861219,Marcus Stroman,SP,TOR,5900,0,0,0,17,30,Injured:1
1861224,Jake Faria,SP,TB,5600,0,0,0,12,30,Injured:1
1861226,Ariel Miranda,SP,SEA,5600,0,0,0,10,30,
1861228,Brent Suter,SP,MIL,5500,0,0,0,4,30,
1861251,Ryan Helsley,SP,STL,4900,0,0,0,26,30,
1861253,Chase Anderson,SP,MIL,4900,0,0,0,4,30,
1861258,Ryan Borucki,SP,TOR,4700,0,0,0,17,30,
1861260,Wei-Yin Chen,SP,MIA,4700,7.02,5.75,0,8,30,Starter:1|VegasBad:1|PlayerMatchupIsGreat:1|PlayerMatchupIsGood:1|PlayerMatchupIsHorribad:2|CrowdPositive:1|PlayerIsCold:1|StarGood:1|ThumbUp:1
1861283,Jen-Ho Tseng,SP,CHC,4200,0,0,0,11,30,
1861285,Jorge De La Rosa,SP,ARI,4000,0,0,0,14,30,Injured:1
1861292,Joe Kelly,SP,BOS,4000,0,4.4,0,28,30,
1861294,Tim Melville,SP,BAL,4000,0,0,0,1,30,
1861317,Jake Stinnett,SP,CHC,4000,0,0,0,11,30,
1861319,Marcos Diplan,SP,MIL,4000,0,0,0,4,30,
1861326,Odrisamer Despaigne,SP,MIA,4000,0,0,0,8,30,
1861328,Nick Tropeano,RP,LAA,7200,0,0,0,9,30,
1861351,Bo Schultz,RP,PIT,4000,0,0,0,21,30,
1861353,T.J. McFarland,RP,ARI,4000,0,0,0,14,30,
1861358,A.J. Schugel,RP,PIT,4000,0,0,0,21,30,Injured:1
1861360,Silvino Bracho,RP,ARI,4000,0,0,0,14,30,
1861383,Perci Garner,RP,CLE,4000,0,0,0,19,30,Injured:1
1861385,Nick Goody,RP,CLE,4000,0,0,0,19,30,Injured:1
1861392,Zach Britton,RP,BAL,4000,0,0,0,1,30,
1861394,Richard Bleier,RP,BAL,4000,0,6.25,0,1,30,
1861417,Ryan Weber,RP,TB,4000,0,0,0,12,30,
1861419,John Axford,RP,TOR,4000,0,-1.55,0,17,30,
1861426,Andrew Kittredge,RP,TB,4000,0,0,0,12,30,
1861428,Diego Castillo,RP,TB,4000,0,5.65,0,12,30,
1861451,Miguel Diaz,RP,SD,4000,0,0,0,23,30,
1861453,Mike Morin,RP,SEA,4000,0,0,0,10,30,
1861458,Nick Vincent,RP,SEA,4000,0,0,0,10,30,Injured:1
1861460,David Phelps,RP,SEA,4000,0,0,0,10,30,Injured:1
1861462,Oliver Drake,RP,LAA,4000,0,0,0,9,30,
1861485,Jeremy Jeffress,RP,MIL,4000,0,6.25,0,4,30,
1861487,Justin Wilson,RP,CHC,4000,0,7.65,0,11,30,
1861492,Luke Farrell,RP,CHC,4000,0,0,0,11,30,
1861494,Jacob Barnes,RP,MIL,4000,0,0,0,4,30,
1861517,Chris O'Grady,RP,MIA,4000,0,0,0,8,30,Injured:1
1861519,Julian Fernandez,RP,SF,4000,0,0,0,30,30,Injured:1
1861526,Christian Yelich,OF,MIL,4700,8.12,5,0,22,285,Starter:1|LineupSpot2:1|PlayerMatchupIsHorribad:2|PlayerMatchupIsGreat:1|VegasBad:1
1861528,Tommy Pham,OF,STL,4500,9.26,5,0,279,285,Starter:1|LineupSpot2:1|PlayerMatchupIsGreat:2|PlayerMatchupIsHorribad:2
1861551,Curtis Granderson,OF,TOR,3600,0,0,0,272,285,OptimalPick:1
1861553,Tyler O'Neill,OF,STL,3600,0,0,0,279,285,
1861560,Gorkys Hernandez,OF,SF,3500,8.11,14,0,257,285,Starter:1|LineupSpot1:1|PlayerMatchupIsGreat:2|PlayerMatchupIsHorribad:1
1861562,Bradley Zimmer,OF,CLE,3400,0,0,0,209,285,
1861585,Keon Broxton,OF,MIL,3200,0,0,0,197,285,
1861587,Steven Duggar,OF,SF,3200,0,0,0,154,285,
1861592,Tyler Naquin,OF,CLE,3100,0,0,0,209,285,Injured:1
1861594,Jackie Bradley Jr.,OF,BOS,3100,7.26,2,0,201,285,Starter:1|LineupSpot9:1|PlayerMatchupIsGreat:1|PlayerIsHot:1
1861617,Charlie Tilson,OF,CWS,2800,5.4,3,0,82,285,Starter:1|LineupSpot8:1|PlayerMatchupIsHorribad:2|PlayerMatchupIsGreat:1|VegasBad:2|ThumbDown:1
1861619,Kevin Kiermaier,OF,TB,2800,0,0,0,152,285,Injured:1
1861626,Lewis Brinson,OF,MIA,2800,6.55,15,0,190,285,Starter:1|LineupSpot6:1|PlayerMatchupIsGreat:1|PlayerMatchupIsHorribad:1|PlayerIsCold:1
1861628,Rob Refsnyder,OF,TB,2700,5.52,0,0,244,285,Starter:1|LineupSpot9:1|PlayerMatchupIsGreat:1|PlayerMatchupIsHorribad:3
1861651,Heliot Ramos,OF,SF,2000,0,0,0,257,285,
1861653,Kris Bryant,3B,CHC,4900,8.63,2,0,180,285,Starter:1|LineupSpot3:1|PlayerMatchupIsGreat:2|PlayerIsCold:1|ThumbDown:1
1861660,Kyle Seager,3B,SEA,3500,7.59,5,0,21,285,Starter:1|LineupSpot5:1|PlayerMatchupIsHorribad:2|PlayerMatchupIsGreat:2|OptimalPick:1|StarBad:1
1861662,Vladimir Guerrero Jr.,3B,TOR,3400,0,0,0,200,285,
1861685,Andrelton Simmons,SS,LAA,3600,0,0,0,108,285,Injured:1
1861687,Bo Bichette,SS,TOR,3300,0,0,0,200,285,
1861692,Fernando Tatis Jr.,SS,SD,3200,0,0,0,127,285,
1861694,Max Moroff,SS,PIT,3100,0,0,0,163,285,
1861696,Mauricio Dubon,SS,MIL,3100,0,0,0,197,285,
1861717,Jose Martinez,1B,STL,4300,9.51,24,0,279,285,Starter:1|LineupSpot3:1|PlayerMatchupIsGreat:2|PlayerMatchupIsHorribad:2|ThumbUp:2
1861719,Eric Hosmer,1B,SD,4100,9.86,0,0,202,285,Starter:1|LineupSpot2:1|PlayerMatchupIsGreat:2|PlayerMatchupIsHorribad:1|ThumbUp:1
1861721,Justin Smoak,1B,TOR,3800,7.71,2,0,200,285,Starter:1|LineupSpot3:1|PlayerMatchupIsGreat:1|PlayerMatchupIsHorribad:2|PlayerIsCold:1
1861726,Albert Pujols,1B,LAA,3400,6.3,14,0,108,285,Starter:1|LineupSpot4:1|PlayerMatchupIsHorribad:2|PlayerIsHot:1
1861728,Christian Walker,1B,ARI,3200,0,0,0,241,285,
1861751,Luis Sardinas,2B/SS,BAL,2800,0,0,0,142,285,Injured:1
1861753,Eric Sogard,2B/SS,MIL,2800,0,0,0,22,285,
1861760,Engelb Vielma,2B/SS,BAL,2500,0,0,0,142,285,
1861762,Grant Green,2B/SS,MIA,2400,0,0,0,190,285,
1861785,John Ryan Murphy,C,ARI,3800,5.9,5,0,241,285,Starter:1|LineupSpot4:1|PlayerMatchupIsGreat:2|VegasGood:1
1861787,Yadier Molina,C,STL,3600,7.8,6,0,279,285,Starter:1|LineupSpot5:1|PlayerMatchupIsGreat:2|PlayerMatchupIsHorribad:2|ThumbUp:1
1861794,Anthony Recker,C,ARI,3100,0,0,0,241,285,
1861796,Sandy Leon,C,BOS,3100,0,0,0,201,285,
1861819,Raffy Lopez,C,SD,2700,6.2,3,0,202,285,Starter:1|LineupSpot8:1|PlayerMatchupIsGreat:1|PlayerMatchupIsHorribad:1|PlayerIsCold:1|StarBad:1|ThumbDown:1
1861821,Bryan Holaday,C,MIA,2700,0,0,0,190,285,
1861826,Jesus Sucre,C,TB,2600,0,0,0,244,285,
1861828,Chris Gimenez,C,CHC,2600,0,0,0,180,285,
1861851,Robinson Cano,2B,SEA,3000,0,0,0,21,285,Injured:1
1861853,Gordon Beckham,2B,SEA,2900,0,0,0,234,285,
1861860,Pedro Alvarez,1B/3B,BAL,3300,0,0,0,142,285,
1861862,Matt Skole,1B/3B,CWS,3200,0,0,0,82,285,
1861885,Ruben Tejada,3B/SS,BAL,2600,0,0,0,142,285,
1861887,Brian Anderson,3B/OF,MIA,3600,7.22,30,0,190,285,Starter:1|LineupSpot2:1|PlayerMatchupIsGreat:1|PlayerMatchupIsHorribad:1
1861894,Ryan Lavarnway,1B/C,PIT,2400,0,0,0,163,285,
1861896,Mike Freeman,OF/SS,CHC,2500,0,0,0,179,285,
1861153,James Paxton,SP,SEA,10400,0,0,0,10,30,
1861154,Madison Bumgarner,SP,SF,10400,20.82,5.8,0,30,30,Starter:1|VegasGood:1|PlayerMatchupIsGreat:3|CrowdPositive:1|ThumbUp:2
1861157,J.A. Happ,SP,TOR,9500,0,0,0,17,30,
1861171,Joey Lucchesi,SP,SD,8100,0,0,0,23,30,Injured:1
1861172,Jose Quintana,SP,CHC,8100,17.48,11.9,0,11,30,Starter:1|PlayerMatchupIsHorribad:3|CrowdPositive:4|PlayerMatchupIsBad:1|PlayerMatchupIsGood:1|PlayerIsHot:1|StarGood:1|ThumbUp:2
1861189,Junior Guerra,SP,MIL,7000,10.21,15.3,0,4,30,Starter:1|PlayerMatchupIsHorribad:3|CrowdPositive:4|PlayerMatchupIsGood:1|ThumbDown:2
1861190,Dan Straily,SP,MIA,7000,0,0,0,8,30,
1861204,Alex Meyer,SP,LAA,6500,0,0,0,9,30,Injured:1
1861207,Reynaldo Lopez,SP,CWS,6400,0,0,0,3,30,
1861221,Jalen Beeks,SP,BOS,5700,0,0,0,28,30,
1861222,James Shields,SP,CWS,5600,0,0,0,3,30,
1861239,Jordan Lyles,SP,SD,5200,10.9,2.9,0,23,30,Starter:1|VegasBad:2|PlayerMatchupIsGreat:1|CrowdNegative:2|PlayerMatchupIsGood:1|PlayerMatchupIsBad:1|StarBad:1|ThumbDown:1
1861240,Matt Andriese,SP,TB,5100,0,0,0,12,30,
1861254,Rubby De La Rosa,SP,ARI,4800,0,0,0,14,30,Injured:1
1861257,Brian Johnson,SP,BOS,4700,0,0.9,0,28,30,
1861271,Carson Fulmer,SP,CWS,4400,0,0,0,3,30,
1861272,Chris Tillman,SP,BAL,4400,0,0,0,1,30,Injured:1
1861289,Dylan Cease,SP,CWS,4000,0,0,0,3,30,
1861290,Dane Dunning,SP,CWS,4000,0,0,0,3,30,
1861304,Taylor Guerrieri,SP,TOR,4000,0,0,0,17,30,
1861307,Jon Harris,SP,TOR,4000,0,0,0,17,30,
1861321,Oscar De La Cruz,SP,CHC,4000,0,0,0,11,30,
1861322,Adbert Alzolay,SP,CHC,4000,0,0,0,11,30,
1861339,Chris Volstad,RP,CWS,4900,0,0,0,3,30,
1861340,Yonny Chirinos,RP,TB,4700,0,0,0,12,30,
1861354,Michael Blazek,RP,ARI,4000,0,0,0,14,30,
1861357,Richard Rodriguez,RP,PIT,4000,0,0,0,21,30,Injured:1
1861371,Joakim Soria,RP,CWS,4000,0,0,0,3,30,
1861372,Andrew Miller,RP,CLE,4000,0,0,0,19,30,Injured:1
1861389,Tyler Olson,RP,CLE,4000,0,0,0,19,30,
1861390,Tyler Danish,RP,CWS,4000,0,0,0,3,30,Injured:1
1861404,Pedro Araujo,RP,BAL,4000,0,0,0,1,30,
1861407,Justin Haley,RP,BOS,4000,0,0,0,28,30,
1861421,Aaron Loup,RP,TOR,4000,0,0,0,17,30,
1861422,Deck McGuire,RP,TOR,4000,0,0,0,17,30,
1861439,Trevor Rosenthal,RP,STL,4000,0,0,0,26,30,Injured:1
1861440,Tyler Lyons,RP,STL,4000,0,0,0,26,30,Injured:1
1861454,Roenis Elias,RP,SEA,4000,0,0,0,10,30,
1861457,Blake Wood,RP,LAA,4000,0,0,0,9,30,Injured:1
1861471,Eduardo Paredes,RP,LAA,4000,0,0,0,9,30,
1861472,Chasen Bradford,RP,SEA,4000,0,2.25,0,10,30,
1861489,Mike Montgomery,RP,CHC,4000,0,0,0,11,30,
1861490,Steve Cishek,RP,CHC,4000,0,0,0,11,30,
1861504,Hunter Strickland,RP,SF,4000,0,0,0,30,30,
1861507,Nick Wittgren,RP,MIA,4000,0,0,0,8,30,Injured:1
1861508,Drew Rucinski,RP,MIA,4000,0,1.05,0,8,30,
1861521,Mookie Betts,OF,BOS,5900,11.66,3,0,203,285,Starter:1|LineupSpot1:1|PlayerMatchupIsGreat:3
1861522,Andrew Benintendi,OF,BOS,5500,10.51,15,0,201,285,Starter:1|LineupSpot2:1|PlayerMatchupIsGreat:2|ThumbUp:1
1861539,Andrew McCutchen,OF,SF,4000,8.93,16,0,257,285,Starter:1|LineupSpot3:1|PlayerMatchupIsGreat:3|PlayerMatchupIsHorribad:1
1861540,Corey Dickerson,OF,PIT,3900,7.02,0,0,32,285,Starter:1|LineupSpot5:1|PlayerMatchupIsHorribad:1|PlayerMatchupIsGreat:2|PlayerIsCold:1|VegasGood:1
1861557,Adam Jones,OF,BAL,3500,8.54,8,0,142,285,Starter:1|LineupSpot2:1|PlayerMatchupIsHorribad:1|PlayerMatchupIsGreat:2|ThumbUp:1
1861558,Franchy Cordero,OF,SD,3500,0,0,0,202,285,Injured:1
1861571,Dexter Fowler,OF,STL,3300,7.69,0,0,136,285,Starter:1|LineupSpot7:1|PlayerMatchupIsGreat:1|PlayerMatchupIsHorribad:1|PlayerIsCold:1
1861572,Michael Hermosillo,OF,LAA,3300,0,0,0,108,285,
1861589,Jordan Luplow,OF,PIT,3100,0,0,0,163,285,
1861590,Rey Fuentes,OF,ARI,3100,0,0,0,203,285,
1861607,Lonnie Chisenhall,OF,CLE,2900,7.17,15,0,209,285,Starter:1|LineupSpot7:1|PlayerMatchupIsGreat:1|VegasGood:2
1861608,Adam Engel,OF,CWS,2900,5.38,2,0,160,285,Starter:1|LineupSpot9:1|PlayerMatchupIsHorribad:1
1861621,Rymer Liriano,OF,LAA,2800,0,0,0,108,285,
1861622,Jacob Hannemann,OF,CHC,2800,0,0,0,179,285,
1861625,Gregor Blanco,OF,SF,2800,0,0,0,154,285,
1861639,Ichiro Suzuki,OF,SEA,2500,0,0,0,21,285,
1861640,JB Shuck,OF,MIA,2500,0,0,0,23,285,
1861657,Josh Donaldson,3B,TOR,4000,0,0,0,200,285,Injured:1
1861658,Evan Longoria,3B,SF,3700,8.26,10,0,257,285,Starter:1|LineupSpot4:1|PlayerMatchupIsGreat:4|PlayerMatchupIsHorribad:1|VegasBad:1|ThumbUp:1
1861672,Brandon Snyder,3B,TB,2800,0,0,0,244,285,
1861675,Martin Prado,3B,MIA,2800,0,0,0,190,285,Injured:1
1861689,Troy Tulowitzki,SS,TOR,3300,0,0,0,200,285,Injured:1
1861690,Ryan Mountcastle,SS,BAL,3200,0,0,0,142,285,
1861707,Alex Mejia,SS,STL,2400,0,0,0,279,285,
1861708,Allen Cordoba,SS,SD,2000,0,0,0,127,285,Injured:1
1861722,Yonder Alonso,1B,CLE,3700,8,7,0,209,285,Starter:1|LineupSpot5:1|PlayerMatchupIsGreat:1|VegasBad:1|ThumbUp:1
1861725,Josh Bell,1B,PIT,3400,7.48,8,0,163,285,Starter:1|LineupSpot7:1|PlayerMatchupIsGreat:2
1861739,Evan White,1B,SEA,2600,0,0,0,234,285,
1861740,Chris Carter,1B,LAA,2100,0,0,0,108,285,
1861757,Chase d'Arnaud,2B/SS,SF,2700,0,0,0,257,285,
1861758,Kelby Tomlinson,2B/SS,SF,2700,0,0,0,257,285,
1861772,Ben Zobrist,2B/OF,CHC,4200,0,11,0,179,285,
1861775,Jose Pirela,2B/OF,SD,3200,0,0,0,127,285,
1861789,Elias Diaz,C,PIT,3400,8.4,6,0,163,285,Starter:1|LineupSpot6:1|PlayerMatchupIsGreat:3
1861790,Luke Maile,C,TOR,3400,0,0,0,200,285,
1861807,Alfredo Gonzalez,C,CWS,2800,0,0,0,160,285,
1861808,Russell Martin,C,TOR,2800,5.32,5,0,200,285,Starter:1|LineupSpot6:1|PlayerMatchupIsGreat:1|PlayerMatchupIsHorribad:2|VegasBad:1
1861822,Alex Avila,C,ARI,2600,0,0,0,203,285,
1861825,Caleb Joseph,C,BAL,2600,0,0,0,142,285,
1861839,Josh Harrison,2B,PIT,3700,9.24,6,0,163,285,Starter:1|LineupSpot1:1|PlayerMatchupIsGreat:3
1861840,Dustin Pedroia,2B,BOS,3600,0,0,0,203,285,Injured:1
1861857,Jemile Weeks,2B,CHC,2700,0,0,0,179,285,Injured:1
1861858,Keston Hiura,2B,MIL,2000,0,0,0,197,285,
1861872,Matt Carpenter,2B/3B,STL,3300,9.09,0,0,136,285,Starter:1|LineupSpot1:1|PlayerMatchupIsGreat:2|PlayerMatchupIsHorribad:1|PlayerIsHot:1|ThumbUp:1
1861875,David Bote,2B/3B,CHC,3100,0,0,0,180,285,
1861889,Renato Nunez,3B/OF,BAL,2900,0,0,0,142,285,
1861890,Steve Selsky,3B/OF,BOS,2700,0,0,0,203,285,
1861146,Blake Snell,SP,TB,11800,0,0,0,12,30,
1861148,Robbie Ray,SP,ARI,11300,0,0,0,14,30,Injured:1
1861163,Jimmy Nelson,SP,MIL,8700,0,0,0,4,30,Injured:1
1861165,Luke Weaver,SP,STL,8500,0,0,0,26,30,
1861180,Dinelson Lamet,SP,SD,7400,0,0,0,23,30,Injured:1
1861182,Kevin Gausman,SP,BAL,7300,0,0,0,1,30,
1861195,Taijuan Walker,SP,ARI,6700,0,0,0,14,30,Injured:1
1861197,Alex Reyes,SP,STL,6700,0,0,0,26,30,Injured:1
1861212,Drew Smyly,SP,CHC,6300,0,0,0,11,30,Injured:1
1861214,Jose De Leon,SP,TB,6100,0,0,0,12,30,
1861229,Zach Davies,SP,MIL,5500,0,0,0,4,30,Injured:1
1861231,Matt Koch,SP,ARI,5400,0,0,0,14,30,
1861246,Dillon Peters,SP,MIA,5000,0,0,0,8,30,
1861248,Dereck Rodriguez,SP,SF,5000,0,0,0,30,30,
1861263,Austin Pruitt,SP,TB,4600,0,0,0,12,30,
1861265,Sean Reid-Foley,SP,TOR,4500,0,0,0,17,30,
1861280,Jeff Locke,SP,MIA,4300,0,0,0,8,30,
1861282,Keegan Akin,SP,BAL,4200,0,0,0,1,30,
1861297,Roniel Raudes,SP,BOS,4000,0,0,0,28,30,
1861299,Ty Buttrey,SP,BOS,4000,0,0,0,28,30,
1861312,Colin Rea,SP,SD,4000,0,0,0,23,30,Injured:1
1861314,Conner Greene,SP,STL,4000,0,0,0,26,30,
1861329,Trevor Williams,RP,PIT,6600,0,0,0,21,30,
1861331,Adam Plutko,RP,CLE,6200,0,0,0,19,30,
1861346,Dovydas Neverauskas,RP,PIT,4000,0,-1.7,0,21,30,
1861348,Fernando Salas,RP,ARI,4000,0,0,0,14,30,
1861363,Andrew Chafin,RP,ARI,4000,0,0,0,14,30,
1861365,Tyler Pill,RP,ARI,4000,0,0,0,14,30,
1861380,Adam Wilk,RP,CLE,4000,0,0,0,19,30,
1861382,Lisalverto Bonilla,RP,CLE,4000,0,0,0,19,30,Injured:1
1861397,Austin Maddox,RP,BOS,4000,0,0,0,28,30,Injured:1
1861399,Matt Barnes,RP,BOS,4000,0,0,0,28,30,
1861412,Tyler Clippard,RP,TOR,4000,0,0,0,17,30,
1861414,Sergio Romo,RP,TB,4000,0,6.25,0,12,30,
1861416,Seunghwan Oh,RP,TOR,4000,0,3.65,0,17,30,
1861429,Hunter Wood,RP,TB,4000,0,0,0,12,30,
1861431,Mike Mayers,RP,STL,4000,0,0,0,26,30,
1861446,Jordan Hicks,RP,STL,4000,0,0,0,26,30,
1861448,Adam Cimber,RP,SD,4000,0,0,0,23,30,
1861463,Juan Nicasio,RP,SEA,4000,0,0,0,10,30,Injured:1
1861465,Vicente Campos,RP,LAA,4000,0,0,0,9,30,
1861480,Boone Logan,RP,MIL,4000,0,2.15,0,4,30,
1861482,Matt Albers,RP,MIL,4000,0,-11.5,0,4,30,
1861497,Corey Knebel,RP,MIL,4000,0,6.4,0,4,30,
1861499,Mark Melancon,RP,SF,4000,0,0,0,30,30,
1861514,Tyler Kinley,RP,MIA,4000,0,0,0,8,30,
1861516,Sandy Alcantara,RP,MIA,4000,0,0,0,8,30,
1861529,Austin Meadows,OF,PIT,4400,8.89,11,0,32,285,Starter:1|LineupSpot2:1|PlayerMatchupIsHorribad:1|PlayerMatchupIsGreat:3|ThumbUp:1
1861531,David Peralta,OF,ARI,4200,8.51,3,0,203,285,Starter:1|LineupSpot5:1|PlayerMatchupIsGreat:3|PlayerIsHot:1|ThumbUp:1
1861533,Kyle Schwarber,OF,CHC,4200,8.7,2,0,179,285,Starter:1|LineupSpot6:1|PlayerMatchupIsHorribad:1|PlayerMatchupIsGreat:2|PlayerIsCold:1|ThumbUp:1
1861546,Gregory Polanco,OF,PIT,3700,0,0,0,32,285,
1861548,Ian Happ,OF,CHC,3700,0,0,0,179,285,
1861563,Cedric Mullins,OF,BAL,3400,0,0,0,142,285,
1861565,Johnny Field,OF,TB,3400,0,0,0,244,285,
1861580,Anthony Alford,OF,TOR,3200,0,0,0,200,285,
1861582,Carlos Gomez,OF,TB,3200,7.11,0,0,244,285,Starter:1|LineupSpot8:1|PlayerMatchupIsGreat:2|PlayerMatchupIsHorribad:2|PlayerIsCold:1|ThumbDown:1
1861597,Ben Gamel,OF,SEA,3100,0,0,0,21,285,
1861599,Austin Slater,OF,SF,3100,0,0,0,257,285,
1861614,Willy Garcia,OF,CWS,2800,0,0,0,160,285,Injured:1
1861616,Brandon Guyer,OF,CLE,2800,0,0,0,212,285,Injured:1
1861631,Chris Young,OF,LAA,2700,0,0,0,108,285,
1861633,Braxton Lee,OF,MIA,2700,0,0,0,23,285,
1861646,Daniel Robertson,OF,ARI,2100,0,0,0,241,285,
1861648,Jesus Sanchez,OF,TB,2100,0,0,0,152,285,
1861650,Garrett Whitley,OF,TB,2000,0,0,0,244,285,
1861663,Danny Valencia,3B,BAL,3300,7.8,7,0,142,285,Starter:1|LineupSpot4:1|PlayerMatchupIsHorribad:1|StarGood:1|ThumbUp:1
1861665,Yandy Diaz,3B,CLE,3100,0,0,0,212,285,
1861680,Jean Segura,SS,SEA,4800,9.43,11,0,234,285,Starter:1|LineupSpot2:1|PlayerMatchupIsGreat:3|PlayerMatchupIsHorribad:1
1861682,Brandon Crawford,SS,SF,4000,7.71,4,0,154,285,Starter:1|LineupSpot5:1|PlayerMatchupIsHorribad:1
1861697,Isan Diaz,SS,MIL,3100,0,0,0,22,285,
1861699,Jordy Mercer,SS,PIT,2800,6.51,10,0,163,285,Starter:1|LineupSpot8:1|PlayerMatchupIsGreat:2
1861714,Mitch Moreland,1B,BOS,4600,8.55,0,0,201,285,Starter:1|LineupSpot4:1|PlayerMatchupIsGreat:2|ThumbUp:2
1861716,Brandon Belt,1B,SF,4400,0,0,0,154,285,Injured:1
1861731,Justin Bour,1B,MIA,3200,6.47,2,0,23,285,Starter:1|LineupSpot5:1|PlayerMatchupIsHorribad:2|PlayerMatchupIsGreat:1
1861733,Luke Voit,1B,STL,3000,0,0,0,279,285,
1861748,Tzu-Wei Lin,2B/SS,BOS,3000,0,0,0,201,285,
1861750,Nolan Fontana,2B/SS,LAA,2900,0,0,0,141,285,
1861763,Andres Blanco,2B/SS,SF,2200,0,0,0,257,285,
1861765,Steve Pearce,1B/OF,TOR,3600,0,0,0,200,285,Injured:1
1861767,Jose Osuna,1B/OF,PIT,3200,0,0,0,163,285,
1861780,Michael Martinez,2B/OF,CLE,2400,0,0,0,209,285,
1861782,J.T. Realmuto,C,MIA,4000,7.09,28,0,190,285,Starter:1|LineupSpot3:1|PlayerMatchupIsGreat:1|PlayerMatchupIsHorribad:1|PlayerIsCold:1|ThumbUp:1|ThumbDown:1
1861797,Mike Zunino,C,SEA,3100,6.94,0,0,234,285,Starter:1|LineupSpot9:1|PlayerMatchupIsGreat:3|PlayerMatchupIsHorribad:1|StarBad:1
1861799,Chance Sisco,C,BAL,3000,6.78,5,0,142,285,Starter:1|LineupSpot8:1|PlayerMatchupIsGreat:1|VegasBad:1|StarGood:1
1861814,Tomas Telis,C,MIA,2800,0,0,0,190,285,
1861816,Dustin Garneau,C,CWS,2700,0,0,0,160,285,
1861831,Austin Wynns,C,BAL,2500,0,0,0,142,285,
1861833,Hector Sanchez,C,SF,2400,0,0,0,257,285,
1861848,Joey Wendle,2B,TB,3100,6.81,7,0,152,285,Starter:1|LineupSpot5:1|PlayerMatchupIsGreat:1|PlayerMatchupIsHorribad:1
1861850,Luis Urias,2B,SD,3100,0,0,0,127,285,
1861865,David Freese,1B/3B,PIT,3000,6.76,3,0,163,285,Starter:1|LineupSpot4:1|PlayerMatchupIsGreat:2|PlayerIsCold:1|VegasGood:1|ThumbUp:1
1861867,Daniel Descalso,2B/3B,ARI,3800,8.64,21,0,203,285,Starter:1|LineupSpot1:1|PlayerMatchupIsGreat:3
1861880,Jung Ho Kang,3B/SS,PIT,3700,0,0,0,163,285,Injured:1
1861882,Tyler Saladino,3B/SS,MIL,3300,0,0,0,197,285,Injured:1
1861884,Gio Urshela,3B/SS,TOR,2700,0,0,0,200,285,
1861897,Blake Swihart,C/OF,BOS,2800,0,0,0,201,285,
1861899,Jose Fernandez,1B/2B,LAA,2600,0,3,0,141,285,
1861143,Trevor Bauer,SP,CLE,11900,0,0,0,19,30,
1861150,Carlos Martinez,SP,STL,11000,0,0,0,26,30,
1861161,Mike Clevinger,SP,CLE,9000,0,0,0,19,30,
1861168,Kyle Hendricks,SP,CHC,8300,0,0,0,11,30,
1861175,Rick Porcello,SP,BOS,8000,0,0,0,28,30,
1861186,Steven Wright,SP,BOS,7200,14.4,20.2,0,28,30,Starter:1|CrowdNegative:1|PlayerMatchupIsGreat:2|CrowdPositive:1|ThumbUp:2
1861193,Andrew Suarez,SP,SF,6900,0,0,0,30,30,
1861200,Wade LeBlanc,SP,SEA,6600,7.01,17.65,0,10,30,Starter:1|PlayerMatchupIsGreat:1|PlayerMatchupIsBad:1|PlayerMatchupIsHorribad:1
1861211,Andrew Cashner,SP,BAL,6300,0,0,0,1,30,
1861218,Shelby Miller,SP,ARI,5900,0,0,0,14,30,Injured:1
1861225,Eric Lauer,SP,SD,5600,0,0,0,23,30,
1861236,Corbin Burnes,SP,MIL,5300,0,0,0,4,30,
1861243,Chase De Jong,SP,SEA,5100,0,0,0,10,30,
1861250,Mitch Keller,SP,PIT,4900,0,0,0,21,30,
1861261,Taylor Clarke,SP,ARI,4600,0,0,0,14,30,
1861268,Joan Gregorio,SP,SF,4500,0,0,0,30,30,Injured:1
1861275,Williams Perez,SP,CHC,4400,0,0,0,11,30,Injured:1
1861286,Nik Turley,SP,PIT,4000,0,0,0,21,30,Injured:1
1861293,David Holmberg,SP,BAL,4000,0,0,0,1,30,
1861300,Nick Tepesch,SP,TOR,4000,0,0,0,17,30,
1861311,Luis Perdomo,SP,SD,4000,0,0,0,23,30,
1861318,Luis Ortiz,SP,MIL,4000,0,0,0,4,30,
1861325,Jordan Johnson,SP,SF,4000,0,0,0,30,30,
1861336,Rob Whalen,RP,SEA,5100,0,0,0,10,30,
1861343,Alec Asher,RP,MIL,4500,0,0,0,4,30,
1861350,Randall Delgado,RP,ARI,4000,0,0,0,14,30,Injured:1
1861361,Nick Burdi,RP,PIT,4000,0,0,0,21,30,Injured:1
1861368,Troy Scribner,RP,ARI,4000,0,0,0,14,30,
1861375,Luis Avilan,RP,CWS,4000,0,5.05,0,3,30,
1861386,Evan Marshall,RP,CLE,4000,0,0,0,19,30,
1861393,Brad Brach,RP,BAL,4000,0,6.55,0,1,30,
1861400,Heath Hembree,RP,BOS,4000,0,12.25,0,28,30,
1861411,Jonny Venters,RP,TB,4000,0,3.65,0,12,30,
1861418,Evan Scribner,RP,TB,4000,0,0,0,12,30,Injured:1
1861425,Roberto Osuna,RP,TOR,4000,0,0,0,17,30,Injured:1
1861436,Brad Hand,RP,SD,4000,0,0,0,23,30,
1861443,Dominic Leone,RP,STL,4000,0,0,0,26,30,Injured:1
1861450,Matt Bowman,RP,STL,4000,0,0,0,26,30,Injured:1
1861461,Alex Colome,RP,SEA,4000,0,0,0,10,30,
1861468,Parker Bridwell,RP,LAA,4000,0,0,0,9,30,
1861475,Justin Anderson,RP,LAA,4000,0,0,0,9,30,
1861486,Cory Mazzoni,RP,CHC,4000,0,0,0,11,30,
1861493,Randy Rosario,RP,CHC,4000,0,10.5,0,11,30,
1861500,Tony Watson,RP,SF,4000,0,0,0,30,30,
1861511,Reyes Moronta,RP,SF,4000,0,1.65,0,30,30,
1861518,Brian Ellington,RP,MIA,4000,0,0,0,8,30,Injured:1
1861525,Shohei Ohtani,OF,LAA,4700,0,0,0,141,285,Injured:1
1861536,Teoscar Hernandez,OF,TOR,4100,9.83,19,0,200,285,Starter:1|LineupSpot1:1|PlayerMatchupIsGreat:2|PlayerMatchupIsHorribad:1|ThumbUp:2
1861543,Wil Myers,OF,SD,3800,0,0,0,127,285,Injured:1
1861550,Daniel Palka,OF,CWS,3600,7.56,0,0,82,285,Starter:1|LineupSpot4:1|PlayerMatchupIsHorribad:1|PlayerMatchupIsGreat:2|VegasBad:2|ThumbUp:2
1861554,Brett Phillips,OF,MIL,3600,0,0,0,22,285,
1861561,Greg Allen,OF,CLE,3400,8.03,0,0,209,285,Starter:1|LineupSpot1:1|PlayerMatchupIsGreat:1
1861568,Franmil Reyes,OF,SD,3400,7.01,0,0,127,285,Starter:1|LineupSpot4:1|PlayerMatchupIsHorribad:1|PlayerIsCold:1|VegasBad:1|StarBad:1|ThumbUp:2
1861575,Cesar Puello,OF,ARI,3200,0,0,0,241,285,
1861579,Rajai Davis,OF,CLE,3200,0,0,0,212,285,
1861586,Monte Harrison,OF,MIA,3200,0,0,0,190,285,
1861593,Austin Hays,OF,BAL,3100,0,0,0,142,285,
1861604,Anthony Santander,OF,BAL,3000,0,0,0,142,285,
1861611,Cameron Maybin,OF,MIA,2900,6.6,2,0,190,285,Starter:1|LineupSpot4:1|PlayerMatchupIsGreat:1|PlayerMatchupIsHorribad:1|PlayerIsCold:1|ThumbDown:1
1861618,Alex Presley,OF,BAL,2800,0,0,0,142,285,
1861629,Michael Saunders,OF,TOR,2700,0,0,0,272,285,
1861636,Luis Robert,OF,CWS,2500,0,0,0,160,285,
1861643,Shane Peterson,OF,SD,2300,0,0,0,202,285,
1861654,Christian Villanueva,3B,SD,4300,6.07,7,0,127,285,Starter:1|LineupSpot6:1|PlayerMatchupIsHorribad:1|PlayerIsCold:1|VegasBad:1
1861661,Rafael Devers,3B,BOS,3400,7.52,7,0,201,285,Starter:1|LineupSpot6:1|PlayerMatchupIsGreat:1
1861668,Ryder Jones,3B,SF,2900,0,0,0,154,285,
1861679,Francisco Lindor,SS,CLE,5000,10.35,2,0,209,285,Starter:1|LineupSpot4:1|PlayerMatchupIsGreat:2|OptimalPick:1|VegasGood:2|ThumbUp:2
1861686,Nick Ahmed,SS,ARI,3500,6.11,7,0,241,285,Starter:1|LineupSpot8:1|PlayerMatchupIsGreat:2|PlayerIsHot:1|ThumbUp:1
1861693,Cole Tucker,SS,PIT,3100,0,0,0,163,285,
1861704,Orlando Arcia,SS,MIL,2700,5.85,0,0,197,285,Starter:1|LineupSpot8:1|PlayerMatchupIsHorribad:1|PlayerMatchupIsGreat:1|PlayerIsCold:1|StarBad:1
1861711,Eric Thames,1B,MIL,4900,0,0,0,22,285,Injured:1
1861718,Jose Abreu,1B,CWS,4200,8.55,0,0,160,285,Starter:1|LineupSpot3:1|PlayerMatchupIsGreat:1|VegasBad:2
1861729,Kendrys Morales,1B,TOR,3200,8.13,12,0,200,285,Starter:1|LineupSpot4:1|PlayerMatchupIsGreat:2|PlayerMatchupIsHorribad:2|PlayerIsHot:1|VegasGood:1|ThumbUp:1
1861736,Daniel Vogelbach,1B,SEA,2900,0,0,0,21,285,
1861743,Daniel Robertson,2B/SS,TB,3900,0,0,0,244,285,Injured:1
1861754,Kristopher Negron,2B/SS,ARI,2700,0,0,0,241,285,
1861761,Cristhian Adames,2B/SS,MIA,2500,0,0,0,190,285,
1861768,Trey Mancini,1B/OF,BAL,3200,7.65,2,0,142,285,Starter:1|LineupSpot6:1|PlayerMatchupIsHorribad:1|ThumbUp:2
1861779,Andrew Romine,2B/OF,SEA,2700,0,0,0,234,285,
1861786,Wilson Ramos,C,TB,3700,7.04,5,0,244,285,Starter:1|LineupSpot3:1|PlayerMatchupIsGreat:1|PlayerMatchupIsHorribad:2|PlayerIsCold:1
1861793,Erik Kratz,C,MIL,3200,5.93,14,0,197,285,Starter:1|LineupSpot7:1|PlayerMatchupIsHorribad:2|PlayerMatchupIsGreat:1
1861804,Francisco Pena,C,STL,2900,0,0,0,279,285,
1861811,Manny Pina,C,MIL,2800,0,0,0,197,285,
1861818,Christian Vazquez,C,BOS,2700,6.25,0,0,203,285,Starter:1|LineupSpot8:1|PlayerMatchupIsGreat:1
1861829,Jeff Mathis,C,ARI,2500,0,0,0,241,285,Injured:1
1861836,Luis Torrens,C,SD,2000,0,0,0,127,285,
1861843,Jason Kipnis,2B,CLE,3400,0,0,0,209,285,Injured:1
1861854,Johnny Giavotella,2B,MIA,2900,0,0,0,190,285,
1861861,Jefry Marte,1B/3B,LAA,3300,7.55,0,0,108,285,Starter:1|LineupSpot6:1|PlayerMatchupIsHorribad:2|PlayerMatchupIsGreat:1|PlayerIsCold:1|StarGood:1
1861868,Yangervis Solarte,2B/3B,TOR,3600,7.31,7,0,200,285,Starter:1|LineupSpot2:1|PlayerMatchupIsGreat:1|PlayerMatchupIsHorribad:2|PlayerIsHot:1
1861879,Josh Rutledge,2B/3B,SF,2500,0,0,0,257,285,
1861886,Dusty Coleman,3B/SS,SD,2600,0,0,0,127,285,
1861893,Taylor Davis,1B/C,CHC,2500,0,0,0,180,285,
1861142,Corey Kluber,SP,CLE,12600,0,0,0,19,30,OptimalPick:1
1861144,Zack Greinke,SP,ARI,11800,0,0,0,14,30,
1861167,Jack Flaherty,SP,STL,8300,14.55,25.85,0,26,30,Starter:1|VegasGood:1|PlayerMatchupIsGreat:2|CrowdNegative:1|PlayerMatchupIsHorribad:1|PlayerIsCold:1|VegasBad:1
1861169,Jon Lester,SP,CHC,8200,0,0,0,11,30,
1861174,Zack Godley,SP,ARI,8000,0,0,0,14,30,
1861176,Tyler Skaggs,SP,LAA,8000,0,0,0,9,30,
1861178,Dylan Bundy,SP,BAL,7500,11.36,29,0,1,30,Starter:1|CrowdNegative:1|PlayerMatchupIsBad:1|PlayerMatchupIsHorribad:2|ThumbDown:2
1861199,Jaime Garcia,SP,TOR,6600,0,0,0,17,30,
1861201,Matt Shoemaker,SP,LAA,6600,0,0,0,9,30,Injured:1
1861203,Cal Quantrill,SP,SD,6500,0,0,0,23,30,
1861208,Drew Pomeranz,SP,BOS,6400,0,0,0,28,30,Injured:1
1861210,Tyler Chatwood,SP,CHC,6400,0,0,0,11,30,
1861233,Derek Holland,SP,SF,5400,0,0,0,30,30,
1861235,Hector Velazquez,SP,BOS,5300,0,0,0,28,30,
1861242,Andrew Albers,SP,SEA,5100,0,0,0,10,30,
1861244,Ty Blach,SP,SF,5100,0,0,0,30,30,
1861267,John Lamb,SP,LAA,4500,0,0,0,9,30,Injured:1
1861269,Tim Cooney,SP,CLE,4400,0,0,0,19,30,Injured:1
1861276,Tyler Beede,SP,SF,4400,0,0,0,30,30,
1861278,Kris Medlen,SP,ARI,4300,0,0,0,14,30,
1861301,Vidal Nuno,SP,TB,4000,0,0,0,12,30,
1861303,Joe Biagini,SP,TOR,4000,0,0,0,17,30,
1861308,Robbie Erlin,SP,SD,4000,0,0,0,23,30,
1861310,Dillon Overton,SP,SD,4000,0,0,0,23,30,
1861333,Merandy Gonzalez,RP,MIA,5300,0,0,0,8,30,
1861335,Hunter Harvey,RP,BAL,5100,0,0,0,1,30,Injured:1
1861342,Erasmo Ramirez,RP,SEA,4500,0,0,0,10,30,Injured:1
1861344,Andrew Moore,RP,SEA,4300,0,0,0,10,30,
1861367,Edgar Santana,RP,PIT,4000,0,1.05,0,21,30,
1861369,Xavier Cedeno,RP,CWS,4000,0,3.65,0,3,30,
1861376,Robbie Ross Jr.,RP,CWS,4000,0,0,0,3,30,Injured:1
1861378,Nate Jones,RP,CWS,4000,0,0,0,3,30,
1861401,Gabriel Ynoa,RP,BAL,4000,0,0,0,1,30,Injured:1
1861403,Carson Smith,RP,BOS,4000,0,0,0,28,30,Injured:1
1861408,Tanner Scott,RP,BAL,4000,0,0,0,1,30,
1861410,Wilmer Font,RP,TB,4000,0,0,0,12,30,
1861433,Bud Norris,RP,STL,4000,0,3.65,0,26,30,
1861435,Craig Stammen,RP,SD,4000,0,0,0,23,30,
1861437,Brett Cecil,RP,STL,4000,0,0,0,26,30,
1861442,Sam Tuivailala,RP,STL,4000,0,3.5,0,26,30,
1861444,John Brebbia,RP,STL,4000,0,4.3,0,26,30,
1861467,Cam Bedrosian,RP,LAA,4000,0,4.25,0,9,30,
1861469,Casey Lawrence,RP,SEA,4000,0,0,0,10,30,
1861476,Keynan Middleton,RP,LAA,4000,0,0,0,9,30,Injured:1
1861478,Edwin Diaz,RP,SEA,4000,0,6.25,0,10,30,
1861501,Sam Dyson,RP,SF,4000,0,-3.7,0,30,30,
1861503,Cory Gearrin,RP,SF,4000,0,4.25,0,30,30,
1861510,Kyle Barraclough,RP,MIA,4000,0,4.25,0,8,30,
1861512,Severino Gonzalez,RP,MIA,4000,0,0,0,8,30,
1861535,Starling Marte,OF,PIT,4100,6.58,14,0,163,285,Starter:1|LineupSpot3:1|PlayerMatchupIsGreat:2|PlayerIsCold:1
1861537,Nelson Cruz,OF,SEA,4100,9.53,32,0,234,285,Starter:1|LineupSpot4:1|PlayerMatchupIsGreat:3|PlayerMatchupIsHorribad:1|PlayerIsHot:1|ThumbUp:2
1861542,Travis Jankowski,OF,SD,3900,8.83,7,0,202,285,Starter:1|LineupSpot1:1|PlayerMatchupIsGreat:2|PlayerMatchupIsHorribad:1|ThumbDown:1
1861544,Marcell Ozuna,OF,STL,3800,8.56,19,0,279,285,Starter:1|LineupSpot4:1|PlayerMatchupIsGreat:2|PlayerMatchupIsHorribad:2|ThumbUp:2
1861567,Randal Grichuk,OF,TOR,3400,5.74,5,0,200,285,Starter:1|LineupSpot7:1|PlayerMatchupIsGreat:1|PlayerMatchupIsHorribad:1|PlayerIsHot:1|StarBad:1|VegasGood:1
1861569,Jabari Blash,OF,LAA,3400,6.74,2,0,108,285,Starter:1|LineupSpot7:1|PlayerMatchupIsHorribad:2|PlayerMatchupIsGreat:1
1861576,Socrates Brito,OF,ARI,3200,0,0,0,203,285,
1861578,Nicky Delmonico,OF,CWS,3200,0,0,0,82,285,Injured:1
1861601,Jaycob Brugman,OF,BAL,3000,0,0,0,142,285,
1861603,Joey Rickard,OF,BAL,3000,6.49,2,0,142,285,Starter:1|LineupSpot1:1|PlayerMatchupIsHorribad:1|PlayerIsCold:1|VegasBad:1|StarGood:1
1861610,Matt Szczur,OF,SD,2900,0,0,0,127,285,
1861612,Jeremy Hazelbaker,OF,ARI,2800,0,0,0,203,285,
1861635,Dariel Alvarez,OF,BAL,2600,0,0,0,142,285,Injured:1
1861637,Rusney Castillo,OF,BOS,2500,0,0,0,203,285,
1861642,Marcus Wilson,OF,ARI,2400,0,0,0,241,285,
1861644,Kirk Nieuwenhuis,OF,SEA,2300,0,0,0,21,285,
1861667,Matt Duffy,3B,TB,3000,7.53,15,0,244,285,Starter:1|LineupSpot1:1|PlayerMatchupIsGreat:1|PlayerMatchupIsHorribad:2|VegasGood:1
1861669,Deven Marrero,3B,ARI,2800,0,0,0,241,285,
1861671,Michael Chavis,3B,BOS,2800,0,0,0,203,285,
1861676,Nolan Jones,3B,CLE,2500,0,0,0,209,285,
1861678,Manny Machado,SS,BAL,5100,0,0,0,142,285,
1861701,Richard Urena,SS,TOR,2800,0,0,0,200,285,
1861703,Freddy Galvis,SS,SD,2700,5.87,2,0,202,285,Starter:1|LineupSpot7:1|PlayerMatchupIsGreat:1|PlayerMatchupIsHorribad:1|ThumbUp:1
1861710,Paul Goldschmidt,1B,ARI,5000,10.61,3,0,241,285,Starter:1|LineupSpot2:1|PlayerMatchupIsGreat:3|PlayerIsHot:1|StarBad:1|ThumbUp:2
1861712,Edwin Encarnacion,1B,CLE,4800,0,0,0,212,285,Injured:1
1861735,Garrett Cooper,1B,MIA,3000,0,0,0,190,285,Injured:1
1861737,Chris Davis,1B,BAL,2800,6.17,0,0,142,285,Starter:1|LineupSpot7:1|PlayerMatchupIsGreat:1|ThumbDown:1
1861744,Jose Rondon,2B/SS,CWS,3500,0,0,0,160,285,
1861746,Brock Holt,2B/SS,BOS,3400,0,2,0,201,285,
1861769,Efren Navarro,1B/OF,CHC,2600,0,0,0,179,285,
1861771,Scott Van Slyke,1B/OF,MIA,2200,0,0,0,190,285,
1861776,Chris Owings,2B/OF,ARI,3000,6.62,8,0,241,285,Starter:1|LineupSpot7:1|PlayerMatchupIsGreat:2
1861778,Nick Franklin,2B/OF,MIL,2800,0,0,0,197,285,Injured:1
1861801,Jose Briceno,C,LAA,3000,0,0,0,108,285,
1861803,A.J. Ellis,C,SD,2900,0,0,0,127,285,
1861810,Martin Maldonado,C,LAA,2800,4.45,5,0,108,285,Starter:1|LineupSpot9:1|PlayerMatchupIsHorribad:3|VegasGood:1
1861812,Jett Bandy,C,MIL,2800,0,0,0,197,285,
1861835,Juan Graterol,C,LAA,2100,0,0,0,108,285,
1861837,Alen Hanson,2B,SF,4000,7.28,0,0,257,285,Starter:1|LineupSpot8:1|PlayerMatchupIsGreat:2|PlayerMatchupIsHorribad:1|PlayerIsCold:1
1861844,Jonathan Villar,2B,MIL,3400,7.96,14,0,197,285,Starter:1|LineupSpot6:1|PlayerMatchupIsHorribad:1|PlayerMatchupIsGreat:2|PlayerIsHot:1
1861846,Joe Panik,2B,SF,3300,0,0,0,154,285,
1861869,Erik Gonzalez,2B/3B,CLE,3500,7.63,7,0,212,285,Starter:1|LineupSpot9:1|PlayerMatchupIsGreat:2|PlayerMatchupIsHorribad:1|VegasGood:3
1861871,Christian Arroyo,2B/3B,TB,3300,0,0,0,244,285,
1861876,Jace Peterson,2B/3B,BAL,2800,5.88,10,0,142,285,Starter:1|LineupSpot9:1|PlayerMatchupIsGreat:1|PlayerMatchupIsHorribad:1|PlayerIsHot:1|VegasBad:1
1861878,Tommy La Stella,2B/3B,CHC,2600,0,0,0,179,285,
