Id,Name,Position,Team,Salary,Projected,Scored,Override,OppRank,OppRankTotal,Alerts
1967943,Max Scherzer,SP,WAS,14200,0,0,0,26,30,
1968301,Domingo German,SP,NYY,9500,0,0,0,18,30,
1968303,Trevor Cahill,SP,OAK,8900,0,0,0,1,30,Injured:1
1968318,Nathan Eovaldi,SP,TB,7300,0,0,0,24,30,
1968320,Nick Kingham,SP,PIT,7200,0,0,0,19,30,
1968141,Jerad Eickhoff,SP,PHI,6500,0,0,0,22,30,Injured:1
1969115,Anthony Banda,SP,TB,6400,0,0,0,24,30,
1969130,Dan Straily,SP,MIA,5600,9.56,0,0,13,30,Starter:1|VegasBad:1|CrowdNegative:1|CrowdPositive:1|PlayerMatchupIsHorribad:2|PlayerMatchupIsGood:1|PlayerIsHot:1|VegasGood:1|ThumbDown:3
1969132,Ryan Yarbrough,SP,TB,5600,0,0,0,24,30,
1969147,Joe Ross,SP,WAS,5000,0,0,0,26,30,Injured:1
1969149,Brett Anderson,SP,OAK,5000,0,0,0,1,30,Injured:1
1968968,Adam Conley,SP,MIA,4400,0,0,0,13,30,
1969164,Tim Cooney,SP,CLE,4400,0,0,0,16,30,Injured:1
1969166,Edinson Volquez,SP,TEX,4400,0,0,0,25,30,Injured:1
1969179,Jonathon Niese,SP,NYY,4000,0,0,0,18,30,Injured:1
1969181,Chad Green,SP,NYY,4000,0,0,0,18,30,
1969196,Victor Alcantara,SP,DET,4000,0,0,0,10,30,
1969198,Ariel Jurado,SP,TEX,4000,0,0,0,25,30,
1969364,Jefry Rodriguez,RP,WAS,5900,0,0,0,26,30,
1969366,Jarlin Garcia,RP,MIA,5300,0,0,0,13,30,
1969381,Brad Ziegler,RP,MIA,4000,0,0,0,13,30,
1969383,Shawn Kelley,RP,WAS,4000,0,0,0,26,30,
1969398,Brian Ellington,RP,MIA,4000,0,0,0,13,30,Injured:1
1969400,Koda Glover,RP,WAS,4000,0,0,0,26,30,Injured:1
1968027,Danny Barnes,RP,TOR,4000,0,0,0,4,30,Injured:1
1968029,Branden Pinder,RP,NYY,4000,0,0,0,18,30,Injured:1
1968042,George Kontos,RP,CLE,4000,0,0,0,16,30,
1968629,Marc Rzepczynski,RP,CLE,4000,0,0,0,16,30,
1968631,Adam Wilk,RP,CLE,4000,0,0,0,16,30,
1968644,Travis Wood,RP,DET,4000,0,0,0,10,30,
1968646,Jake Diekman,RP,TEX,4000,0,0,0,25,30,
1967958,Alex Faedo,RP,DET,4000,0,0,0,10,30,
1967960,Anthony Swarzak,RP,NYM,4000,0,0,0,29,30,
1967975,Chih-Wei Hu,RP,TB,4000,0,0,0,24,30,
1967977,Drew Smith,RP,NYM,4000,0,0,0,29,30,
1968334,Kyle Crick,RP,PIT,4000,0,0,0,19,30,
1968336,Nick Burdi,RP,PIT,4000,0,0,0,19,30,Injured:1
1968400,Bo Bichette,SS,TOR,3200,0,0,0,164,285,
1968402,Jorge Mateo,SS,OAK,3100,0,0,0,73,285,
1968417,Miguel Andujar,3B,NYY,3900,8.08,0,0,252,285,Starter:1|LineupSpot6:1|PlayerMatchupIsGreat:2|PlayerMatchupIsHorribad:1|VegasGood:1
1968419,Todd Frazier,3B,NYM,3900,6.49,0,0,16,285,Starter:1|LineupSpot6:1|WindHurting:1|PlayerMatchupIsHorribad:3|ThumbUp:2
1971833,Nolan Jones,3B,CLE,2500,0,0,0,45,285,
1971835,Bryce Harper,OF,WAS,5200,9.75,0,0,207,285,Starter:1|LineupSpot4:1|PlayerMatchupIsGreat:3|PlayerIsCold:1|ThumbUp:2
1971837,Giancarlo Stanton,OF,NYY,5000,8.93,0,0,252,285,Starter:1|LineupSpot4:1|PlayerMatchupIsGreat:2|PlayerMatchupIsHorribad:1|PlayerIsHot:1|ThumbUp:1
1971850,Nomar Mazara,OF,TEX,4100,8.8,0,0,216,285,Starter:1|LineupSpot3:1|WindHelping:1|PlayerMatchupIsGreat:3|PlayerIsCold:1|VegasGood:1|ThumbUp:1
1971852,Curtis Granderson,OF,TOR,4000,8.78,0,0,105,285,Starter:1|LineupSpot1:1|PlayerMatchupIsGreat:1|VegasBad:2
1971867,Corey Dickerson,OF,PIT,3600,7.02,0,0,200,285,Starter:1|LineupSpot6:1|PlayerMatchupIsGreat:2|PlayerIsCold:1|VegasBad:1
1971869,Dwight Smith Jr.,OF,TOR,3500,0,0,0,105,285,
1968485,Greg Allen,OF,CLE,3200,5.15,0,0,45,285,Starter:1|LineupSpot9:1|WindHurting:1|PlayerMatchupIsHorribad:2
1968487,Jay Bruce,OF,NYM,3200,0,0,0,2,285,Injured:1
1968502,Chad Huffman,OF,DET,2900,0,0,0,232,285,
1968504,Ryan Rua,OF,TEX,2900,6.38,0,0,201,285,Starter:1|LineupSpot8:1|WindHelping:1|PlayerMatchupIsGreat:3|PlayerMatchupIsHorribad:1|PlayerIsCold:1
1968519,Rob Refsnyder,OF,TB,2600,0,0,0,37,285,
1968521,Alejandro De Aza,OF,WAS,2500,0,0,0,207,285,
1969217,Mark Reynolds,1B,WAS,3700,0,0,0,199,285,
1969219,Kendrys Morales,1B,TOR,3600,0,0,0,105,285,OptimalPick:1
1969232,Mike Napoli,1B,CLE,2000,0,0,0,207,285,Injured:1
1969234,Gary Sanchez,C,NYY,3800,0,0,0,252,285,Injured:1
1969236,Robinson Chirinos,C,TEX,3700,7.95,0,0,201,285,Starter:1|LineupSpot6:1|WindHelping:1|PlayerMatchupIsGreat:3
1969249,Tomas Telis,C,MIA,3000,0,0,0,107,285,
1969251,Jonathan Lucroy,C,OAK,3000,0,0,0,73,285,
1968930,Pedro Severino,C,WAS,2600,0,0,0,199,285,
1968932,Bruce Maxwell,C,OAK,2600,0,0,0,93,285,
1968947,Matt Reynolds,2B/3B,WAS,2800,0,0,0,199,285,
1968949,Jesmuel Valentin,2B/3B,PHI,2800,0,0,0,107,285,
1969403,Josh Harrison,2B,PIT,3600,6.51,0,0,195,285,Starter:1|LineupSpot7:1|PlayerMatchupIsHorribad:1|PlayerIsCold:1|ThumbDown:1
1969405,Johnny Giavotella,2B,MIA,3200,0,0,0,107,285,
1969615,Jose Bautista,3B/OF,NYM,3700,6.23,0,0,16,285,Starter:1|LineupSpot2:1|WindHurting:1|PlayerMatchupIsHorribad:3|PlayerIsHot:1
1969617,Willie Calhoun,2B/OF,TEX,3400,0,0,0,216,285,
1969632,John Hicks,1B/C,DET,3500,0,0,0,232,285,
1969634,Wilmer Flores,1B/3B,NYM,3500,7.66,0,0,16,285,Starter:1|LineupSpot5:1|WindHurting:1|PlayerMatchupIsHorribad:3|PlayerMatchupIsGreat:1|PlayerIsHot:1|VegasGood:1
1968649,Pete Kozma,2B/SS,DET,2500,0,0,0,232,285,
1968651,Neil Walker,1B/2B,NYY,2900,6.74,0,0,191,285,Starter:1|LineupSpot9:1|PlayerMatchupIsGreat:1|VegasGood:1
1968666,Sean Newcomb,SP,ATL,10900,0,0,0,7,30,
1968668,Ross Stripling,SP,LAD,10500,0,0,0,12,30,
1968732,Rich Hill,SP,LAD,8700,0,0,0,12,30,Injured:1
1968734,Tyson Ross,SP,SD,8500,0,0,0,23,30,
1968679,Anibal Sanchez,SP,ATL,7800,0,0,0,7,30,
1968681,Clayton Richard,SP,SD,7700,0,0,0,23,30,
1968696,Chase Anderson,SP,MIL,7200,0,0,0,11,30,
1968698,Jakob Junis,SP,KC,7100,0,0,0,2,30,
1968713,John Gant,SP,STL,6300,6.73,0,0,17,30,Starter:1|PlayerMatchupIsGreat:1|PlayerMatchupIsHorribad:2
1968715,Jake Odorizzi,SP,MIN,6300,0,0,0,28,30,
1968249,Zach Davies,SP,MIL,5500,0,0,0,11,30,Injured:1
1968251,Wade Miley,SP,MIL,5400,0,0,0,11,30,
1968264,Carson Fulmer,SP,CWS,5000,0,0,0,3,30,
1968266,Jeff Samardzija,SP,SF,5000,0,0,0,20,30,Injured:1
1967523,Chris Davis,1B,BAL,2800,6.44,0,0,176,285,Starter:1|LineupSpot5:1|PlayerMatchupIsHorribad:1|PlayerMatchupIsGreat:1|PlayerIsCold:1|ThumbUp:2
1967525,Evan White,1B,SEA,2600,0,0,0,229,285,
1967540,Eric Thames,1B/OF,MIL,4900,9.58,0,0,133,285,Starter:1|LineupSpot1:1|PlayerMatchupIsHorribad:1|PlayerMatchupIsGreat:2
1967542,Ryan Braun,1B/OF,MIL,4300,7.14,0,0,50,285,Starter:1|LineupSpot5:1|PlayerMatchupIsHorribad:2|PlayerMatchupIsGreat:2|PlayerIsCold:1|ThumbDown:1
1967557,Adalberto Mondesi,2B/SS,KC,3300,6.25,0,0,117,285,Starter:1|LineupSpot9:1|WindHurting:1|PlayerMatchupIsGreat:2|PlayerMatchupIsHorribad:1|StarBad:1
1967559,Tzu-Wei Lin,2B/SS,BOS,3100,0,0,0,195,285,
1967574,Willians Astudillo,3B/C,MIN,3200,0,0,0,100,285,
1967576,Austin Barnes,2B/C,LAD,2900,0,0,0,34,285,
1967591,Mookie Betts,OF,BOS,6000,11.94,0,0,230,285,Starter:1|LineupSpot1:1|WindHurting:1|PlayerMatchupIsGreat:3|PlayerMatchupIsHorribad:1|PlayerIsCold:1|VegasBad:1|ThumbUp:1
1967593,J.D. Martinez,OF,BOS,5700,12.48,0,0,230,285,Starter:1|LineupSpot3:1|WindHurting:1|PlayerMatchupIsGreat:3|PlayerMatchupIsHorribad:1|ThumbUp:1
1967608,Daniel Palka,OF,CWS,3600,7.28,0,0,48,285,Starter:1|LineupSpot5:1|PlayerMatchupIsHorribad:2|VegasBad:2|ThumbUp:2
1967610,Rusney Castillo,OF,BOS,3600,0,0,0,230,285,
1967623,Colby Rasmus,OF,BAL,3400,0,0,0,176,285,Injured:1
1967625,Austin Slater,OF,SF,3300,0,0,0,41,285,
1967640,Robbie Grossman,OF,MIN,3200,0,0,0,189,285,
1967642,Austin Hays,OF,BAL,3200,0,0,0,83,285,
1967659,Ichiro Suzuki,OF,SEA,2000,0,0,0,169,285,
1967661,Alex Kirilloff,OF,MIN,2000,0,0,0,189,285,
1967676,Ryan Mountcastle,SS,BAL,3200,0,0,0,83,285,
1967678,Erick Aybar,SS,MIN,3100,0,0,0,189,285,
1967693,Alex Bregman,3B,HOU,5500,8.91,0,0,60,285,Starter:1|LineupSpot2:1|PlayerMatchupIsHorribad:2|PlayerMatchupIsGreat:1|ThumbUp:1
1967695,Rafael Devers,3B,BOS,4500,0,0,0,195,285,
1967710,Luis Torrens,C,SD,2000,0,0,0,179,285,
1967712,Juan Graterol,C,MIN,2000,0,0,0,100,285,
1967727,Jorge Polanco,3B/SS,MIN,3500,7.7,0,0,189,285,Starter:1|LineupSpot6:1|PlayerMatchupIsHorribad:1|PlayerMatchupIsGreat:2
1967729,Dusty Coleman,3B/SS,SD,2600,0,0,0,179,285,
1967742,Charlie Culberson,3B/OF,ATL,3300,0,0,0,13,285,
1967744,Cody Asche,3B/OF,KC,2900,0,0,0,11,285,
1967759,Mike Zunino,C,SEA,3300,0,0,0,229,285,Injured:1
1967761,Erik Kratz,C,MIL,3200,0,0,0,50,285,
1967776,A.J. Ellis,C,SD,2800,0,0,0,179,285,
1967778,Anthony Recker,C,ARI,2800,0,0,0,172,285,
1967793,Austin Wynns,C,BAL,2700,0,0,0,83,285,
1967795,Zack Collins,C,CWS,2600,0,0,0,48,285,
1967810,Ryan Flaherty,3B,ATL,2800,0,0,0,42,285,
1967812,Michael Chavis,3B,BOS,2700,0,0,0,230,285,
1967827,Corban Joseph,2B,BAL,3000,0,0,0,176,285,
1967829,Kolten Wong,2B,STL,2900,6.35,0,0,86,285,Starter:1|LineupSpot7:1|PlayerMatchupIsHorribad:2|StarBad:1
1967844,Jose Abreu,1B,CWS,3800,8.2,0,0,209,285,Starter:1|LineupSpot3:1|PlayerMatchupIsGreat:3|PlayerMatchupIsHorribad:1|PlayerIsCold:1|VegasBad:2
1967846,Tyler White,1B,HOU,3600,0,0,0,60,285,
1967859,Zack Granite,OF,MIN,3000,0,0,0,189,285,
1967861,Byron Buxton,OF,MIN,3000,0,0,0,100,285,
1967876,Guillermo Heredia,OF,SEA,2800,5.27,0,0,229,285,Starter:1|LineupSpot9:1|PlayerMatchupIsGreat:2|PlayerMatchupIsHorribad:2|PlayerIsHot:1|ThumbDown:1
1967878,Alex Presley,OF,BAL,2800,0,0,0,176,285,
1967893,Yordan Alvarez,OF,HOU,2300,0,0,0,185,285,
1967895,Kirk Nieuwenhuis,OF,SEA,2200,0,0,0,169,285,
1967911,Brad Peacock,RP,HOU,5800,0,0,0,15,30,
1967913,Austin Gomber,RP,STL,5300,0,0,0,17,30,
1967928,Chris Young,RP,SD,4000,0,0,0,23,30,
1967930,Neftali Feliz,RP,ARI,4000,0,0,0,27,30,Injured:1
1967997,Ender Inciarte,OF,ATL,4500,8.92,0,0,42,285,Starter:1|LineupSpot1:1|PlayerMatchupIsHorribad:1|PlayerMatchupIsGreat:2|ThumbDown:1
1967999,Wil Myers,OF,SD,4300,0,0,0,179,285,
1968014,Gerardo Parra,OF,COL,3700,8.25,0,0,202,285,Starter:1|LineupSpot6:1|PlayerMatchupIsGreat:2|PlayerMatchupIsHorribad:2
1968045,Tyler Beede,SP,SF,4400,0,0,0,20,30,
1968058,Luis Perdomo,SP,SD,4000,0,0,0,23,30,
1968060,Colin Rea,SP,SD,4000,0,0,0,23,30,Injured:1
1968075,Jesse Hahn,SP,KC,4000,0,0,0,2,30,
1968077,Foster Griffin,SP,KC,4000,0,0,0,2,30,
1968094,Josh Hader,RP,MIL,4000,0,0,0,11,30,
1968109,Pedro Baez,RP,LAD,4000,0,0,0,12,30,Injured:1
1968111,Edward Paredes,RP,LAD,4000,0,0,0,12,30,
1968126,Justin Anderson,RP,LAA,4000,0,0,0,5,30,
1968128,Matt Belisle,RP,MIN,4000,0,0,0,28,30,
1968146,Blaine Boyer,RP,KC,4000,0,0,0,2,30,Injured:1
1968148,Craig Kimbrel,RP,BOS,4000,0,0,0,30,30,
1968163,Mark Melancon,RP,SF,4000,0,0,0,20,30,
1968165,Tony Watson,RP,SF,4000,0,0,0,20,30,
1968178,Ryan Sherriff,RP,STL,4000,0,0,0,17,30,
1968180,Jordan Hicks,RP,STL,4000,0,0,0,17,30,
1968197,Xavier Cedeno,RP,CWS,4000,0,0,0,3,30,
1968199,Joakim Soria,RP,CWS,4000,0,0,0,3,30,
1968214,Francis Martes,RP,HOU,4000,0,0,0,15,30,
1968216,Cionel Perez,RP,HOU,4000,0,0,0,15,30,
1968231,Edwin Diaz,RP,SEA,4000,0,0,0,8,30,
1968233,Chasen Bradford,RP,SEA,4000,0,0,0,8,30,
1968279,Tom Koehler,SP,LAD,4600,0,0,0,12,30,Injured:1
1968281,Aaron Slegers,SP,MIN,4600,0,0,0,28,30,
1967944,Trevor Bauer,SP,CLE,13600,0,0,0,16,30,
1968302,Chris Archer,SP,TB,9500,0,0,0,24,30,Injured:1
1968304,Vince Velasquez,SP,PHI,8900,0,0,0,22,30,Injured:1
1968319,Tanner Roark,SP,WAS,7200,0,0,0,26,30,
1968321,Joe Musgrove,SP,PIT,7200,0,0,0,19,30,Injured:1
1968140,Marcus Stroman,SP,TOR,6500,0,0,0,4,30,
1969114,Jharel Cotton,SP,OAK,6400,0,0,0,1,30,
1969129,Daniel Gossett,SP,OAK,5700,0,0,0,1,30,Injured:1
1969131,A.J. Cole,SP,NYY,5600,0,0,0,18,30,
1969146,Tim Lincecum,SP,TEX,5100,0,0,0,25,30,Injured:1
1969148,Dillon Peters,SP,MIA,5000,0,0,0,13,30,
1969163,Josh Tomlin,SP,CLE,4400,0,0,0,16,30,
1969165,Jesse Chavez,SP,TEX,4400,0,0,0,25,30,
1969180,Nick Tepesch,SP,TOR,4000,0,0,0,4,30,
1969182,Taylor Guerrieri,SP,TOR,4000,0,0,0,4,30,
1969197,Chi Chi Gonzalez,SP,TEX,4000,0,0,0,25,30,Injured:1
1969199,Tyler Alexander,SP,DET,4000,0,0,0,10,30,
1969365,Luis Cessa,RP,NYY,5900,0,0,0,18,30,
1969367,Merandy Gonzalez,RP,MIA,5300,0,0,0,13,30,
1969380,Ryan Madson,RP,WAS,4000,0,0,0,26,30,
1969382,Brandon Kintzler,RP,WAS,4000,0,0,0,26,30,
1969397,Chris O'Grady,RP,MIA,4000,0,0,0,13,30,Injured:1
1969399,Tyler Kinley,RP,MIA,4000,0,0,0,13,30,
1968026,Chasen Shreve,RP,NYY,4000,0,0,0,18,30,
1968028,Roberto Osuna,RP,TOR,4000,0,0,0,4,30,Injured:1
1968043,Dan Otero,RP,CLE,4000,0,0,0,16,30,
1968630,Neil Ramirez,RP,CLE,4000,0,0,0,16,30,
1968645,Tony Barnette,RP,TEX,4000,0,0,0,25,30,Injured:1
1967652,Alex Wilson,RP,DET,4000,0,0,0,10,30,
1967959,Jerry Blevins,RP,NYM,4000,0,0,0,29,30,
1967961,Jonny Venters,RP,TB,4000,0,0,0,24,30,Injured:1
1967974,Tyler Bashlor,RP,NYM,4000,0,0,0,29,30,
1967976,Diego Castillo,RP,TB,4000,0,0,0,24,30,
1967978,Pat Neshek,RP,PHI,4000,0,0,0,22,30,
1968333,Adam Morgan,RP,PHI,4000,0,0,0,22,30,
1968335,Yacksel Rios,RP,PHI,4000,0,0,0,22,30,
1968399,Aledmys Diaz,SS,TOR,3200,6.75,0,0,164,285,Starter:1|LineupSpot8:1|PlayerMatchupIsHorribad:1|PlayerIsCold:1|VegasBad:1|StarBad:1
1968401,Richard Urena,SS,TOR,3100,0,0,0,105,285,
1968416,Jeimer Candelario,3B,DET,4000,0,0,0,179,285,
1968418,Matt Chapman,3B,OAK,3900,6.96,0,0,73,285,Starter:1|LineupSpot7:1|WindHurting:1|PlayerMatchupIsHorribad:2|PlayerMatchupIsGreat:1|PlayerIsCold:1|VegasBad:2|VegasGood:1|StarGood:1
1971834,Aaron Judge,OF,NYY,5500,11.7,0,0,252,285,Starter:1|LineupSpot2:1|PlayerMatchupIsGreat:2|PlayerMatchupIsHorribad:1|PlayerIsHot:1|StarBad:1|ThumbUp:1
1971836,Nicholas Castellanos,OF,DET,5100,10.13,0,0,232,285,Starter:1|LineupSpot2:1|WindHelping:1|PlayerMatchupIsGreat:4|ThumbUp:1
1971851,Yoenis Cespedes,OF,NYM,4100,0,0,0,16,285,Injured:1
1971853,Dustin Fowler,OF,OAK,4000,8.28,0,0,93,285,Starter:1|LineupSpot1:1|WindHurting:1|VegasBad:2|VegasGood:1|StarGood:1
1971868,Brett Gardner,OF,NYY,3500,8.41,0,0,191,285,Starter:1|LineupSpot1:1|PlayerMatchupIsGreat:2|ThumbDown:1
1971870,Dylan Cozens,OF,PHI,3500,0,0,0,107,285,
1968484,Tyler Naquin,OF,CLE,3200,6.66,0,0,45,285,Starter:1|LineupSpot8:1|WindHurting:1|PlayerMatchupIsHorribad:1|PlayerIsCold:1
1968486,JaCoby Jones,OF,DET,3200,7.21,0,0,232,285,Starter:1|LineupSpot1:1|WindHelping:1|PlayerMatchupIsGreat:3|ThumbDown:1
1968488,Jacoby Ellsbury,OF,NYY,3100,0,0,0,191,285,
1968501,Brandon Guyer,OF,CLE,2900,0,0,0,207,285,Injured:1
1968503,Brett Eibner,OF,TEX,2900,0,0,0,201,285,Injured:1
1968518,Moises Sierra,OF,WAS,2600,0,0,0,199,285,
1968520,Danny Ortiz,OF,PHI,2600,0,0,0,107,285,
1969216,Ryan Zimmerman,1B,WAS,3800,0,0,0,199,285,Injured:1
1969218,Greg Bird,1B,NYY,3700,7.28,0,0,191,285,Starter:1|LineupSpot7:1|PlayerMatchupIsGreat:2|StarBad:1
1969233,J.T. Realmuto,C,MIA,4800,8.81,0,0,107,285,Starter:1|LineupSpot3:1|VegasGood:3
1969235,Yan Gomes,C,CLE,3700,6.64,0,0,207,285,Starter:1|LineupSpot7:1|WindHurting:1|PlayerMatchupIsGreat:1|PlayerMatchupIsHorribad:1|PlayerIsHot:1|VegasGood:1|ThumbDown:1
1969250,Chad Wallach,C,MIA,3000,0,0,0,107,285,
1969252,Brett Nicholas,C,TEX,3000,0,0,0,216,285,
1968931,Roberto Perez,C,CLE,2600,0,0,0,207,285,
1968933,Carlos Perez,C,TEX,2600,0,0,0,201,285,Injured:1
1968946,Christian Arroyo,2B/3B,TB,2900,0,0,0,37,285,Injured:1
1968948,Erik Gonzalez,2B/3B,CLE,2800,0,0,0,207,285,
1968950,Ronny Rodriguez,2B/3B,DET,2700,5.27,0,0,232,285,Starter:1|LineupSpot7:1|WindHelping:1|PlayerMatchupIsGreat:3|PlayerMatchupIsHorribad:1|VegasBad:1|StarGood:1
1968963,Franklin Barreto,2B,OAK,3700,0,0,0,73,285,
1969404,Tyler Wade,2B,NYY,3500,0,0,0,191,285,
1969614,Brian Anderson,3B/OF,MIA,3700,8.03,0,0,107,285,Starter:1|LineupSpot2:1|OptimalPick:1|VegasGood:2
1969616,Niko Goodrum,2B/OF,DET,3700,8.53,0,0,179,285,Starter:1|LineupSpot3:1|WindHelping:1|PlayerMatchupIsGreat:1|PlayerIsHot:1|ThumbUp:1
1969631,Mitch Walding,3B/SS,PHI,2400,0,0,0,107,285,
1969633,Ryan Lavarnway,1B/C,PIT,2500,0,0,0,195,285,
1968650,Grant Green,2B/SS,MIA,2300,0,0,0,107,285,
1968652,Sean Rodriguez,OF/SS,PIT,2800,0,0,0,195,285,Injured:1
1968667,Mike Foltynewicz,SP,ATL,10500,17.15,0,0,7,30,Starter:1|PlayerMatchupIsHorribad:2|PlayerMatchupIsGreat:1|PlayerMatchupIsBad:1|CrowdNegative:1|VegasGood:1|ThumbUp:1
1968669,Freddy Peralta,SP,MIL,10200,23.27,0,0,11,30,Starter:1|PlayerMatchupIsHorribad:4|ThumbUp:1|ThumbDown:1
1968733,Zack Godley,SP,ARI,8600,16.31,0,0,27,30,Starter:1|VegasGood:2|PlayerMatchupIsHorribad:1|PlayerMatchupIsGreat:2|PlayerMatchupIsGood:2|CrowdPositive:1|StarGood:1|ThumbDown:2
1968735,Steven Wright,SP,BOS,8500,0,0,0,30,30,Injured:1
1968678,Michael Wacha,SP,STL,7800,0,0,0,17,30,Injured:1
1968680,Jhoulys Chacin,SP,MIL,7800,0,0,0,11,30,
1968682,Carlos Rodon,SP,CWS,7700,0,0,0,3,30,
1968695,Jaime Barria,SP,LAA,7300,0,0,0,5,30,
1968697,Brandon McCarthy,SP,ATL,7200,0,0,0,7,30,Injured:1
1968712,Lance Lynn,SP,MIN,6400,12.83,0,0,28,30,Starter:1|VegasGood:1|PlayerMatchupIsHorribad:2|CrowdPositive:2|PlayerMatchupIsGreat:2|ThumbUp:2
1968714,Michael Pineda,SP,MIN,6300,0,0,0,28,30,Injured:1
1968248,James Shields,SP,CWS,5500,0,0,0,3,30,
1968250,Chad Bettis,SP,COL,5400,0,0,0,14,30,Injured:1
1968265,Dylan Covey,SP,CWS,5000,0,0,0,3,30,
1967509,Ryon Healy,1B,SEA,3600,7.04,0,0,229,285,Starter:1|LineupSpot6:1|PlayerMatchupIsGreat:2|PlayerMatchupIsHorribad:1|VegasBad:1|ThumbUp:2
1967524,Brock Stassi,1B,MIN,2800,0,0,0,189,285,
1967526,Mike Ford,1B,SEA,2300,0,0,0,169,285,Injured:1
1967541,Cody Bellinger,1B/OF,LAD,4800,9.19,0,0,66,285,ExpectedStarter:1|LineupSpot4:1|PlayerMatchupIsHorribad:1|PlayerMatchupIsGreat:2|VegasBad:1|StarGood:1|ThumbUp:2
1967543,Mark Trumbo,1B/OF,BAL,4000,7.63,0,0,83,285,Starter:1|LineupSpot4:1|PlayerMatchupIsHorribad:1|PlayerMatchupIsGreat:1|PlayerIsCold:1|VegasBad:1|ThumbUp:2
1967556,Ricardo Sanchez,SP,ATL,4000,0,0,0,7,30,
1967558,Jose Rondon,2B/SS,CWS,3100,0,0,0,209,285,
1967560,Greg Garcia,2B/SS,STL,2900,0,0,0,86,285,
1967573,Stephen Vogt,1B/C,MIL,3200,0,0,0,133,285,Injured:1
1967575,Pat Valaika,1B/2B,COL,2800,0,0,0,105,285,
1967590,Paul Fry,RP,BAL,4000,0,0,0,21,30,
1967592,Mike Trout,OF,LAA,5900,10.54,0,0,48,285,ExpectedStarter:1|LineupSpot3:1|PlayerMatchupIsHorribad:1|PlayerMatchupIsGreat:1|VegasBad:1|ThumbDown:1
1967607,Eloy Jimenez,OF,CWS,3600,0,0,0,209,285,
1967609,Carlos Gonzalez,OF,COL,3600,8.78,0,0,202,285,Starter:1|LineupSpot4:1|PlayerMatchupIsGreat:2|PlayerMatchupIsHorribad:2|PlayerIsCold:1|VegasBad:1|ThumbUp:1
1967624,Steven Souza Jr.,OF,ARI,3300,8.42,0,0,172,285,Starter:1|LineupSpot5:1|PlayerMatchupIsGreat:2|PlayerIsCold:1|StarBad:1
1967626,Mac Williamson,OF,SF,3300,0,0,0,41,285,
1967641,Cedric Mullins,OF,BAL,3200,0,0,0,176,285,
1967643,Jaycob Brugman,OF,BAL,3200,0,0,0,176,285,
1967660,Heliot Ramos,OF,SF,2000,0,0,0,41,285,
1967662,Manny Machado,SS,BAL,5000,9.57,0,0,83,285,Starter:1|LineupSpot3:1|PlayerMatchupIsHorribad:1|PlayerMatchupIsGreat:2|PlayerIsCold:1|ThumbUp:2|CakeGood:1
1967675,Isan Diaz,SS,MIL,3200,0,0,0,133,285,
1967677,Ehire Adrianza,SS,MIN,3100,0,0,0,189,285,Injured:1
1967679,Jack Reinheimer,SS,ARI,2900,0,0,0,172,285,
1967692,Nolan Arenado,3B,COL,5600,9.23,0,0,105,285,Starter:1|LineupSpot3:1|PlayerMatchupIsGreat:1|PlayerMatchupIsHorribad:1|ThumbUp:1
1967694,Matt Carpenter,3B,STL,4900,9.19,0,0,86,285,Starter:1|LineupSpot1:1|PlayerMatchupIsHorribad:2|PlayerMatchupIsGreat:1|PlayerIsHot:1|VegasGood:1|ThumbUp:2
1967709,Rocky Gale,C,LAD,2100,0,0,0,34,285,
1967711,Keibert Ruiz,C,LAD,2000,0,0,0,66,285,
1967726,Johan Camargo,3B/SS,ATL,3700,6.57,0,0,42,285,Starter:1|LineupSpot6:1|PlayerMatchupIsHorribad:1|PlayerMatchupIsGreat:1
1967728,Tyler Saladino,3B/SS,MIL,3400,5.48,0,0,50,285,Starter:1|LineupSpot8:1|PlayerMatchupIsHorribad:3|PlayerMatchupIsGreat:1
1967743,Rob Segedin,3B/OF,LAD,3000,0,0,0,34,285,
1967745,Steve Selsky,3B/OF,BOS,2500,0,0,0,230,285,
1967760,Jose Briceno,C,LAA,3300,0,0,0,48,285,
1967762,Tom Murphy,C,COL,3100,6.54,0,0,105,285,Starter:1|LineupSpot8:1|PlayerMatchupIsHorribad:1
1967777,Austin Hedges,C,SD,2800,6.48,0,0,179,285,Starter:1|LineupSpot8:1|PlayerMatchupIsGreat:2
1967779,Kevan Smith,C,CWS,2800,5.83,0,0,209,285,Starter:1|LineupSpot7:1|PlayerMatchupIsGreat:2|PlayerMatchupIsHorribad:2|ThumbDown:1
1967792,Caleb Joseph,C,BAL,2700,5.4,0,0,83,285,Starter:1|LineupSpot9:1|PlayerMatchupIsHorribad:2|PlayerMatchupIsGreat:1|PlayerIsCold:1|VegasBad:1|StarBad:1
1967794,Bobby Wilson,C,MIN,2700,0,0,0,100,285,
1967796,Alex Avila,C,ARI,2500,0,0,0,12,285,Injured:1
1967809,Kaleb Cowart,3B,LAA,3000,0,0,0,146,285,
1967811,Deven Marrero,3B,ARI,2700,0,0,0,172,285,Injured:1
1967826,Luis Urias,2B,SD,3100,0,0,0,179,285,
1967828,Carlos Asuaje,2B,SD,2900,8.06,0,0,98,285,Starter:1|LineupSpot2:1|PlayerMatchupIsGreat:2|StarGood:1
1967843,Yuli Gurriel,1B,HOU,4200,7.83,0,0,60,285,Starter:1|LineupSpot4:1|PlayerMatchupIsHorribad:2|PlayerMatchupIsGreat:1|PlayerIsHot:1|VegasGood:1
1967845,Eric Hosmer,1B,SD,3700,8.91,0,0,98,285,Starter:1|LineupSpot3:1|PlayerMatchupIsGreat:3|PlayerIsCold:1|ThumbDown:1
1967860,Ryan LaMarre,OF,MIN,3000,0,0,0,100,285,
1967862,Jeremy Hazelbaker,OF,ARI,2900,0,0,0,12,285,
1967877,Tyler Collins,OF,KC,2800,0,0,0,11,285,Injured:1
1967879,Joey Rickard,OF,BAL,2800,6.28,0,0,83,285,Starter:1|LineupSpot8:1|PlayerMatchupIsHorribad:2|PlayerMatchupIsGreat:1|PlayerIsCold:1|VegasBad:1|StarBad:1
1967894,Ezequiel Carrera,OF,ATL,2300,0,0,0,42,285,
1967897,Kyle Wright,SP,ATL,4000,0,0,0,7,30,
1967910,Jordan Lyles,RP,SD,6500,0,0,0,23,30,Injured:1
1967912,Matt Koch,RP,ARI,5600,0,0,0,27,30,
1967914,David Paulino,RP,HOU,5200,0,0,0,15,30,
1967927,Deck McGuire,RP,LAA,4100,0,0,0,5,30,
1967929,Craig Stammen,RP,SD,4000,0,0,0,23,30,
1967996,Justin Upton,OF,LAA,4600,8.4,0,0,48,285,ExpectedStarter:1|LineupSpot4:1|PlayerMatchupIsHorribad:1|PlayerMatchupIsGreat:1|PlayerIsCold:1|ThumbUp:1
1967998,Joc Pederson,OF,LAD,4500,10.09,0,0,66,285,ExpectedStarter:1|LineupSpot1:1|PlayerMatchupIsHorribad:1|PlayerMatchupIsGreat:2|VegasGood:1|StarGood:1|ThumbUp:2
1968013,Manuel Margot,OF,SD,3700,7.27,0,0,179,285,Starter:1|LineupSpot6:1|PlayerMatchupIsGreat:2
1968044,Jason Hammel,SP,KC,4400,5.47,0,0,2,30,Starter:1|WindHelping:1|VegasBad:1|PlayerMatchupIsGreat:1|CrowdPositive:4|PlayerMatchupIsHorribad:2|PlayerIsCold:1|ThumbDown:2
1968059,Dillon Overton,SP,SD,4000,0,0,0,23,30,
1968061,Dylan Cease,SP,CWS,4000,0,0,0,3,30,
1968076,Scott Blewett,SP,KC,4000,0,0,0,2,30,
1968078,Roniel Raudes,SP,BOS,4000,0,0,0,30,30,
1968093,A.J. Minter,RP,ATL,4000,0,0,0,7,30,
1968095,Jacob Lindgren,RP,ATL,4000,0,0,0,7,30,Injured:1
1968108,Blake Parker,RP,LAA,4000,0,0,0,5,30,
1968110,Josh Fields,RP,LAD,4000,0,0,0,12,30,Injured:1
1968112,Daniel Hudson,RP,LAD,4000,0,0,0,12,30,
1968125,Jake Jewell,RP,LAA,4000,0,0,0,5,30,Injured:1
1968127,Keynan Middleton,RP,LAA,4000,0,0,0,5,30,Injured:1
1968145,Harrison Musgrave,RP,COL,4000,0,0,0,14,30,
1968147,Justin Grimm,RP,KC,4000,0,0,0,2,30,Injured:1
1968162,Bud Norris,RP,STL,4000,0,0,0,17,30,Injured:1
1968164,Sam Dyson,RP,SF,4000,0,0,0,20,30,
1968179,Jose Valdez,RP,SF,4000,0,0,0,20,30,Injured:1
1968181,Julian Fernandez,RP,SF,4000,0,0,0,20,30,Injured:1
1968198,Tony Sipp,RP,HOU,4000,0,0,0,15,30,
1968200,Joe Smith,RP,HOU,4000,0,0,0,15,30,
1968215,Tyler Danish,RP,CWS,4000,0,0,0,3,30,Injured:1
1968217,Roenis Elias,RP,SEA,4000,0,0,0,8,30,
1968230,Nick Rumbelow,RP,SEA,4000,0,0,0,8,30,
1968232,Carlos Estevez,RP,COL,4000,0,0,0,14,30,Injured:1
1968234,Christian Bergman,RP,SEA,4000,0,0,0,8,30,
1968278,Josh Staumont,SP,KC,4600,0,0,0,2,30,
1968280,Andrew Cashner,SP,BAL,4600,0,0,0,21,30,
1967945,Luis Severino,SP,NYY,13100,0,0,0,18,30,
1968290,Jacob deGrom,SP,NYM,13000,26.06,0,0,29,30,Starter:1|WindHelping:1|VegasGood:1|PlayerMatchupIsGreat:2|CrowdNegative:2|PlayerMatchupIsHorribad:1|PlayerMatchupIsGood:2|PlayerIsCold:1|ThumbDown:1|ThumbUp:1
1968297,Noah Syndergaard,SP,NYM,10500,0,0,0,29,30,Injured:1
1968299,Cole Hamels,SP,TEX,9700,0,0,0,25,30,
1968322,Jaime Garcia,SP,TOR,7000,0,0,0,4,30,Injured:1
1968324,Jose Urena,SP,MIA,6900,0,0,0,13,30,
1968331,Daniel Mengden,SP,OAK,6700,0,0,0,1,30,Injured:1
1968139,Trevor Williams,SP,PIT,6600,12.45,0,0,19,30,Starter:1|CrowdNegative:2|PlayerMatchupIsGreat:1|PlayerMatchupIsHorribad:2|PlayerMatchupIsGood:1|CrowdPositive:1|StarGood:1|VegasBad:1
1969134,Matt Andriese,SP,TB,5500,0,0,0,24,30,
1969136,Jaime Schultz,SP,TB,5500,0,0,0,24,30,
1969141,Pablo Lopez,SP,MIA,5300,0,0,0,13,30,
1969143,Marcos Molina,SP,NYM,5200,0,0,0,29,30,
1969145,Chance Adams,SP,NYY,5100,0,0,0,18,30,
1969168,Artie Lewicki,SP,DET,4400,0,0,0,10,30,
1969170,Ryan Borucki,SP,TOR,4300,0,0,0,4,30,
1969175,Gregory Soto,SP,DET,4200,0,0,0,10,30,
1969177,Tommy Milone,SP,WAS,4000,0,0,0,26,30,Injured:1
1969200,Kyle Funkhouser,SP,DET,4000,0,0,0,10,30,
1969202,Brett Martin,SP,TEX,4000,0,0,0,25,30,
1969360,Seth Lugo,RP,NYM,9100,0,0,0,29,30,
1969362,Frankie Montas,RP,OAK,7600,0,0,0,1,30,
1969385,Justin Miller,RP,WAS,4000,0,0,0,26,30,
1969387,Kelvin Herrera,RP,WAS,4000,0,0,0,26,30,
1969394,Drew Steckenrider,RP,MIA,4000,0,0,0,13,30,
1969396,Nick Wittgren,RP,MIA,4000,0,0,0,13,30,
1968031,Luis Santos,RP,TOR,4000,0,0,0,4,30,
1968033,Ben Heller,RP,NYY,4000,0,0,0,18,30,Injured:1
1968038,Andrew Miller,RP,CLE,4000,0,0,0,16,30,Injured:1
1968040,Zach McAllister,RP,CLE,4000,0,0,0,16,30,
1967653,Louis Coleman,RP,DET,4000,0,0,0,10,30,
1967947,Shawn Tolleson,RP,TEX,4000,0,0,0,25,30,Injured:1
1967954,Ronald Herrera,RP,TEX,4000,0,0,0,25,30,
1967956,Nick Gardewine,RP,TEX,4000,0,0,0,25,30,
1967979,Pedro Beato,RP,PHI,4000,0,0,0,22,30,Injured:1
1967981,Josh Smoker,RP,PIT,4000,0,0,0,19,30,
1967988,Richard Rodriguez,RP,PIT,4000,0,0,0,19,30,
1967990,Michael Feliz,RP,PIT,4000,0,0,0,19,30,Injured:1
1968404,Scott Kingery,SS,PHI,3000,6.39,0,0,93,285,Starter:1|LineupSpot6:1|PlayerMatchupIsGreat:1
1968406,Gavin Cecchini,SS,NYM,2900,0,0,0,16,285,
1968411,Carter Kieboom,SS,WAS,2200,0,0,0,199,285,
1968413,Jose Ramirez,3B,CLE,5800,12.17,0,0,45,285,Starter:1|LineupSpot3:1|WindHurting:1|PlayerMatchupIsHorribad:1|PlayerMatchupIsGreat:1|ThumbUp:2
1968415,Josh Donaldson,3B,TOR,4400,0,0,0,164,285,Injured:1
1971839,Michael Brantley,OF,CLE,4900,8.25,0,0,45,285,Starter:1|LineupSpot2:1|WindHurting:1|PlayerMatchupIsHorribad:1|PlayerMatchupIsGreat:1|StarGood:1
1971841,Rhys Hoskins,OF,PHI,4900,9.57,0,0,93,285,Starter:1|LineupSpot2:1|PlayerMatchupIsGreat:2|ThumbUp:1
1971846,Gregory Polanco,OF,PIT,4400,8.74,0,0,200,285,Starter:1|LineupSpot3:1|PlayerMatchupIsGreat:2|VegasGood:1
1971848,Teoscar Hernandez,OF,TOR,4200,8.79,0,0,164,285,Starter:1|LineupSpot2:1|PlayerMatchupIsHorribad:1|PlayerMatchupIsGreat:1|ThumbUp:2
1971871,Dalton Pompey,OF,TOR,3400,0,0,0,105,285,Injured:1
1971873,Anthony Alford,OF,TOR,3400,0,0,0,164,285,
1968432,Kevin Kiermaier,OF,TB,3300,7.4,0,0,58,285,Starter:1|LineupSpot1:1|WindHurting:1|PlayerMatchupIsHorribad:2|PlayerMatchupIsGreat:2|StarBad:1
1968434,Matt Joyce,OF,OAK,3200,0,0,0,93,285,
1968506,Michael Saunders,OF,TOR,2800,0,0,0,105,285,
1968508,Matt den Dekker,OF,NYM,2800,0,0,0,2,285,
1968515,Lazaro Armenteros,OF,OAK,2700,0,0,0,73,285,
1968517,Kevin Kaczmarski,OF,NYM,2700,0,0,0,2,285,
1969221,Jake Bauers,1B,TB,3600,6.9,0,0,58,285,Starter:1|LineupSpot3:1|WindHurting:1|PlayerMatchupIsHorribad:2|PlayerMatchupIsGreat:1|StarBad:1
1969223,Garrett Cooper,1B,MIA,3400,7.47,0,0,107,285,Starter:1|LineupSpot6:1|PlayerMatchupIsGreat:1|PlayerIsCold:1
1969228,Tommy Joseph,1B,TEX,3200,0,0,0,201,285,
1969230,Victor Martinez,1B,DET,3000,6.12,0,0,179,285,Starter:1|LineupSpot4:1|WindHelping:1|PlayerMatchupIsHorribad:1|PlayerMatchupIsGreat:1|PlayerIsCold:1|ThumbDown:1
1968236,Russell Martin,C,TOR,2900,6.64,0,0,164,285,Starter:1|LineupSpot6:1|PlayerMatchupIsHorribad:1|VegasGood:1
1968238,Sean Murphy,C,OAK,2900,0,0,0,73,285,
1968926,Jorge Alfaro,C,PHI,2800,0,0,0,93,285,
1968928,Spencer Kieboom,C,WAS,2700,5.62,0,0,199,285,Starter:1|LineupSpot8:1|PlayerMatchupIsHorribad:1|PlayerIsHot:1|VegasGood:2|StarGood:1
1968951,Ty Kelly,2B/3B,NYM,2700,0,0,0,2,285,
1968953,Adrian Sanchez,2B/3B,WAS,2500,0,0,0,199,285,
1968960,Gleyber Torres,2B,NYY,4000,0,0,0,252,285,Injured:1
1968962,Jason Kipnis,2B,CLE,3700,6.43,0,0,45,285,Starter:1|LineupSpot6:1|WindHurting:1|PlayerMatchupIsHorribad:1|StarGood:1
1969619,Adam Frazier,2B/OF,PIT,3200,0,0,0,200,285,
1969621,Howie Kendrick,2B/OF,WAS,2500,0,0,0,199,285,Injured:1
1969626,Miguel Rojas,3B/SS,MIA,3100,6.63,0,0,107,285,Starter:1|LineupSpot7:1|PlayerIsCold:1
1969628,Gio Urshela,3B/SS,TOR,2800,0,0,0,164,285,
1969630,Yadiel Rivera,3B/SS,MIA,2700,0,0,0,107,285,
1968653,Alexi Amarista,OF/SS,DET,2400,0,0,0,179,285,
1968655,Justin Verlander,SP,HOU,13400,0,0,0,15,30,OptimalPick:1
1968657,James Paxton,SP,SEA,12500,0,0,0,8,30,
1968662,Jose Berrios,SP,MIN,11800,0,0,0,28,30,
1968664,Patrick Corbin,SP,ARI,11100,0,0,0,27,30,
1968736,Fernando Romero,SP,MIN,8500,0,0,0,28,30,
1968738,Kyle Freeland,SP,COL,8300,0,0,0,14,30,
1967993,Clay Buchholz,SP,ARI,7900,0,0,0,27,30,Injured:1
1968677,Marco Gonzales,SP,SEA,7800,0,0,0,8,30,
1968700,Julio Teheran,SP,ATL,7000,0,0,0,7,30,Injured:1
1968702,Taijuan Walker,SP,ARI,6700,0,0,0,27,30,Injured:1
1968709,Alex Meyer,SP,LAA,6500,0,0,0,5,30,Injured:1
1968711,Drew Pomeranz,SP,BOS,6400,0,0,0,30,30,Injured:1
1968253,Hector Velazquez,SP,BOS,5300,0,0,0,30,30,
1968255,Stephen Gonsalves,SP,MIN,5300,0,0,0,28,30,
1968260,Chase De Jong,SP,SEA,5100,0,0,0,8,30,
1968262,Aaron Blair,SP,ATL,5100,0,0,0,7,30,
1967527,Chris Carter,1B,LAA,2200,0,0,0,48,285,
1967529,Max Muncy,1B/3B,LAD,5000,8.79,0,0,66,285,ExpectedStarter:1|LineupSpot2:1|PlayerMatchupIsHorribad:1|PlayerMatchupIsGreat:2|VegasGood:1|ThumbUp:2
1967536,Ryan McMahon,1B/3B,COL,3100,0,0,0,202,285,
1967538,Cheslor Cuthbert,1B/3B,KC,2800,0,0,0,117,285,Injured:1
1967561,Breyvic Valera,2B/SS,LAD,2900,0,0,0,66,285,
1967563,Kelby Tomlinson,2B/SS,SF,2800,0,0,0,41,285,
1967570,Engelb Vielma,2B/SS,BAL,2400,0,0,0,176,285,
1967572,Andres Blanco,2B/SS,SF,2100,0,0,0,157,285,
1967595,A.J. Pollock,OF,ARI,4900,10.22,0,0,172,285,Starter:1|LineupSpot4:1|PlayerMatchupIsGreat:2
1967597,Charlie Blackmon,OF,COL,4900,10.28,0,0,202,285,Starter:1|LineupSpot2:1|PlayerMatchupIsGreat:2|PlayerMatchupIsHorribad:2
1967602,Christian Yelich,OF,MIL,4700,9.39,0,0,133,285,Starter:1|LineupSpot2:1|PlayerMatchupIsHorribad:1|PlayerMatchupIsGreat:2|ThumbUp:1
1967604,Mitch Haniger,OF,SEA,4600,0,0,0,229,285,Injured:1
1967606,Jon Jay,OF,ARI,3600,0,0,0,12,285,
1967627,Gregor Blanco,OF,SF,3300,0,0,0,157,285,
1967629,Socrates Brito,OF,ARI,3200,0,0,0,12,285,
1967631,Kyle Tucker,OF,HOU,3200,0,0,0,185,285,
1967636,Alex Verdugo,OF,LAD,3200,0,0,0,66,285,
1967638,Jabari Blash,OF,LAA,3200,0,0,0,48,285,
1967663,Carlos Correa,SS,HOU,4800,0,0,0,60,285,Injured:1
1967665,Trevor Story,SS,COL,4600,8.11,0,0,105,285,Starter:1|LineupSpot5:1|PlayerMatchupIsGreat:1|PlayerMatchupIsHorribad:1|StarBad:1
1967672,Yairo Munoz,SS,STL,3400,0,0,0,53,285,
1967674,Fernando Tatis Jr.,SS,SD,3200,0,0,0,179,285,
1967697,Jake Lamb,3B,ARI,4200,0,0,0,12,285,
1967699,Justin Turner,3B,LAD,4100,8.15,0,0,34,285,ExpectedStarter:1|LineupSpot3:1|PlayerMatchupIsHorribad:1|PlayerMatchupIsGreat:1|ThumbUp:1
1967706,Carson Kelly,C,STL,2500,0,0,0,53,285,
1967708,Tuffy Gosewisch,C,SEA,2200,0,0,0,229,285,
1967731,Dee Gordon,2B/OF,SEA,4100,8.62,0,0,169,285,Starter:1|LineupSpot1:1|PlayerMatchupIsGreat:2|PlayerMatchupIsHorribad:1|ThumbDown:1
1967733,Whit Merrifield,2B/OF,KC,3500,8.07,0,0,117,285,Starter:1|LineupSpot1:1|WindHurting:1|PlayerMatchupIsGreat:1|PlayerMatchupIsHorribad:1
1967738,Nick Franklin,2B/OF,MIL,2800,0,0,0,133,285,Injured:1
1967740,Kike Hernandez,OF/SS,LAD,3600,6.65,0,0,34,285,ExpectedStarter:1|LineupSpot7:1|PlayerMatchupIsHorribad:1|PlayerMatchupIsGreat:1|VegasBad:1|ThumbUp:1
1967763,Mike Marjama,C,SEA,3100,0,0,0,229,285,
1967765,Sandy Leon,C,BOS,3100,5.84,0,0,195,285,Starter:1|LineupSpot8:1|WindHurting:1|PlayerMatchupIsGreat:1|PlayerMatchupIsHorribad:1|PlayerIsCold:1|VegasGood:1
1967772,Manny Pina,C,MIL,2900,6.16,0,0,50,285,Starter:1|LineupSpot7:1|PlayerMatchupIsHorribad:2|PlayerMatchupIsGreat:1|ThumbDown:1
1967774,Rob Brantly,C,ATL,2900,0,0,0,42,285,
1967797,Jeff Mathis,C,ARI,2500,0,0,0,172,285,
1967799,Tony Zych,RP,SEA,4000,0,0,0,8,30,Injured:1
1967806,Tim Beckham,3B,BAL,3200,6.95,0,0,83,285,Starter:1|LineupSpot1:1|PlayerMatchupIsHorribad:1|PlayerMatchupIsGreat:1
1967808,Austin Riley,3B,ATL,3000,0,0,0,13,285,
1967831,Chase Utley,2B,LAD,2800,0,0,0,66,285,
1967833,Keston Hiura,2B,MIL,2700,0,0,0,50,285,
1967838,Paul Goldschmidt,1B,ARI,5100,11.29,0,0,172,285,Starter:1|LineupSpot3:1|PlayerMatchupIsGreat:2|PlayerIsCold:1|StarBad:1
1967840,Brandon Belt,1B,SF,4700,8.19,0,0,157,285,ExpectedStarter:1|LineupSpot4:1|PlayerMatchupIsHorribad:2|PlayerMatchupIsGreat:1|PlayerIsCold:1
1967842,Jose Martinez,1B,STL,4400,0,0,0,53,285,
1967863,Charlie Tilson,OF,CWS,2900,0,0,0,48,285,
1967865,Jacob May,OF,CWS,2900,0,0,0,48,285,
1967867,Bubba Starling,OF,KC,2900,0,0,0,117,285,
1967872,Anthony Santander,OF,BAL,2900,0,0,0,176,285,
1967874,Willy Garcia,OF,CWS,2800,0,0,0,209,285,Injured:1
1967898,Tim Melville,SP,BAL,4000,0,0,0,21,30,
1967900,Tyler Duffey,SP,MIN,4000,0,0,0,28,30,
1967907,Parker Bridwell,RP,LAA,7300,0,0,0,5,30,
1967909,Felix Pena,RP,LAA,6600,8.34,0,0,5,30,Starter:1|PlayerMatchupIsHorribad:2|ThumbDown:1
1967932,Yoshihisa Hirano,RP,ARI,4000,0,0,0,27,30,
1967934,Michael Blazek,RP,ARI,4000,0,0,0,27,30,
1967941,Silvino Bracho,RP,ARI,4000,0,0,0,27,30,
1967995,Ronald Acuna Jr.,OF,ATL,4600,6.72,0,0,13,285,Starter:1|LineupSpot7:1|PlayerMatchupIsHorribad:1|PlayerMatchupIsGreat:3|PlayerIsCold:1
1968047,Mike Wright Jr.,SP,BAL,4400,0,0,0,21,30,
1968049,Braden Shipley,SP,ARI,4300,0,0,0,27,30,
1968054,Jorge De La Rosa,SP,ARI,4000,0,0,0,27,30,
1968056,Bryan Mitchell,SP,SD,4000,0,0,0,23,30,Injured:1
1968079,Richard Lovelady,SP,KC,4000,0,0,0,2,30,
1968081,Chris Heston,SP,SF,4000,0,0,0,20,30,
1968088,Luis Ortiz,SP,MIL,4000,0,0,0,11,30,
1968113,Jose Alvarez,RP,LAA,4000,0,0,0,5,30,
1968115,JT Chargois,RP,LAD,4000,0,0,0,12,30,
1968122,Cam Bedrosian,RP,LAA,4000,0,0,0,5,30,
1968124,Scott Alexander,RP,LAD,4000,0,0,0,12,30,
1968150,Brandon Maurer,RP,KC,4000,0,0,0,2,30,
1968152,Jason Adam,RP,KC,4000,0,0,0,2,30,
1968157,Tim Hill,RP,KC,4000,0,0,0,2,30,
1968159,Kevin McCarthy,RP,KC,4000,0,0,0,2,30,
1968161,Brett Cecil,RP,STL,4000,0,0,0,17,30,
1968182,Peter Moylan,RP,ATL,4000,0,0,0,7,30,Injured:1
1968184,Jeremy Jeffress,RP,MIL,4000,0,0,0,11,30,
1968186,Sam Freeman,RP,ATL,4000,0,0,0,7,30,
1968193,Tyler Pill,RP,ARI,4000,0,0,0,27,30,
1968195,Jose Castillo,RP,SD,4000,0,0,0,23,30,
1968218,Mike Dunn,RP,COL,4000,0,0,0,14,30,
1968220,Jake McGee,RP,COL,4000,0,0,0,14,30,
1968227,Alex Colome,RP,SEA,4000,0,0,0,8,30,
1968229,Zac Rosscup,RP,COL,4000,0,0,0,14,30,Injured:1
1968283,Joan Gregorio,SP,SF,4500,0,0,0,20,30,Injured:1
1968285,Alex Cobb,SP,BAL,4500,0,0,0,21,30,
1968291,Corey Kluber,SP,CLE,12900,0,0,0,16,30,
1968298,J.A. Happ,SP,TOR,10100,0,0,0,4,30,
1968305,Danny Salazar,SP,CLE,8800,0,0,0,16,30,Injured:1
1968316,Chad Kuhl,SP,PIT,7700,0,0,0,19,30,Injured:1
1968323,Ivan Nova,SP,PIT,7000,0,0,0,19,30,
1968330,Marco Estrada,SP,TOR,6700,0,0,0,4,30,Injured:1
1969119,Ben Lively,SP,PHI,6200,0,0,0,22,30,
1969126,Sandy Alcantara,SP,MIA,5800,0,0,0,13,30,Injured:1
1969133,Chris Bassitt,SP,OAK,5500,0,0,0,1,30,
1969144,Sam Gaviglio,SP,TOR,5100,8.69,0,0,4,30,Starter:1|VegasBad:1|CrowdNegative:3|PlayerMatchupIsGood:1|PlayerMatchupIsHorribad:2|VegasGood:1|StarGood:1
1969151,Daniel Norris,SP,DET,5000,0,0,0,10,30,Injured:1
1968964,Yovani Gallardo,SP,TEX,4600,0,0,0,25,30,
1969169,Jeff Locke,SP,MIA,4300,0,0,0,13,30,
1969176,Jason Vargas,SP,NYM,4200,0,0,0,29,30,Injured:1
1969183,Jon Harris,SP,TOR,4000,0,0,0,4,30,
1969194,Adrian Sampson,SP,TEX,4000,0,0,0,25,30,Injured:1
1969201,Spencer Turnbull,SP,DET,4000,0,0,0,10,30,
1969359,JoJo Romero,SP,PHI,4000,0,0,0,22,30,
1969363,Blaine Hardy,RP,DET,6600,0,0,0,10,30,
1969370,Austin Bibens-Dirkx,RP,TEX,4600,0,0,0,25,30,
1969377,Robert Gsellman,RP,NYM,4400,0,0,0,29,30,
1969384,Sean Doolittle,RP,WAS,4000,0,0,0,26,30,
1969388,Matt Grace,RP,WAS,4000,0,0,0,26,30,
1969395,Austin Voth,RP,WAS,4000,0,0,0,26,30,
1969402,Tyler Clippard,RP,TOR,4000,0,0,0,4,30,
1968021,Adam Warren,RP,NYY,4000,0,0,0,18,30,
1968025,Aroldis Chapman,RP,NYY,4000,0,0,0,18,30,
1968032,Jonathan Holder,RP,NYY,4000,0,0,0,18,30,
1968039,Ryan Buchter,RP,OAK,4000,0,0,0,1,30,
1968635,Cody Allen,RP,CLE,4000,0,0,0,16,30,
1968642,Lou Trivino,RP,OAK,4000,0,0,0,1,30,
1967946,Shane Greene,RP,DET,4000,0,0,0,10,30,Injured:1
1967957,Joe Jimenez,RP,DET,4000,0,0,0,10,30,
1967964,Evan Scribner,RP,TB,4000,0,0,0,24,30,Injured:1
1967971,Jamie Callahan,RP,NYM,4000,0,0,0,29,30,
1967982,Luis Garcia,RP,PHI,4000,0,0,0,22,30,Injured:1
1967989,Dovydas Neverauskas,RP,PIT,4000,0,0,0,19,30,
1968387,Victor Arano,RP,PHI,4000,0,0,0,22,30,
1968398,Troy Tulowitzki,SS,TOR,3200,0,0,0,164,285,Injured:1
1968405,Thairo Estrada,SS,NYY,2900,0,0,0,252,285,
1968412,Andres Gimenez,SS,NYM,2200,0,0,0,2,285,
1968423,Matt Duffy,3B,TB,3300,6.78,0,0,37,285,Starter:1|LineupSpot2:1|WindHurting:1|PlayerMatchupIsHorribad:2|PlayerMatchupIsGreat:1|ThumbDown:1
1968287,Brandon Snyder,3B,TB,2600,0,0,0,37,285,
1971838,Aaron Hicks,OF,NYY,4900,9.87,0,0,191,285,Starter:1|LineupSpot3:1|PlayerMatchupIsGreat:2|PlayerIsHot:1
1971849,Brandon Nimmo,OF,NYM,4200,7.94,0,0,2,285,Starter:1|LineupSpot1:1|WindHurting:1|PlayerMatchupIsHorribad:2|PlayerMatchupIsGreat:1|VegasBad:1
1971856,Leonys Martin,OF,DET,3900,0,0,0,179,285,Injured:1
1971863,Delino DeShields,OF,TEX,3700,6.57,0,0,201,285,Starter:1|LineupSpot9:1|WindHelping:1|PlayerMatchupIsGreat:3|PlayerIsCold:1|StarBad:1|ThumbDown:1
1971874,Nick Williams,OF,PHI,3400,7.77,0,0,107,285,Starter:1|LineupSpot5:1|PlayerMatchupIsHorribad:1|PlayerMatchupIsGreat:1|VegasGood:1
1968433,Melky Cabrera,OF,CLE,3200,0,0,0,45,285,
1968489,Estevan Florial,OF,NYY,3100,0,0,0,191,285,
1968500,Braxton Lee,OF,MIA,2900,0,0,0,34,285,
1968507,Carlos Tocci,OF,TEX,2800,0,0,0,201,285,
1968514,Nick Martini,OF,OAK,2700,0,0,0,93,285,
1969158,Garrett Whitley,OF,TB,2300,0,0,0,37,285,
1969213,Justin Smoak,1B,TOR,4100,7.69,0,0,105,285,Starter:1|LineupSpot4:1|PlayerMatchupIsHorribad:1|PlayerMatchupIsGreat:1|PlayerIsCold:1|ThumbUp:2
1969220,C.J. Cron,1B,TB,3600,0,0,0,37,285,
1969231,Miguel Cabrera,1B,DET,2500,0,0,0,232,285,Injured:1
1969238,Wilson Ramos,C,TB,3500,6.69,0,0,37,285,Starter:1|LineupSpot4:1|WindHurting:1|PlayerMatchupIsHorribad:2|PlayerMatchupIsGreat:1|ThumbUp:2
1969245,Derek Norris,C,DET,3200,0,0,0,232,285,
1968239,James McCann,C,DET,2900,6.18,0,0,232,285,Starter:1|LineupSpot6:1|WindHelping:1|PlayerMatchupIsGreat:3|PlayerMatchupIsHorribad:1|StarGood:1|ThumbDown:1
1968927,Raudy Read,C,WAS,2700,0,0,0,199,285,
1968934,Miguel Montero,C,WAS,2500,0,0,0,207,285,
1968945,T.J. Rivera,2B/3B,NYM,2900,0,0,0,16,285,
1968952,Luis Guillorme,2B/3B,NYM,2600,0,0,0,2,285,
1968959,Starlin Castro,2B,MIA,4200,7.74,0,0,107,285,Starter:1|LineupSpot1:1|PlayerIsHot:1|VegasBad:1
1969604,Dixon Machado,2B,DET,2800,0,0,0,232,285,
1969611,Ji-Man Choi,1B/OF,TB,3000,0,0,0,58,285,
1969618,Chad Pinder,2B/OF,OAK,3300,0,0,0,73,285,
1969629,Phillip Evans,3B/SS,NYM,2800,0,0,0,16,285,
1969636,David Freese,1B/3B,PIT,2900,0,0,0,195,285,
1969643,Hanser Alberto,2B/SS,TEX,2800,0,0,0,201,285,
1968656,Gerrit Cole,SP,HOU,13000,0,0,0,15,30,
1968663,Madison Bumgarner,SP,SF,11200,0,0,0,20,30,
1968670,Robbie Ray,SP,ARI,10000,0,0,0,27,30,
1968730,Hyun-Jin Ryu,SP,LAD,8900,0,0,0,12,30,Injured:1
1968737,Eduardo Rodriguez,SP,BOS,8400,0,0,0,30,30,
1967992,Garrett Richards,SP,LAA,8000,0,0,0,5,30,
1968685,Michael Kopech,SP,CWS,7600,0,0,0,3,30,
1968692,Luke Weaver,SP,STL,7300,0,0,0,17,30,OptimalPick:1
1968699,Collin McHugh,SP,HOU,7000,0,0,0,15,30,
1968703,Alex Reyes,SP,STL,6700,0,0,0,17,30,Injured:1
1968710,Nate Karns,SP,KC,6400,0,0,0,2,30,
1968717,Reynaldo Lopez,SP,CWS,6100,6.71,0,0,3,30,Starter:1|VegasBad:3|PlayerMatchupIsGreat:1|CrowdNegative:2|PlayerMatchupIsBad:1|PlayerMatchupIsHorribad:2|ThumbDown:2
1968243,Scott Kazmir,SP,ATL,5700,0,0,0,7,30,Injured:1
1968247,Lucas Sims,SP,ATL,5600,0,0,0,7,30,
1968254,Corbin Burnes,SP,MIL,5300,0,0,0,11,30,
1968261,Ty Blach,SP,SF,5100,0,0,0,20,30,
1967510,Joe Mauer,1B,MIN,3600,7.75,0,0,189,285,Starter:1|LineupSpot1:1|PlayerMatchupIsHorribad:1|PlayerMatchupIsGreat:1|PlayerIsCold:1
1967514,Daniel Vogelbach,1B,SEA,3300,0,0,0,169,285,
1967521,Hunter Dozier,1B,KC,2800,5.45,0,0,117,285,Starter:1|LineupSpot6:1|WindHurting:1|PlayerMatchupIsHorribad:1
1967528,Nick Pratto,1B,KC,2100,0,0,0,11,285,
1967539,Chase Headley,1B/3B,SD,2500,0,0,0,98,285,
1967546,J.D. Davis,1B/OF,HOU,3700,0,0,0,60,285,
1967553,Michael Morse,1B/OF,SF,2400,0,0,0,41,285,Injured:1
1967564,Chase d'Arnaud,2B/SS,SF,2800,0,0,0,41,285,
1967571,Christian Colon,2B/SS,ATL,2300,0,0,0,13,285,
1967578,Miguel Castro,RP,BAL,4000,0,0,0,21,30,
1967589,Ryan Meisinger,RP,BAL,4000,0,0,0,21,30,
1967596,George Springer,OF,HOU,4900,9.07,0,0,60,285,Starter:1|LineupSpot1:1|PlayerMatchupIsHorribad:2|PlayerIsCold:1
1967603,David Peralta,OF,ARI,4600,6.62,0,0,12,285,Starter:1|LineupSpot1:1|PlayerMatchupIsHorribad:1|PlayerMatchupIsGreat:1
1967614,Franchy Cordero,OF,SD,3500,0,0,0,98,285,Injured:1
1967621,Tim Locastro,OF,LAD,3400,0,0,0,34,285,
1967628,Yusniel Diaz,OF,LAD,3300,0,0,0,34,285,
1967639,Jahmai Jones,OF,LAA,3200,0,0,0,48,285,
1967646,Cesar Puello,OF,ARI,3100,0,0,0,172,285,
1967655,Khalil Lee,OF,KC,2100,0,0,0,11,285,
1967666,Xander Bogaerts,SS,BOS,4600,8.08,0,0,230,285,Starter:1|LineupSpot5:1|WindHurting:1|PlayerMatchupIsGreat:2|PlayerMatchupIsHorribad:1|ThumbUp:1
1967673,Nick Ahmed,SS,ARI,3200,8.4,0,0,172,285,Starter:1|LineupSpot2:1|PlayerMatchupIsGreat:2
1967680,Mauricio Dubon,SS,MIL,2900,0,0,0,50,285,
1967691,Royce Lewis,SS,MIN,2000,0,0,0,100,285,
1967698,Kyle Seager,3B,SEA,4200,7.29,0,0,169,285,Starter:1|LineupSpot5:1|PlayerMatchupIsGreat:1|PlayerMatchupIsHorribad:1|StarBad:1
1967705,Drew Butera,C,KC,2500,0,0,0,117,285,
1967716,Jedd Gyorko,2B/3B,STL,3300,6.48,0,0,53,285,Starter:1|LineupSpot5:1|PlayerMatchupIsHorribad:4|OptimalPick:1
1967723,Josh Rutledge,2B/3B,SF,2500,0,0,0,41,285,
1967730,Ruben Tejada,3B/SS,BAL,2500,0,0,0,83,285,
1967741,Renato Nunez,3B/OF,BAL,3400,0,0,0,83,285,
1967748,Brad Miller,2B/SS,MIL,3500,7.25,0,0,133,285,Starter:1|LineupSpot6:1|PlayerMatchupIsHorribad:1|PlayerMatchupIsGreat:1|ThumbUp:1
1967755,Max Stassi,C,HOU,3600,0,0,0,60,285,Injured:1
1967766,Tim Federowicz,C,HOU,3000,4.62,0,0,60,285,Starter:1|LineupSpot8:1|PlayerMatchupIsHorribad:3|VegasBad:1|StarBad:1
1967773,Jacob Nottingham,C,MIL,2900,0,0,0,50,285,
1967780,Dustin Garneau,C,CWS,2800,0,0,0,209,285,
1967791,Rene Rivera,C,LAA,2700,0,0,0,48,285,Injured:1
1967798,Welington Castillo,C,CWS,2500,0,0,0,209,285,Injured:1
1967805,Lucas Erceg,3B,MIL,3200,0,0,0,133,285,
1967816,Ozzie Albies,2B,ATL,5600,9.48,0,0,42,285,Starter:1|LineupSpot2:1|PlayerMatchupIsHorribad:1|PlayerMatchupIsGreat:2|PlayerIsHot:1
1967823,Ian Kinsler,2B,LAA,3400,6.12,0,0,48,285,ExpectedStarter:1|LineupSpot7:1|PlayerMatchupIsHorribad:1|PlayerIsCold:1|VegasBad:1|VegasGood:1|ThumbDown:1
1967830,Daniel Castro,2B,COL,2800,0,0,0,105,285,
1967841,Mitch Moreland,1B,BOS,4600,0,0,0,195,285,Injured:1
1967848,Andrew Chafin,RP,ARI,4000,0,0,0,27,30,
1967855,Jorge Bonifacio,OF,KC,3000,5.61,0,0,117,285,Starter:1|LineupSpot5:1|WindHurting:1|PlayerMatchupIsHorribad:1|StarGood:1
1967866,Rosell Herrera,OF,KC,2900,5.49,0,0,117,285,Starter:1|LineupSpot2:1|WindHurting:1|PlayerMatchupIsGreat:1|PlayerMatchupIsHorribad:1|PlayerIsHot:1|VegasBad:2|StarGood:1|ThumbUp:1
1967873,Matt Szczur,OF,SD,2800,0,0,0,179,285,
1967880,Craig Gentry,OF,BAL,2800,0,0,0,83,285,Injured:1
1967891,Paulo Orlando,OF,KC,2400,0,0,0,117,285,
1967899,David Holmberg,SP,BAL,4000,0,0,0,21,30,
1967906,Wade LeBlanc,RP,SEA,7800,0,0,0,8,30,
1967917,Grant Dayton,RP,ATL,5100,0,0,0,7,30,Injured:1
1967924,Dan Winkler,RP,ATL,4500,0,0,0,7,30,
1967931,Brad Boxberger,RP,ARI,4000,0,0,0,27,30,
1967942,Steve Hathaway,RP,ARI,4000,0,0,0,27,30,
1968001,Shohei Ohtani,OF,LAA,4200,0,0,0,146,285,
1968008,Derek Fisher,OF,HOU,3800,0,0,0,185,285,
1968012,Hunter Renfroe,OF,SD,3700,7.71,0,0,179,285,Starter:1|LineupSpot4:1|PlayerMatchupIsGreat:2|PlayerMatchupIsHorribad:1|PlayerIsCold:1
1968048,Kris Medlen,SP,ARI,4300,0,0,0,27,30,
1968055,Robbie Erlin,SP,SD,4000,0,0,0,23,30,
1968062,Franklin Perez,SP,HOU,4000,0,0,0,15,30,
1968066,Antonio Senzatela,SP,COL,4000,0,0,0,14,30,
1968073,Kyle Zimmer,SP,KC,4000,0,0,0,2,30,
1968080,Matt Cain,SP,SF,4000,0,0,0,20,30,
1968098,Luke Jackson,RP,ATL,4000,0,0,0,7,30,
1968105,Jim Johnson,RP,LAA,4000,0,0,0,5,30,Injured:1
1968116,Tony Cingrani,RP,LAD,4000,0,0,0,12,30,Injured:1
1968123,Erik Goeddel,RP,LAD,4000,0,0,0,12,30,
1968130,Fernando Rodney,RP,MIN,4000,0,0,0,28,30,
1968144,Dan Altavilla,RP,SEA,4000,0,0,0,8,30,Injured:1
1968151,Carson Smith,RP,BOS,4000,0,0,0,30,30,Injured:1
1968158,Heath Fillmyer,RP,KC,4000,0,0,0,2,30,
1968169,Will Smith,RP,SF,4000,0,0,0,20,30,
1968176,Sam Tuivailala,RP,STL,4000,0,0,0,17,30,
1968183,Matt Albers,RP,MIL,4000,0,0,0,11,30,Injured:1
1968196,Adam Cimber,RP,SD,4000,0,0,0,23,30,
1968203,Will Harris,RP,HOU,4000,0,0,0,15,30,
1968210,Jandel Gustave,RP,HOU,4000,0,0,0,15,30,Injured:1
1968221,Adam Ottavino,RP,COL,4000,0,0,0,14,30,
1968228,Bryan Shaw,RP,COL,4000,0,0,0,14,30,Injured:1
1968235,Casey Lawrence,RP,SEA,4000,0,0,0,8,30,
1968277,Taylor Clarke,SP,ARI,4600,0,0,0,27,30,
1968284,Brock Stewart,SP,LAD,4500,0,0,0,12,30,
1968294,Blake Snell,SP,TB,11900,0,0,0,24,30,
1968295,Carlos Carrasco,SP,CLE,10800,24.16,0,0,16,30,Starter:1|WindHelping:1|VegasGood:2|CrowdNegative:1|PlayerMatchupIsBad:1|PlayerMatchupIsHorribad:2|PlayerMatchupIsGood:1|VegasBad:1|StarBad:1|ThumbDown:1
1968309,Jameson Taillon,SP,PIT,8400,0,0,0,19,30,
1968312,Matthew Boyd,SP,DET,8000,0,0,0,10,30,
1968326,Edwin Jackson,SP,OAK,6900,0,0,0,1,30,
1968327,Sonny Gray,SP,NYY,6800,14.9,0,0,18,30,Starter:1|VegasGood:2|CrowdNegative:3|PlayerMatchupIsGreat:1|PlayerMatchupIsHorribad:1|PlayerMatchupIsGood:1|CrowdPositive:1|StarGood:1
1969122,Steven Matz,SP,NYM,6100,0,0,0,29,30,
1969123,Adam Plutko,SP,CLE,6000,0,0,0,16,30,
1969137,Ryan Carpenter,SP,DET,5400,0,0,0,10,30,Injured:1
1969140,Erick Fedde,SP,WAS,5300,0,0,0,26,30,Injured:1
1969154,Sixto Sanchez,SP,PHI,5000,0,0,0,22,30,
1969155,Jake Thompson,SP,PHI,4700,0,0,0,22,30,
1969172,Wei-Yin Chen,SP,MIA,4200,0,0,0,13,30,
1969173,Elieser Hernandez,SP,MIA,4200,0,0,0,13,30,
1969187,Raul Alcantara,SP,OAK,4000,0,0,0,1,30,
1969190,Doug Fister,SP,TEX,4000,0,0,0,25,30,Injured:1
1969191,Paolo Espino,SP,TEX,4000,0,0,0,25,30,
1969204,P.J. Conlon,SP,NYM,4000,0,0,0,29,30,
1968189,Nik Turley,SP,PIT,4000,0,0,0,19,30,Injured:1
1969373,Steven Brault,RP,PIT,4600,0,0,0,19,30,
1969374,Shawn Morimando,RP,CLE,4500,0,0,0,16,30,
1969391,Drew Rucinski,RP,MIA,4000,0,0,0,13,30,
1969392,Brett Graves,RP,MIA,4000,0,0,0,13,30,
1968017,David Robertson,RP,NYY,4000,0,0,0,18,30,
1968018,John Axford,RP,TOR,4000,0,0,0,4,30,
1968035,Santiago Casilla,RP,OAK,4000,0,0,0,1,30,
1968036,Chris Smith,RP,OAK,4000,0,0,0,1,30,
1968638,Ryan Merritt,RP,CLE,4000,0,0,0,16,30,Injured:1
1968639,Nick Goody,RP,CLE,4000,0,0,0,16,30,Injured:1
1967949,Alex Claudio,RP,TEX,4000,0,0,0,25,30,
1967950,Drew VerHagen,RP,DET,4000,0,0,0,10,30,Injured:1
1967953,Keone Kela,RP,TEX,4000,0,0,0,25,30,
1967967,AJ Ramos,RP,NYM,4000,0,0,0,29,30,Injured:1
1967968,Vidal Nuno,RP,TB,4000,0,0,0,24,30,Injured:1
1967985,Felipe Vazquez,RP,PIT,4000,0,0,0,19,30,
1967986,Edubray Ramos,RP,PHI,4000,0,0,0,22,30,Injured:1
1968391,Trea Turner,SS,WAS,4700,11.05,0,0,199,285,Starter:1|LineupSpot1:1|PlayerMatchupIsGreat:1|OptimalPick:1|VegasGood:1|VegasBad:1
1968394,Marcus Semien,SS,OAK,3800,6.4,0,0,73,285,Starter:1|LineupSpot8:1|WindHurting:1|PlayerMatchupIsHorribad:2|VegasGood:1|ThumbDown:1
1968408,Jordy Mercer,SS,PIT,2900,5.59,0,0,195,285,Starter:1|LineupSpot8:1|PlayerMatchupIsHorribad:2|VegasGood:1|ThumbDown:1
1968409,Adeiny Hechavarria,SS,TB,2600,0,0,0,37,285,
1968426,David Wright,3B,NYM,3100,0,0,0,16,285,Injured:1
1968427,Ke'Bryan Hayes,3B,PIT,3100,0,0,0,195,285,
1971842,Shin-soo Choo,OF,TEX,4800,10.91,0,0,216,285,Starter:1|LineupSpot1:1|WindHelping:1|PlayerMatchupIsGreat:3|PlayerIsHot:1|VegasGood:1|ThumbUp:1
1971845,Starling Marte,OF,PIT,4400,9.13,0,0,195,285,Starter:1|LineupSpot2:1|PlayerMatchupIsHorribad:1|PlayerMatchupIsGreat:1
1971859,Derek Dietrich,OF,MIA,3700,0,0,0,34,285,
1971860,Michael A. Taylor,OF,WAS,3700,0,0,0,199,285,
1968429,Rajai Davis,OF,CLE,3300,0,0,0,207,285,
1968430,Lonnie Chisenhall,OF,CLE,3300,0,0,0,45,285,Injured:1
1968493,Jordan Luplow,OF,PIT,3100,0,0,0,195,285,
1968496,Mallex Smith,OF,TB,3000,6.44,0,0,58,285,Starter:1|LineupSpot7:1|WindHurting:1|PlayerMatchupIsHorribad:2|PlayerMatchupIsGreat:1|StarBad:1|ThumbDown:1
1968510,Aaron Altherr,OF,PHI,2800,0,0,0,93,285,
1968511,JB Shuck,OF,MIA,2700,0,0,0,34,285,
1969161,Mickey Moniak,OF,PHI,2200,0,0,0,107,285,
1969162,Leody Taveras,OF,TEX,2000,0,0,0,216,285,
1969224,Tyler Austin,1B,NYY,3400,0,0,0,252,285,
1969227,Ronald Guzman,1B,TEX,3300,7.34,0,0,216,285,Starter:1|LineupSpot7:1|WindHelping:1|PlayerMatchupIsGreat:2|ThumbDown:1
1969241,Kyle Higashioka,C,NYY,3300,0,0,0,252,285,
1969242,Devin Mesoraco,C,NYM,3300,5.64,0,0,16,285,Starter:1|LineupSpot7:1|WindHurting:1|PlayerMatchupIsHorribad:3
1968923,Grayson Greiner,C,DET,2800,0,0,0,232,285,
1968924,Tomas Nido,C,NYM,2800,0,0,0,16,285,
1968938,Jose Trevino,C,TEX,2300,0,0,0,201,285,
1968941,Jed Lowrie,2B/3B,OAK,4800,8.69,0,0,93,285,Starter:1|LineupSpot3:1|WindHurting:1|PlayerMatchupIsGreat:1|VegasBad:1
1968955,Adam Rosales,2B/3B,PHI,2400,0,0,0,93,285,
1968956,Asdrubal Cabrera,2B,NYM,4500,6.73,0,0,2,285,Starter:1|LineupSpot3:1|WindHurting:1|PlayerMatchupIsHorribad:3
1969607,Ryan Goins,2B,PHI,2600,0,0,0,107,285,
1969608,Joey Gallo,1B/OF,TEX,4000,0,0,0,216,285,
1969622,Steve Lombardozzi,2B/OF,OAK,2500,0,0,0,93,285,
1969625,J.P. Crawford,3B/SS,PHI,3400,0,0,0,107,285,Injured:1
1969639,Willy Adames,2B/SS,TB,3100,4.61,0,0,37,285,Starter:1|LineupSpot8:1|WindHurting:1|PlayerMatchupIsHorribad:3|PlayerMatchupIsGreat:1|PlayerIsCold:1|StarBad:1|ThumbDown:1
1969640,Max Moroff,2B/SS,PIT,3100,0,0,0,200,285,
1968659,Lance McCullers Jr.,SP,HOU,11900,19,0,0,15,30,Starter:1|VegasGood:3|PlayerMatchupIsGreat:2|CrowdNegative:1|PlayerMatchupIsBad:1
1968660,Johnny Cueto,SP,SF,11800,0,0,0,20,30,
1968674,Zack Greinke,SP,ARI,9300,0,0,0,27,30,
1968726,Dylan Bundy,SP,BAL,9300,20.72,0,0,21,30,Starter:1|VegasBad:1|PlayerMatchupIsHorribad:3|CrowdPositive:3|PlayerMatchupIsBad:1|StarGood:1
1968727,Rick Porcello,SP,BOS,9200,0,0,0,30,30,
1968740,Junior Guerra,SP,MIL,8200,0,0,0,11,30,
1968741,Alex Wood,SP,LAD,8200,0,0,0,12,30,
1968688,Kevin Gausman,SP,BAL,7500,0,0,0,21,30,
1968689,Kyle Gibson,SP,MIN,7500,0,0,0,28,30,
1968706,Adalberto Mejia,SP,MIN,6600,0,0,0,28,30,
1968707,Cal Quantrill,SP,SD,6500,0,0,0,23,30,
1967896,Rogelio Armenteros,SP,HOU,5900,0,0,0,15,30,
1968240,Tyler Anderson,SP,COL,5900,0,0,0,14,30,OptimalPick:1
1968257,Ricky Nolasco,SP,KC,5200,0,0,0,2,30,
1968258,Matt Wisler,SP,ATL,5200,0,0,0,7,30,
1967517,Christian Walker,1B,ARI,3100,0,0,0,172,285,
1967518,Lucas Duda,1B,KC,3100,4.38,0,0,11,285,Starter:1|LineupSpot7:1|WindHurting:1|PlayerMatchupIsHorribad:2|PlayerMatchupIsGreat:1
1967531,Miguel Sano,1B/3B,MIN,3700,0,0,0,100,285,
1967532,Jefry Marte,1B/3B,LAA,3300,0,0,0,48,285,
1967535,Pablo Sandoval,1B/3B,SF,3200,6.79,0,0,157,285,ExpectedStarter:1|LineupSpot6:1|PlayerMatchupIsHorribad:2|PlayerIsCold:1
1967549,Marwin Gonzalez,1B/OF,HOU,3300,7.24,0,0,185,285,Starter:1|LineupSpot7:1|PlayerMatchupIsHorribad:1
1967550,O'Koyea Dickson,1B/OF,LAD,3200,0,0,0,34,285,Injured:1
1967567,Kristopher Negron,2B/SS,ARI,2600,0,0,0,172,285,
1967568,Andrew Romine,2B/SS,SEA,2600,0,0,0,169,285,
1967582,Gabriel Ynoa,RP,BAL,4000,0,0,0,21,30,Injured:1
1967585,Taylor Rogers,RP,MIN,4000,0,0,0,28,30,
1967599,Nick Markakis,OF,ATL,4900,7.34,0,0,42,285,Starter:1|LineupSpot4:1|PlayerMatchupIsHorribad:1|PlayerMatchupIsGreat:1|PlayerIsCold:1|ThumbUp:1
1967600,Lorenzo Cain,OF,MIL,4800,0,0,0,50,285,Injured:1
1967617,Raimel Tapia,OF,COL,3400,7.03,0,0,202,285,Starter:1|LineupSpot9:1|PlayerMatchupIsGreat:1|PlayerMatchupIsHorribad:2|PlayerIsCold:1
1967618,John Andreoli,OF,SEA,3400,0,0,0,229,285,
1967632,Ryan Cordell,OF,CWS,3200,0,0,0,209,285,
1967635,Preston Tucker,OF,ATL,3200,0,0,0,42,285,
1967649,Leury Garcia,OF,CWS,3100,6.53,0,0,48,285,Starter:1|LineupSpot8:1|PlayerMatchupIsHorribad:3|ThumbUp:1
1967650,Dexter Fowler,OF,STL,3100,0,0,0,86,285,
1967669,Andrelton Simmons,SS,LAA,3900,7.67,0,0,48,285,ExpectedStarter:1|LineupSpot2:1|PlayerMatchupIsHorribad:1|PlayerMatchupIsGreat:1|PlayerIsCold:1|VegasGood:1
1967670,Paul DeJong,SS,STL,3800,7.25,0,0,53,285,Starter:1|LineupSpot6:1|PlayerMatchupIsHorribad:3|PlayerMatchupIsGreat:1
1967684,Alcides Escobar,SS,KC,2600,4.9,0,0,117,285,Starter:1|LineupSpot8:1|WindHurting:1|PlayerMatchupIsHorribad:1
1967687,Zach Vincej,SS,SEA,2300,0,0,0,229,285,
1967701,David Hess,SP,BAL,4500,0,0,0,21,30,
1967702,Kyle Lloyd,SP,SD,4400,0,0,0,23,30,
1967719,Jace Peterson,2B/3B,BAL,3000,0,0,0,176,285,
1967720,Ramon Torres,2B/3B,KC,2800,0,0,0,117,285,
1967734,Hernan Perez,2B/OF,MIL,3300,0,0,0,50,285,OptimalPick:1
1967737,Chris Owings,2B/OF,ARI,2900,6.12,0,0,172,285,Starter:1|LineupSpot8:1|PlayerMatchupIsGreat:1|PlayerIsCold:1
1967751,Yasmani Grandal,C,LAD,3900,7.39,0,0,66,285,ExpectedStarter:1|LineupSpot9:1|PlayerMatchupIsHorribad:1|PlayerMatchupIsGreat:2|PlayerIsHot:1|ThumbUp:1
1967752,Yadier Molina,C,STL,3800,8.42,0,0,53,285,Starter:1|LineupSpot3:1|PlayerMatchupIsHorribad:3|PlayerMatchupIsGreat:1|PlayerIsHot:1|StarGood:1
1967769,Andrew Susac,C,BAL,3000,0,0,0,83,285,
1967770,Mitch Garver,C,MIN,3000,6.17,0,0,100,285,Starter:1|LineupSpot9:1|PlayerMatchupIsGreat:1|VegasGood:1
1967784,Jett Bandy,C,MIL,2800,0,0,0,50,285,
1967787,Jason Castro,C,MIN,2800,0,0,0,189,285,Injured:1
1967801,Mike Moustakas,3B,KC,3600,6.1,0,0,11,285,Starter:1|LineupSpot3:1|WindHurting:1|PlayerMatchupIsHorribad:2|PlayerMatchupIsGreat:1
1967802,Evan Longoria,3B,SF,3400,0,0,0,41,285,Injured:1
1967819,DJ LeMahieu,2B,COL,4300,7.77,0,0,105,285,Starter:1|LineupSpot1:1|PlayerMatchupIsHorribad:1|ThumbUp:1
1967820,Brian Dozier,2B,MIN,4200,8.39,0,0,100,285,Starter:1|LineupSpot3:1|PlayerMatchupIsGreat:2
1967834,Steve Wilkerson,2B,BAL,2600,0,0,0,176,285,Injured:1
1967837,Freddie Freeman,1B,ATL,5200,8.53,0,0,42,285,Starter:1|LineupSpot3:1|PlayerMatchupIsHorribad:1|PlayerMatchupIsGreat:2|PlayerIsCold:1|ThumbUp:1
1967851,Jake Cave,OF,MIN,3100,7.71,0,0,189,285,Starter:1|LineupSpot8:1|PlayerMatchupIsHorribad:1|PlayerMatchupIsGreat:2|VegasGood:1|StarGood:1
1967852,Alex Dickerson,OF,SD,3000,0,0,0,98,285,Injured:1
1967869,Domingo Santana,OF,MIL,2900,0,0,0,50,285,
1967870,Chris Young,OF,LAA,2900,0,0,0,48,285,Injured:1
1967884,Jarrett Parker,OF,SF,2700,0,0,0,157,285,
1967887,Eric Young Jr.,OF,LAA,2700,0,0,0,146,285,
1967888,Marcus Wilson,OF,ARI,2600,0,0,0,172,285,
1967902,Asher Wojciechowski,SP,BAL,4000,0,0,0,21,30,
1967903,Matthias Dietz,SP,BAL,4000,0,0,0,21,30,
1967920,JC Ramirez,RP,LAA,5000,0,0,0,5,30,Injured:1
1967921,Matt Strahm,RP,SD,4800,0,0,0,23,30,
1967935,T.J. McFarland,RP,ARI,4000,0,0,0,27,30,
1967938,Robert Stock,RP,SD,4000,0,0,0,23,30,
1967939,Troy Scribner,RP,ARI,4000,0,0,0,27,30,
1968004,Josh Reddick,OF,HOU,4000,8.22,0,0,185,285,Starter:1|LineupSpot5:1|PlayerMatchupIsGreat:1|PlayerMatchupIsHorribad:1
1968005,Andrew McCutchen,OF,SF,4000,7.09,0,0,41,285,ExpectedStarter:1|LineupSpot3:1|PlayerMatchupIsHorribad:3|PlayerIsCold:1|ThumbUp:1
1968051,Dietrich Enns,SP,MIN,4300,0,0,0,28,30,
1968052,Keegan Akin,SP,BAL,4200,0,0,0,21,30,
1968069,Wily Peralta,SP,KC,4000,0,0,0,2,30,
1968070,Brandon Workman,SP,BOS,4000,0,0,0,30,30,
1968083,Dakota Hudson,SP,STL,4000,0,0,0,17,30,
1968084,Conner Greene,SP,STL,4000,0,0,0,17,30,
1968087,Marcos Diplan,SP,MIL,4000,0,0,0,11,30,
1968101,Corey Knebel,RP,MIL,4000,0,0,0,11,30,
1968102,Miguel Almonte,RP,LAA,4000,0,0,0,5,30,
1968119,Hansel Robles,RP,LAA,4000,0,0,0,5,30,
1968120,Yimi Garcia,RP,LAD,4000,0,0,0,12,30,
1968133,Ryan Pressly,RP,MIN,4000,0,0,0,28,30,
1968134,Richard Bleier,RP,BAL,4000,0,0,0,21,30,Injured:1
1968137,Mychal Givens,RP,BAL,4000,0,0,0,21,30,
1968154,Austin Maddox,RP,BOS,4000,0,0,0,30,30,Injured:1
1968155,Matt Barnes,RP,BOS,4000,0,0,0,30,30,
1968172,Mike Mayers,RP,STL,4000,0,0,0,17,30,
1968173,Matt Bowman,RP,STL,4000,0,0,0,17,30,
1968187,Chad Bell,RP,ATL,4000,0,0,0,7,30,
1968192,Kazuhisa Makita,RP,SD,4000,0,0,0,23,30,
1968206,Danny Farquhar,RP,CWS,4000,0,0,0,3,30,Injured:1
1968207,Luis Avilan,RP,CWS,4000,0,0,0,3,30,
1968224,Juan Nicasio,RP,SEA,4000,0,0,0,8,30,
1968225,Rayan Gonzalez,RP,COL,4000,0,0,0,14,30,Injured:1
1968270,Ryan Helsley,SP,STL,4900,0,0,0,17,30,
1968273,Lucas Giolito,SP,CWS,4800,0,0,0,3,30,
1968289,Aaron Nola,SP,PHI,13100,0,0,0,22,30,OptimalPick:1
1968300,Gio Gonzalez,SP,WAS,9500,15.02,0,0,26,30,Starter:1|VegasGood:1|CrowdNegative:1|CrowdPositive:1|PlayerMatchupIsGreat:1|PlayerMatchupIsGood:1|PlayerIsCold:1|ThumbDown:1
1968307,Masahiro Tanaka,SP,NYY,8400,0,0,0,18,30,Injured:1
1968314,Zach Eflin,SP,PHI,7900,0,0,0,22,30,Injured:1
1968325,Caleb Smith,SP,MIA,6900,0,0,0,13,30,Injured:1
1968332,Jordan Zimmermann,SP,DET,6700,11.06,0,0,10,30,Starter:1|WindHurting:1|PlayerMatchupIsHorribad:2|CrowdNegative:2|CrowdPositive:1|PlayerMatchupIsGreat:1|PlayerMatchupIsBad:1|ThumbDown:1
1969117,Zack Wheeler,SP,NYM,6300,0,0,0,29,30,
1969128,Aaron Sanchez,SP,TOR,5700,0,0,0,4,30,Injured:1
1969135,Jake Faria,SP,TB,5500,0,0,0,24,30,Injured:1
1969142,Bartolo Colon,SP,TEX,5200,9.9,0,0,25,30,Starter:1|WindHurting:1|PlayerMatchupIsHorribad:1|CrowdNegative:1|CrowdPositive:1|PlayerMatchupIsGood:1|PlayerMatchupIsGreat:2|ThumbDown:2
1969153,Mitch Keller,SP,PIT,5000,0,0,0,19,30,
1968966,Sean Reid-Foley,SP,TOR,4500,0,0,0,4,30,
1969167,Martin Perez,SP,TEX,4400,0,0,0,25,30,Injured:1
1969178,Odrisamer Despaigne,SP,MIA,4000,0,0,0,13,30,
1969185,Albert Abreu,SP,NYY,4000,0,0,0,18,30,
1969192,Jacob Turner,SP,DET,4000,0,0,0,10,30,
1969203,Ryne Stanek,SP,TB,4000,3.3,0,0,24,30,Starter:1|WindHelping:1|VegasBad:2|PlayerMatchupIsGreat:1|CrowdNegative:3|StarGood:1|PlayerMatchupIsGood:1|PlayerMatchupIsHorribad:2|StarBad:1
1969361,Tyler Glasnow,RP,PIT,8100,0,0,0,19,30,
1969368,Yohander Mendez,RP,TEX,5200,0,0,0,25,30,
1969379,Joaquin Benoit,RP,WAS,4000,0,0,0,26,30,Injured:1
1969386,Aaron Barrett,RP,WAS,4000,0,0,0,26,30,Injured:1
1969393,Kyle Barraclough,RP,MIA,4000,0,0,0,13,30,
1968016,Dellin Betances,RP,NYY,4000,0,0,0,18,30,
1968023,Ryan Tepera,RP,TOR,4000,0,0,0,4,30,Injured:1
1968030,Joe Biagini,RP,TOR,4000,0,0,0,4,30,
1968041,Chris Hatcher,RP,OAK,4000,0,0,0,1,30,
1968633,Lisalverto Bonilla,RP,CLE,4000,0,0,0,16,30,Injured:1
1968640,Tyler Olson,RP,CLE,4000,0,0,0,16,30,Injured:1
1967948,Johnny Barbato,RP,DET,4000,0,0,0,10,30,Injured:1
1967955,Daniel Stumpf,RP,DET,4000,0,0,0,10,30,
1967962,Sergio Romo,RP,TB,4000,0,0,0,24,30,
1967973,Hunter Wood,RP,TB,4000,0,0,0,24,30,
1967980,Tommy Hunter,RP,PHI,4000,0,0,0,22,30,
1967987,A.J. Schugel,RP,PIT,4000,0,0,0,19,30,Injured:1
1968389,Edgar Santana,RP,PIT,4000,0,0,0,19,30,
1968396,Jose Iglesias,SS,DET,3400,7.01,0,0,232,285,Starter:1|LineupSpot8:1|WindHelping:1|PlayerMatchupIsGreat:3|ThumbDown:1
1968403,Cole Tucker,SS,PIT,3100,0,0,0,200,285,
1968414,Anthony Rendon,3B,WAS,4700,9.3,0,0,199,285,Starter:1|LineupSpot3:1|PlayerMatchupIsGreat:1|PlayerIsCold:1|ThumbUp:2
1968421,Vladimir Guerrero Jr.,3B,TOR,3400,0,0,0,164,285,
1968428,Martin Prado,3B,MIA,2900,7.48,0,0,107,285,Starter:1|LineupSpot4:1|PlayerMatchupIsHorribad:1|PlayerIsHot:1|VegasGood:2
1971840,Khris Davis,OF,OAK,4900,8.4,0,0,73,285,Starter:1|LineupSpot4:1|WindHurting:1|PlayerMatchupIsHorribad:2|PlayerMatchupIsGreat:1|VegasGood:1|ThumbUp:1
1971847,Adam Eaton,OF,WAS,4200,8.7,0,0,207,285,Starter:1|LineupSpot6:1|PlayerMatchupIsGreat:3|PlayerIsCold:1|VegasGood:1|VegasBad:1|ThumbDown:1
1971854,Clint Frazier,OF,NYY,3900,0,0,0,252,285,
1971865,Victor Robles,OF,WAS,3600,0,0,0,199,285,
1971872,Kevin Pillar,OF,TOR,3400,7.03,0,0,164,285,Starter:1|LineupSpot5:1|PlayerMatchupIsHorribad:1|PlayerIsCold:1|ThumbDown:1
1968431,Jim Adduci,OF,DET,3300,6.97,0,0,179,285,Starter:1|LineupSpot5:1|WindHelping:1|PlayerMatchupIsHorribad:1|PlayerMatchupIsGreat:1
1968491,Mikie Mahtook,OF,DET,3100,0,0,0,232,285,
1968498,Rafael Bautista,OF,WAS,2900,0,0,0,199,285,Injured:1
1968505,Carlos Gomez,OF,TB,2900,0,0,0,37,285,
1968509,Johnny Field,OF,TB,2800,0,0,0,37,285,
1968516,Austin Beck,OF,OAK,2700,0,0,0,73,285,
1968523,Juan Lagares,OF,NYM,2500,0,0,0,16,285,Injured:1
1969211,Edwin Encarnacion,1B,CLE,4900,9.22,0,0,207,285,Starter:1|LineupSpot4:1|WindHurting:1|PlayerMatchupIsGreat:2|PlayerMatchupIsHorribad:1|PlayerIsCold:1|VegasGood:1|ThumbUp:2
1969215,Matt Olson,1B,OAK,4000,8.56,0,0,93,285,Starter:1|LineupSpot5:1|WindHurting:1|PlayerMatchupIsGreat:1|VegasBad:1|VegasGood:2|ThumbUp:2
1969222,Justin Bour,1B,MIA,3400,6.44,0,0,34,285,Starter:1|LineupSpot5:1|PlayerMatchupIsHorribad:1|OptimalPick:1
1969229,Bobby Bradley,1B,CLE,3100,0,0,0,45,285,
1969240,Luke Maile,C,TOR,3400,0,0,0,164,285,
1969247,Andrew Knapp,C,PHI,3200,6.85,0,0,107,285,Starter:1|LineupSpot7:1|PlayerIsHot:1|VegasBad:1|ThumbUp:2
1968237,Josh Phegley,C,OAK,2900,6.27,0,0,73,285,Starter:1|LineupSpot9:1|WindHurting:1|PlayerMatchupIsHorribad:2|VegasGood:2|StarGood:1
1968929,Bryan Holaday,C,MIA,2600,0,0,0,107,285,
1968936,Jhonatan Solano,C,WAS,2400,0,0,0,199,285,Injured:1
1968943,Isiah Kiner-Falefa,2B/3B,TEX,3400,0,0,0,201,285,
1968954,Cliff Pennington,2B/3B,TEX,2500,0,0,0,216,285,
1968961,Rougned Odor,2B,TEX,3800,8.06,0,0,216,285,Starter:1|LineupSpot5:1|WindHelping:1|PlayerMatchupIsGreat:2|VegasGood:1|StarBad:1|ThumbUp:2
1969602,Max Schrock,2B,OAK,3200,0,0,0,93,285,
1969613,Scott Van Slyke,1B/OF,MIA,2200,0,0,0,107,285,
1969620,Drew Robinson,2B/OF,TEX,3000,0,0,0,216,285,
1969627,Jose Reyes,3B/SS,NYM,3100,0,0,0,2,285,
1969638,Daniel Robertson,2B/SS,TB,3200,5.79,0,0,37,285,Starter:1|LineupSpot6:1|WindHurting:1|PlayerMatchupIsHorribad:2|PlayerMatchupIsGreat:1
1968647,Darwin Barney,2B/SS,TEX,2600,0,0,0,201,285,
1968654,Chris Sale,SP,BOS,14000,29.34,0,0,30,30,Starter:1|WindHelping:1|VegasGood:1|PlayerMatchupIsGreat:2|CrowdPositive:3|PlayerMatchupIsGood:1|PlayerIsHot:1|ThumbUp:2
1968665,Tyler Skaggs,SP,LAA,11100,0,0,0,5,30,Injured:1
1968672,Miles Mikolas,SP,STL,9500,0,0,0,17,30,
1968728,Ervin Santana,SP,MIN,9200,0,0,0,28,30,Injured:1
1968739,David Price,SP,BOS,8300,0,0,0,30,30,
1967994,Alec Hansen,SP,CWS,7800,0,0,0,3,30,
1968683,Jon Gray,SP,COL,7700,0,0,0,14,30,
1968694,Brent Suter,SP,MIL,7300,0,0,0,11,30,
1968701,Adam Wainwright,SP,STL,6900,0,0,0,17,30,Injured:1
1968708,Shelby Miller,SP,ARI,6500,0,0,0,27,30,
1968719,Brandon Woodruff,SP,MIL,6000,0,0,0,11,30,
1968245,Caleb Ferguson,SP,LAD,5700,0,0,0,12,30,
1968252,Mike Leake,SP,SEA,5300,0,0,0,8,30,
1968263,Eric Lauer,SP,SD,5000,0,0,0,23,30,
1967512,Logan Morrison,1B,MIN,3500,7.76,0,0,189,285,Starter:1|LineupSpot5:1|PlayerMatchupIsHorribad:1|PlayerMatchupIsGreat:1|ThumbUp:2
1967519,Chris Shaw,1B,SF,3100,0,0,0,157,285,
1967530,Matt Davidson,1B/3B,CWS,3700,6.7,0,0,209,285,Starter:1|LineupSpot6:1|PlayerMatchupIsGreat:2|PlayerMatchupIsHorribad:1|StarGood:1|VegasBad:1
1967537,Matt Skole,1B/3B,CWS,2800,0,0,0,48,285,
1967544,Steve Pearce,1B/OF,BOS,3900,7.96,0,0,230,285,Starter:1|LineupSpot4:1|WindHurting:1|PlayerMatchupIsGreat:2|PlayerMatchupIsHorribad:1|VegasBad:1|ThumbUp:1
1967555,Evan Gattis,C,HOU,4000,7.52,0,0,60,285,Starter:1|LineupSpot6:1|PlayerMatchupIsHorribad:2|PlayerMatchupIsGreat:1|PlayerIsCold:1|StarBad:1|ThumbUp:1
1967562,Gregorio Petit,2B/SS,MIN,2900,0,0,0,100,285,
1967569,Eric Sogard,2B/SS,MIL,2500,0,0,0,133,285,
1967580,Jeff Ferrell,RP,BAL,4000,0,0,0,21,30,Injured:1
1967587,Trevor Hildenberger,RP,MIN,4000,0,0,0,28,30,
1967594,Nelson Cruz,OF,SEA,5100,9.48,0,0,229,285,Starter:1|LineupSpot4:1|PlayerMatchupIsGreat:3|PlayerMatchupIsHorribad:1|ThumbUp:2
1967605,Travis Jankowski,OF,SD,3600,8.01,0,0,98,285,Starter:1|LineupSpot1:1|PlayerMatchupIsGreat:3
1967612,Marcell Ozuna,OF,STL,3600,7.73,0,0,53,285,Starter:1|LineupSpot4:1|PlayerMatchupIsHorribad:3|PlayerMatchupIsGreat:1|VegasBad:1|ThumbUp:2
1967619,Jorge Soler,OF,KC,3400,0,0,0,117,285,Injured:1
1967630,Franmil Reyes,OF,SD,3200,0,0,0,179,285,
1967637,Kole Calhoun,OF,LAA,3200,6.6,0,0,146,285,ExpectedStarter:1|LineupSpot9:1|PlayerMatchupIsHorribad:1|ThumbUp:2
1967644,Max Kepler,OF,MIN,3200,6.82,0,0,189,285,Starter:1|LineupSpot7:1|PlayerMatchupIsHorribad:1|PlayerMatchupIsGreat:1|ThumbUp:1
1967657,Daniel Robertson,OF,ARI,2000,0,0,0,172,285,
1967664,Jean Segura,SS,SEA,4700,8.32,0,0,229,285,Starter:1|LineupSpot2:1|PlayerMatchupIsGreat:3|PlayerMatchupIsHorribad:1
1967671,Dansby Swanson,SS,ATL,3500,5.08,0,0,13,285,Starter:1|LineupSpot8:1|PlayerMatchupIsHorribad:1|PlayerMatchupIsGreat:2|PlayerIsCold:1|ThumbDown:1
1967682,Tyler Smith,SS,ATL,2800,0,0,0,13,285,
1967689,Allen Cordoba,SS,SD,2000,0,0,0,179,285,
1967696,Travis Shaw,3B,MIL,4300,8.36,0,0,133,285,Starter:1|LineupSpot4:1|PlayerMatchupIsHorribad:1|PlayerMatchupIsGreat:2|ThumbUp:1
1967700,Yolmer Sanchez,3B,CWS,3900,7.65,0,0,48,285,Starter:1|LineupSpot2:1|PlayerMatchupIsHorribad:3|ThumbDown:1
1967707,Hector Sanchez,C,SF,2400,0,0,0,157,285,
1967714,Miguel Gomez,2B/3B,SF,3500,0,0,0,157,285,
1967721,Logan Forsythe,2B/3B,LAD,2800,0,0,0,34,285,
1967725,Eduardo Escobar,3B/SS,MIN,4500,9.49,0,0,189,285,Starter:1|LineupSpot4:1|PlayerMatchupIsHorribad:1|PlayerMatchupIsGreat:2|ThumbDown:1
1967732,Alen Hanson,2B/OF,SF,3600,8.29,0,0,157,285,ExpectedStarter:1|LineupSpot1:1|PlayerMatchupIsHorribad:2|PlayerMatchupIsGreat:1|StarGood:1|ThumbDown:1
1967739,Chris Taylor,OF/SS,LAD,3800,8.85,0,0,34,285,ExpectedStarter:1|LineupSpot6:1|PlayerMatchupIsHorribad:1|PlayerMatchupIsGreat:2|PlayerIsHot:1|VegasGood:1|ThumbUp:2
1967746,Eduardo Nunez,2B/SS,BOS,3600,8.11,0,0,230,285,Starter:1|LineupSpot7:1|WindHurting:1|PlayerMatchupIsGreat:3|PlayerMatchupIsHorribad:1|PlayerIsHot:1
1967750,Arodys Vizcaino,RP,ATL,4000,0,0,0,7,30,
1967757,Tyler Flowers,C,ATL,3400,0,0,0,13,285,
1967764,Salvador Perez,C,KC,3100,6.8,0,0,117,285,Starter:1|LineupSpot4:1|WindHurting:1|PlayerMatchupIsHorribad:1
1967775,Martin Maldonado,C,LAA,2900,5.56,0,0,48,285,ExpectedStarter:1|LineupSpot8:1|PlayerMatchupIsHorribad:2|VegasBad:1|VegasGood:1|ThumbDown:1
1967782,Alfredo Gonzalez,C,CWS,2800,0,0,0,209,285,
1967789,Francisco Pena,C,STL,2700,0,0,0,53,285,
1967800,Christian Villanueva,3B,SD,3700,7.32,0,0,179,285,Starter:1|LineupSpot5:1|PlayerMatchupIsGreat:2
1967807,Rio Ruiz,3B,ATL,3100,0,0,0,42,285,
1967814,Colton Welker,3B,COL,2500,0,0,0,105,285,
1967825,Jonathan Schoop,2B,BAL,3300,7.73,0,0,83,285,Starter:1|LineupSpot6:1|PlayerMatchupIsHorribad:1|PlayerMatchupIsGreat:1|PlayerIsHot:1
1967832,Taylor Featherston,2B,MIN,2800,0,0,0,100,285,
1967839,Jesus Aguilar,1B,MIL,5000,8.69,0,0,50,285,Starter:1|LineupSpot3:1|PlayerMatchupIsHorribad:2|PlayerMatchupIsGreat:2|PlayerIsCold:1|ThumbUp:1|ThumbDown:1
1967850,Andrew Toles,OF,LAD,3100,0,0,0,66,285,Injured:1
1967857,Austin Jackson,OF,SF,3000,0,0,0,41,285,
1967864,Adam Engel,OF,CWS,2900,5.09,0,0,209,285,Starter:1|LineupSpot9:1|PlayerMatchupIsGreat:2|PlayerMatchupIsHorribad:2|VegasBad:2
1967875,Noel Cuevas,OF,COL,2800,0,0,0,105,285,
1967882,Alex Gordon,OF,KC,2700,0,0,0,11,285,
1967889,Luis Robert,OF,CWS,2600,0,0,0,209,285,
1967901,Felix Jorge,SP,MIN,4000,0,0,0,28,30,
1967908,Nick Tropeano,RP,LAA,6700,0,0,0,5,30,Injured:1
1967915,Yefry Ramirez,RP,BAL,5200,0,0,0,21,30,
1967926,Brady Rodgers,RP,HOU,4200,0,0,0,15,30,
1967933,Fernando Salas,RP,ARI,4000,0,0,0,27,30,
1967940,Miguel Diaz,RP,SD,4000,0,0,0,23,30,
1968003,Tommy Pham,OF,STL,4100,8.94,0,0,53,285,Starter:1|LineupSpot2:1|PlayerMatchupIsHorribad:3|PlayerMatchupIsGreat:1|PlayerIsHot:1
1968010,Jackie Bradley Jr.,OF,BOS,3800,6.57,0,0,195,285,Starter:1|LineupSpot9:1|WindHurting:1|PlayerMatchupIsGreat:1|PlayerMatchupIsHorribad:1|PlayerIsHot:1|ThumbUp:1
1968046,Chris Tillman,SP,BAL,4400,0,0,0,21,30,Injured:1
1968057,Walker Lockett,SP,SD,4000,0,0,0,23,30,
1968064,Ian Clarkin,SP,CWS,4000,0,0,0,3,30,
1968071,Joe Kelly,SP,BOS,4000,0,0,0,30,30,
1968082,Jordan Johnson,SP,SF,4000,0,0,0,20,30,
1968096,Jacob Barnes,RP,MIL,4000,0,0,0,11,30,
1968107,Kenley Jansen,RP,LAD,4000,0,0,0,12,30,
1968114,Dylan Floro,RP,LAD,4000,0,0,0,12,30,
1968121,Vicente Campos,RP,LAA,4000,0,0,0,5,30,
1968132,Zach Britton,RP,BAL,4000,0,0,0,21,30,
1968142,James Pazos,RP,SEA,4000,0,0,0,8,30,
1968149,Brian Flynn,RP,KC,4000,0,0,0,2,30,
1968160,Luke Gregerson,RP,STL,4000,0,0,0,17,30,Injured:1
1968167,Cory Gearrin,RP,SF,4000,0,0,0,20,30,
1968174,Dominic Leone,RP,STL,4000,0,0,0,17,30,Injured:1
1968185,Mike Zagurski,RP,MIL,4000,0,0,0,11,30,
1968194,Kirby Yates,RP,SD,4000,0,0,0,23,30,Injured:1
1968201,Chris Volstad,RP,CWS,4000,0,0,0,3,30,
1968212,Juan Minaya,RP,CWS,4000,0,0,0,3,30,
1968219,Wade Davis,RP,COL,4000,0,0,0,14,30,
1968226,David Phelps,RP,SEA,4000,0,0,0,8,30,Injured:1
1968268,Jeff Hoffman,SP,COL,4900,0,0,0,14,30,
1968275,John Lamb,SP,LAA,4800,0,0,0,5,30,Injured:1
1968282,Jalen Beeks,SP,BOS,4500,0,0,0,30,30,
1968292,Stephen Strasburg,SP,WAS,12200,0,0,0,26,30,Injured:1
1968293,Sean Manaea,SP,OAK,12100,0,0,0,1,30,
1968296,Mike Clevinger,SP,CLE,10800,0,0,0,16,30,
1968310,Nick Pivetta,SP,PHI,8400,15.28,0,0,22,30,Starter:1|CrowdNegative:3|PlayerMatchupIsHorribad:1|PlayerIsCold:1|StarBad:1|VegasGood:1|ThumbDown:1
1968311,Jonathan Loaisiga,SP,NYY,8300,0,0,0,18,30,
1968328,Jake Arrieta,SP,PHI,6800,0,0,0,22,30,
1968329,Jeremy Hellickson,SP,WAS,6700,0,0,0,26,30,
1969121,Wilmer Font,SP,TB,6100,0,0,0,24,30,Injured:1
1969124,Mike Minor,SP,TEX,6000,0,0,0,25,30,
1969138,Corey Oswalt,SP,NYM,5400,0,0,0,29,30,
1969139,Chris Flexen,SP,NYM,5400,0,0,0,29,30,
1969156,Justus Sheffield,SP,NYY,4600,0,0,0,18,30,
1969157,Grant Holmes,SP,OAK,4600,0,0,0,1,30,
1969171,Paul Blackburn,SP,OAK,4300,4.86,0,0,1,30,Starter:1|WindHelping:1|VegasBad:2|CrowdNegative:1|PlayerMatchupIsHorribad:2|PlayerMatchupIsGood:1|ThumbUp:1
1969174,Kendall Graveman,SP,OAK,4200,0,0,0,1,30,
1969188,Cody Anderson,SP,CLE,4000,0,0,0,16,30,Injured:1
1969189,Jesus Luzardo,SP,OAK,4000,0,0,0,1,30,
1968190,Clay Holmes,SP,PIT,4000,0,0,0,19,30,
1969358,Franklyn Kilome,SP,PHI,4000,0,0,0,22,30,
1969372,Austin Pruitt,RP,TB,4600,0,0,0,24,30,
1969375,Rafael Montero,RP,NYM,4500,0,0,0,29,30,Injured:1
1969389,Tayron Guerrero,RP,MIA,4000,0,0,0,13,30,Injured:1
1969390,Severino Gonzalez,RP,MIA,4000,0,0,0,13,30,
1968019,Rhiner Cruz,RP,TOR,4000,0,0,0,4,30,
1968020,David Hale,RP,NYY,4000,0,0,0,18,30,
1968034,Oliver Perez,RP,CLE,4000,0,0,0,16,30,
1968037,Yusmeiro Petit,RP,OAK,4000,0,0,0,1,30,
1968636,Blake Treinen,RP,OAK,4000,0,0,0,1,30,
1968637,Evan Marshall,RP,CLE,4000,0,0,0,16,30,Injured:1
1967951,Chris Martin,RP,TEX,4000,0,0,0,25,30,Injured:1
1967952,Jose Leclerc,RP,TEX,4000,0,0,0,25,30,
1967966,Jeurys Familia,RP,NYM,4000,0,0,0,29,30,
1967969,Chris Beck,RP,NYM,4000,0,0,0,29,30,
1967983,Bo Schultz,RP,PIT,4000,0,0,0,19,30,
1967984,Enny Romero,RP,PIT,4000,0,0,0,19,30,
1968392,Didi Gregorius,SS,NYY,4400,8.75,0,0,191,285,Starter:1|LineupSpot5:1|PlayerMatchupIsGreat:2
1968393,Jurickson Profar,SS,TEX,3900,0,0,0,216,285,
1968407,Amed Rosario,SS,NYM,2900,5.28,0,0,16,285,Starter:1|LineupSpot8:1|WindHurting:1|PlayerMatchupIsHorribad:3|PlayerIsCold:1|StarBad:1
1968410,Pedro Florimon,SS,PHI,2600,0,0,0,107,285,Injured:1
1968424,Trevor Plouffe,3B,TEX,3200,0,0,0,201,285,
1968425,Colin Moran,3B,PIT,3200,7.61,0,0,200,285,Starter:1|LineupSpot4:1|PlayerMatchupIsGreat:2|PlayerIsCold:1
1971843,Juan Soto,OF,WAS,4600,9.3,0,0,207,285,Starter:1|LineupSpot2:1|PlayerMatchupIsGreat:3|VegasGood:1|VegasBad:1|ThumbUp:2
1971844,Odubel Herrera,OF,PHI,4500,8.3,0,0,107,285,Starter:1|LineupSpot3:1|PlayerMatchupIsHorribad:1|PlayerMatchupIsGreat:1|PlayerIsCold:1|VegasBad:1
1971858,Austin Meadows,OF,PIT,3800,0,0,0,200,285,
1971861,Stephen Piscotty,OF,OAK,3700,6.76,0,0,73,285,Starter:1|LineupSpot6:1|WindHurting:1|PlayerMatchupIsHorribad:2|OptimalPick:1|VegasBad:1|ThumbUp:1
1971862,Mark Canha,OF,OAK,3700,6.83,0,0,73,285,Starter:1|LineupSpot2:1|WindHurting:1|PlayerMatchupIsHorribad:2|VegasBad:1
1971875,Monte Harrison,OF,MIA,3300,0,0,0,107,285,
1971876,Billy McKinney,OF,NYY,3300,0,0,0,191,285,
1968494,Andrew Stevenson,OF,WAS,3000,0,0,0,207,285,
1968495,Victor Reyes,OF,DET,3000,6.24,0,0,179,285,Starter:1|LineupSpot9:1|WindHelping:1|PlayerMatchupIsHorribad:1|PlayerMatchupIsGreat:1|VegasGood:1|ThumbDown:1
1968512,Magneuris Sierra,OF,MIA,2700,0,0,0,34,285,
1968513,Jake Smolinski,OF,OAK,2700,0,0,0,73,285,
1969159,Ryan Raburn,OF,WAS,2200,0,0,0,199,285,Injured:1
1969160,Daniel Nava,OF,PIT,2200,0,0,0,200,285,
1969225,Peter Alonso,1B,NYM,3400,0,0,0,16,285,
1969226,Josh Bell,1B,PIT,3400,7.55,0,0,200,285,Starter:1|LineupSpot1:1|PlayerMatchupIsGreat:1|PlayerIsCold:1|VegasBad:1
1969243,Elias Diaz,C,PIT,3300,6.43,0,0,195,285,Starter:1|LineupSpot5:1|PlayerMatchupIsHorribad:1|VegasBad:1|ThumbDown:1
1969244,Francisco Mejia,C,CLE,3200,0,0,0,45,285,
1968921,Juan Centeno,C,TEX,2800,0,0,0,216,285,
1968922,Cameron Rupp,C,TEX,2800,0,0,0,201,285,
1968925,Jacob Stallings,C,PIT,2800,0,0,0,195,285,
1968939,Jesus Sucre,C,TB,2200,0,0,0,37,285,
1968940,Jarrod Saltalamacchia,C,DET,2100,0,0,0,179,285,
1968957,Cesar Hernandez,2B,PHI,4300,8.34,0,0,107,285,Starter:1|LineupSpot1:1|PlayerMatchupIsGreat:1|PlayerIsCold:1|ThumbDown:1
1968958,Daniel Murphy,2B,WAS,4200,0,0,0,207,285,
1969606,Micah Johnson,2B,TB,2700,0,0,0,58,285,
1969609,Matt Adams,1B/OF,WAS,3700,9.53,0,0,207,285,Starter:1|LineupSpot5:1|PlayerMatchupIsGreat:3|StarGood:1
1969623,Michael Martinez,2B/OF,CLE,2400,0,0,0,45,285,
1969624,Jung Ho Kang,3B/SS,PIT,3600,0,0,0,195,285,Injured:1
1969641,Ronald Torreyes,2B/SS,NYY,2900,0,0,0,252,285,Injured:1
1969642,Danny Espinosa,2B/SS,TOR,2800,0,0,0,105,285,
1968658,Charlie Morton,SP,HOU,12000,0,0,0,15,30,
1968661,Clayton Kershaw,SP,LAD,11800,0,0,0,12,30,
1968675,Dallas Keuchel,SP,HOU,9300,0,0,0,15,30,
1968676,Walker Buehler,SP,LAD,9300,0,0,0,12,30,Injured:1
1968742,Joey Lucchesi,SP,SD,8000,14.06,0,0,23,30,Starter:1|PlayerMatchupIsHorribad:3|ThumbUp:2
1967991,Carlos Martinez,SP,STL,8000,0,0,0,17,30,
1968687,Felix Hernandez,SP,SEA,7500,13.75,0,0,8,30,Starter:1|PlayerMatchupIsGreat:2|PlayerMatchupIsHorribad:2|PlayerMatchupIsGood:1|CrowdPositive:1
1968690,Dinelson Lamet,SP,SD,7400,0,0,0,23,30,Injured:1
1968704,Luiz Gohara,SP,ATL,6600,0,0,0,7,30,
1968705,Matt Shoemaker,SP,LAA,6600,0,0,0,5,30,Injured:1
1968241,Hisashi Iwakuma,SP,SEA,5900,0,0,0,8,30,Injured:1
1968242,German Marquez,SP,COL,5800,9.15,0,0,14,30,Starter:1|PlayerMatchupIsGreat:1|StarBad:1|PlayerMatchupIsHorribad:2|CrowdPositive:1|VegasGood:1|StarGood:1|ThumbDown:2
1968256,Ian Kennedy,SP,KC,5200,0,0,0,2,30,Injured:1
1968259,Andrew Albers,SP,SEA,5100,0,0,0,8,30,
1967515,Sam Travis,1B,BOS,3300,0,0,0,230,285,
1967516,Kennys Vargas,1B,MIN,3200,0,0,0,189,285,
1967533,Luis Valbuena,1B/3B,LAA,3300,7.26,0,0,146,285,ExpectedStarter:1|LineupSpot6:1|PlayerMatchupIsHorribad:1|PlayerMatchupIsGreat:1|VegasBad:1
1967534,Pedro Alvarez,1B/3B,BAL,3300,0,0,0,176,285,
1967548,Trey Mancini,1B/OF,BAL,3400,6.83,0,0,83,285,Starter:1|LineupSpot7:1|PlayerMatchupIsHorribad:1|PlayerMatchupIsGreat:1|ThumbUp:1
1967551,Stephen Cardullo,1B/OF,COL,2900,0,0,0,105,285,
1967565,Nolan Fontana,2B/SS,LAA,2800,0,0,0,146,285,
1967566,Luis Sardinas,2B/SS,BAL,2700,0,0,0,176,285,Injured:1
1967583,Chris Lee,RP,BAL,4000,0,0,0,21,30,
1967584,Jayson Aquino,RP,BAL,4000,0,0,0,21,30,
1967598,Andrew Benintendi,OF,BOS,4900,9.75,0,0,195,285,Starter:1|LineupSpot2:1|WindHurting:1|PlayerMatchupIsGreat:2|PlayerMatchupIsHorribad:1|PlayerIsCold:1|ThumbUp:1|CakeGood:1
1967601,Eddie Rosario,OF,MIN,4800,10.73,0,0,189,285,Starter:1|LineupSpot2:1|PlayerMatchupIsHorribad:1|PlayerMatchupIsGreat:2|PlayerIsCold:1|ThumbDown:1
1967615,Tony Kemp,OF,HOU,3500,6.32,0,0,185,285,Starter:1|LineupSpot9:1|PlayerMatchupIsGreat:2|PlayerMatchupIsHorribad:1|PlayerIsCold:1|ThumbDown:1
1967616,Harrison Bader,OF,STL,3500,5.95,0,0,53,285,Starter:1|LineupSpot8:1|PlayerMatchupIsHorribad:3|OptimalPick:1|PlayerIsHot:1|VegasGood:1|StarGood:1
1967633,Mike Tauchman,OF,COL,3200,0,0,0,202,285,
1967634,Ben Gamel,OF,SEA,3200,6.94,0,0,169,285,Starter:1|LineupSpot7:1|PlayerMatchupIsGreat:1|PlayerMatchupIsHorribad:1|PlayerIsCold:1|VegasGood:1|StarGood:1
1967648,Nicky Delmonico,OF,CWS,3100,0,0,0,48,285,Injured:1
1967651,Jaff Decker,OF,ATL,3100,0,0,0,42,285,
1967654,Cameron Perkins,OF,SEA,2100,0,0,0,229,285,
1967667,Brandon Crawford,SS,SF,4300,7.59,0,0,157,285,ExpectedStarter:1|LineupSpot5:1|PlayerMatchupIsHorribad:2|PlayerMatchupIsGreat:1|PlayerIsCold:1
1967668,Tim Anderson,SS,CWS,3900,0,0,0,209,285,Injured:1
1967685,Orlando Calixte,SS,SF,2500,0,0,0,41,285,
1967686,Corey Seager,SS,LAD,2400,0,0,0,66,285,Injured:1
1967703,Mike Ohlman,C,BOS,2500,0,0,0,230,285,
1967704,Cam Gallagher,C,KC,2500,0,0,0,117,285,
1967717,David Fletcher,2B/3B,LAA,3200,6.43,0,0,48,285,ExpectedStarter:1|LineupSpot1:1|PlayerMatchupIsHorribad:2|VegasBad:1|StarGood:1|ThumbDown:1
1967718,Zack Cozart,2B/3B,LAA,3000,0,0,0,48,285,Injured:1
1967735,Nate Orf,2B/OF,MIL,3100,0,0,0,50,285,
1967736,Jose Pirela,2B/OF,SD,3000,0,0,0,179,285,
1967753,Kurt Suzuki,C,ATL,3800,6.6,0,0,13,285,Starter:1|LineupSpot5:1|PlayerMatchupIsHorribad:1|PlayerMatchupIsGreat:3|PlayerIsCold:1|ThumbDown:1
1967754,John Ryan Murphy,C,ARI,3700,7.43,0,0,172,285,Starter:1|LineupSpot7:1|PlayerMatchupIsGreat:2|PlayerIsCold:1
1967767,Brian McCann,C,HOU,3000,0,0,0,185,285,Injured:1
1967768,Tony Wolters,C,COL,3000,0,0,0,202,285,
1967771,Raffy Lopez,C,SD,2900,0,0,0,98,285,
1967785,Chris Stewart,C,ATL,2800,0,0,0,13,285,
1967786,Chance Sisco,C,BAL,2800,0,0,0,176,285,
1967803,Danny Valencia,3B,BAL,3400,0,0,0,83,285,
1967804,Ryder Jones,3B,SF,3200,0,0,0,157,285,
1967817,Jose Altuve,2B,HOU,5000,8.86,0,0,60,285,Starter:1|LineupSpot3:1|PlayerMatchupIsHorribad:2|PlayerMatchupIsGreat:1|ThumbDown:1
1967818,Yoan Moncada,2B,CWS,4400,8.56,0,0,48,285,Starter:1|LineupSpot1:1|PlayerMatchupIsHorribad:3|PlayerMatchupIsGreat:1|ThumbUp:2
1967821,Dustin Pedroia,2B,BOS,3900,0,0,0,230,285,Injured:1
1967835,Robinson Cano,2B,SEA,2500,0,0,0,169,285,Injured:1
1967836,Gordon Beckham,2B,SEA,2500,0,0,0,229,285,
1967853,Jarrod Dyson,OF,ARI,3000,0,0,0,12,285,Injured:1
1967854,Jake Marisnick,OF,HOU,3000,0,0,0,60,285,
1967868,Steven Duggar,OF,SF,2900,0,0,0,157,285,
1967871,Rymer Liriano,OF,LAA,2900,0,0,0,48,285,
1967885,Peter Bourjos,OF,ATL,2700,0,0,0,13,285,
1967886,Franklin Gutierrez,OF,LAD,2700,0,0,0,34,285,Injured:1
1967904,Jimmy Yacabonis,SP,BAL,4000,0,0,0,21,30,
1967905,Zack Littell,SP,MIN,4000,0,0,0,28,30,
1967919,Aaron Wilkerson,RP,MIL,5000,0,0,0,11,30,
1967922,Erasmo Ramirez,RP,SEA,4500,0,0,0,8,30,Injured:1
1967936,Brad Hand,RP,SD,4000,0,0,0,23,30,Injured:1
1967937,Randall Delgado,RP,ARI,4000,0,0,0,27,30,Injured:1
1968006,Tyler O'Neill,OF,STL,4000,0,0,0,53,285,Injured:1
1968007,David Dahl,OF,COL,3900,0,0,0,202,285,Injured:1
1968050,Hector Santiago,SP,CWS,4300,0,0,0,3,30,
1968053,Miguel Gonzalez,SP,CWS,4100,0,0,0,3,30,Injured:1
1968067,Peter Lambert,SP,COL,4000,0,0,0,14,30,
1968068,Trevor Oaks,SP,KC,4000,0,0,0,2,30,
1968085,Kolby Allard,SP,ATL,4000,0,0,0,7,30,
1968086,Jesse Biddle,SP,ATL,4000,0,0,0,7,30,
1968100,Taylor Williams,RP,MIL,4000,0,0,0,11,30,
1968103,Dennis Santana,RP,LAD,4000,0,0,0,12,30,
1968117,Noe Ramirez,RP,LAA,4000,0,0,0,5,30,
1968118,Jesen Therrien,RP,LAD,4000,0,0,0,12,30,Injured:1
1968135,Brad Brach,RP,BAL,4000,0,0,0,21,30,
1968136,Matt Magill,RP,MIN,4000,0,0,0,28,30,
1968153,Heath Hembree,RP,BOS,4000,0,0,0,30,30,
1968156,Tyler Thornburg,RP,BOS,4000,0,0,0,30,30,
1968170,Trevor Rosenthal,RP,STL,4000,0,0,0,17,30,Injured:1
1968171,Tyler Lyons,RP,STL,4000,0,0,0,17,30,Injured:1
1968188,Dan Jennings,RP,MIL,4000,0,0,0,11,30,
1968191,Archie Bradley,RP,ARI,4000,0,0,0,27,30,
1968205,Robbie Ross Jr.,RP,CWS,4000,0,0,0,3,30,Injured:1
1968208,Chris Devenski,RP,HOU,4000,0,0,0,15,30,
1968222,Chris Rusin,RP,COL,4000,0,0,0,14,30,
1968223,Nick Vincent,RP,SEA,4000,0,0,0,8,30,
1968271,Julio Urias,SP,LAD,4900,0,0,0,12,30,Injured:1
1968272,Rubby De La Rosa,SP,ARI,4800,0,0,0,27,30,Injured:1
1968306,Jordan Montgomery,SP,NYY,8500,0,0,0,18,30,Injured:1
1968308,Shane Bieber,SP,CLE,8400,0,0,0,16,30,
1968313,Trevor Richards,SP,MIA,7900,0,0,0,13,30,
1968315,CC Sabathia,SP,NYY,7700,0,0,0,18,30,
1968317,Michael Fulmer,SP,DET,7400,0,0,0,10,30,
1969116,Brent Honeywell,SP,TB,6400,0,0,0,24,30,Injured:1
1969118,Mike Fiers,SP,DET,6200,0,0,0,10,30,
1969120,Francisco Liriano,SP,DET,6100,0,0,0,10,30,
1969125,Jose De Leon,SP,TB,5900,0,0,0,24,30,
1969127,Andrew Triggs,SP,OAK,5800,0,0,0,1,30,Injured:1
1969150,A.J. Puk,SP,OAK,5000,0,0,0,1,30,
1969152,Luis Escobar,SP,PIT,5000,0,0,0,19,30,
1968965,Matt Moore,SP,TEX,4600,0,0,0,25,30,
1968967,A.J. Griffin,SP,NYM,4500,0,0,0,29,30,
1969184,Chris Rowley,SP,TOR,4000,0,0,0,4,30,
1969186,Nate Pearson,SP,TOR,4000,0,0,0,4,30,
1969193,Connor Sadzeck,SP,TEX,4000,0,0,0,25,30,
1969195,Clayton Blackburn,SP,TEX,4000,0,0,0,25,30,Injured:1
1969369,Yonny Chirinos,RP,TB,5200,0,0,0,24,30,
1969371,Andrew Kittredge,RP,TB,4600,0,0,0,24,30,
1969376,Mark Leiter Jr.,RP,PHI,4500,0,0,0,22,30,
1969378,Buck Farmer,RP,DET,4200,0,0,0,10,30,
1969401,Craig Breslow,RP,TOR,4000,0,0,0,4,30,
1968015,Seunghwan Oh,RP,TOR,4000,0,0,0,4,30,
1968022,Aaron Loup,RP,TOR,4000,0,0,0,4,30,
1968024,Jake Petricka,RP,TOR,4000,0,0,0,4,30,
1968632,Josh Lucas,RP,OAK,4000,0,0,0,1,30,
1968634,Perci Garner,RP,CLE,4000,0,0,0,16,30,Injured:1
1968641,Emilio Pagan,RP,OAK,4000,0,0,0,1,30,
1968643,Matt Bush,RP,TEX,4000,0,0,0,25,30,Injured:1
1967963,Chaz Roe,RP,TB,4000,0,0,0,24,30,
1967965,Ryan Weber,RP,TB,4000,0,0,0,24,30,
1967970,Jose Alvarado,RP,TB,4000,0,0,0,24,30,
1967972,Tim Peterson,RP,NYM,4000,0,0,0,29,30,
1968337,Seranthony Dominguez,RP,PHI,4000,0,0,0,22,30,
1968388,Austin Davis,RP,PHI,4000,0,0,0,22,30,
1968390,Francisco Lindor,SS,CLE,5900,12.26,0,0,45,285,Starter:1|LineupSpot1:1|WindHurting:1|PlayerMatchupIsHorribad:1|PlayerMatchupIsGreat:1|VegasGood:1|ThumbUp:1
1968395,Elvis Andrus,SS,TEX,3500,8.31,0,0,201,285,Starter:1|LineupSpot2:1|WindHelping:1|PlayerMatchupIsGreat:3|StarBad:1|ThumbDown:1
1968397,JT Riddle,SS,MIA,3300,0,0,0,34,285,Injured:1
1968420,Adrian Beltre,3B,TEX,3800,8.71,0,0,201,285,Starter:1|LineupSpot4:1|WindHelping:1|PlayerMatchupIsGreat:4|PlayerIsCold:1
1968422,Maikel Franco,3B,PHI,3400,6.71,0,0,93,285,Starter:1|LineupSpot8:1|PlayerMatchupIsGreat:1|VegasBad:1
1968286,Yandy Diaz,3B,CLE,2900,0,0,0,207,285,
1968288,Will Middlebrooks,3B,PHI,2600,0,0,0,93,285,
1971855,Bradley Zimmer,OF,CLE,3900,0,0,0,45,285,
1971857,Michael Conforto,OF,NYM,3800,6.43,0,0,2,285,Starter:1|LineupSpot4:1|WindHurting:1|PlayerMatchupIsHorribad:2|PlayerMatchupIsGreat:1|StarBad:1
1971864,Brian Goodwin,OF,WAS,3600,0,0,0,207,285,
1971866,Randal Grichuk,OF,TOR,3600,7.89,0,0,164,285,Starter:1|LineupSpot7:1|PlayerMatchupIsHorribad:1|PlayerMatchupIsGreat:1|VegasGood:1|StarGood:1
1968490,Boog Powell,OF,OAK,3100,0,0,0,93,285,Injured:1
1968492,Roman Quinn,OF,PHI,3100,0,0,0,107,285,
1968497,Cameron Maybin,OF,MIA,2900,5.88,0,0,107,285,Starter:1|LineupSpot8:1|ThumbDown:1
1968499,Lewis Brinson,OF,MIA,2900,0,0,0,107,285,Injured:1
1968522,Shane Robinson,OF,NYY,2500,0,0,0,252,285,
1968524,Jesus Sanchez,OF,TB,2400,0,0,0,58,285,
1969212,Yonder Alonso,1B,CLE,4500,7.17,0,0,45,285,Starter:1|LineupSpot5:1|WindHurting:1|PlayerMatchupIsHorribad:1|ThumbUp:2
1969214,Carlos Santana,1B,PHI,4100,7.97,0,0,107,285,Starter:1|LineupSpot4:1|PlayerMatchupIsGreat:1|PlayerIsCold:1|ThumbUp:1
1969237,Austin Romine,C,NYY,3500,6.23,0,0,252,285,Starter:1|LineupSpot8:1|PlayerMatchupIsGreat:1|PlayerMatchupIsHorribad:2|PlayerIsCold:1|VegasGood:1
1969239,Francisco Cervelli,C,PIT,3500,0,0,0,195,285,Injured:1
1969246,Kevin Plawecki,C,NYM,3200,0,0,0,16,285,
1969248,Matt Wieters,C,WAS,3100,0,0,0,207,285,Injured:1
1968935,Travis d'Arnaud,C,NYM,2500,0,0,0,16,285,Injured:1
1968937,Jose Lobaton,C,NYM,2400,0,0,0,2,285,
1968942,Yangervis Solarte,2B/3B,TOR,3900,7.86,0,0,105,285,Starter:1|LineupSpot3:1|PlayerMatchupIsHorribad:1|VegasGood:1
1968944,Wilmer Difo,2B/3B,WAS,3100,6.27,0,0,207,285,Starter:1|LineupSpot7:1|PlayerMatchupIsGreat:2|PlayerIsCold:1|ThumbDown:1
1969601,Devon Travis,2B,TOR,3200,6.11,0,0,164,285,Starter:1|LineupSpot9:1|PlayerMatchupIsHorribad:2|VegasGood:1
1969603,Christopher Bostick,2B,PIT,3100,0,0,0,195,285,
1969605,Joey Wendle,2B,TB,2800,6.05,0,0,58,285,Starter:1|LineupSpot5:1|WindHurting:1|PlayerMatchupIsHorribad:2|PlayerMatchupIsGreat:1
1969610,Dominic Smith,1B/OF,NYM,3400,0,0,0,2,285,
1969612,Jose Osuna,1B/OF,PIT,3000,0,0,0,195,285,
1969635,Brandon Drury,1B/3B,NYY,3200,0,0,0,252,285,
1969637,Lourdes Gurriel Jr.,2B/SS,TOR,3300,0,0,0,164,285,
1969644,Gift Ngoepe,2B/SS,TOR,2600,0,0,0,164,285,
1968648,Cristhian Adames,2B/SS,MIA,2500,0,0,0,107,285,
1968671,Kenta Maeda,SP,LAD,10000,15.17,0,0,12,30,Starter:1|StarBad:1|PlayerMatchupIsBad:2|PlayerMatchupIsGood:1|PlayerIsHot:1
1968673,Jack Flaherty,SP,STL,9400,0,0,0,17,30,
1968729,Mike Soroka,SP,ATL,8900,0,0,0,7,30,Injured:1
1968731,Jimmy Nelson,SP,MIL,8700,0,0,0,11,30,Injured:1
1968684,Dereck Rodriguez,SP,SF,7700,13.75,0,0,20,30,Starter:1|PlayerMatchupIsGreat:2|PlayerMatchupIsHorribad:2|PlayerIsHot:1|VegasGood:1|StarGood:1
1968686,Andrew Heaney,SP,LAA,7600,0,0,0,5,30,
1968691,Derek Holland,SP,SF,7400,0,0,0,20,30,
1968693,Chris Stratton,SP,SF,7300,0,0,0,20,30,
1968716,Andrew Suarez,SP,SF,6200,0,0,0,20,30,
1968718,Danny Duffy,SP,KC,6000,0,0,0,2,30,
1968244,Max Fried,SP,ATL,5700,0,0,0,7,30,Injured:1
1968246,Ariel Miranda,SP,SEA,5600,0,0,0,8,30,
1967511,Albert Pujols,1B,LAA,3500,6.85,0,0,48,285,ExpectedStarter:1|LineupSpot5:1|PlayerMatchupIsHorribad:1|VegasBad:1
1967513,AJ Reed,1B,HOU,3400,0,0,0,185,285,
1967520,Luke Voit,1B,STL,3100,0,0,0,53,285,
1967522,Jose Fernandez,1B,LAA,2800,0,0,0,146,285,
1967545,Ian Desmond,1B/OF,COL,3800,6.68,0,0,105,285,Starter:1|LineupSpot7:1|PlayerMatchupIsHorribad:1|ThumbUp:1
1967547,Taylor Motter,1B/OF,MIN,3600,0,0,0,100,285,
1967552,Blake Swihart,1B/OF,BOS,2700,0,0,0,195,285,
1967554,Buster Posey,C,SF,4100,6.78,0,0,41,285,ExpectedStarter:1|LineupSpot2:1|PlayerMatchupIsHorribad:3|PlayerIsCold:1|StarGood:1
1967577,Chris Herrmann,C/OF,SEA,2700,6.6,0,0,169,285,Starter:1|LineupSpot8:1|PlayerMatchupIsGreat:1|PlayerMatchupIsHorribad:1
1967579,Pedro Araujo,RP,BAL,4000,0,0,0,21,30,Injured:1
1967581,Myles Jaye,RP,MIN,4000,0,0,0,28,30,
1967586,Addison Reed,RP,MIN,4000,0,0,0,28,30,
1967588,Tanner Scott,RP,BAL,4000,0,0,0,21,30,
1967611,Gorkys Hernandez,OF,SF,3600,6.49,0,0,41,285,ExpectedStarter:1|LineupSpot8:1|PlayerMatchupIsHorribad:3|ThumbUp:1
1967613,Keon Broxton,OF,MIL,3600,0,0,0,50,285,
1967620,Brett Phillips,OF,MIL,3400,0,0,0,133,285,
1967622,Adam Jones,OF,BAL,3400,7.86,0,0,83,285,Starter:1|LineupSpot2:1|PlayerMatchupIsHorribad:1|PlayerMatchupIsGreat:2
1967645,Yasmany Tomas,OF,ARI,3100,0,0,0,172,285,
1967647,Rey Fuentes,OF,ARI,3100,0,0,0,12,285,
1967656,Chris Heisey,OF,MIN,2100,0,0,0,100,285,Injured:1
1967658,Blake Rutherford,OF,CWS,2000,0,0,0,48,285,
1967681,Freddy Galvis,SS,SD,2800,6.09,0,0,98,285,Starter:1|LineupSpot7:1|PlayerMatchupIsGreat:2|PlayerMatchupIsHorribad:1
1967683,Orlando Arcia,SS,MIL,2700,0,0,0,50,285,
1967688,Alex Mejia,SS,STL,2200,0,0,0,53,285,
1967690,Delvin Perez,SS,STL,2000,0,0,0,53,285,
1967713,Daniel Descalso,2B/3B,ARI,3600,0,0,0,12,285,
1967715,Cory Spangenberg,2B/3B,SD,3300,0,0,0,98,285,
1967722,Marco Hernandez,2B/3B,BOS,2500,0,0,0,195,285,Injured:1
1967724,Phil Gosselin,2B/3B,ATL,2400,0,0,0,13,285,
1967747,Brock Holt,2B/SS,BOS,3500,6.44,0,0,195,285,Starter:1|LineupSpot6:1|WindHurting:1|PlayerMatchupIsGreat:1|PlayerMatchupIsHorribad:2|VegasBad:1
1967749,Ketel Marte,2B/SS,ARI,3400,7.93,0,0,172,285,Starter:1|LineupSpot6:1|PlayerMatchupIsGreat:3|OptimalPick:1
1967756,Nick Hundley,C,SF,3400,0,0,0,41,285,
1967758,Chris Iannetta,C,COL,3300,0,0,0,105,285,
1967781,Omar Narvaez,C,CWS,2800,0,0,0,48,285,OptimalPick:1
1967783,Christian Vazquez,C,BOS,2800,0,0,0,230,285,
1967788,David Freitas,C,SEA,2700,0,0,0,229,285,
1967790,Steven Baron,C,STL,2700,0,0,0,53,285,
1967813,Kyle Farmer,3B,LAD,2700,0,0,0,34,285,
1967815,Joe Rizzo,3B,SEA,2000,0,0,0,169,285,
1967822,Joe Panik,2B,SF,3500,6.84,0,0,157,285,ExpectedStarter:1|LineupSpot7:1|PlayerMatchupIsHorribad:2|PlayerIsCold:1
1967824,Jonathan Villar,2B,MIL,3300,0,0,0,133,285,
1967847,Joey Krehbiel,RP,ARI,4000,0,0,0,27,30,
1967849,Michael Hermosillo,OF,LAA,3100,0,0,0,48,285,
1967856,Hunter Pence,OF,SF,3000,0,0,0,41,285,
1967858,Danny Santana,OF,ATL,3000,0,0,0,42,285,
1967881,Trayce Thompson,OF,CWS,2700,0,0,0,209,285,
1967883,Abraham Almonte,OF,KC,2700,0,0,0,117,285,
1967890,Dariel Alvarez,OF,BAL,2500,0,0,0,83,285,Injured:1
1967892,Shane Peterson,OF,SD,2300,0,0,0,98,285,
1967916,Rob Whalen,RP,SEA,5100,0,0,0,8,30,
1967918,Hunter Harvey,RP,BAL,5100,0,0,0,21,30,Injured:1
1967923,Alec Asher,RP,MIL,4500,0,0,0,11,30,
1967925,Andrew Moore,RP,SEA,4300,0,0,0,8,30,
1968000,Matt Kemp,OF,LAD,4300,8.47,0,0,34,285,ExpectedStarter:1|LineupSpot5:1|PlayerMatchupIsHorribad:1|PlayerMatchupIsGreat:2|VegasGood:1|ThumbUp:1
1968002,Avisail Garcia,OF,CWS,4100,7.93,0,0,209,285,Starter:1|LineupSpot4:1|PlayerMatchupIsGreat:3|PlayerMatchupIsHorribad:1|StarGood:1|ThumbUp:2
1968009,Denard Span,OF,SEA,3800,8.47,0,0,169,285,Starter:1|LineupSpot3:1|PlayerMatchupIsGreat:2|PlayerMatchupIsHorribad:1|PlayerIsCold:1
1968011,Yasiel Puig,OF,LAD,3800,8.51,0,0,34,285,ExpectedStarter:1|LineupSpot8:1|PlayerMatchupIsHorribad:1|PlayerMatchupIsGreat:2|PlayerIsCold:1|VegasGood:1|StarGood:1
1968063,Dane Dunning,SP,CWS,4000,0,0,0,3,30,
1968065,Yency Almonte,SP,COL,4000,0,0,0,14,30,
1968072,Ty Buttrey,SP,BOS,4000,0,0,0,30,30,
1968074,Burch Smith,SP,KC,4000,0,0,0,2,30,
1968097,Jose Ramirez,RP,ATL,4000,0,0,0,7,30,Injured:1
1968099,Shane Carle,RP,ATL,4000,0,0,0,7,30,
1968104,Taylor Cole,RP,LAA,4000,0,0,0,5,30,
1968106,Blake Wood,RP,LAA,4000,0,0,0,5,30,Injured:1
1968129,Zach Duke,RP,MIN,4000,0,0,0,28,30,
1968131,Darren O'Day,RP,BAL,4000,0,0,0,21,30,Injured:1
1968138,Zack Jones,RP,MIN,4000,0,0,0,28,30,Injured:1
1968143,Scott Oberg,RP,COL,4000,0,0,0,14,30,
1968166,Hunter Strickland,RP,SF,4000,0,0,0,20,30,Injured:1
1968168,Greg Holland,RP,STL,4000,0,0,0,17,30,
1968175,Reyes Moronta,RP,SF,4000,0,0,0,20,30,
1968177,John Brebbia,RP,STL,4000,0,0,0,17,30,
1968202,Hector Rondon,RP,HOU,4000,0,0,0,15,30,
1968204,Nate Jones,RP,CWS,4000,0,0,0,3,30,Injured:1
1968209,Jace Fry,RP,CWS,4000,0,0,0,3,30,
1968211,Ken Giles,RP,HOU,4000,0,0,0,15,30,
1968213,Bruce Rondon,RP,CWS,4000,0,0,0,3,30,
1968267,Phil Hughes,SP,SD,4900,0,0,0,23,30,Injured:1
1968269,Brad Keller,SP,KC,4900,0,0,0,2,30,
1968274,Eric Skoglund,SP,KC,4800,0,0,0,2,30,Injured:1
1968276,Brian Johnson,SP,BOS,4700,0,0,0,30,30,
