"F1","F2","M1","M2","D1","D2","GK","Util"
10493563,10493574,10493576,10493480,10493395,10493425,10493376,10493477
10493563,10493574,10493473,10493480,10493395,10493403,10493373,10493477
10493563,10493574,10493462,10493576,10493435,10493447,10493376,10493477
10493563,10493574,10493505,10493459,10493395,10493447,10493376,10493477
10493563,10493574,10493535,10493462,10493395,10493419,10493376,10493477
10493563,10493574,10493462,10493576,10493395,10493457,10493382,10493477
10493563,10493574,10493459,10493480,10493395,10493435,10493382,10493477
10493563,10493574,10493477,10493576,10493395,10493419,10493376,10493581
10493563,10493574,10493462,10493480,10493417,10493455,10493376,10493477
10493563,10493574,10493473,10493576,10493395,10493419,10493377,10493477
