﻿player_id,name,fpts
13539,Tyler Skaggs,14.73
10323,Miguel Cabrera,7.86
15848,Michael Wacha,17.63
15252,Scooter Gennett,7.77
347843,Dereck Rodriguez,11
10554,Justin Upton,8.56
11184,Eric Hosmer,8.3
16272,Blake Swihart,5.4
38004,Michael Hermosillo,6.13
16128,Miguel Rojas,5.6
13277,Erik Kratz,4.96
16146,Addison Russell,5.56
10591,Gerardo Parra,9.6
15478,Jace Peterson,6.98
10490,Alcides Escobar,6.71
36162,Amed Rosario,5.12
37180,Matt Chapman,7.06
21540,Michael Conforto,8.69
15508,Yolmer Sanchez,6.88
37377,Rafael Devers,6.73
11384,Tyler Flowers,6.95
11417,Yonder Alonso,7.89
22658,Blake Snell,21.07
16198,Odubel Herrera,6.83
14700,James McCann,5.3
15729,Luis Castillo,16.27
15357,Randal Grichuk,7.11
16178,Scott Schebler,7.55
13386,Kendrys Morales,8.28
10322,Albert Pujols,7.75
15226,Cory Spangenberg,7.04
15989,Adam Duvall,5.63
11378,Luis Valbuena,7.68
15670,Christian Villanueva,6.99
34723,Spencer Kieboom,5.04
13518,Starling Marte,7.6
11431,Paul Goldschmidt,10.95
11446,Salvador Perez,8.2
14541,Aaron Hicks,7.65
15179,Mark Canha,6.87
10536,Jay Bruce,7.27
14786,Matt Davidson,6.88
16202,Charlie Tilson,5.44
16290,Orlando Arcia,5.71
16129,Joc Pederson,8.24
17919,Matt Duffy,6.91
36167,Johan Camargo,6.85
15036,Cesar Hernandez,8.22
11408,Jason Kipnis,6.75
10954,Felix Hernandez,15.06
17649,Trey Mancini,6.56
35703,JaCoby Jones,6.17
269400,Nick Kingham,13.83
17844,Aledmys Diaz,5.95
11375,Zack Cozart,7.52
13388,Freddy Galvis,6.21
37410,Harrison Bader,5.44
15912,Eddie Rosario,6.65
309161,Franmil Reyes,6.68
16161,Alen Hanson,6.92
14928,Josh Bell,7.07
15528,Nick Ahmed,8
16119,Jorge Soler,7.81
35646,Aaron Judge,9.99
11315,Mike Moustakas,8.34
10340,Adrian Gonzalez,5.72
15993,Kevan Smith,6.61
11305,Dee Gordon,6.46
14880,Joe Panik,5.07
15207,Max Stassi,7.15
11373,Kyle Seager,6.31
36727,Cody Bellinger,8.6
10616,Carlos Gomez,6.6
13456,Charlie Culberson,6.56
10261,Carlos Santana,7.92
11350,Lonnie Chisenhall,6.87
15108,Chad Bettis,11.54
10551,Adam Jones,7.81
11198,Jose Iglesias,5.38
10969,Jon Lester,20.92
16460,Tommy Pham,9.23
13440,Brian Dozier,9.52
14641,Derek Dietrich,6.91
17933,Manuel Margot,5.26
15798,Max Kepler,6.51
10275,Nick Hundley,6.92
11156,Francisco Cervelli,6.78
13703,DJ LeMahieu,8.79
16247,Paulo Orlando,5.26
15038,Gary Sanchez,8.96
10580,Alex Gordon,5.99
15035,George Springer,10.21
35706,Yoan Moncada,6.55
10262,Buster Posey,7.52
35330,Alex Bregman,9.35
10516,Shin-Soo Choo,7.91
10541,Denard Span,5.07
13483,Yasmani Grandal,7.66
16289,Mitch Haniger,6.58
10982,Jake Arrieta,18.41
18008,Aaron Altherr,6.55
11480,Leonys Martin,7.14
17624,Matt Koch,7.8
13534,Manny Machado,8.6
15280,Dixon Machado,4.95
11043,Tyson Ross,17
15262,Jose Martinez,7.86
11507,Eduardo Escobar,7.37
15657,Justin Bour,7.39
15782,Ketel Marte,7.55
10610,Jon Jay,8.34
10540,Austin Jackson,5.62
14626,Nolan Arenado,11.03
15633,Marcus Semien,8.59
15896,Tyler Austin,7.19
14920,Ryan Goins,5.42
11406,Jose Altuve,10.97
13551,Jurickson Profar,6.63
17609,Mallex Smith,6.77
17648,Max Muncy,7.19
35313,Ryon Healy,6.41
35652,Brent Suter,15.94
10259,Victor Martinez,6.62
13170,Mike Fiers,8.97
15625,Jonathan Schoop,7.63
11296,Matt Carpenter,8.81
13522,Dan Straily,13.51
14629,Marcell Ozuna,8.45
16338,Miguel Sano,7.02
15991,Raffy Lopez,6.47
16164,Tony Wolters,7.04
16087,Jake Lamb,10.32
15235,Gregory Polanco,5.48
10513,Jason Heyward,7.2
17740,Trevor Story,9.98
14582,Khris Davis,9.39
16282,Carlos Correa,9.96
16207,Nomar Mazara,6.54
17468,Joseph Wendle,7.15
10534,Matt Kemp,7.61
34659,Guillermo Heredia,5.9
17519,Aaron Sanchez,15.27
37480,Rhys Hoskins,9.52
37547,Greg Allen,5.26
34646,Mike Clevinger,17.27
10335,Mark Trumbo,6.56
10562,Dexter Fowler,7.54
15846,Alex Wood,17.98
14850,Yangervis Solarte,7.91
10270,Yadier Molina,7.21
10435,Pedro Alvarez,5.69
14622,Robbie Grossman,7.47
17839,J.T. Riddle,5.72
14782,Chris Owings,7.21
10441,David Freese,6.41
10462,Daniel Descalso,8.88
10373,Ben Zobrist,8
14547,Evan Gattis,7.65
16199,Joey Gallo,7.43
38036,Jakob Bauers,5.2
16227,Chris Taylor,7.26
15860,Mike Zunino,5.89
15840,Kevin Gausman,13.5
183328,Scott Kingery,6.37
15812,Jeimer Candelario,6.8
22659,Domingo German,17.34
10442,Danny Valencia,6.68
15191,Kolten Wong,6.2
10997,Anibal Sanchez,13.23
10351,Justin Smoak,7.93
15566,Eugenio Suarez,7.45
15894,Jose Pirela,7.98
13480,Jordy Mercer,6.76
13407,Marwin Gonzalez,7.43
15483,Rougned Odor,6.11
13516,Jean Segura,7.3
15854,Yasiel Puig,7.28
226295,Johnny Field,5.46
16472,Jorge Alfaro,5.33
10443,Edwin Encarnacion,8.88
17596,Steven Matz,12.53
17769,Jesse Winker,6.82
11029,Mike Minor,11.37
37544,Chance Sisco,5.93
16357,Jose Peraza,6.38
14883,Ehire Adrianza,5.8
15122,Jake Marisnick,6.85
17798,Ronald Guzman,5.29
10512,Nelson Cruz,7.98
11181,Logan Forsythe,5.98
15953,Francisco Lindor,9.66
11224,Danny Duffy,13.33
15181,Christian Yelich,8.99
13463,Yan Gomes,6.61
18858,Carlos Rodon,9.92
17884,Teoscar Hernandez,8.74
14759,Tucker Barnhart,6.2
10371,Ian Kinsler,8.37
10430,Adrian Beltre,6.55
10345,Freddie Freeman,7.36
36177,Daniel Robertson,7.07
37435,Ozzie Albies,8.02
10564,Michael Brantley,8.58
15867,Kyle Gibson,13.26
16236,Travis Shaw,7.55
14698,Nick Castellanos,7.49
16168,Kevin Pillar,7.26
14646,Robinson Chirinos,5.8
10533,Nick Markakis,6.1
17712,C.J. Cron,7.22
35650,Dansby Swanson,7.33
16368,Jose Ramirez,10.2
14916,Jonathan Villar,6.84
18790,Delino DeShields,5.28
15422,Ender Inciarte,5.74
10289,Wilson Ramos,6.81
35357,Yulieski Gurriel,8.6
13392,Bryce Harper,10.03
36236,Adam Engel,6.48
10517,Andrew McCutchen,7.5
13466,Matt Adams,8.44
38044,Gleyber Torres,7.34
17887,Matt Olson,6.77
15084,Trayce Thompson,6.41
10426,Evan Longoria,6.36
37557,J.P. Crawford,5.6
10487,Ian Desmond,9.27
16136,Stephen Piscotty,6.98
36186,Miguel Andujar,6.2
35086,Tim Anderson,7.46
36768,Sam Travis,7.6
21824,Trea Turner,9.81
18851,Wilmer Difo,6.65
10376,Neil Walker,5.61
17693,David Peralta,9.52
16022,Giovanny Urshela,5.31
11311,Anthony Rizzo,10.08
10279,Chris Iannetta,8.34
11064,Jonathan Lucroy,5.57
11479,Devin Mesoraco,6.26
17437,Jose Abreu,7.28
15541,Christian Vazquez,6.7
14613,Anthony Rendon,8.32
326703,Juan Soto,6.75
10482,Starlin Castro,7.24
16457,Preston Tucker,5.82
17540,Kris Bryant,9.25
10614,Jarrod Dyson,7.7
17557,Luke Maile,5.23
18884,Kyle Schwarber,7.88
18414,John Ryan Murphy,9.13
17851,Hunter Dozier,5.71
13777,Didi Gregorius,5.41
15873,Xander Bogaerts,9.39
10354,Mitch Moreland,6.72
13286,Lorenzo Cain,8.01
10985,Charlie Morton,19.93
36240,Yairo Munoz,5.41
10399,Sean Rodriguez,5.42
15213,Ryan LaMarre,5.89
18004,J.T. Realmuto,7.48
13612,Adam Eaton,7.62
34682,Willson Contreras,7.37
11306,Charlie Blackmon,11.67
10311,Bobby Wilson,4.76
38016,Austin Meadows,6.82
10557,Giancarlo Stanton,10.62
35651,Chad Pinder,8.02
15806,Brandon Nimmo,7.36
11424,J.D. Martinez,10.53
18014,Jackie Bradley,5.59
16321,Mac Williamson,6.4
15886,Jesus Aguilar,7.54
10965,David Price,20.13
10325,Joey Votto,8.82
10925,Gio Gonzalez,18.41
11380,Mike Trout,10.96
16106,Travis Jankowski,7.43
36762,Ian Happ,6.5
325793,Jose Briceno,4.64
36571,Brian Anderson,7.09
10509,Carlos Gonzalez,9.93
11438,J.B. Shuck,5.6
15652,Whit Merrifield,8.18
11254,Todd Frazier,7.05
10405,Jed Lowrie,7.27
10483,Asdrubal Cabrera,7.68
10464,Eduardo Nunez,7.66
35356,Andrew Benintendi,7.52
10542,Ryan Braun,7.49