DraftKings,RotoWire
Shin-soo Choo,Shin-Soo Choo
Nicholas Castellanos,Nick Castellanos
Delino DeShields,Delino DeShields Jr.
Jackie Bradley Jr.,Jackie Bradley
Michael A. Taylor,Michael Taylor
Yuli Gurriel,Yulieski Gurriel
JB Shuck,J.B. Shuck
Albert Almora Jr.,Albert Almora
Kike Hernandez,Enrique Hernandez
Dwight Smith Jr.,Dwight Smith
Jose Fernandez,Jose Miguel Fernandez
Lance McCullers Jr.,Lance McCullers
Matthew Boyd,Matt Boyd
