Player,Team,Position,BatOrder,Opp,VAL,Trend,OWNPerc,MoneyLine,OverUnder,TeamTotalPts,Weather
Charlie Morton (R) ,HOU ,P (SP) ,- ,TB (R) ,1.68,0.3,52.79,-260,7.5,3,In Dome 
David Price (L) ,BOS ,P (SP) ,- ,@MIN (R) ,2.02,0.51,28.11,-160,8.5,3.5,W 8 MPH In 
Gio Gonzalez (L) ,WAS ,P (SP) ,- ,BAL (R) ,1.85,-0.03,16.35,-220,9,3.75,W 4 MPH Out 
Jakob Junis (R) ,KC ,P (SP) ,- ,TEX (R) ,1.89,0.41,10.16,-110,9,3.75,W 6 MPH Out 
Felix Hernandez (R) ,SEA ,P (SP) ,- ,@NYY (R) ,2.21,-3.47,3.42,175,10,5.75,W 8 MPH R-L 
Jonathan Loaisiga (R) ,NYY ,P (SP) ,- ,SEA (R) ,1.66,0.3,9.77,-210,10,4.25,W 8 MPH R-L 
Lance Lynn (R) ,MIN ,P (SP) ,- ,BOS (L) ,2.03,-2.65,6.64,135,8.5,5,W 8 MPH In 
Chad Kuhl (R) ,PIT ,P (SP) ,- ,MIL (L) ,1.87,-2.51,6.25,105,8,4.75,W 2 MPH Out 
Chad Bettis (R) ,COL ,P (SP) ,- ,NYM (R) ,2.07,-0.97,2.69,-115,11,4.75,W 5 MPH In 
Brent Suter (L) ,MIL ,P (SP) ,- ,@PIT (R) ,1.87,-1,11.99,-125,8,3.25,W 2 MPH Out 
Seth Lugo (R) ,NYM ,P (SP) ,- ,@COL (R) ,1.9,-2.4,13.97,-105,11,6.25,W 5 MPH In 
Andrew Cashner (R) ,BAL ,P (SP) ,- ,@WAS (L) ,2.23,-1.79,0.95,180,9,5.25,W 4 MPH Out 
Nathan Eovaldi (R) ,TB ,P (SP) ,- ,@HOU (R) ,1.7,-4.22,9.25,210,7.5,4.5,In Dome 
Charlie Blackmon (L) ,COL ,OF ,2,NYM (R) ,1.74,0.56,11.2,-115,11,6.25,W 5 MPH In 
Michael Conforto (L) ,NYM ,OF ,3,@COL (R) ,2.1,0.59,15.5,-105,11,4.75,W 5 MPH In 
Mike Moustakas (L) ,KC ,3B ,3,TEX (R) ,2.51,0.24,6.49,-110,9,5.25,W 6 MPH Out 
Aaron Judge (R) ,NYY ,OF ,2,SEA (R) ,1.83,0.9,8.47,-210,10,5.75,W 8 MPH R-L 
Trea Turner (R) ,WAS ,SS ,6,BAL (R) ,2.12,0.65,4.7,-220,9,5.25,W 4 MPH Out 
Jose Altuve (R) ,HOU ,2B ,3,TB (R) ,1.95,0.72,4.61,-260,7.5,4.5,In Dome 
Bryce Harper (L) ,WAS ,OF ,4,BAL (R) ,1.82,0.5,4.53,-220,9,5.25,W 4 MPH Out 
Giancarlo Stanton (R) ,NYY ,OF ,4,SEA (R) ,1.96,1.08,5.05,-210,10,5.75,W 8 MPH R-L 
Eric Thames (L) ,MIL ,1B ,1,@PIT (R) ,1.92,-0.03,12.32,-125,8,4.75,W 2 MPH Out 
Carlos Correa (R) ,HOU ,SS ,4,TB (R) ,1.95,0.55,4.81,-260,7.5,4.5,In Dome 
Whit Merrifield (R) ,KC ,2B (2B/OF) ,1,TEX (R) ,2.43,0.42,10.44,-110,9,5.25,W 6 MPH Out 
Nolan Arenado (R) ,COL ,3B ,3,NYM (R) ,1.65,1.02,14.63,-115,11,6.25,W 5 MPH In 
Christian Yelich (L) ,MIL ,OF ,2,@PIT (R) ,1.99,0.38,12.71,-125,8,4.75,W 2 MPH Out 
Mookie Betts (R) ,BOS ,OF ,1,@MIN (R) ,1.58,0.45,49.13,-160,8.5,5,W 8 MPH In 
J.D. Martinez (R) ,BOS ,OF ,4,@MIN (R) ,1.74,1.03,21.5,-160,8.5,5,W 8 MPH In 
Mitch Haniger (R) ,SEA ,OF ,3,@NYY (R) ,2.01,0.22,5.8,175,10,4.25,W 8 MPH R-L 
Alex Bregman (R) ,HOU ,3B ,2,TB (R) ,1.83,0.95,3.05,-260,7.5,4.5,In Dome 
George Springer (R) ,HOU ,OF ,1,TB (R) ,1.79,0.3,1.9,-260,7.5,4.5,In Dome 
Brandon Nimmo (L) ,NYM ,OF ,1,@COL (R) ,1.8,0.72,22.4,-105,11,4.75,W 5 MPH In 
Asdrubal Cabrera (B) ,NYM ,2B ,2,@COL (R) ,2.03,0.1,25.02,-105,11,4.75,W 5 MPH In 
Gary Sanchez (R) ,NYY ,C ,6,SEA (R) ,2.23,0.07,14.4,-210,10,5.75,W 8 MPH R-L 
Shin-Soo Choo (L) ,TEX ,OF ,1,@KC (R) ,1.8,0.72,11.74,-110,9,3.75,W 6 MPH Out 
Didi Gregorius (L) ,NYY ,SS ,3,SEA (R) ,1.83,1.04,3.75,-210,10,5.75,W 8 MPH R-L 
Andrew Benintendi (L) ,BOS ,OF ,2,@MIN (R) ,1.75,0.84,15.52,-160,8.5,5,W 8 MPH In 
Daniel Murphy (L) ,WAS ,2B ,5,BAL (R) ,2.03,-0.04,0.17,-220,9,5.25,W 4 MPH Out 
Dominic Smith (L) ,NYM ,1B ,5,@COL (R) ,2.18,-0.71,0.99,-105,11,4.75,W 5 MPH In 
Dee Gordon (L) ,SEA ,2B (2B/OF) ,1,@NYY (R) ,2.28,0.29,4.03,175,10,4.25,W 8 MPH R-L 
Nelson Cruz (R) ,SEA ,OF ,4,@NYY (R) ,1.84,0.79,4.88,175,10,4.25,W 8 MPH R-L 
Salvador Perez (R) ,KC ,C ,4,TEX (R) ,2.33,-0.06,5.24,-110,9,5.25,W 6 MPH Out 
Joey Gallo (L) ,TEX ,1B (1B/OF) ,7,@KC (R) ,2.2,-0.55,7.48,-110,9,3.75,W 6 MPH Out 
Hunter Dozier (R) ,KC ,1B ,6,TEX (R) ,2.86,-0.39,1.05,-110,9,5.25,W 6 MPH Out 
Josh Reddick (L) ,HOU ,OF ,6,TB (R) ,2.52,-0.42,4.16,-260,7.5,4.5,In Dome 
Adam Eaton (L) ,WAS ,OF ,1,BAL (R) ,1.99,0.95,5.48,-220,9,5.25,W 4 MPH Out 
Juan Soto (L) ,WAS ,OF ,2,BAL (R) ,1.86,1.13,7.5,-220,9,5.25,W 4 MPH Out 
Jean Segura (R) ,SEA ,SS ,2,@NYY (R) ,1.68,0.08,6.22,175,10,4.25,W 8 MPH R-L 
Elvis Andrus (R) ,TEX ,SS ,2,@KC (R) ,2.3,0.48,22.31,-110,9,3.75,W 6 MPH Out 
Anthony Rendon (R) ,WAS ,3B ,3,BAL (R) ,2.07,0.85,5.28,-220,9,5.25,W 4 MPH Out 
Todd Frazier (R) ,NYM ,3B ,4,@COL (R) ,1.83,-0.13,12.26,-105,11,4.75,W 5 MPH In 
Wilmer Flores (R) ,NYM ,1B (1B/3B) ,6,@COL (R) ,2,0.16,22.16,-105,11,4.75,W 5 MPH In 
Adalberto Mondesi (B) ,KC ,2B (2B/SS) ,9,TEX (R) ,2.62,-0.45,0.02,-110,9,5.25,W 6 MPH Out 
Adrian Beltre (R) ,TEX ,3B ,4,@KC (R) ,2.33,0.72,15.08,-110,9,3.75,W 6 MPH Out 
Jose Reyes (B) ,NYM ,3B (3B/SS) ,8,@COL (R) ,2.46,-0.53,8.38,-105,11,4.75,W 5 MPH In 
Brian Dozier (R) ,MIN ,2B ,4,BOS (L) ,2.31,-0.64,1.95,135,8.5,3.5,W 8 MPH In 
Travis Shaw (L) ,MIL ,3B ,4,@PIT (R) ,2.13,0.38,13.2,-125,8,4.75,W 2 MPH Out 
Nomar Mazara (L) ,TEX ,OF ,3,@KC (R) ,1.97,0.3,7.64,-110,9,3.75,W 6 MPH Out 
Greg Bird (L) ,NYY ,1B ,7,SEA (R) ,2.01,-0.01,2.56,-210,10,5.75,W 8 MPH R-L 
Carlos Gonzalez (L) ,COL ,OF ,4,NYM (R) ,1.83,0.95,5.35,-115,11,6.25,W 5 MPH In 
Starling Marte (R) ,PIT ,OF ,3,MIL (L) ,1.9,0.22,0.53,105,8,3.25,W 2 MPH Out 
Yulieski Gurriel (R) ,HOU ,1B ,5,TB (R) ,1.99,0.15,2.24,-260,7.5,4.5,In Dome 
DJ LeMahieu (R) ,COL ,2B ,1,NYM (R) ,1.74,0.56,6.8,-115,11,6.25,W 5 MPH In 
Aaron Hicks (B) ,NYY ,OF ,1,SEA (R) ,2.03,1.32,7.07,-210,10,5.75,W 8 MPH R-L 
Lorenzo Cain (R) ,MIL ,OF ,3,@PIT (R) ,1.73,0.51,9.95,-125,8,4.75,W 2 MPH Out 
Jonathan Villar (B) ,MIL ,2B ,6,@PIT (R) ,2.45,-0.09,4.1,-125,8,4.75,W 2 MPH Out 
Rougned Odor (L) ,TEX ,2B ,6,@KC (R) ,2.44,-0.21,7.73,-110,9,3.75,W 6 MPH Out 
Rosell Herrera (B) ,KC ,2B (2B/SS) ,2,TEX (R) ,2.67,-0.05,0,-110,9,5.25,W 6 MPH Out 
Kyle Seager (L) ,SEA ,3B ,5,@NYY (R) ,2.16,-0.72,2.38,175,10,4.25,W 8 MPH R-L 
Evan Gattis (R) ,HOU ,C ,7,TB (R) ,1.86,0.4,9.06,-260,7.5,4.5,In Dome 
Trevor Story (R) ,COL ,SS ,5,NYM (R) ,1.45,0.86,9.15,-115,11,6.25,W 5 MPH In 
Austin Bibens-Dirkx (R) ,TEX ,P (RP) ,- ,@KC (R) ,1.97,0.22,6.33,-110,9,5.25,W 6 MPH Out 
Alex Gordon (L) ,KC ,OF ,5,TEX (R) ,2.52,-0.34,1.56,-110,9,5.25,W 6 MPH Out 
Manny Machado (R) ,BAL ,SS ,3,@WAS (L) ,1.6,-0.05,18.34,180,9,3.75,W 4 MPH Out 
Gerardo Parra (L) ,COL ,OF ,6,NYM (R) ,1.92,0.8,3.66,-115,11,6.25,W 5 MPH In 
Jesus Aguilar (R) ,MIL ,1B ,5,@PIT (R) ,1.7,0.23,13.75,-125,8,4.75,W 2 MPH Out 
Devin Mesoraco (R) ,NYM ,C ,7,@COL (R) ,1.93,-0.1,15.48,-105,11,4.75,W 5 MPH In 
Ian Desmond (R) ,COL ,1B (1B/OF) ,7,NYM (R) ,1.7,1.04,1.95,-115,11,6.25,W 5 MPH In 
Rafael Devers (L) ,BOS ,3B ,6,@MIN (R) ,1.92,0.79,6.62,-160,8.5,5,W 8 MPH In 
Xander Bogaerts (R) ,BOS ,SS ,3,@MIN (R) ,1.66,0.88,10.71,-160,8.5,5,W 8 MPH In 
Brian McCann (L) ,HOU ,C ,8,TB (R) ,2.32,-0.39,3.35,-260,7.5,4.5,In Dome 
Ryon Healy (R) ,SEA ,1B ,7,@NYY (R) ,1.9,0.15,3.37,175,10,4.25,W 8 MPH R-L 
Josh Harrison (R) ,PIT ,2B ,1,MIL (L) ,1.84,0,0.47,105,8,3.25,W 2 MPH Out 
Clint Frazier (R) ,NYY ,OF ,9,SEA (R) ,1.78,0.7,0.98,-210,10,5.75,W 8 MPH R-L 
Manny Pina (R) ,MIL ,C ,7,@PIT (R) ,2.7,-0.34,13.4,-125,8,4.75,W 2 MPH Out 
Danny Valencia (R) ,BAL ,3B ,4,@WAS (L) ,2.2,0.4,8.1,180,9,3.75,W 4 MPH Out 
Kevin Kiermaier (L) ,TB ,OF ,1,@HOU (R) ,2.41,-0.19,0.6,210,7.5,3,In Dome 
Trey Mancini (R) ,BAL ,1B (1B/OF) ,1,@WAS (L) ,2.26,-0.32,4.33,180,9,3.75,W 4 MPH Out 
Ryan Goins (L) ,KC ,2B ,7,TEX (R) ,2.76,-0.39,1.09,-110,9,5.25,W 6 MPH Out 
Mike Zunino (R) ,SEA ,C ,9,@NYY (R) ,2.03,-0.55,3.47,175,10,4.25,W 8 MPH R-L 
Gleyber Torres (R) ,NYY ,2B ,5,SEA (R) ,1.73,0.58,6.35,-210,10,5.75,W 8 MPH R-L 
Austin Meadows (L) ,PIT ,OF ,2,MIL (L) ,1.72,0.18,1.2,105,8,3.25,W 2 MPH Out 
Jurickson Profar (B) ,TEX ,SS ,5,@KC (R) ,1.76,0.06,6.86,-110,9,3.75,W 6 MPH Out 
Eddie Rosario (L) ,MIN ,OF ,2,BOS (L) ,1.35,0.47,1.56,135,8.5,3.5,W 8 MPH In 
Denard Span (L) ,SEA ,OF ,6,@NYY (R) ,1.62,0.15,3.8,175,10,4.25,W 8 MPH R-L 
Wilmer Difo (B) ,WAS ,2B (2B/3B) ,7,BAL (R) ,2.4,-0.04,1.44,-220,9,5.25,W 4 MPH Out 
Ehire Adrianza (B) ,MIN ,SS ,6,BOS (L) ,2.24,0.15,0.44,135,8.5,3.5,W 8 MPH In 
Orlando Arcia (R) ,MIL ,SS ,8,@PIT (R) ,2.57,-0.5,3.62,-125,8,4.75,W 2 MPH Out 
Mitch Moreland (L) ,BOS ,1B ,5,@MIN (R) ,1.69,0.23,14.75,-160,8.5,5,W 8 MPH In 
Jonathan Schoop (R) ,BAL ,2B ,5,@WAS (L) ,2.09,-0.5,3.87,180,9,3.75,W 4 MPH Out 
Adam Jones (R) ,BAL ,OF ,2,@WAS (L) ,2.02,0.58,7.47,180,9,3.75,W 4 MPH Out 
Eduardo Escobar (B) ,MIN ,3B (3B/SS) ,3,BOS (L) ,1.46,0.81,1,135,8.5,3.5,W 8 MPH In 
Alcides Escobar (R) ,KC ,SS ,8,TEX (R) ,2.63,-0.45,1.3,-110,9,5.25,W 6 MPH Out 
Jackie Bradley (L) ,BOS ,OF ,9,@MIN (R) ,2.27,-0.04,4.85,-160,8.5,5,W 8 MPH In 
Tom Murphy (R) ,COL ,C ,8,NYM (R) ,1.84,-0.27,0.74,-115,11,6.25,W 5 MPH In 
Mark Trumbo (R) ,BAL ,OF ,6,@WAS (L) ,1.91,-0.02,6.51,180,9,3.75,W 4 MPH Out 
Robbie Grossman (B) ,MIN ,OF ,1,BOS (L) ,2.35,-0.08,1.14,135,8.5,3.5,W 8 MPH In 
David Freese (R) ,PIT ,1B (1B/3B) ,4,MIL (L) ,2.27,0.25,0.47,105,8,3.25,W 2 MPH Out 
Ben Gamel (L) ,SEA ,OF ,8,@NYY (R) ,1.88,0.35,2.85,175,10,4.25,W 8 MPH R-L 
Mallex Smith (L) ,TB ,OF ,7,@HOU (R) ,2.11,-0.86,2.01,210,7.5,3,In Dome 
Sean Rodriguez (R) ,PIT ,OF (OF/SS) ,8,MIL (L) ,2.32,-0.96,0.04,105,8,3.25,W 2 MPH Out 
Jake Bauers (L) ,TB ,1B ,3,@HOU (R) ,1.74,0.16,2.84,210,7.5,3,In Dome 
Logan Morrison (L) ,MIN ,1B ,5,BOS (L) ,2.08,-0.36,0.24,135,8.5,3.5,W 8 MPH In 
Jose Osuna (R) ,PIT ,1B (1B/OF) ,6,MIL (L) ,2,-0.68,0.03,105,8,3.25,W 2 MPH Out 
Jordy Mercer (R) ,PIT ,SS ,7,MIL (L) ,1.89,0.2,0.64,105,8,3.25,W 2 MPH Out 
Max Kepler (L) ,MIN ,OF ,7,BOS (L) ,1.93,-0.48,0.84,135,8.5,3.5,W 8 MPH In 
Isiah Kiner-Falefa (R) ,TEX ,2B (2B/3B) ,8,@KC (R) ,1.93,0.14,6.19,-110,9,3.75,W 6 MPH Out 
Miguel Andujar (R) ,NYY ,3B ,8,SEA (R) ,1.58,0.39,2.9,-210,10,5.75,W 8 MPH R-L 
Carlos Gomez (R) ,TB ,OF ,8,@HOU (R) ,2.04,-0.46,1.73,210,7.5,3,In Dome 
Brock Holt (L) ,BOS ,2B (2B/SS) ,7,@MIN (R) ,1.77,0.44,8.69,-160,8.5,5,W 8 MPH In 
Elias Diaz (R) ,PIT ,C ,5,MIL (L) ,1.81,0.14,2.03,105,8,3.25,W 2 MPH Out 
Mitch Garver (R) ,MIN ,C ,8,BOS (L) ,2.11,-0.5,0.24,135,8.5,3.5,W 8 MPH In 
Wilson Ramos (R) ,TB ,C ,4,@HOU (R) ,1.75,0.63,13.59,210,7.5,3,In Dome 
Tony Kemp (L) ,HOU ,OF ,9,TB (R) ,1.59,0.39,1.52,-260,7.5,4.5,In Dome 
Craig Gentry (R) ,BAL ,OF ,8,@WAS (L) ,2.28,-0.41,1.73,180,9,3.75,W 4 MPH Out 
Christian Vazquez (R) ,BOS ,C ,8,@MIN (R) ,2.15,0.09,9.07,-160,8.5,5,W 8 MPH In 
Joey Wendle (L) ,TB ,2B ,5,@HOU (R) ,1.85,-0.53,1.08,210,7.5,3,In Dome 
Willy Adames (R) ,TB ,SS ,6,@HOU (R) ,1.76,-0.59,0.08,210,7.5,3,In Dome 
Carlos Tocci (R) ,TEX ,OF ,9,@KC (R) ,1.89,-0.77,0,-110,9,3.75,W 6 MPH Out 
Adeiny Hechavarria (R) ,TB ,SS ,2,@HOU (R) ,1.95,0.34,2.6,210,7.5,3,In Dome 
Caleb Joseph (R) ,BAL ,C ,7,@WAS (L) ,2.05,-0.06,3.06,180,9,3.75,W 4 MPH Out 
Johnny Field (R) ,TB ,OF ,9,@HOU (R) ,1.57,-0.79,0.57,210,7.5,3,In Dome 
Pedro Severino (R) ,WAS ,C ,8,BAL (R) ,1.84,-0.36,0.56,-220,9,5.25,W 4 MPH Out 
Ryan LaMarre (R) ,MIN ,OF ,9,BOS (L) ,1.73,-0.59,0.02,135,8.5,3.5,W 8 MPH In 
Amed Rosario (R) ,NYM ,SS ,OUT ,@COL (R) ,0,-0.21,0,-105,11,4.75,W 5 MPH In 
Jose Bautista (R) ,NYM ,3B (3B/OF) ,OUT ,@COL (R) ,0,0.05,0,-105,11,4.75,W 5 MPH In 
Robinson Chirinos (R) ,TEX ,C ,OUT ,@KC (R) ,0,-0.34,0,-110,9,3.75,W 6 MPH Out 
Domingo Santana (R) ,MIL ,OF ,OUT ,@PIT (R) ,0,-0.31,0,-125,8,4.75,W 2 MPH Out 
Eduardo Nunez (R) ,BOS ,2B (2B/SS) ,OUT ,@MIN (R) ,0,0.04,0,-160,8.5,5,W 8 MPH In 
Delino DeShields Jr. (R) ,TEX ,OF ,OUT ,@KC (R) ,0,-0.05,0,-110,9,3.75,W 6 MPH Out 
Marwin Gonzalez (B) ,HOU ,1B (1B/OF) ,OUT ,TB (R) ,0,0.48,0,-260,7.5,4.5,In Dome 
Abraham Almonte (B) ,KC ,OF ,OUT ,TEX (R) ,0,-0.37,0,-110,9,5.25,W 6 MPH Out 
Michael Taylor (R) ,WAS ,OF ,OUT ,BAL (R) ,0,0.83,0,-220,9,5.25,W 4 MPH Out 
Neil Walker (B) ,NYY ,1B (1B/2B) ,OUT ,SEA (R) ,0,0.04,0,-210,10,5.75,W 8 MPH R-L 
Jake Marisnick (R) ,HOU ,OF ,OUT ,TB (R) ,0,0.05,0,-260,7.5,4.5,In Dome 
Ryan McMahon (L) ,COL ,1B (1B/3B) ,OUT ,NYM (R) ,0,0.24,0,-115,11,6.25,W 5 MPH In 
Max Stassi (R) ,HOU ,C ,OUT ,TB (R) ,0,0.27,0,-260,7.5,4.5,In Dome 
Hernan Perez (R) ,MIL ,2B (2B/OF) ,OUT ,@PIT (R) ,0,0.08,0,-125,8,4.75,W 2 MPH Out 
Mark Reynolds (R) ,WAS ,1B ,OUT ,BAL (R) ,0,0.42,0,-220,9,5.25,W 4 MPH Out 
Paulo Orlando (R) ,KC ,OF ,OUT ,TEX (R) ,0,-0.37,0,-110,9,5.25,W 6 MPH Out 
Luis Guillorme (L) ,NYM ,2B (2B/3B) ,OUT ,@COL (R) ,0,-0.31,0,-105,11,4.75,W 5 MPH In 
Ronald Guzman (L) ,TEX ,1B ,OUT ,@KC (R) ,0,0.24,0,-110,9,3.75,W 6 MPH Out 
Chris Herrmann (L) ,SEA ,C (C/OF) ,OUT ,@NYY (R) ,0,-0.37,0,175,10,4.25,W 8 MPH R-L 
Joey Rickard (R) ,BAL ,OF ,OUT ,@WAS (L) ,0,-0.25,0,180,9,3.75,W 4 MPH Out 
Noel Cuevas (R) ,COL ,OF ,OUT ,NYM (R) ,0,0.17,0,-115,11,6.25,W 5 MPH In 
Colin Moran (L) ,PIT ,3B ,OUT ,MIL (L) ,0,0.16,0,105,8,3.25,W 2 MPH Out 
Brian Goodwin (L) ,WAS ,OF ,OUT ,BAL (R) ,0,0.1,0,-220,9,5.25,W 4 MPH Out 
Kevin Plawecki (R) ,NYM ,C ,OUT ,@COL (R) ,0,-0.11,0,-105,11,4.75,W 5 MPH In 
Chris Iannetta (R) ,COL ,C ,OUT ,NYM (R) ,0,0.64,0,-115,11,6.25,W 5 MPH In 
Bobby Wilson (R) ,MIN ,C ,OUT ,BOS (L) ,0,-0.51,0,135,8.5,3.5,W 8 MPH In 
Tyler White (R) ,HOU ,1B ,OUT ,TB (R) ,0,0.29,0,-260,7.5,4.5,In Dome 
Josh Bell (B) ,PIT ,1B ,OUT ,MIL (L) ,0,-0.38,0,105,8,3.25,W 2 MPH Out 
C.J. Cron (R) ,TB ,1B ,OUT ,@HOU (R) ,0,-0.4,0,210,7.5,3,In Dome 
Spencer Kieboom (R) ,WAS ,C ,OUT ,BAL (R) ,0,0.1,0,-220,9,5.25,W 4 MPH Out 
Drew Butera (R) ,KC ,C ,OUT ,TEX (R) ,0,-0.37,0,-110,9,5.25,W 6 MPH Out 
Matt Duffy (R) ,TB ,3B ,OUT ,@HOU (R) ,0,0.39,0,210,7.5,3,In Dome 
Gregory Polanco (L) ,PIT ,OF ,OUT ,MIL (L) ,0,0.01,0,105,8,3.25,W 2 MPH Out 
Taylor Motter (R) ,MIN ,OF (OF/SS) ,OUT ,BOS (L) ,0,-0.08,0,135,8.5,3.5,W 8 MPH In 
Francisco Cervelli (R) ,PIT ,C ,OUT ,MIL (L) ,0,-0.17,0,105,8,3.25,W 2 MPH Out 
Eric Sogard (L) ,MIL ,2B (2B/SS) ,OUT ,@PIT (R) ,0,-0.25,0,-125,8,4.75,W 2 MPH Out 
Chris Davis (L) ,BAL ,1B ,OUT ,@WAS (L) ,0,-0.51,0,180,9,3.75,W 4 MPH Out 
Tony Wolters (L) ,COL ,C ,OUT ,NYM (R) ,0,0.04,0,-115,11,6.25,W 5 MPH In 
Guillermo Heredia (R) ,SEA ,OF ,OUT ,@NYY (R) ,0,-0.32,0,175,10,4.25,W 8 MPH R-L 
Adam Frazier (L) ,PIT ,2B (2B/OF) ,OUT ,MIL (L) ,0,0.05,0,105,8,3.25,W 2 MPH Out 
Blake Swihart (B) ,BOS ,1B (1B/OF) ,OUT ,@MIN (R) ,0,0.04,0,-160,8.5,5,W 8 MPH In 
Joe Mauer (L) ,MIN ,1B ,OUT ,BOS (L) ,0,-0.29,0,135,8.5,3.5,W 8 MPH In 
Corban Joseph (L) ,BAL ,2B ,OUT ,@WAS (L) ,0,-0.51,0,180,9,3.75,W 4 MPH Out 
Steve Wilkerson (B) ,BAL ,2B ,OUT ,@WAS (L) ,0,-0.14,0,180,9,3.75,W 4 MPH Out 
Austin Wynns (R) ,BAL ,C ,OUT ,@WAS (L) ,0,-0.38,0,180,9,3.75,W 4 MPH Out 
Andrew Romine (B) ,SEA ,OF (OF/SS) ,OUT ,@NYY (R) ,0,-0.37,0,175,10,4.25,W 8 MPH R-L 
Erik Kratz (R) ,MIL ,C ,OUT ,@PIT (R) ,0,0.29,0,-125,8,4.75,W 2 MPH Out 
Sandy Leon (B) ,BOS ,C ,OUT ,@MIN (R) ,0,0.04,0,-160,8.5,5,W 8 MPH In 
Austin Romine (R) ,NYY ,C ,OUT ,SEA (R) ,0,0.65,0,-210,10,5.75,W 8 MPH R-L 
Jace Peterson (L) ,BAL ,2B (2B/3B) ,OUT ,@WAS (L) ,0,-0.01,0,180,9,3.75,W 4 MPH Out 
Jesus Sucre (R) ,TB ,C ,OUT ,@HOU (R) ,0,-0.51,0,210,7.5,3,In Dome 
