Position,Name + ID,Name,ID,Roster Position,Salary,Game Info,TeamAbbrev,AvgPointsPerGame
SP,Clayton Kershaw (10675512),Clayton Kershaw,10675512,P,14400,CIN@LAD 05/12/2018 09:10PM ET,LAD,17.62
SP,Gerrit Cole (10675513),Gerrit Cole,10675513,P,13400,TEX@HOU 05/12/2018 07:10PM ET,HOU,34.51
SP,Justin Verlander (10675514),Justin Verlander,10675514,P,13000,TEX@HOU 05/12/2018 07:10PM ET,HOU,28.96
SP,Charlie Morton (10675054),Charlie Morton,10675054,P,12800,TEX@HOU 05/12/2018 07:10PM ET,HOU,22.59
SP,Johnny Cueto (10675515),Johnny Cueto,10675515,P,11800,SF@PIT 05/12/2018 07:05PM ET,SF,23
SP,Noah Syndergaard (10675056),Noah Syndergaard,10675056,P,11500,NYM@PHI 05/12/2018 07:05PM ET,NYM,19.2
SP,Jacob deGrom (10675516),Jacob deGrom,10675516,P,11500,NYM@PHI 05/12/2018 07:05PM ET,NYM,24.73
SP,Lance McCullers Jr. (10675517),Lance McCullers Jr.,10675517,P,11300,TEX@HOU 05/12/2018 07:10PM ET,HOU,19.11
SP,Carlos Martinez (10675518),Carlos Martinez,10675518,P,10600,STL@SD 05/12/2018 08:40PM ET,STL,18.08
SP,Miles Mikolas (10675519),Miles Mikolas,10675519,P,10200,STL@SD 05/12/2018 08:40PM ET,STL,17.68
SP,Aaron Nola (10675520),Aaron Nola,10675520,P,10100,NYM@PHI 05/12/2018 07:05PM ET,PHI,22.46
SP,Madison Bumgarner (10675521),Madison Bumgarner,10675521,P,9600,SF@PIT 05/12/2018 07:05PM ET,SF,0
SP,Ervin Santana (10675522),Ervin Santana,10675522,P,9200,MIN@LAA 05/12/2018 09:07PM ET,MIN,0
SP,Kenta Maeda (10675523),Kenta Maeda,10675523,P,9100,CIN@LAD 05/12/2018 09:10PM ET,LAD,12.16
SP,Tyson Ross (10675057),Tyson Ross,10675057,P,9000,STL@SD 05/12/2018 08:40PM ET,SD,16.14
SP,Hyun-Jin Ryu (10675524),Hyun-Jin Ryu,10675524,P,8900,CIN@LAD 05/12/2018 09:10PM ET,LAD,17.22
SP,Julio Teheran (10675525),Julio Teheran,10675525,P,8900,ATL@MIA 05/12/2018 07:10PM ET,ATL,16.52
SP,Zach Eflin (10675058),Zach Eflin,10675058,P,8800,NYM@PHI 05/12/2018 07:05PM ET,PHI,25.25
SP,Jimmy Nelson (10675526),Jimmy Nelson,10675526,P,8700,MIL@COL 05/12/2018 08:10PM ET,MIL,0
SP,Walker Buehler (10675527),Walker Buehler,10675527,P,8600,CIN@LAD 05/12/2018 09:10PM ET,LAD,22.58
SP,Tyler Skaggs (10675528),Tyler Skaggs,10675528,P,8600,MIN@LAA 05/12/2018 09:07PM ET,LAA,17.58
SP,Sean Newcomb (10675529),Sean Newcomb,10675529,P,8500,ATL@MIA 05/12/2018 07:10PM ET,ATL,20.59
SP,Kyle Gibson (10675059),Kyle Gibson,10675059,P,8200,MIN@LAA 05/12/2018 09:07PM ET,MIN,17.09
SP,Jake Arrieta (10675530),Jake Arrieta,10675530,P,8100,NYM@PHI 05/12/2018 07:05PM ET,PHI,15.62
SP,Michael Wacha (10675531),Michael Wacha,10675531,P,8000,STL@SD 05/12/2018 08:40PM ET,STL,14.54
RP,Tyler Glasnow (10675532),Tyler Glasnow,10675532,P,8000,SF@PIT 05/12/2018 07:05PM ET,PIT,5.84
SP,Luke Weaver (10675533),Luke Weaver,10675533,P,7900,STL@SD 05/12/2018 08:40PM ET,STL,9.72
SP,Mike Foltynewicz (10675534),Mike Foltynewicz,10675534,P,7900,ATL@MIA 05/12/2018 07:10PM ET,ATL,17.11
SP,Jose Berrios (10675535),Jose Berrios,10675535,P,7800,MIN@LAA 05/12/2018 09:07PM ET,MIN,15.49
SP,Garrett Richards (10675536),Garrett Richards,10675536,P,7700,MIN@LAA 05/12/2018 09:07PM ET,LAA,16.93
SP,Fernando Romero (10675537),Fernando Romero,10675537,P,7700,MIN@LAA 05/12/2018 09:07PM ET,MIN,26.62
SP,Chad Kuhl (10675060),Chad Kuhl,10675060,P,7700,SF@PIT 05/12/2018 07:05PM ET,PIT,12.08
SP,Alex Wood (10675538),Alex Wood,10675538,P,7600,CIN@LAD 05/12/2018 09:10PM ET,LAD,15.28
SP,Vince Velasquez (10675539),Vince Velasquez,10675539,P,7600,NYM@PHI 05/12/2018 07:05PM ET,PHI,15.58
SP,Mike Soroka (10675061),Mike Soroka,10675061,P,7500,ATL@MIA 05/12/2018 07:10PM ET,ATL,11.45
SP,Dinelson Lamet (10675540),Dinelson Lamet,10675540,P,7400,STL@SD 05/12/2018 08:40PM ET,SD,0
SP,Rich Hill (10675541),Rich Hill,10675541,P,7300,CIN@LAD 05/12/2018 09:10PM ET,LAD,9.74
SP,Jameson Taillon (10675542),Jameson Taillon,10675542,P,7300,SF@PIT 05/12/2018 07:05PM ET,PIT,13.21
SP,Joey Lucchesi (10675543),Joey Lucchesi,10675543,P,7200,STL@SD 05/12/2018 08:40PM ET,SD,17.58
SP,Nick Tropeano (10675062),Nick Tropeano,10675062,P,7200,MIN@LAA 05/12/2018 09:07PM ET,LAA,15.61
SP,Andrew Suarez (10675544),Andrew Suarez,10675544,P,7100,SF@PIT 05/12/2018 07:05PM ET,SF,15.29
SP,Zack Wheeler (10675545),Zack Wheeler,10675545,P,7100,NYM@PHI 05/12/2018 07:05PM ET,NYM,13.08
SP,Dallas Keuchel (10675546),Dallas Keuchel,10675546,P,7000,TEX@HOU 05/12/2018 07:10PM ET,HOU,15.41
SP,Collin McHugh (10675547),Collin McHugh,10675547,P,7000,TEX@HOU 05/12/2018 07:10PM ET,HOU,5.30
SP,Kyle Freeland (10675063),Kyle Freeland,10675063,P,7000,MIL@COL 05/12/2018 08:10PM ET,COL,15.92
SP,Cole Hamels (10675548),Cole Hamels,10675548,P,6900,TEX@HOU 05/12/2018 07:10PM ET,TEX,17.16
SP,Brandon Woodruff (10675549),Brandon Woodruff,10675549,P,6900,MIL@COL 05/12/2018 08:10PM ET,MIL,2.99
SP,Brent Suter (10675550),Brent Suter,10675550,P,6900,MIL@COL 05/12/2018 08:10PM ET,MIL,8.45
SP,Adam Wainwright (10675064),Adam Wainwright,10675064,P,6900,STL@SD 05/12/2018 08:40PM ET,STL,11.88
SP,Nick Pivetta (10675551),Nick Pivetta,10675551,P,6900,NYM@PHI 05/12/2018 07:05PM ET,PHI,14.14
SP,Jake Odorizzi (10675552),Jake Odorizzi,10675552,P,6800,MIN@LAA 05/12/2018 09:07PM ET,MIN,14.21
SP,Alex Reyes (10675553),Alex Reyes,10675553,P,6700,STL@SD 05/12/2018 08:40PM ET,STL,0
RP,Trevor Williams (10675554),Trevor Williams,10675554,P,6700,SF@PIT 05/12/2018 07:05PM ET,PIT,14.14
SP,Luis Castillo (10675555),Luis Castillo,10675555,P,6600,CIN@LAD 05/12/2018 09:10PM ET,CIN,9.94
SP,Matt Shoemaker (10675556),Matt Shoemaker,10675556,P,6600,MIN@LAA 05/12/2018 09:07PM ET,LAA,13.95
SP,Chad Bettis (10675557),Chad Bettis,10675557,P,6500,MIL@COL 05/12/2018 08:10PM ET,COL,14.53
SP,Cal Quantrill (10675558),Cal Quantrill,10675558,P,6500,STL@SD 05/12/2018 08:40PM ET,SD,0
SP,Alex Meyer (10675559),Alex Meyer,10675559,P,6500,MIN@LAA 05/12/2018 09:07PM ET,LAA,0
SP,Caleb Smith (10675560),Caleb Smith,10675560,P,6500,ATL@MIA 05/12/2018 07:10PM ET,MIA,17.73
SP,Tyler Mahle (10675561),Tyler Mahle,10675561,P,6400,CIN@LAD 05/12/2018 09:10PM ET,CIN,14.17
SP,Jeff Samardzija (10675065),Jeff Samardzija,10675065,P,6400,SF@PIT 05/12/2018 07:05PM ET,SF,7.14
SP,Ivan Nova (10675562),Ivan Nova,10675562,P,6400,SF@PIT 05/12/2018 07:05PM ET,PIT,12.16
SP,Nick Kingham (10675563),Nick Kingham,10675563,P,6400,SF@PIT 05/12/2018 07:05PM ET,PIT,27.48
SP,Mike Minor (10675564),Mike Minor,10675564,P,6300,TEX@HOU 05/12/2018 07:10PM ET,TEX,13.17
SP,Junior Guerra (10675565),Junior Guerra,10675565,P,6300,MIL@COL 05/12/2018 08:10PM ET,MIL,16.8
SP,Michael Pineda (10675566),Michael Pineda,10675566,P,6300,MIN@LAA 05/12/2018 09:07PM ET,MIN,0
SP,German Marquez (10675567),German Marquez,10675567,P,6200,MIL@COL 05/12/2018 08:10PM ET,COL,10.52
SP,Jack Flaherty (10675568),Jack Flaherty,10675568,P,6200,STL@SD 05/12/2018 08:40PM ET,STL,13.75
SP,Jerad Eickhoff (10675569),Jerad Eickhoff,10675569,P,6200,NYM@PHI 05/12/2018 07:05PM ET,PHI,0
SP,Jon Gray (10675570),Jon Gray,10675570,P,6100,MIL@COL 05/12/2018 08:10PM ET,COL,17.52
SP,Anthony DeSclafani (10675571),Anthony DeSclafani,10675571,P,6100,CIN@LAD 05/12/2018 09:10PM ET,CIN,0
SP,Steven Matz (10675572),Steven Matz,10675572,P,6000,NYM@PHI 05/12/2018 07:05PM ET,NYM,13.01
SP,Rogelio Armenteros (10675573),Rogelio Armenteros,10675573,P,5900,TEX@HOU 05/12/2018 07:10PM ET,HOU,0
SP,Tyler Anderson (10675574),Tyler Anderson,10675574,P,5900,MIL@COL 05/12/2018 08:10PM ET,COL,11.96
SP,Chris Stratton (10675575),Chris Stratton,10675575,P,5900,SF@PIT 05/12/2018 07:05PM ET,SF,13.82
SP,Ty Blach (10675576),Ty Blach,10675576,P,5900,SF@PIT 05/12/2018 07:05PM ET,SF,7.73
RP,Brad Peacock (10675577),Brad Peacock,10675577,P,5800,TEX@HOU 05/12/2018 07:10PM ET,HOU,4.49
OF,Mike Trout (10675071),Mike Trout,10675071,OF,5800,MIN@LAA 05/12/2018 09:07PM ET,LAA,12.10
SP,Chase Anderson (10675066),Chase Anderson,10675066,P,5700,MIL@COL 05/12/2018 08:10PM ET,MIL,12.55
SP,Luiz Gohara (10675578),Luiz Gohara,10675578,P,5700,ATL@MIA 05/12/2018 07:10PM ET,ATL,6.35
SP,Scott Kazmir (10675579),Scott Kazmir,10675579,P,5700,ATL@MIA 05/12/2018 07:10PM ET,ATL,0
SP,Bartolo Colon (10675580),Bartolo Colon,10675580,P,5600,TEX@HOU 05/12/2018 07:10PM ET,TEX,12.94
OF,Charlie Blackmon (10675072),Charlie Blackmon,10675072,OF,5600,MIL@COL 05/12/2018 08:10PM ET,COL,10.71
SP,Amir Garrett (10675581),Amir Garrett,10675581,P,5600,CIN@LAD 05/12/2018 09:10PM ET,CIN,3.9
RP,Adalberto Mejia (10675582),Adalberto Mejia,10675582,P,5600,MIN@LAA 05/12/2018 09:07PM ET,MIN,0
SP,Lucas Sims (10675583),Lucas Sims,10675583,P,5600,ATL@MIA 05/12/2018 07:10PM ET,ATL,2.5
SP,Brandon McCarthy (10675584),Brandon McCarthy,10675584,P,5600,ATL@MIA 05/12/2018 07:10PM ET,ATL,9.42
3B,Nolan Arenado (10675073),Nolan Arenado,10675073,3B,5500,MIL@COL 05/12/2018 08:10PM ET,COL,9.41
SP,Zach Davies (10675585),Zach Davies,10675585,P,5500,MIL@COL 05/12/2018 08:10PM ET,MIL,12.48
SP,Trevor Richards (10675586),Trevor Richards,10675586,P,5500,ATL@MIA 05/12/2018 07:10PM ET,MIA,10.49
SP,Wade Miley (10675587),Wade Miley,10675587,P,5400,MIL@COL 05/12/2018 08:10PM ET,MIL,9.72
SP,Chris Flexen (10675588),Chris Flexen,10675588,P,5400,NYM@PHI 05/12/2018 07:05PM ET,NYM,0
SP,Corbin Burnes (10675589),Corbin Burnes,10675589,P,5300,MIL@COL 05/12/2018 08:10PM ET,MIL,0
SP,Stephen Gonsalves (10675590),Stephen Gonsalves,10675590,P,5300,MIN@LAA 05/12/2018 09:07PM ET,MIN,0
RP,Jarlin Garcia (10675067),Jarlin Garcia,10675067,P,5300,ATL@MIA 05/12/2018 07:10PM ET,MIA,13.66
1B,Freddie Freeman (10675074),Freddie Freeman,10675074,1B,5300,ATL@MIA 05/12/2018 07:10PM ET,ATL,10.11
RP,Merandy Gonzalez (10675591),Merandy Gonzalez,10675591,P,5300,ATL@MIA 05/12/2018 07:10PM ET,MIA,5.04
RP,David Paulino (10675592),David Paulino,10675592,P,5200,TEX@HOU 05/12/2018 07:10PM ET,HOU,0
SP,Eric Lauer (10675593),Eric Lauer,10675593,P,5200,STL@SD 05/12/2018 08:40PM ET,SD,4.94
2B,Ozzie Albies (10675075),Ozzie Albies,10675075,2B,5200,ATL@MIA 05/12/2018 07:10PM ET,ATL,11.68
SP,Matt Wisler (10675594),Matt Wisler,10675594,P,5200,ATL@MIA 05/12/2018 07:10PM ET,ATL,14.3
SP,Marcos Molina (10675595),Marcos Molina,10675595,P,5200,NYM@PHI 05/12/2018 07:05PM ET,NYM,0
OF,George Springer (10675076),George Springer,10675076,OF,5100,TEX@HOU 05/12/2018 07:10PM ET,HOU,9.35
SP,Yovani Gallardo (10675596),Yovani Gallardo,10675596,P,5100,TEX@HOU 05/12/2018 07:10PM ET,TEX,-4.65
SP,Tim Lincecum (10675597),Tim Lincecum,10675597,P,5100,TEX@HOU 05/12/2018 07:10PM ET,TEX,0
SP,Jhoulys Chacin (10675598),Jhoulys Chacin,10675598,P,5100,MIL@COL 05/12/2018 08:10PM ET,MIL,10.12
SP,Sal Romano (10675599),Sal Romano,10675599,P,5100,CIN@LAD 05/12/2018 09:10PM ET,CIN,10.71
SP,Rookie Davis (10675600),Rookie Davis,10675600,P,5100,CIN@LAD 05/12/2018 09:10PM ET,CIN,0
SP,Justin Nicolino (10675601),Justin Nicolino,10675601,P,5100,CIN@LAD 05/12/2018 09:10PM ET,CIN,0
SP,Andrew Heaney (10675602),Andrew Heaney,10675602,P,5100,MIN@LAA 05/12/2018 09:07PM ET,LAA,14.21
SP,Anibal Sanchez (10675603),Anibal Sanchez,10675603,P,5100,ATL@MIA 05/12/2018 07:10PM ET,ATL,16.23
SP,Aaron Blair (10675604),Aaron Blair,10675604,P,5100,ATL@MIA 05/12/2018 07:10PM ET,ATL,0
RP,Grant Dayton (10675605),Grant Dayton,10675605,P,5100,ATL@MIA 05/12/2018 07:10PM ET,ATL,0
2B,Jose Altuve (10675077),Jose Altuve,10675077,2B,5000,TEX@HOU 05/12/2018 07:10PM ET,HOU,7.82
RP,Aaron Wilkerson (10675606),Aaron Wilkerson,10675606,P,5000,MIL@COL 05/12/2018 08:10PM ET,MIL,0
SP,John Gant (10675607),John Gant,10675607,P,5000,STL@SD 05/12/2018 08:40PM ET,STL,8.53
RP,JC Ramirez (10675608),JC Ramirez,10675608,P,5000,MIN@LAA 05/12/2018 09:07PM ET,LAA,0.3
SP,Lance Lynn (10675609),Lance Lynn,10675609,P,5000,MIN@LAA 05/12/2018 09:07PM ET,MIN,8.06
SP,Derek Holland (10675610),Derek Holland,10675610,P,5000,SF@PIT 05/12/2018 07:05PM ET,SF,10.91
SP,Dillon Peters (10675611),Dillon Peters,10675611,P,5000,ATL@MIA 05/12/2018 07:10PM ET,MIA,5.99
SS,Carlos Correa (10675078),Carlos Correa,10675078,SS,4900,TEX@HOU 05/12/2018 07:10PM ET,HOU,8.60
OF,Tommy Pham (10675079),Tommy Pham,10675079,OF,4900,STL@SD 05/12/2018 08:40PM ET,STL,10.53
SP,Ryan Helsley (10675612),Ryan Helsley,10675612,P,4900,STL@SD 05/12/2018 08:40PM ET,STL,0
SP,Julio Urias (10675613),Julio Urias,10675613,P,4900,CIN@LAD 05/12/2018 09:10PM ET,LAD,0
SP,Phil Hughes (10675614),Phil Hughes,10675614,P,4900,MIN@LAA 05/12/2018 09:07PM ET,MIN,2.16
SP,Mitch Keller (10675615),Mitch Keller,10675615,P,4900,SF@PIT 05/12/2018 07:05PM ET,PIT,0
SP,Luis Escobar (10675616),Luis Escobar,10675616,P,4900,SF@PIT 05/12/2018 07:05PM ET,PIT,0
SP,Dan Straily (10675617),Dan Straily,10675617,P,4900,ATL@MIA 05/12/2018 07:10PM ET,MIA,6.28
1B,Eric Thames (10675080),Eric Thames,10675080,1B,4800,MIL@COL 05/12/2018 08:10PM ET,MIL,8.23
OF,Lorenzo Cain (10675082),Lorenzo Cain,10675082,OF,4800,MIL@COL 05/12/2018 08:10PM ET,MIL,8.97
SP,Cody Reed (10675618),Cody Reed,10675618,P,4800,CIN@LAD 05/12/2018 09:10PM ET,CIN,3.91
SP,Wei-Yin Chen (10675619),Wei-Yin Chen,10675619,P,4800,ATL@MIA 05/12/2018 07:10PM ET,MIA,0.25
RP,Seth Lugo (10675620),Seth Lugo,10675620,P,4800,NYM@PHI 05/12/2018 07:05PM ET,NYM,5.00
SP,Forrest Whitley (10675621),Forrest Whitley,10675621,P,4700,TEX@HOU 05/12/2018 07:10PM ET,HOU,0
OF,Christian Yelich (10675081),Christian Yelich,10675081,OF,4700,MIL@COL 05/12/2018 08:10PM ET,MIL,8.18
1B/OF,Ryan Braun (10675084),Ryan Braun,10675084,1B/OF,4700,MIL@COL 05/12/2018 08:10PM ET,MIL,6.89
SP,Brandon Finnegan (10675622),Brandon Finnegan,10675622,P,4700,CIN@LAD 05/12/2018 09:10PM ET,CIN,3.06
SP,Jose Urena (10675623),Jose Urena,10675623,P,4700,ATL@MIA 05/12/2018 07:10PM ET,MIA,11.95
SS,Trevor Story (10675091),Trevor Story,10675091,SS,4600,MIL@COL 05/12/2018 08:10PM ET,COL,8.80
3B,Eugenio Suarez (10675086),Eugenio Suarez,10675086,3B,4600,CIN@LAD 05/12/2018 09:10PM ET,CIN,10.04
1B,Cody Bellinger (10675092),Cody Bellinger,10675092,1B,4600,CIN@LAD 05/12/2018 09:10PM ET,LAD,7.60
SP,Yadier Alvarez (10675624),Yadier Alvarez,10675624,P,4600,CIN@LAD 05/12/2018 09:10PM ET,LAD,0
SP,Tom Koehler (10675625),Tom Koehler,10675625,P,4600,CIN@LAD 05/12/2018 09:10PM ET,LAD,0
SP,Aaron Slegers (10675626),Aaron Slegers,10675626,P,4600,MIN@LAA 05/12/2018 09:07PM ET,MIN,0
OF,Ronald Acuna Jr. (10675083),Ronald Acuna Jr.,10675083,OF,4600,ATL@MIA 05/12/2018 07:10PM ET,ATL,8.6
SP,Doug Fister (10675068),Doug Fister,10675068,P,4500,TEX@HOU 05/12/2018 07:10PM ET,TEX,10.88
RP,Alec Asher (10675628),Alec Asher,10675628,P,4500,MIL@COL 05/12/2018 08:10PM ET,MIL,0
1B,Joey Votto (10675087),Joey Votto,10675087,1B,4500,CIN@LAD 05/12/2018 09:10PM ET,CIN,7.84
SP,Matt Harvey (10675629),Matt Harvey,10675629,P,4500,CIN@LAD 05/12/2018 09:10PM ET,CIN,5.04
SP,Brock Stewart (10675630),Brock Stewart,10675630,P,4500,CIN@LAD 05/12/2018 09:10PM ET,LAD,4.45
3B/SS,Eduardo Escobar (10675088),Eduardo Escobar,10675088,3B/SS,4500,MIN@LAA 05/12/2018 09:07PM ET,MIN,9.74
OF,Justin Upton (10675090),Justin Upton,10675090,OF,4500,MIN@LAA 05/12/2018 09:07PM ET,LAA,9.18
SP,Shohei Ohtani (10675627),Shohei Ohtani,10675627,P,4500,MIN@LAA 05/12/2018 09:07PM ET,LAA,3.68
SP,John Lamb (10675631),John Lamb,10675631,P,4500,MIN@LAA 05/12/2018 09:07PM ET,LAA,0
SP,Joan Gregorio (10675632),Joan Gregorio,10675632,P,4500,SF@PIT 05/12/2018 07:05PM ET,SF,0
RP,Dan Winkler (10675633),Dan Winkler,10675633,P,4500,ATL@MIA 05/12/2018 07:10PM ET,ATL,4.36
SP,A.J. Griffin (10675634),A.J. Griffin,10675634,P,4500,NYM@PHI 05/12/2018 07:05PM ET,NYM,0
RP,Rafael Montero (10675635),Rafael Montero,10675635,P,4500,NYM@PHI 05/12/2018 07:05PM ET,NYM,0
RP,Corey Oswalt (10675636),Corey Oswalt,10675636,P,4500,NYM@PHI 05/12/2018 07:05PM ET,NYM,12.7
SP,Jesse Chavez (10675637),Jesse Chavez,10675637,P,4400,TEX@HOU 05/12/2018 07:10PM ET,TEX,4.25
SP,Edinson Volquez (10675638),Edinson Volquez,10675638,P,4400,TEX@HOU 05/12/2018 07:10PM ET,TEX,0
SP,Martin Perez (10675639),Martin Perez,10675639,P,4400,TEX@HOU 05/12/2018 07:10PM ET,TEX,0.65
SP,Matt Moore (10675640),Matt Moore,10675640,P,4400,TEX@HOU 05/12/2018 07:10PM ET,TEX,3.34
OF,David Dahl (10675094),David Dahl,10675094,OF,4400,MIL@COL 05/12/2018 08:10PM ET,COL,5.71
2B,DJ LeMahieu (10675095),DJ LeMahieu,10675095,2B,4400,MIL@COL 05/12/2018 08:10PM ET,COL,8.77
3B,Travis Shaw (10675097),Travis Shaw,10675097,3B,4400,MIL@COL 05/12/2018 08:10PM ET,MIL,8.03
SP,Jeff Hoffman (10675641),Jeff Hoffman,10675641,P,4400,MIL@COL 05/12/2018 08:10PM ET,COL,0
SP,Clayton Richard (10675642),Clayton Richard,10675642,P,4400,STL@SD 05/12/2018 08:40PM ET,SD,9.44
SP,Kyle Lloyd (10675643),Kyle Lloyd,10675643,P,4400,STL@SD 05/12/2018 08:40PM ET,SD,0
SP,Ross Stripling (10675069),Ross Stripling,10675069,P,4400,CIN@LAD 05/12/2018 09:10PM ET,LAD,5.05
OF,Eddie Rosario (10675096),Eddie Rosario,10675096,OF,4400,MIN@LAA 05/12/2018 09:07PM ET,MIN,9.91
SP,Jaime Barria (10675644),Jaime Barria,10675644,P,4400,MIN@LAA 05/12/2018 09:07PM ET,LAA,13.71
SP,Tyler Beede (10675645),Tyler Beede,10675645,P,4400,SF@PIT 05/12/2018 07:05PM ET,SF,5.22
SP,Adam Conley (10675646),Adam Conley,10675646,P,4400,ATL@MIA 05/12/2018 07:10PM ET,MIA,0
OF,Rhys Hoskins (10675093),Rhys Hoskins,10675093,OF,4400,NYM@PHI 05/12/2018 07:05PM ET,PHI,8.66
RP,Robert Gsellman (10675647),Robert Gsellman,10675647,P,4400,NYM@PHI 05/12/2018 07:05PM ET,NYM,4.41
SP,Ben Lively (10675648),Ben Lively,10675648,P,4400,NYM@PHI 05/12/2018 07:05PM ET,PHI,5.51
SP,Antonio Senzatela (10675649),Antonio Senzatela,10675649,P,4300,MIL@COL 05/12/2018 08:10PM ET,COL,3.3
RP,Jackson Stephens (10675650),Jackson Stephens,10675650,P,4300,CIN@LAD 05/12/2018 09:10PM ET,CIN,0.8
2B,Brian Dozier (10675098),Brian Dozier,10675098,2B,4300,MIN@LAA 05/12/2018 09:07PM ET,MIN,8.38
SP,Dietrich Enns (10675651),Dietrich Enns,10675651,P,4300,MIN@LAA 05/12/2018 09:07PM ET,MIN,0
OF,Nick Markakis (10675099),Nick Markakis,10675099,OF,4300,ATL@MIA 05/12/2018 07:10PM ET,ATL,10.05
SP,Jeff Locke (10675652),Jeff Locke,10675652,P,4300,ATL@MIA 05/12/2018 07:10PM ET,MIA,0
RP,Mark Leiter Jr. (10675653),Mark Leiter Jr.,10675653,P,4300,NYM@PHI 05/12/2018 07:05PM ET,PHI,0
RP,Brady Rodgers (10675654),Brady Rodgers,10675654,P,4200,TEX@HOU 05/12/2018 07:10PM ET,HOU,0
OF,Wil Myers (10675100),Wil Myers,10675100,OF,4200,STL@SD 05/12/2018 08:40PM ET,SD,7
2B,Scooter Gennett (10675103),Scooter Gennett,10675103,2B,4200,CIN@LAD 05/12/2018 09:10PM ET,CIN,8
OF,Starling Marte (10675101),Starling Marte,10675101,OF,4200,SF@PIT 05/12/2018 07:05PM ET,PIT,9.79
RP,Steven Brault (10675655),Steven Brault,10675655,P,4200,SF@PIT 05/12/2018 07:05PM ET,PIT,7.31
SP,Joe Musgrove (10675656),Joe Musgrove,10675656,P,4200,SF@PIT 05/12/2018 07:05PM ET,PIT,0
OF,Ender Inciarte (10675102),Ender Inciarte,10675102,OF,4200,ATL@MIA 05/12/2018 07:10PM ET,ATL,8.72
SP,Jason Vargas (10675657),Jason Vargas,10675657,P,4200,NYM@PHI 05/12/2018 07:05PM ET,NYM,-4.22
SP,Jake Thompson (10675658),Jake Thompson,10675658,P,4200,NYM@PHI 05/12/2018 07:05PM ET,PHI,5.03
3B,Maikel Franco (10675104),Maikel Franco,10675104,3B,4100,NYM@PHI 05/12/2018 07:05PM ET,PHI,8.12
OF,Yoenis Cespedes (10675105),Yoenis Cespedes,10675105,OF,4100,NYM@PHI 05/12/2018 07:05PM ET,NYM,8.03
3B,Alex Bregman (10675115),Alex Bregman,10675115,3B,4000,TEX@HOU 05/12/2018 07:10PM ET,HOU,7.26
RP,Kevin Jepsen (10675660),Kevin Jepsen,10675660,P,4000,TEX@HOU 05/12/2018 07:10PM ET,TEX,1.22
RP,Tony Barnette (10675661),Tony Barnette,10675661,P,4000,TEX@HOU 05/12/2018 07:10PM ET,TEX,3.28
SP,Paolo Espino (10675662),Paolo Espino,10675662,P,4000,TEX@HOU 05/12/2018 07:10PM ET,TEX,0
RP,Austin Bibens-Dirkx (10675663),Austin Bibens-Dirkx,10675663,P,4000,TEX@HOU 05/12/2018 07:10PM ET,TEX,0
RP,Jake Diekman (10675664),Jake Diekman,10675664,P,4000,TEX@HOU 05/12/2018 07:10PM ET,TEX,2.32
RP,Alex Claudio (10675665),Alex Claudio,10675665,P,4000,TEX@HOU 05/12/2018 07:10PM ET,TEX,0.66
SP,Connor Sadzeck (10675666),Connor Sadzeck,10675666,P,4000,TEX@HOU 05/12/2018 07:10PM ET,TEX,0
RP,Shawn Tolleson (10675667),Shawn Tolleson,10675667,P,4000,TEX@HOU 05/12/2018 07:10PM ET,TEX,0
RP,Keone Kela (10675668),Keone Kela,10675668,P,4000,TEX@HOU 05/12/2018 07:10PM ET,TEX,3.48
RP,Yohander Mendez (10675669),Yohander Mendez,10675669,P,4000,TEX@HOU 05/12/2018 07:10PM ET,TEX,0
RP,Ronald Herrera (10675670),Ronald Herrera,10675670,P,4000,TEX@HOU 05/12/2018 07:10PM ET,TEX,0
RP,Jose Leclerc (10675671),Jose Leclerc,10675671,P,4000,TEX@HOU 05/12/2018 07:10PM ET,TEX,4.83
RP,Chris Martin (10675672),Chris Martin,10675672,P,4000,TEX@HOU 05/12/2018 07:10PM ET,TEX,1.84
SP,Adrian Sampson (10675673),Adrian Sampson,10675673,P,4000,TEX@HOU 05/12/2018 07:10PM ET,TEX,0
SP,Clayton Blackburn (10675674),Clayton Blackburn,10675674,P,4000,TEX@HOU 05/12/2018 07:10PM ET,TEX,0
RP,Ricardo Rodriguez (10675675),Ricardo Rodriguez,10675675,P,4000,TEX@HOU 05/12/2018 07:10PM ET,TEX,0
SP,Cole Ragans (10675676),Cole Ragans,10675676,P,4000,TEX@HOU 05/12/2018 07:10PM ET,TEX,0
SP,Alex Speas (10675677),Alex Speas,10675677,P,4000,TEX@HOU 05/12/2018 07:10PM ET,TEX,0
SP,Hans Crouse (10675678),Hans Crouse,10675678,P,4000,TEX@HOU 05/12/2018 07:10PM ET,TEX,0
SP,Chi Chi Gonzalez (10675679),Chi Chi Gonzalez,10675679,P,4000,TEX@HOU 05/12/2018 07:10PM ET,TEX,0
SP,Kyle Cody (10675680),Kyle Cody,10675680,P,4000,TEX@HOU 05/12/2018 07:10PM ET,TEX,0
SP,Brett Martin (10675681),Brett Martin,10675681,P,4000,TEX@HOU 05/12/2018 07:10PM ET,TEX,0
RP,Ken Giles (10675682),Ken Giles,10675682,P,4000,TEX@HOU 05/12/2018 07:10PM ET,HOU,1.94
RP,Chris Devenski (10675683),Chris Devenski,10675683,P,4000,TEX@HOU 05/12/2018 07:10PM ET,HOU,3.98
RP,Jandel Gustave (10675684),Jandel Gustave,10675684,P,4000,TEX@HOU 05/12/2018 07:10PM ET,HOU,0
RP,Hector Rondon (10675685),Hector Rondon,10675685,P,4000,TEX@HOU 05/12/2018 07:10PM ET,HOU,3.37
RP,Joe Smith (10675686),Joe Smith,10675686,P,4000,TEX@HOU 05/12/2018 07:10PM ET,HOU,1.52
RP,Will Harris (10675687),Will Harris,10675687,P,4000,TEX@HOU 05/12/2018 07:10PM ET,HOU,2.03
RP,Tony Sipp (10675688),Tony Sipp,10675688,P,4000,TEX@HOU 05/12/2018 07:10PM ET,HOU,2.04
SP,Cionel Perez (10675689),Cionel Perez,10675689,P,4000,TEX@HOU 05/12/2018 07:10PM ET,HOU,0
SP,Franklin Perez (10675690),Franklin Perez,10675690,P,4000,TEX@HOU 05/12/2018 07:10PM ET,HOU,0
SP,J.B. Bukauskas (10675691),J.B. Bukauskas,10675691,P,4000,TEX@HOU 05/12/2018 07:10PM ET,HOU,0
RP,Francis Martes (10675692),Francis Martes,10675692,P,4000,TEX@HOU 05/12/2018 07:10PM ET,HOU,0
OF,Domingo Santana (10675107),Domingo Santana,10675107,OF,4000,MIL@COL 05/12/2018 08:10PM ET,MIL,4.89
RP,Dan Jennings (10675693),Dan Jennings,10675693,P,4000,MIL@COL 05/12/2018 08:10PM ET,MIL,2.55
RP,Boone Logan (10675694),Boone Logan,10675694,P,4000,MIL@COL 05/12/2018 08:10PM ET,MIL,0.22
RP,Matt Albers (10675695),Matt Albers,10675695,P,4000,MIL@COL 05/12/2018 08:10PM ET,MIL,3.89
RP,Jeremy Jeffress (10675696),Jeremy Jeffress,10675696,P,4000,MIL@COL 05/12/2018 08:10PM ET,MIL,4.31
RP,Jacob Barnes (10675697),Jacob Barnes,10675697,P,4000,MIL@COL 05/12/2018 08:10PM ET,MIL,2.92
SP,Cody Ponce (10675698),Cody Ponce,10675698,P,4000,MIL@COL 05/12/2018 08:10PM ET,MIL,0
SP,Nathan Kirby (10675699),Nathan Kirby,10675699,P,4000,MIL@COL 05/12/2018 08:10PM ET,MIL,0
SP,Luis Ortiz (10675700),Luis Ortiz,10675700,P,4000,MIL@COL 05/12/2018 08:10PM ET,MIL,0
SP,Kodi Medeiros (10675701),Kodi Medeiros,10675701,P,4000,MIL@COL 05/12/2018 08:10PM ET,MIL,0
SP,Marcos Diplan (10675702),Marcos Diplan,10675702,P,4000,MIL@COL 05/12/2018 08:10PM ET,MIL,0
SP,Phil Bickford (10675703),Phil Bickford,10675703,P,4000,MIL@COL 05/12/2018 08:10PM ET,MIL,0
RP,Taylor Williams (10675704),Taylor Williams,10675704,P,4000,MIL@COL 05/12/2018 08:10PM ET,MIL,4.71
RP,Corey Knebel (10675705),Corey Knebel,10675705,P,4000,MIL@COL 05/12/2018 08:10PM ET,MIL,2.58
RP,Josh Hader (10675706),Josh Hader,10675706,P,4000,MIL@COL 05/12/2018 08:10PM ET,MIL,9.80
SP,Yency Almonte (10675707),Yency Almonte,10675707,P,4000,MIL@COL 05/12/2018 08:10PM ET,COL,0
SP,Ryan Castellani (10675708),Ryan Castellani,10675708,P,4000,MIL@COL 05/12/2018 08:10PM ET,COL,0
RP,Harrison Musgrave (10675709),Harrison Musgrave,10675709,P,4000,MIL@COL 05/12/2018 08:10PM ET,COL,3.07
SP,Peter Lambert (10675710),Peter Lambert,10675710,P,4000,MIL@COL 05/12/2018 08:10PM ET,COL,0
SP,Mike Nikorak (10675711),Mike Nikorak,10675711,P,4000,MIL@COL 05/12/2018 08:10PM ET,COL,0
SP,Riley Pint (10675712),Riley Pint,10675712,P,4000,MIL@COL 05/12/2018 08:10PM ET,COL,0
RP,Chris Rusin (10675713),Chris Rusin,10675713,P,4000,MIL@COL 05/12/2018 08:10PM ET,COL,2.52
RP,Rayan Gonzalez (10675714),Rayan Gonzalez,10675714,P,4000,MIL@COL 05/12/2018 08:10PM ET,COL,0
RP,Brooks Pounders (10675715),Brooks Pounders,10675715,P,4000,MIL@COL 05/12/2018 08:10PM ET,COL,1.05
RP,Bryan Shaw (10675716),Bryan Shaw,10675716,P,4000,MIL@COL 05/12/2018 08:10PM ET,COL,2.06
RP,Adam Ottavino (10675717),Adam Ottavino,10675717,P,4000,MIL@COL 05/12/2018 08:10PM ET,COL,5.75
RP,Jake McGee (10675718),Jake McGee,10675718,P,4000,MIL@COL 05/12/2018 08:10PM ET,COL,1.68
RP,Wade Davis (10675719),Wade Davis,10675719,P,4000,MIL@COL 05/12/2018 08:10PM ET,COL,3.13
RP,Mike Dunn (10675720),Mike Dunn,10675720,P,4000,MIL@COL 05/12/2018 08:10PM ET,COL,0.02
RP,Carlos Estevez (10675721),Carlos Estevez,10675721,P,4000,MIL@COL 05/12/2018 08:10PM ET,COL,0
RP,Zac Rosscup (10675722),Zac Rosscup,10675722,P,4000,MIL@COL 05/12/2018 08:10PM ET,COL,0
1B,Eric Hosmer (10675106),Eric Hosmer,10675106,1B,4000,STL@SD 05/12/2018 08:40PM ET,SD,7.75
RP,Mike Mayers (10675659),Mike Mayers,10675659,P,4000,STL@SD 05/12/2018 08:40PM ET,STL,4.79
RP,Dominic Leone (10675723),Dominic Leone,10675723,P,4000,STL@SD 05/12/2018 08:40PM ET,STL,2.53
RP,John Brebbia (10675724),John Brebbia,10675724,P,4000,STL@SD 05/12/2018 08:40PM ET,STL,5.96
RP,Sam Tuivailala (10675725),Sam Tuivailala,10675725,P,4000,STL@SD 05/12/2018 08:40PM ET,STL,1.52
RP,Ryan Sherriff (10675726),Ryan Sherriff,10675726,P,4000,STL@SD 05/12/2018 08:40PM ET,STL,0.83
RP,Tyler Lyons (10675727),Tyler Lyons,10675727,P,4000,STL@SD 05/12/2018 08:40PM ET,STL,1.42
RP,Trevor Rosenthal (10675728),Trevor Rosenthal,10675728,P,4000,STL@SD 05/12/2018 08:40PM ET,STL,0
RP,Brett Cecil (10675729),Brett Cecil,10675729,P,4000,STL@SD 05/12/2018 08:40PM ET,STL,0.15
RP,Luke Gregerson (10675730),Luke Gregerson,10675730,P,4000,STL@SD 05/12/2018 08:40PM ET,STL,1.51
RP,Greg Holland (10675731),Greg Holland,10675731,P,4000,STL@SD 05/12/2018 08:40PM ET,STL,1.17
RP,Bud Norris (10675732),Bud Norris,10675732,P,4000,STL@SD 05/12/2018 08:40PM ET,STL,3.99
RP,Jordan Hicks (10675733),Jordan Hicks,10675733,P,4000,STL@SD 05/12/2018 08:40PM ET,STL,2.42
SP,Junior Fernandez (10675734),Junior Fernandez,10675734,P,4000,STL@SD 05/12/2018 08:40PM ET,STL,0
SP,Dakota Hudson (10675735),Dakota Hudson,10675735,P,4000,STL@SD 05/12/2018 08:40PM ET,STL,0
SP,Conner Greene (10675736),Conner Greene,10675736,P,4000,STL@SD 05/12/2018 08:40PM ET,STL,0
RP,Matt Bowman (10675737),Matt Bowman,10675737,P,4000,STL@SD 05/12/2018 08:40PM ET,STL,2.42
RP,Adam Cimber (10675738),Adam Cimber,10675738,P,4000,STL@SD 05/12/2018 08:40PM ET,SD,4.49
RP,Matt Strahm (10675739),Matt Strahm,10675739,P,4000,STL@SD 05/12/2018 08:40PM ET,SD,0.58
SP,Michel Baez (10675740),Michel Baez,10675740,P,4000,STL@SD 05/12/2018 08:40PM ET,SD,0
SP,Adrian Morejon (10675741),Adrian Morejon,10675741,P,4000,STL@SD 05/12/2018 08:40PM ET,SD,0
SP,MacKenzie Gore (10675742),MacKenzie Gore,10675742,P,4000,STL@SD 05/12/2018 08:40PM ET,SD,0
RP,Phil Maton (10675743),Phil Maton,10675743,P,4000,STL@SD 05/12/2018 08:40PM ET,SD,3.35
SP,Logan Allen (10675744),Logan Allen,10675744,P,4000,STL@SD 05/12/2018 08:40PM ET,SD,0
SP,Chris Paddack (10675745),Chris Paddack,10675745,P,4000,STL@SD 05/12/2018 08:40PM ET,SD,0
SP,Austin Smith (10675746),Austin Smith,10675746,P,4000,STL@SD 05/12/2018 08:40PM ET,SD,0
SP,Anderson Espinoza (10675747),Anderson Espinoza,10675747,P,4000,STL@SD 05/12/2018 08:40PM ET,SD,0
RP,Craig Stammen (10675748),Craig Stammen,10675748,P,4000,STL@SD 05/12/2018 08:40PM ET,SD,4.35
RP,Chris Young (10675749),Chris Young,10675749,P,4000,STL@SD 05/12/2018 08:40PM ET,SD,0
RP,Jordan Lyles (10675750),Jordan Lyles,10675750,P,4000,STL@SD 05/12/2018 08:40PM ET,SD,4.62
RP,Brad Hand (10675751),Brad Hand,10675751,P,4000,STL@SD 05/12/2018 08:40PM ET,SD,4.66
SP,Robbie Erlin (10675752),Robbie Erlin,10675752,P,4000,STL@SD 05/12/2018 08:40PM ET,SD,5.75
SP,Bryan Mitchell (10675753),Bryan Mitchell,10675753,P,4000,STL@SD 05/12/2018 08:40PM ET,SD,3.04
RP,Kirby Yates (10675754),Kirby Yates,10675754,P,4000,STL@SD 05/12/2018 08:40PM ET,SD,4.12
SP,Dillon Overton (10675755),Dillon Overton,10675755,P,4000,STL@SD 05/12/2018 08:40PM ET,SD,0
SP,Colin Rea (10675756),Colin Rea,10675756,P,4000,STL@SD 05/12/2018 08:40PM ET,SD,0
SP,Luis Perdomo (10675757),Luis Perdomo,10675757,P,4000,STL@SD 05/12/2018 08:40PM ET,SD,5.48
RP,Miguel Diaz (10675758),Miguel Diaz,10675758,P,4000,STL@SD 05/12/2018 08:40PM ET,SD,0
SP,Homer Bailey (10675070),Homer Bailey,10675070,P,4000,CIN@LAD 05/12/2018 09:10PM ET,CIN,7.26
OF/SS,Chris Taylor (10675108),Chris Taylor,10675108,SS/OF,4000,CIN@LAD 05/12/2018 09:10PM ET,LAD,7.97
OF,Joc Pederson (10675113),Joc Pederson,10675113,OF,4000,CIN@LAD 05/12/2018 09:10PM ET,LAD,5.06
OF,Matt Kemp (10675114),Matt Kemp,10675114,OF,4000,CIN@LAD 05/12/2018 09:10PM ET,LAD,6.47
RP,Robert Stephenson (10675759),Robert Stephenson,10675759,P,4000,CIN@LAD 05/12/2018 09:10PM ET,CIN,0
RP,Michael Lorenzen (10675760),Michael Lorenzen,10675760,P,4000,CIN@LAD 05/12/2018 09:10PM ET,CIN,0
RP,Wandy Peralta (10675761),Wandy Peralta,10675761,P,4000,CIN@LAD 05/12/2018 09:10PM ET,CIN,2.01
RP,Austin Brice (10675762),Austin Brice,10675762,P,4000,CIN@LAD 05/12/2018 09:10PM ET,CIN,3.98
RP,Dylan Floro (10675763),Dylan Floro,10675763,P,4000,CIN@LAD 05/12/2018 09:10PM ET,CIN,4.79
SP,Vance Worley (10675764),Vance Worley,10675764,P,4000,CIN@LAD 05/12/2018 09:10PM ET,CIN,0
RP,David Hernandez (10675765),David Hernandez,10675765,P,4000,CIN@LAD 05/12/2018 09:10PM ET,CIN,4.27
RP,Jared Hughes (10675766),Jared Hughes,10675766,P,4000,CIN@LAD 05/12/2018 09:10PM ET,CIN,3.80
SP,Daniel Wright (10675767),Daniel Wright,10675767,P,4000,CIN@LAD 05/12/2018 09:10PM ET,CIN,0
SP,Nick Howard (10675768),Nick Howard,10675768,P,4000,CIN@LAD 05/12/2018 09:10PM ET,CIN,0
RP,Raisel Iglesias (10675769),Raisel Iglesias,10675769,P,4000,CIN@LAD 05/12/2018 09:10PM ET,CIN,4.46
SP,Tony Santillan (10675770),Tony Santillan,10675770,P,4000,CIN@LAD 05/12/2018 09:10PM ET,CIN,0
SP,Hunter Greene (10675771),Hunter Greene,10675771,P,4000,CIN@LAD 05/12/2018 09:10PM ET,CIN,0
SP,Vladimir Gutierrez (10675772),Vladimir Gutierrez,10675772,P,4000,CIN@LAD 05/12/2018 09:10PM ET,CIN,0
RP,Jesen Therrien (10675773),Jesen Therrien,10675773,P,4000,CIN@LAD 05/12/2018 09:10PM ET,LAD,0
RP,Adam Liberatore (10675774),Adam Liberatore,10675774,P,4000,CIN@LAD 05/12/2018 09:10PM ET,LAD,2.53
RP,Scott Alexander (10675775),Scott Alexander,10675775,P,4000,CIN@LAD 05/12/2018 09:10PM ET,LAD,1.66
RP,JT Chargois (10675776),JT Chargois,10675776,P,4000,CIN@LAD 05/12/2018 09:10PM ET,LAD,3.26
RP,Tony Cingrani (10675777),Tony Cingrani,10675777,P,4000,CIN@LAD 05/12/2018 09:10PM ET,LAD,2.56
RP,Daniel Hudson (10675778),Daniel Hudson,10675778,P,4000,CIN@LAD 05/12/2018 09:10PM ET,LAD,2.32
RP,Josh Fields (10675779),Josh Fields,10675779,P,4000,CIN@LAD 05/12/2018 09:10PM ET,LAD,3.2
RP,Pedro Baez (10675780),Pedro Baez,10675780,P,4000,CIN@LAD 05/12/2018 09:10PM ET,LAD,3.52
RP,Kenley Jansen (10675781),Kenley Jansen,10675781,P,4000,CIN@LAD 05/12/2018 09:10PM ET,LAD,2.48
SP,Dustin May (10675782),Dustin May,10675782,P,4000,CIN@LAD 05/12/2018 09:10PM ET,LAD,0
SP,Jordan Sheffield (10675783),Jordan Sheffield,10675783,P,4000,CIN@LAD 05/12/2018 09:10PM ET,LAD,0
RP,Keynan Middleton (10675784),Keynan Middleton,10675784,P,4000,MIN@LAA 05/12/2018 09:07PM ET,LAA,3.16
SP,Griffin Canning (10675785),Griffin Canning,10675785,P,4000,MIN@LAA 05/12/2018 09:07PM ET,LAA,0
RP,Justin Anderson (10675786),Justin Anderson,10675786,P,4000,MIN@LAA 05/12/2018 09:07PM ET,LAA,3.4
SP,Chris Rodriguez (10675787),Chris Rodriguez,10675787,P,4000,MIN@LAA 05/12/2018 09:07PM ET,LAA,0
RP,Jose Alvarez (10675788),Jose Alvarez,10675788,P,4000,MIN@LAA 05/12/2018 09:07PM ET,LAA,3.54
RP,Blake Wood (10675789),Blake Wood,10675789,P,4000,MIN@LAA 05/12/2018 09:07PM ET,LAA,2.66
RP,Blake Parker (10675790),Blake Parker,10675790,P,4000,MIN@LAA 05/12/2018 09:07PM ET,LAA,2.79
RP,Jim Johnson (10675791),Jim Johnson,10675791,P,4000,MIN@LAA 05/12/2018 09:07PM ET,LAA,3.04
RP,Noe Ramirez (10675792),Noe Ramirez,10675792,P,4000,MIN@LAA 05/12/2018 09:07PM ET,LAA,3.56
RP,Vicente Campos (10675793),Vicente Campos,10675793,P,4000,MIN@LAA 05/12/2018 09:07PM ET,LAA,0
RP,Akeel Morris (10675794),Akeel Morris,10675794,P,4000,MIN@LAA 05/12/2018 09:07PM ET,LAA,1.41
RP,Parker Bridwell (10675795),Parker Bridwell,10675795,P,4000,MIN@LAA 05/12/2018 09:07PM ET,LAA,-12.45
RP,Cam Bedrosian (10675796),Cam Bedrosian,10675796,P,4000,MIN@LAA 05/12/2018 09:07PM ET,LAA,2.10
RP,Trevor Hildenberger (10675797),Trevor Hildenberger,10675797,P,4000,MIN@LAA 05/12/2018 09:07PM ET,MIN,2.49
SP,Felix Jorge (10675798),Felix Jorge,10675798,P,4000,MIN@LAA 05/12/2018 09:07PM ET,MIN,0
SP,Tyler Duffey (10675799),Tyler Duffey,10675799,P,4000,MIN@LAA 05/12/2018 09:07PM ET,MIN,-1.07
RP,Addison Reed (10675800),Addison Reed,10675800,P,4000,MIN@LAA 05/12/2018 09:07PM ET,MIN,3.36
RP,Myles Jaye (10675801),Myles Jaye,10675801,P,4000,MIN@LAA 05/12/2018 09:07PM ET,MIN,0
RP,Taylor Rogers (10675802),Taylor Rogers,10675802,P,4000,MIN@LAA 05/12/2018 09:07PM ET,MIN,1.79
RP,Zack Jones (10675803),Zack Jones,10675803,P,4000,MIN@LAA 05/12/2018 09:07PM ET,MIN,0
RP,Ryan Pressly (10675804),Ryan Pressly,10675804,P,4000,MIN@LAA 05/12/2018 09:07PM ET,MIN,4.30
RP,Trevor May (10675805),Trevor May,10675805,P,4000,MIN@LAA 05/12/2018 09:07PM ET,MIN,0
RP,Matt Magill (10675806),Matt Magill,10675806,P,4000,MIN@LAA 05/12/2018 09:07PM ET,MIN,5.58
RP,Fernando Rodney (10675807),Fernando Rodney,10675807,P,4000,MIN@LAA 05/12/2018 09:07PM ET,MIN,2.46
RP,Zach Duke (10675808),Zach Duke,10675808,P,4000,MIN@LAA 05/12/2018 09:07PM ET,MIN,3.11
OF,Corey Dickerson (10675111),Corey Dickerson,10675111,OF,4000,SF@PIT 05/12/2018 07:05PM ET,PIT,9.29
SP,Taylor Hearn (10675809),Taylor Hearn,10675809,P,4000,SF@PIT 05/12/2018 07:05PM ET,PIT,0
RP,Edgar Santana (10675810),Edgar Santana,10675810,P,4000,SF@PIT 05/12/2018 07:05PM ET,PIT,2.75
SP,Shane Baz (10675811),Shane Baz,10675811,P,4000,SF@PIT 05/12/2018 07:05PM ET,PIT,0
RP,Kyle Crick (10675812),Kyle Crick,10675812,P,4000,SF@PIT 05/12/2018 07:05PM ET,PIT,3.02
SP,Clay Holmes (10675813),Clay Holmes,10675813,P,4000,SF@PIT 05/12/2018 07:05PM ET,PIT,4.1
RP,Michael Feliz (10675814),Michael Feliz,10675814,P,4000,SF@PIT 05/12/2018 07:05PM ET,PIT,3.22
RP,Nick Burdi (10675815),Nick Burdi,10675815,P,4000,SF@PIT 05/12/2018 07:05PM ET,PIT,0
RP,Richard Rodriguez (10675816),Richard Rodriguez,10675816,P,4000,SF@PIT 05/12/2018 07:05PM ET,PIT,6.7
RP,Felipe Vazquez (10675817),Felipe Vazquez,10675817,P,4000,SF@PIT 05/12/2018 07:05PM ET,PIT,3.40
RP,Enny Romero (10675818),Enny Romero,10675818,P,4000,SF@PIT 05/12/2018 07:05PM ET,PIT,1.82
RP,A.J. Schugel (10675819),A.J. Schugel,10675819,P,4000,SF@PIT 05/12/2018 07:05PM ET,PIT,0
SP,Nik Turley (10675820),Nik Turley,10675820,P,4000,SF@PIT 05/12/2018 07:05PM ET,PIT,0
RP,Bo Schultz (10675821),Bo Schultz,10675821,P,4000,SF@PIT 05/12/2018 07:05PM ET,PIT,0
RP,George Kontos (10675822),George Kontos,10675822,P,4000,SF@PIT 05/12/2018 07:05PM ET,PIT,1.67
RP,Sam Dyson (10675823),Sam Dyson,10675823,P,4000,SF@PIT 05/12/2018 07:05PM ET,SF,1.76
RP,Tony Watson (10675824),Tony Watson,10675824,P,4000,SF@PIT 05/12/2018 07:05PM ET,SF,3.49
RP,Mark Melancon (10675825),Mark Melancon,10675825,P,4000,SF@PIT 05/12/2018 07:05PM ET,SF,0
SP,Matt Cain (10675826),Matt Cain,10675826,P,4000,SF@PIT 05/12/2018 07:05PM ET,SF,0
RP,Cory Gearrin (10675827),Cory Gearrin,10675827,P,4000,SF@PIT 05/12/2018 07:05PM ET,SF,1.97
RP,Hunter Strickland (10675828),Hunter Strickland,10675828,P,4000,SF@PIT 05/12/2018 07:05PM ET,SF,3.61
RP,Will Smith (10675829),Will Smith,10675829,P,4000,SF@PIT 05/12/2018 07:05PM ET,SF,3.31
SP,Chris Heston (10675830),Chris Heston,10675830,P,4000,SF@PIT 05/12/2018 07:05PM ET,SF,0
RP,Reyes Moronta (10675831),Reyes Moronta,10675831,P,4000,SF@PIT 05/12/2018 07:05PM ET,SF,3.62
SP,Jordan Johnson (10675832),Jordan Johnson,10675832,P,4000,SF@PIT 05/12/2018 07:05PM ET,SF,0
RP,Jose Valdez (10675833),Jose Valdez,10675833,P,4000,SF@PIT 05/12/2018 07:05PM ET,SF,-0.95
RP,Pierce Johnson (10675834),Pierce Johnson,10675834,P,4000,SF@PIT 05/12/2018 07:05PM ET,SF,2.01
RP,Julian Fernandez (10675835),Julian Fernandez,10675835,P,4000,SF@PIT 05/12/2018 07:05PM ET,SF,0
SP,Garrett Williams (10675836),Garrett Williams,10675836,P,4000,SF@PIT 05/12/2018 07:05PM ET,SF,0
SP,Kolby Allard (10675837),Kolby Allard,10675837,P,4000,ATL@MIA 05/12/2018 07:10PM ET,ATL,0
RP,Peter Moylan (10675838),Peter Moylan,10675838,P,4000,ATL@MIA 05/12/2018 07:10PM ET,ATL,1.48
RP,Sam Freeman (10675839),Sam Freeman,10675839,P,4000,ATL@MIA 05/12/2018 07:10PM ET,ATL,2.57
RP,Arodys Vizcaino (10675840),Arodys Vizcaino,10675840,P,4000,ATL@MIA 05/12/2018 07:10PM ET,ATL,3.35
SP,Jesse Biddle (10675841),Jesse Biddle,10675841,P,4000,ATL@MIA 05/12/2018 07:10PM ET,ATL,5.04
RP,Jose Ramirez (10675842),Jose Ramirez,10675842,P,4000,ATL@MIA 05/12/2018 07:10PM ET,ATL,-1.02
RP,Max Fried (10675843),Max Fried,10675843,P,4000,ATL@MIA 05/12/2018 07:10PM ET,ATL,3.68
RP,Jacob Lindgren (10675844),Jacob Lindgren,10675844,P,4000,ATL@MIA 05/12/2018 07:10PM ET,ATL,0
SP,Kyle Wright (10675845),Kyle Wright,10675845,P,4000,ATL@MIA 05/12/2018 07:10PM ET,ATL,0
SP,Bryse Wilson (10675846),Bryse Wilson,10675846,P,4000,ATL@MIA 05/12/2018 07:10PM ET,ATL,0
SP,Joey Wentz (10675847),Joey Wentz,10675847,P,4000,ATL@MIA 05/12/2018 07:10PM ET,ATL,0
SP,Ian Anderson (10675848),Ian Anderson,10675848,P,4000,ATL@MIA 05/12/2018 07:10PM ET,ATL,0
RP,A.J. Minter (10675849),A.J. Minter,10675849,P,4000,ATL@MIA 05/12/2018 07:10PM ET,ATL,2.44
RP,Shane Carle (10675850),Shane Carle,10675850,P,4000,ATL@MIA 05/12/2018 07:10PM ET,ATL,4.49
SP,Ricardo Sanchez (10675851),Ricardo Sanchez,10675851,P,4000,ATL@MIA 05/12/2018 07:10PM ET,ATL,0
RP,Brad Ziegler (10675852),Brad Ziegler,10675852,P,4000,ATL@MIA 05/12/2018 07:10PM ET,MIA,1.52
RP,Junichi Tazawa (10675853),Junichi Tazawa,10675853,P,4000,ATL@MIA 05/12/2018 07:10PM ET,MIA,2.07
SP,Jacob Turner (10675854),Jacob Turner,10675854,P,4000,ATL@MIA 05/12/2018 07:10PM ET,MIA,-3.51
SP,Tyler Cloyd (10675855),Tyler Cloyd,10675855,P,4000,ATL@MIA 05/12/2018 07:10PM ET,MIA,-2.9
RP,Drew Rucinski (10675856),Drew Rucinski,10675856,P,4000,ATL@MIA 05/12/2018 07:10PM ET,MIA,0
RP,Severino Gonzalez (10675857),Severino Gonzalez,10675857,P,4000,ATL@MIA 05/12/2018 07:10PM ET,MIA,0
RP,Tayron Guerrero (10675858),Tayron Guerrero,10675858,P,4000,ATL@MIA 05/12/2018 07:10PM ET,MIA,3.74
RP,Brett Graves (10675859),Brett Graves,10675859,P,4000,ATL@MIA 05/12/2018 07:10PM ET,MIA,0
RP,Kyle Barraclough (10675860),Kyle Barraclough,10675860,P,4000,ATL@MIA 05/12/2018 07:10PM ET,MIA,3.74
RP,Drew Steckenrider (10675861),Drew Steckenrider,10675861,P,4000,ATL@MIA 05/12/2018 07:10PM ET,MIA,3.35
RP,Nick Wittgren (10675862),Nick Wittgren,10675862,P,4000,ATL@MIA 05/12/2018 07:10PM ET,MIA,4.68
SP,Odrisamer Despaigne (10675863),Odrisamer Despaigne,10675863,P,4000,ATL@MIA 05/12/2018 07:10PM ET,MIA,4.05
SP,Brett Lilek (10675864),Brett Lilek,10675864,P,4000,ATL@MIA 05/12/2018 07:10PM ET,MIA,0
RP,Chris O'Grady (10675865),Chris O'Grady,10675865,P,4000,ATL@MIA 05/12/2018 07:10PM ET,MIA,1.89
RP,Elieser Hernandez (10675866),Elieser Hernandez,10675866,P,4000,ATL@MIA 05/12/2018 07:10PM ET,MIA,3.3
RP,Brian Ellington (10675867),Brian Ellington,10675867,P,4000,ATL@MIA 05/12/2018 07:10PM ET,MIA,0
RP,Tyler Kinley (10675868),Tyler Kinley,10675868,P,4000,ATL@MIA 05/12/2018 07:10PM ET,MIA,-2.58
RP,Sandy Alcantara (10675869),Sandy Alcantara,10675869,P,4000,ATL@MIA 05/12/2018 07:10PM ET,MIA,0
RP,Trevor Rogers (10675870),Trevor Rogers,10675870,P,4000,ATL@MIA 05/12/2018 07:10PM ET,MIA,0
SP,Braxton Garrett (10675871),Braxton Garrett,10675871,P,4000,ATL@MIA 05/12/2018 07:10PM ET,MIA,0
SP,Nick Neidert (10675872),Nick Neidert,10675872,P,4000,ATL@MIA 05/12/2018 07:10PM ET,MIA,0
RP,Buddy Baumann (10675055),Buddy Baumann,10675055,P,4000,NYM@PHI 05/12/2018 07:05PM ET,NYM,-5.65
2B,Asdrubal Cabrera (10675112),Asdrubal Cabrera,10675112,2B,4000,NYM@PHI 05/12/2018 07:05PM ET,NYM,9.09
RP,AJ Ramos (10675873),AJ Ramos,10675873,P,4000,NYM@PHI 05/12/2018 07:05PM ET,NYM,2.25
RP,Hansel Robles (10675874),Hansel Robles,10675874,P,4000,NYM@PHI 05/12/2018 07:05PM ET,NYM,3.96
RP,Anthony Swarzak (10675875),Anthony Swarzak,10675875,P,4000,NYM@PHI 05/12/2018 07:05PM ET,NYM,4.02
RP,Jerry Blevins (10675876),Jerry Blevins,10675876,P,4000,NYM@PHI 05/12/2018 07:05PM ET,NYM,0.82
RP,Jeurys Familia (10675877),Jeurys Familia,10675877,P,4000,NYM@PHI 05/12/2018 07:05PM ET,NYM,3.87
RP,Paul Sewald (10675878),Paul Sewald,10675878,P,4000,NYM@PHI 05/12/2018 07:05PM ET,NYM,5.35
SP,David Peterson (10675879),David Peterson,10675879,P,4000,NYM@PHI 05/12/2018 07:05PM ET,NYM,0
SP,Anthony Kay (10675880),Anthony Kay,10675880,P,4000,NYM@PHI 05/12/2018 07:05PM ET,NYM,0
SP,Justin Dunn (10675881),Justin Dunn,10675881,P,4000,NYM@PHI 05/12/2018 07:05PM ET,NYM,0
SP,Thomas Szapucki (10675882),Thomas Szapucki,10675882,P,4000,NYM@PHI 05/12/2018 07:05PM ET,NYM,0
SP,P.J. Conlon (10675883),P.J. Conlon,10675883,P,4000,NYM@PHI 05/12/2018 07:05PM ET,NYM,0.65
RP,Victor Arano (10675884),Victor Arano,10675884,P,4000,NYM@PHI 05/12/2018 07:05PM ET,PHI,4.62
SP,Franklyn Kilome (10675885),Franklyn Kilome,10675885,P,4000,NYM@PHI 05/12/2018 07:05PM ET,PHI,0
SP,Adonis Medina (10675886),Adonis Medina,10675886,P,4000,NYM@PHI 05/12/2018 07:05PM ET,PHI,0
RP,Drew Anderson (10675887),Drew Anderson,10675887,P,4000,NYM@PHI 05/12/2018 07:05PM ET,PHI,0
SP,Sixto Sanchez (10675888),Sixto Sanchez,10675888,P,4000,NYM@PHI 05/12/2018 07:05PM ET,PHI,0
SP,JoJo Romero (10675889),JoJo Romero,10675889,P,4000,NYM@PHI 05/12/2018 07:05PM ET,PHI,0
SP,Kevin Gowdy (10675890),Kevin Gowdy,10675890,P,4000,NYM@PHI 05/12/2018 07:05PM ET,PHI,0
RP,Seranthony Dominguez (10675891),Seranthony Dominguez,10675891,P,4000,NYM@PHI 05/12/2018 07:05PM ET,PHI,4.25
RP,Yacksel Rios (10675892),Yacksel Rios,10675892,P,4000,NYM@PHI 05/12/2018 07:05PM ET,PHI,3.28
RP,Adam Morgan (10675893),Adam Morgan,10675893,P,4000,NYM@PHI 05/12/2018 07:05PM ET,PHI,2.07
RP,Hector Neris (10675894),Hector Neris,10675894,P,4000,NYM@PHI 05/12/2018 07:05PM ET,PHI,2.60
RP,Edubray Ramos (10675895),Edubray Ramos,10675895,P,4000,NYM@PHI 05/12/2018 07:05PM ET,PHI,3.62
SP,Drew Hutchison (10675896),Drew Hutchison,10675896,P,4000,NYM@PHI 05/12/2018 07:05PM ET,PHI,5.51
RP,Tommy Hunter (10675897),Tommy Hunter,10675897,P,4000,NYM@PHI 05/12/2018 07:05PM ET,PHI,2.36
RP,Luis Garcia (10675898),Luis Garcia,10675898,P,4000,NYM@PHI 05/12/2018 07:05PM ET,PHI,2.46
RP,Pat Neshek (10675899),Pat Neshek,10675899,P,4000,NYM@PHI 05/12/2018 07:05PM ET,PHI,0
RP,Pedro Beato (10675900),Pedro Beato,10675900,P,4000,NYM@PHI 05/12/2018 07:05PM ET,PHI,0
1B/OF,Ian Desmond (10675116),Ian Desmond,10675116,1B/OF,3900,MIL@COL 05/12/2018 08:10PM ET,COL,6.05
2B,Jonathan Villar (10675143),Jonathan Villar,10675143,2B,3900,MIL@COL 05/12/2018 08:10PM ET,MIL,4.88
C,Yasmani Grandal (10675119),Yasmani Grandal,10675119,C,3900,CIN@LAD 05/12/2018 09:10PM ET,LAD,7.94
3B,Miguel Sano (10675110),Miguel Sano,10675110,3B,3900,MIN@LAA 05/12/2018 09:07PM ET,MIN,8.2
SS,Andrelton Simmons (10675118),Andrelton Simmons,10675118,SS,3900,MIN@LAA 05/12/2018 09:07PM ET,LAA,9
OF,Delino DeShields (10675120),Delino DeShields,10675120,OF,3800,TEX@HOU 05/12/2018 07:10PM ET,TEX,9.2
1B,Yuli Gurriel (10675132),Yuli Gurriel,10675132,1B,3800,TEX@HOU 05/12/2018 07:10PM ET,HOU,6.72
1B/OF,Joey Gallo (10675135),Joey Gallo,10675135,1B/OF,3800,TEX@HOU 05/12/2018 07:10PM ET,TEX,8.18
1B,Jesus Aguilar (10675123),Jesus Aguilar,10675123,1B,3800,MIL@COL 05/12/2018 08:10PM ET,MIL,5.31
OF,Carlos Gonzalez (10675124),Carlos Gonzalez,10675124,OF,3800,MIL@COL 05/12/2018 08:10PM ET,COL,6.22
OF,Dexter Fowler (10675125),Dexter Fowler,10675125,OF,3800,STL@SD 05/12/2018 08:40PM ET,STL,6.54
3B,Jedd Gyorko (10675128),Jedd Gyorko,10675128,3B,3800,STL@SD 05/12/2018 08:40PM ET,STL,6.8
OF,Franchy Cordero (10675133),Franchy Cordero,10675133,OF,3800,STL@SD 05/12/2018 08:40PM ET,SD,8.78
OF,Adam Duvall (10675134),Adam Duvall,10675134,OF,3800,CIN@LAD 05/12/2018 09:10PM ET,CIN,5.71
1B,Brandon Belt (10675126),Brandon Belt,10675126,1B,3800,SF@PIT 05/12/2018 07:05PM ET,SF,8.37
OF,Gregory Polanco (10675129),Gregory Polanco,10675129,OF,3800,SF@PIT 05/12/2018 07:05PM ET,PIT,8.54
OF,Andrew McCutchen (10675130),Andrew McCutchen,10675130,OF,3800,SF@PIT 05/12/2018 07:05PM ET,SF,7.32
C,Buster Posey (10675131),Buster Posey,10675131,C,3800,SF@PIT 05/12/2018 07:05PM ET,SF,7.19
1B,Carlos Santana (10675121),Carlos Santana,10675121,1B,3800,NYM@PHI 05/12/2018 07:05PM ET,PHI,7.79
OF,Odubel Herrera (10675122),Odubel Herrera,10675122,OF,3800,NYM@PHI 05/12/2018 07:05PM ET,PHI,9.40
3B,Todd Frazier (10675127),Todd Frazier,10675127,3B,3800,NYM@PHI 05/12/2018 07:05PM ET,NYM,8.28
2B,Cesar Hernandez (10675137),Cesar Hernandez,10675137,2B,3800,NYM@PHI 05/12/2018 07:05PM ET,PHI,8.55
OF,Derek Fisher (10675147),Derek Fisher,10675147,OF,3700,TEX@HOU 05/12/2018 07:10PM ET,HOU,4.45
OF,Mike Tauchman (10675144),Mike Tauchman,10675144,OF,3700,MIL@COL 05/12/2018 08:10PM ET,COL,1.2
SS,Paul DeJong (10675138),Paul DeJong,10675138,SS,3700,STL@SD 05/12/2018 08:40PM ET,STL,7.81
C,Yadier Molina (10675145),Yadier Molina,10675145,C,3700,STL@SD 05/12/2018 08:40PM ET,STL,7.17
2B/3B,Matt Carpenter (10675152),Matt Carpenter,10675152,2B/3B,3700,STL@SD 05/12/2018 08:40PM ET,STL,5.42
3B,Justin Turner (10675146),Justin Turner,10675146,3B,3700,CIN@LAD 05/12/2018 09:10PM ET,LAD,0
OF,Phillip Ervin (10675148),Phillip Ervin,10675148,OF,3700,CIN@LAD 05/12/2018 09:10PM ET,CIN,3.69
1B/3B,Jefry Marte (10675140),Jefry Marte,10675140,1B/3B,3700,MIN@LAA 05/12/2018 09:07PM ET,LAA,5.30
3B,Evan Longoria (10675142),Evan Longoria,10675142,3B,3700,SF@PIT 05/12/2018 07:05PM ET,SF,7.05
C,J.T. Realmuto (10675139),J.T. Realmuto,10675139,C,3700,ATL@MIA 05/12/2018 07:10PM ET,MIA,9.35
C,Max Stassi (10675156),Max Stassi,10675156,C,3600,TEX@HOU 05/12/2018 07:10PM ET,HOU,5.81
OF,Nomar Mazara (10675161),Nomar Mazara,10675161,OF,3600,TEX@HOU 05/12/2018 07:10PM ET,TEX,8.77
OF,Josh Reddick (10675163),Josh Reddick,10675163,OF,3600,TEX@HOU 05/12/2018 07:10PM ET,HOU,6.86
OF,Shin-soo Choo (10675164),Shin-soo Choo,10675164,OF,3600,TEX@HOU 05/12/2018 07:10PM ET,TEX,7.40
3B,Adrian Beltre (10675165),Adrian Beltre,10675165,3B,3600,TEX@HOU 05/12/2018 07:10PM ET,TEX,6.89
3B,Christian Villanueva (10675151),Christian Villanueva,10675151,3B,3600,STL@SD 05/12/2018 08:40PM ET,SD,7.82
OF,Hunter Renfroe (10675157),Hunter Renfroe,10675157,OF,3600,STL@SD 05/12/2018 08:40PM ET,SD,6.18
SS,Jose Peraza (10675158),Jose Peraza,10675158,SS,3600,CIN@LAD 05/12/2018 09:10PM ET,CIN,6.95
OF,Scott Schebler (10675162),Scott Schebler,10675162,OF,3600,CIN@LAD 05/12/2018 09:10PM ET,CIN,6.67
2B/3B,Zack Cozart (10675149),Zack Cozart,10675149,2B/3B,3600,MIN@LAA 05/12/2018 09:07PM ET,LAA,7.52
1B,Albert Pujols (10675154),Albert Pujols,10675154,1B,3600,MIN@LAA 05/12/2018 09:07PM ET,LAA,7.4
1B,Josh Bell (10675159),Josh Bell,10675159,1B,3600,SF@PIT 05/12/2018 07:05PM ET,PIT,7.10
C,Francisco Cervelli (10675160),Francisco Cervelli,10675160,C,3600,SF@PIT 05/12/2018 07:05PM ET,PIT,8.43
OF,Michael Conforto (10675155),Michael Conforto,10675155,OF,3600,NYM@PHI 05/12/2018 07:05PM ET,NYM,6.39
SS,Elvis Andrus (10675169),Elvis Andrus,10675169,SS,3500,TEX@HOU 05/12/2018 07:10PM ET,TEX,8.07
3B,J.D. Davis (10675182),J.D. Davis,10675182,3B,3500,TEX@HOU 05/12/2018 07:10PM ET,HOU,3.33
OF,Gerardo Parra (10675170),Gerardo Parra,10675170,OF,3500,MIL@COL 05/12/2018 08:10PM ET,COL,5.62
OF,Marcell Ozuna (10675168),Marcell Ozuna,10675168,OF,3500,STL@SD 05/12/2018 08:40PM ET,STL,6.76
OF,Billy Hamilton (10675179),Billy Hamilton,10675179,OF,3500,CIN@LAD 05/12/2018 09:10PM ET,CIN,6.08
OF,Yasiel Puig (10675180),Yasiel Puig,10675180,OF,3500,CIN@LAD 05/12/2018 09:10PM ET,LAD,5.33
2B/SS,Kike Hernandez (10675193),Kike Hernandez,10675193,2B/SS,3500,CIN@LAD 05/12/2018 09:10PM ET,LAD,5.12
1B/3B,Luis Valbuena (10675166),Luis Valbuena,10675166,1B/3B,3500,MIN@LAA 05/12/2018 09:07PM ET,LAA,5.06
OF,Jabari Blash (10675171),Jabari Blash,10675171,OF,3500,MIN@LAA 05/12/2018 09:07PM ET,LAA,3.33
OF,Max Kepler (10675181),Max Kepler,10675181,OF,3500,MIN@LAA 05/12/2018 09:07PM ET,MIN,7.5
3B/OF,Jose Bautista (10675174),Jose Bautista,10675174,3B/OF,3500,ATL@MIA 05/12/2018 07:10PM ET,ATL,3.29
C,Kurt Suzuki (10675176),Kurt Suzuki,10675176,C,3500,ATL@MIA 05/12/2018 07:10PM ET,ATL,7.07
OF,Jay Bruce (10675177),Jay Bruce,10675177,OF,3500,NYM@PHI 05/12/2018 07:05PM ET,NYM,6.18
1B,Adrian Gonzalez (10675178),Adrian Gonzalez,10675178,1B,3500,NYM@PHI 05/12/2018 07:05PM ET,NYM,6.55
1B/OF,Marwin Gonzalez (10675190),Marwin Gonzalez,10675190,1B/OF,3400,TEX@HOU 05/12/2018 07:10PM ET,HOU,6.24
C,Brian McCann (10675196),Brian McCann,10675196,C,3400,TEX@HOU 05/12/2018 07:10PM ET,HOU,5.85
C,Chris Iannetta (10675186),Chris Iannetta,10675186,C,3400,MIL@COL 05/12/2018 08:10PM ET,COL,6.44
OF,Noel Cuevas (10675192),Noel Cuevas,10675192,OF,3400,MIL@COL 05/12/2018 08:10PM ET,COL,2.93
2B,Tim Locastro (10675187),Tim Locastro,10675187,2B,3400,CIN@LAD 05/12/2018 09:10PM ET,LAD,3
1B,Joe Mauer (10675184),Joe Mauer,10675184,1B,3400,MIN@LAA 05/12/2018 09:07PM ET,MIN,6.97
3B/SS,Jung Ho Kang (10675172),Jung Ho Kang,10675172,3B/SS,3400,SF@PIT 05/12/2018 07:05PM ET,PIT,0
C,Nick Hundley (10675185),Nick Hundley,10675185,C,3400,SF@PIT 05/12/2018 07:05PM ET,SF,5.65
2B,Josh Harrison (10675188),Josh Harrison,10675188,2B,3400,SF@PIT 05/12/2018 07:05PM ET,PIT,7.64
3B,Colin Moran (10675189),Colin Moran,10675189,3B,3400,SF@PIT 05/12/2018 07:05PM ET,PIT,6.76
2B,Alen Hanson (10675195),Alen Hanson,10675195,2B,3400,SF@PIT 05/12/2018 07:05PM ET,SF,9.23
OF,Aaron Altherr (10675183),Aaron Altherr,10675183,OF,3400,NYM@PHI 05/12/2018 07:05PM ET,PHI,6.06
C,Evan Gattis (10675201),Evan Gattis,10675201,C,3300,TEX@HOU 05/12/2018 07:10PM ET,HOU,3.81
2B/3B,Tyler Saladino (10675202),Tyler Saladino,10675202,2B/3B,3300,MIL@COL 05/12/2018 08:10PM ET,MIL,1.88
2B/OF,Hernan Perez (10675204),Hernan Perez,10675204,2B/OF,3300,MIL@COL 05/12/2018 08:10PM ET,MIL,4.2
OF,Manuel Margot (10675197),Manuel Margot,10675197,OF,3300,STL@SD 05/12/2018 08:40PM ET,SD,5.86
1B,Jose Martinez (10675199),Jose Martinez,10675199,1B,3300,STL@SD 05/12/2018 08:40PM ET,STL,7.35
OF,Harrison Bader (10675206),Harrison Bader,10675206,OF,3300,STL@SD 05/12/2018 08:40PM ET,STL,4.85
OF,Alex Verdugo (10675207),Alex Verdugo,10675207,OF,3300,CIN@LAD 05/12/2018 09:10PM ET,LAD,5.22
2B,Ian Kinsler (10675198),Ian Kinsler,10675198,2B,3300,MIN@LAA 05/12/2018 09:07PM ET,LAA,6.28
SS,Brandon Crawford (10675212),Brandon Crawford,10675212,SS,3300,SF@PIT 05/12/2018 07:05PM ET,SF,5.32
2B,Starlin Castro (10675200),Starlin Castro,10675200,2B,3300,ATL@MIA 05/12/2018 07:10PM ET,MIA,6.79
SS,Dansby Swanson (10675208),Dansby Swanson,10675208,SS,3300,ATL@MIA 05/12/2018 07:10PM ET,ATL,7.57
1B,Justin Bour (10675209),Justin Bour,10675209,1B,3300,ATL@MIA 05/12/2018 07:10PM ET,MIA,6.47
3B/OF,Brian Anderson (10675210),Brian Anderson,10675210,3B/OF,3300,ATL@MIA 05/12/2018 07:10PM ET,MIA,7.08
SS,Jurickson Profar (10675221),Jurickson Profar,10675221,SS,3200,TEX@HOU 05/12/2018 07:10PM ET,TEX,5.94
OF,Tyler O'Neill (10675214),Tyler O'Neill,10675214,OF,3200,STL@SD 05/12/2018 08:40PM ET,STL,0.67
OF,Travis Jankowski (10675215),Travis Jankowski,10675215,OF,3200,STL@SD 05/12/2018 08:40PM ET,SD,7.91
OF,Jesse Winker (10675216),Jesse Winker,10675216,OF,3200,CIN@LAD 05/12/2018 09:10PM ET,CIN,5.46
2B,Chase Utley (10675219),Chase Utley,10675219,2B,3200,CIN@LAD 05/12/2018 09:10PM ET,LAD,5.44
1B,Logan Morrison (10675213),Logan Morrison,10675213,1B,3200,MIN@LAA 05/12/2018 09:07PM ET,MIN,5.68
C,Rene Rivera (10675231),Rene Rivera,10675231,C,3200,MIN@LAA 05/12/2018 09:07PM ET,LAA,5.10
OF,Mac Williamson (10675220),Mac Williamson,10675220,OF,3200,SF@PIT 05/12/2018 07:05PM ET,SF,11.4
3B/SS,Scott Kingery (10675217),Scott Kingery,10675217,3B/SS,3200,NYM@PHI 05/12/2018 07:05PM ET,PHI,5.6
1B,Tommy Joseph (10675224),Tommy Joseph,10675224,1B,3100,TEX@HOU 05/12/2018 07:10PM ET,TEX,0
C,Stephen Vogt (10675225),Stephen Vogt,10675225,C,3100,MIL@COL 05/12/2018 08:10PM ET,MIL,0
SS,Orlando Arcia (10675226),Orlando Arcia,10675226,SS,3100,MIL@COL 05/12/2018 08:10PM ET,MIL,4.56
1B/3B,Ryan McMahon (10675227),Ryan McMahon,10675227,1B/3B,3100,MIL@COL 05/12/2018 08:10PM ET,COL,2.18
2B/C,Austin Barnes (10675229),Austin Barnes,10675229,C/2B,3100,CIN@LAD 05/12/2018 09:10PM ET,LAD,3.38
C,Tucker Barnhart (10675241),Tucker Barnhart,10675241,C,3100,CIN@LAD 05/12/2018 09:10PM ET,CIN,5.94
OF,Kole Calhoun (10675222),Kole Calhoun,10675222,OF,3100,MIN@LAA 05/12/2018 09:07PM ET,LAA,4.44
1B/3B,David Freese (10675232),David Freese,10675232,1B/3B,3100,SF@PIT 05/12/2018 07:05PM ET,PIT,4.56
OF,Austin Slater (10675234),Austin Slater,10675234,OF,3100,SF@PIT 05/12/2018 07:05PM ET,SF,3.2
C,Elias Diaz (10675239),Elias Diaz,10675239,C,3100,SF@PIT 05/12/2018 07:05PM ET,PIT,5.88
1B/3B,Pablo Sandoval (10675242),Pablo Sandoval,10675242,1B/3B,3100,SF@PIT 05/12/2018 07:05PM ET,SF,3.68
3B/SS,Johan Camargo (10675235),Johan Camargo,10675235,3B/SS,3100,ATL@MIA 05/12/2018 07:10PM ET,ATL,6
OF,Preston Tucker (10675240),Preston Tucker,10675240,OF,3100,ATL@MIA 05/12/2018 07:10PM ET,ATL,5
OF,Brandon Nimmo (10675223),Brandon Nimmo,10675223,OF,3100,NYM@PHI 05/12/2018 07:05PM ET,NYM,4.70
3B/SS,Jose Reyes (10675237),Jose Reyes,10675237,3B/SS,3100,NYM@PHI 05/12/2018 07:05PM ET,NYM,1.88
2B/OF,Willie Calhoun (10675254),Willie Calhoun,10675254,2B/OF,3000,TEX@HOU 05/12/2018 07:10PM ET,TEX,0
2B/3B,Isiah Kiner-Falefa (10675289),Isiah Kiner-Falefa,10675289,2B/3B,3000,TEX@HOU 05/12/2018 07:10PM ET,TEX,6.15
C,Manny Pina (10675256),Manny Pina,10675256,C,3000,MIL@COL 05/12/2018 08:10PM ET,MIL,5.29
OF,Raimel Tapia (10675257),Raimel Tapia,10675257,OF,3000,MIL@COL 05/12/2018 08:10PM ET,COL,0
2B,Kolten Wong (10675245),Kolten Wong,10675245,2B,3000,STL@SD 05/12/2018 08:40PM ET,STL,4.39
2B/OF,Jose Pirela (10675246),Jose Pirela,10675246,2B/OF,3000,STL@SD 05/12/2018 08:40PM ET,SD,6.8
1B,Luke Voit (10675258),Luke Voit,10675258,1B,3000,STL@SD 05/12/2018 08:40PM ET,STL,0
SS,Fernando Tatis Jr. (10675259),Fernando Tatis Jr.,10675259,SS,3000,STL@SD 05/12/2018 08:40PM ET,SD,0
2B,Luis Urias (10675260),Luis Urias,10675260,2B,3000,STL@SD 05/12/2018 08:40PM ET,SD,0
OF,Alex Dickerson (10675261),Alex Dickerson,10675261,OF,3000,STL@SD 05/12/2018 08:40PM ET,SD,0
3B,Nick Senzel (10675262),Nick Senzel,10675262,3B,3000,CIN@LAD 05/12/2018 09:10PM ET,CIN,0
OF,Jose Siri (10675263),Jose Siri,10675263,OF,3000,CIN@LAD 05/12/2018 09:10PM ET,CIN,0
2B/SS,Dilson Herrera (10675264),Dilson Herrera,10675264,2B/SS,3000,CIN@LAD 05/12/2018 09:10PM ET,CIN,0
OF,Ben Revere (10675266),Ben Revere,10675266,OF,3000,CIN@LAD 05/12/2018 09:10PM ET,CIN,0
OF,Mason Williams (10675267),Mason Williams,10675267,OF,3000,CIN@LAD 05/12/2018 09:10PM ET,CIN,0
OF,Yusniel Diaz (10675268),Yusniel Diaz,10675268,OF,3000,CIN@LAD 05/12/2018 09:10PM ET,LAD,0
3B,Max Muncy (10675287),Max Muncy,10675287,3B,3000,CIN@LAD 05/12/2018 09:10PM ET,LAD,5.47
C,Mitch Garver (10675249),Mitch Garver,10675249,C,3000,MIN@LAA 05/12/2018 09:07PM ET,MIN,4.88
OF,Zack Granite (10675269),Zack Granite,10675269,OF,3000,MIN@LAA 05/12/2018 09:07PM ET,MIN,0
3B/SS,Jorge Polanco (10675270),Jorge Polanco,10675270,3B/SS,3000,MIN@LAA 05/12/2018 09:07PM ET,MIN,0
1B,Kennys Vargas (10675272),Kennys Vargas,10675272,1B,3000,MIN@LAA 05/12/2018 09:07PM ET,MIN,0
2B/OF,Adam Frazier (10675250),Adam Frazier,10675250,2B/OF,3000,SF@PIT 05/12/2018 07:05PM ET,PIT,4.06
SS,Max Moroff (10675252),Max Moroff,10675252,SS,3000,SF@PIT 05/12/2018 07:05PM ET,PIT,4.23
OF,Jordan Luplow (10675273),Jordan Luplow,10675273,OF,3000,SF@PIT 05/12/2018 07:05PM ET,PIT,0
3B,Ke'Bryan Hayes (10675274),Ke'Bryan Hayes,10675274,3B,3000,SF@PIT 05/12/2018 07:05PM ET,PIT,0
2B,Christopher Bostick (10675275),Christopher Bostick,10675275,2B,3000,SF@PIT 05/12/2018 07:05PM ET,PIT,0
SS,Jordy Mercer (10675276),Jordy Mercer,10675276,SS,3000,SF@PIT 05/12/2018 07:05PM ET,PIT,5.86
1B/OF,Jose Osuna (10675277),Jose Osuna,10675277,1B/OF,3000,SF@PIT 05/12/2018 07:05PM ET,PIT,11
1B,Chris Shaw (10675279),Chris Shaw,10675279,1B,3000,SF@PIT 05/12/2018 07:05PM ET,SF,0
OF,Steven Duggar (10675280),Steven Duggar,10675280,OF,3000,SF@PIT 05/12/2018 07:05PM ET,SF,0
OF,Austin Jackson (10675281),Austin Jackson,10675281,OF,3000,SF@PIT 05/12/2018 07:05PM ET,SF,4.89
OF,Gregor Blanco (10675291),Gregor Blanco,10675291,OF,3000,SF@PIT 05/12/2018 07:05PM ET,SF,5.56
3B,Austin Riley (10675282),Austin Riley,10675282,3B,3000,ATL@MIA 05/12/2018 07:10PM ET,ATL,0
3B,Rio Ruiz (10675283),Rio Ruiz,10675283,3B,3000,ATL@MIA 05/12/2018 07:10PM ET,ATL,0
OF,Jaff Decker (10675284),Jaff Decker,10675284,OF,3000,ATL@MIA 05/12/2018 07:10PM ET,ATL,0
3B,Ryan Flaherty (10675285),Ryan Flaherty,10675285,3B,3000,ATL@MIA 05/12/2018 07:10PM ET,ATL,7.14
1B,Garrett Cooper (10675286),Garrett Cooper,10675286,1B,3000,ATL@MIA 05/12/2018 07:10PM ET,MIA,2.25
OF,Lewis Brinson (10675288),Lewis Brinson,10675288,OF,3000,ATL@MIA 05/12/2018 07:10PM ET,MIA,4.83
1B,Dominic Smith (10675244),Dominic Smith,10675244,1B,3000,NYM@PHI 05/12/2018 07:05PM ET,NYM,0
1B,Wilmer Flores (10675248),Wilmer Flores,10675248,1B,3000,NYM@PHI 05/12/2018 07:05PM ET,NYM,3.73
C,Jorge Alfaro (10675253),Jorge Alfaro,10675253,C,3000,NYM@PHI 05/12/2018 07:05PM ET,PHI,4.85
C,Robinson Chirinos (10675294),Robinson Chirinos,10675294,C,2900,TEX@HOU 05/12/2018 07:10PM ET,TEX,6.14
3B,Trevor Plouffe (10675295),Trevor Plouffe,10675295,3B,2900,TEX@HOU 05/12/2018 07:10PM ET,TEX,0
OF,Brett Eibner (10675296),Brett Eibner,10675296,OF,2900,TEX@HOU 05/12/2018 07:10PM ET,TEX,0
C,Brett Nicholas (10675297),Brett Nicholas,10675297,C,2900,TEX@HOU 05/12/2018 07:10PM ET,TEX,0
2B,Rougned Odor (10675298),Rougned Odor,10675298,2B,2900,TEX@HOU 05/12/2018 07:10PM ET,TEX,4.08
C,Tom Murphy (10675299),Tom Murphy,10675299,C,2900,MIL@COL 05/12/2018 08:10PM ET,COL,0
OF,Andrew Toles (10675300),Andrew Toles,10675300,OF,2900,CIN@LAD 05/12/2018 09:10PM ET,LAD,0
2B/SS,Breyvic Valera (10675301),Breyvic Valera,10675301,2B/SS,2900,CIN@LAD 05/12/2018 09:10PM ET,LAD,0.8
OF,Robbie Grossman (10675303),Robbie Grossman,10675303,OF,2900,MIN@LAA 05/12/2018 09:07PM ET,MIN,4.46
OF,Byron Buxton (10675304),Byron Buxton,10675304,OF,2900,MIN@LAA 05/12/2018 09:07PM ET,MIN,4.77
SS,Cole Tucker (10675305),Cole Tucker,10675305,SS,2900,SF@PIT 05/12/2018 07:05PM ET,PIT,0
2B,Joe Panik (10675306),Joe Panik,10675306,2B,2900,SF@PIT 05/12/2018 07:05PM ET,SF,6.35
OF,Cameron Maybin (10675293),Cameron Maybin,10675293,OF,2900,ATL@MIA 05/12/2018 07:10PM ET,MIA,4.27
3B/SS,Charlie Culberson (10675307),Charlie Culberson,10675307,3B/SS,2900,ATL@MIA 05/12/2018 07:10PM ET,ATL,2.5
SS,J.P. Crawford (10675292),J.P. Crawford,10675292,SS,2900,NYM@PHI 05/12/2018 07:05PM ET,PHI,4.57
1B,Peter Alonso (10675309),Peter Alonso,10675309,1B,2900,NYM@PHI 05/12/2018 07:05PM ET,NYM,0
C,Travis d'Arnaud (10675310),Travis d'Arnaud,10675310,C,2900,NYM@PHI 05/12/2018 07:05PM ET,NYM,6.5
SS,Gavin Cecchini (10675311),Gavin Cecchini,10675311,SS,2900,NYM@PHI 05/12/2018 07:05PM ET,NYM,0
SS,Amed Rosario (10675312),Amed Rosario,10675312,SS,2900,NYM@PHI 05/12/2018 07:05PM ET,NYM,4.68
C,Cameron Rupp (10675316),Cameron Rupp,10675316,C,2800,TEX@HOU 05/12/2018 07:10PM ET,TEX,0
1B,Ronald Guzman (10675317),Ronald Guzman,10675317,1B,2800,TEX@HOU 05/12/2018 07:10PM ET,TEX,4.67
1B,Tyler White (10675318),Tyler White,10675318,1B,2800,TEX@HOU 05/12/2018 07:10PM ET,HOU,0
OF,Jake Marisnick (10675340),Jake Marisnick,10675340,OF,2800,TEX@HOU 05/12/2018 07:10PM ET,HOU,3.36
SS,Mauricio Dubon (10675319),Mauricio Dubon,10675319,SS,2800,MIL@COL 05/12/2018 08:10PM ET,MIL,0
OF,Keon Broxton (10675320),Keon Broxton,10675320,OF,2800,MIL@COL 05/12/2018 08:10PM ET,MIL,0
2B/SS,Daniel Castro (10675321),Daniel Castro,10675321,2B/SS,2800,MIL@COL 05/12/2018 08:10PM ET,COL,2.14
C,Tony Wolters (10675323),Tony Wolters,10675323,C,2800,MIL@COL 05/12/2018 08:10PM ET,COL,3.55
C,Francisco Pena (10675324),Francisco Pena,10675324,C,2800,STL@SD 05/12/2018 08:40PM ET,STL,1.67
3B/SS,Greg Garcia (10675325),Greg Garcia,10675325,3B/SS,2800,STL@SD 05/12/2018 08:40PM ET,STL,3.29
2B,Carlos Asuaje (10675327),Carlos Asuaje,10675327,2B,2800,STL@SD 05/12/2018 08:40PM ET,SD,3.73
OF,Taylor Trammell (10675328),Taylor Trammell,10675328,OF,2800,CIN@LAD 05/12/2018 09:10PM ET,CIN,0
3B/OF,Rob Segedin (10675329),Rob Segedin,10675329,3B/OF,2800,CIN@LAD 05/12/2018 09:10PM ET,LAD,0
2B/3B,Alex Blandino (10675338),Alex Blandino,10675338,2B/3B,2800,CIN@LAD 05/12/2018 09:10PM ET,CIN,3.38
OF,Chris Young (10675313),Chris Young,10675313,OF,2800,MIN@LAA 05/12/2018 09:07PM ET,LAA,2.71
C,Martin Maldonado (10675314),Martin Maldonado,10675314,C,2800,MIN@LAA 05/12/2018 09:07PM ET,LAA,5.35
OF,Derek Dietrich (10675315),Derek Dietrich,10675315,OF,2800,ATL@MIA 05/12/2018 07:10PM ET,MIA,5.65
OF,Danny Santana (10675331),Danny Santana,10675331,OF,2800,ATL@MIA 05/12/2018 07:10PM ET,ATL,0
C,Rob Brantly (10675332),Rob Brantly,10675332,C,2800,ATL@MIA 05/12/2018 07:10PM ET,ATL,0
C,Chris Stewart (10675333),Chris Stewart,10675333,C,2800,ATL@MIA 05/12/2018 07:10PM ET,ATL,4.6
SS,Miguel Rojas (10675341),Miguel Rojas,10675341,SS,2800,ATL@MIA 05/12/2018 07:10PM ET,MIA,6.08
3B,David Wright (10675334),David Wright,10675334,3B,2800,NYM@PHI 05/12/2018 07:05PM ET,NYM,0
2B/3B,T.J. Rivera (10675335),T.J. Rivera,10675335,2B/3B,2800,NYM@PHI 05/12/2018 07:05PM ET,NYM,0
C,Kevin Plawecki (10675337),Kevin Plawecki,10675337,C,2800,NYM@PHI 05/12/2018 07:05PM ET,NYM,5.57
2B/SS,Hanser Alberto (10675349),Hanser Alberto,10675349,2B/SS,2700,TEX@HOU 05/12/2018 07:10PM ET,TEX,0
3B/OF,Renato Nunez (10675351),Renato Nunez,10675351,3B/OF,2700,TEX@HOU 05/12/2018 07:10PM ET,TEX,3.31
OF,Ryan Rua (10675353),Ryan Rua,10675353,OF,2700,TEX@HOU 05/12/2018 07:10PM ET,TEX,4.04
2B/OF,Drew Robinson (10675354),Drew Robinson,10675354,2B/OF,2700,TEX@HOU 05/12/2018 07:10PM ET,TEX,4.08
1B,AJ Reed (10675356),AJ Reed,10675356,1B,2700,TEX@HOU 05/12/2018 07:10PM ET,HOU,0
3B/OF,Cory Spangenberg (10675357),Cory Spangenberg,10675357,3B/OF,2700,STL@SD 05/12/2018 08:40PM ET,SD,4.10
C,Austin Hedges (10675359),Austin Hedges,10675359,C,2700,STL@SD 05/12/2018 08:40PM ET,SD,4.21
OF,Matt Szczur (10675360),Matt Szczur,10675360,OF,2700,STL@SD 05/12/2018 08:40PM ET,SD,2.86
SS,Rosell Herrera (10675342),Rosell Herrera,10675342,SS,2700,CIN@LAD 05/12/2018 09:10PM ET,CIN,0.38
OF,Franklin Gutierrez (10675361),Franklin Gutierrez,10675361,OF,2700,CIN@LAD 05/12/2018 09:10PM ET,LAD,0
1B,Brock Stassi (10675362),Brock Stassi,10675362,1B,2700,MIN@LAA 05/12/2018 09:07PM ET,MIN,0
2B/SS,Gregorio Petit (10675363),Gregorio Petit,10675363,2B/SS,2700,MIN@LAA 05/12/2018 09:07PM ET,MIN,7
1B/2B,Sean Rodriguez (10675344),Sean Rodriguez,10675344,1B/2B,2700,SF@PIT 05/12/2018 07:05PM ET,PIT,3.81
OF,Gorkys Hernandez (10675365),Gorkys Hernandez,10675365,OF,2700,SF@PIT 05/12/2018 07:05PM ET,SF,3.03
3B,Martin Prado (10675346),Martin Prado,10675346,3B,2700,ATL@MIA 05/12/2018 07:10PM ET,MIA,3.25
SS,Tyler Smith (10675366),Tyler Smith,10675366,SS,2700,ATL@MIA 05/12/2018 07:10PM ET,ATL,0
C,Tomas Telis (10675367),Tomas Telis,10675367,C,2700,ATL@MIA 05/12/2018 07:10PM ET,MIA,1.30
OF,Nick Williams (10675343),Nick Williams,10675343,OF,2700,NYM@PHI 05/12/2018 07:05PM ET,PHI,3.28
C,Tomas Nido (10675347),Tomas Nido,10675347,C,2700,NYM@PHI 05/12/2018 07:05PM ET,NYM,1.59
SS,Pedro Florimon (10675348),Pedro Florimon,10675348,SS,2700,NYM@PHI 05/12/2018 07:05PM ET,PHI,3.22
OF,Matt den Dekker (10675368),Matt den Dekker,10675368,OF,2700,NYM@PHI 05/12/2018 07:05PM ET,NYM,0
OF,Juan Lagares (10675369),Juan Lagares,10675369,OF,2700,NYM@PHI 05/12/2018 07:05PM ET,NYM,3.26
C,Carlos Perez (10675375),Carlos Perez,10675375,C,2600,TEX@HOU 05/12/2018 07:10PM ET,TEX,1
C,Juan Centeno (10675376),Juan Centeno,10675376,C,2600,TEX@HOU 05/12/2018 07:10PM ET,TEX,4.1
1B/2B,Pat Valaika (10675370),Pat Valaika,10675370,1B/2B,2600,MIL@COL 05/12/2018 08:10PM ET,COL,1.43
C,Jacob Nottingham (10675377),Jacob Nottingham,10675377,C,2600,MIL@COL 05/12/2018 08:10PM ET,MIL,2
2B,Keston Hiura (10675378),Keston Hiura,10675378,2B,2600,MIL@COL 05/12/2018 08:10PM ET,MIL,0
1B/3B,Chase Headley (10675372),Chase Headley,10675372,1B/3B,2600,STL@SD 05/12/2018 08:40PM ET,SD,1.78
3B/SS,Dusty Coleman (10675379),Dusty Coleman,10675379,3B/SS,2600,STL@SD 05/12/2018 08:40PM ET,SD,0
SS,Freddy Galvis (10675381),Freddy Galvis,10675381,SS,2600,STL@SD 05/12/2018 08:40PM ET,SD,4.82
C,Raffy Lopez (10675382),Raffy Lopez,10675382,C,2600,STL@SD 05/12/2018 08:40PM ET,SD,6.57
C,A.J. Ellis (10675383),A.J. Ellis,10675383,C,2600,STL@SD 05/12/2018 08:40PM ET,SD,4.79
SS,Allen Cordoba (10675384),Allen Cordoba,10675384,SS,2600,STL@SD 05/12/2018 08:40PM ET,SD,0
SS,Corey Seager (10675385),Corey Seager,10675385,SS,2600,CIN@LAD 05/12/2018 09:10PM ET,LAD,7.23
1B/OF,O'Koyea Dickson (10675386),O'Koyea Dickson,10675386,1B/OF,2600,CIN@LAD 05/12/2018 09:10PM ET,LAD,0
OF,Ryan LaMarre (10675374),Ryan LaMarre,10675374,OF,2600,MIN@LAA 05/12/2018 09:07PM ET,MIN,2.55
SS,Erick Aybar (10675388),Erick Aybar,10675388,SS,2600,MIN@LAA 05/12/2018 09:07PM ET,MIN,0
OF,Jarrett Parker (10675389),Jarrett Parker,10675389,OF,2600,SF@PIT 05/12/2018 07:05PM ET,SF,0
3B,Ryder Jones (10675390),Ryder Jones,10675390,3B,2600,SF@PIT 05/12/2018 07:05PM ET,SF,0
2B/SS,Kelby Tomlinson (10675391),Kelby Tomlinson,10675391,2B/SS,2600,SF@PIT 05/12/2018 07:05PM ET,SF,2.64
OF,Hunter Pence (10675393),Hunter Pence,10675393,OF,2600,SF@PIT 05/12/2018 07:05PM ET,SF,3.12
C,Tyler Flowers (10675394),Tyler Flowers,10675394,C,2600,ATL@MIA 05/12/2018 07:10PM ET,ATL,2.33
2B/SS,Luis Guillorme (10675395),Luis Guillorme,10675395,2B/SS,2600,NYM@PHI 05/12/2018 07:05PM ET,NYM,2
C,Devin Mesoraco (10675397),Devin Mesoraco,10675397,C,2600,NYM@PHI 05/12/2018 07:05PM ET,NYM,3.24
C,Andrew Knapp (10675398),Andrew Knapp,10675398,C,2600,NYM@PHI 05/12/2018 07:05PM ET,PHI,3.7
OF,Kyle Tucker (10675399),Kyle Tucker,10675399,OF,2500,TEX@HOU 05/12/2018 07:10PM ET,HOU,0
OF,Yordan Alvarez (10675400),Yordan Alvarez,10675400,OF,2500,TEX@HOU 05/12/2018 07:10PM ET,HOU,0
OF,Brett Phillips (10675401),Brett Phillips,10675401,OF,2500,MIL@COL 05/12/2018 08:10PM ET,MIL,0.67
1B/OF,Ji-Man Choi (10675402),Ji-Man Choi,10675402,1B/OF,2500,MIL@COL 05/12/2018 08:10PM ET,MIL,7
SS,Isan Diaz (10675404),Isan Diaz,10675404,SS,2500,MIL@COL 05/12/2018 08:10PM ET,MIL,0
2B/OF,Nick Franklin (10675405),Nick Franklin,10675405,2B/OF,2500,MIL@COL 05/12/2018 08:10PM ET,MIL,0
C,Jett Bandy (10675407),Jett Bandy,10675407,C,2500,MIL@COL 05/12/2018 08:10PM ET,MIL,3.21
SS,Yairo Munoz (10675408),Yairo Munoz,10675408,SS,2500,STL@SD 05/12/2018 08:40PM ET,STL,1.46
C,Carson Kelly (10675409),Carson Kelly,10675409,C,2500,STL@SD 05/12/2018 08:40PM ET,STL,0.4
C,Luis Torrens (10675410),Luis Torrens,10675410,C,2500,STL@SD 05/12/2018 08:40PM ET,SD,0
C,Tony Cruz (10675411),Tony Cruz,10675411,C,2500,CIN@LAD 05/12/2018 09:10PM ET,CIN,0
2B/3B,Logan Forsythe (10675412),Logan Forsythe,10675412,2B/3B,2500,CIN@LAD 05/12/2018 09:10PM ET,LAD,4.42
3B,Kaleb Cowart (10675414),Kaleb Cowart,10675414,3B,2500,MIN@LAA 05/12/2018 09:07PM ET,LAA,0
2B/SS,Nolan Fontana (10675415),Nolan Fontana,10675415,2B/SS,2500,MIN@LAA 05/12/2018 09:07PM ET,LAA,0
OF,Brandon Marsh (10675417),Brandon Marsh,10675417,OF,2500,MIN@LAA 05/12/2018 09:07PM ET,LAA,0
2B,Taylor Featherston (10675418),Taylor Featherston,10675418,2B,2500,MIN@LAA 05/12/2018 09:07PM ET,MIN,0
2B/SS,Chase d'Arnaud (10675419),Chase d'Arnaud,10675419,2B/SS,2500,SF@PIT 05/12/2018 07:05PM ET,SF,0
OF,JB Shuck (10675421),JB Shuck,10675421,OF,2500,ATL@MIA 05/12/2018 07:10PM ET,MIA,2.72
OF,Danny Ortiz (10675422),Danny Ortiz,10675422,OF,2500,NYM@PHI 05/12/2018 07:05PM ET,PHI,0
2B/OF,Tony Kemp (10675423),Tony Kemp,10675423,2B/OF,2400,TEX@HOU 05/12/2018 07:10PM ET,HOU,0
3B,Lucas Erceg (10675425),Lucas Erceg,10675425,3B,2400,MIL@COL 05/12/2018 08:10PM ET,MIL,0
2B/SS,Eric Sogard (10675426),Eric Sogard,10675426,2B/SS,2400,MIL@COL 05/12/2018 08:10PM ET,MIL,1.71
1B/OF,Stephen Cardullo (10675428),Stephen Cardullo,10675428,1B/OF,2400,MIL@COL 05/12/2018 08:10PM ET,COL,0
3B,Colton Welker (10675430),Colton Welker,10675430,3B,2400,MIL@COL 05/12/2018 08:10PM ET,COL,0
SS,Alex Mejia (10675431),Alex Mejia,10675431,SS,2400,STL@SD 05/12/2018 08:40PM ET,STL,0
C,Stuart Turner (10675432),Stuart Turner,10675432,C,2400,CIN@LAD 05/12/2018 09:10PM ET,CIN,0
2B/SS,Cliff Pennington (10675433),Cliff Pennington,10675433,2B/SS,2400,CIN@LAD 05/12/2018 09:10PM ET,CIN,1.5
3B,Kyle Farmer (10675435),Kyle Farmer,10675435,3B,2400,CIN@LAD 05/12/2018 09:10PM ET,LAD,2.61
C,Bobby Wilson (10675436),Bobby Wilson,10675436,C,2400,MIN@LAA 05/12/2018 09:07PM ET,MIN,3.67
SS,Ehire Adrianza (10675437),Ehire Adrianza,10675437,SS,2400,MIN@LAA 05/12/2018 09:07PM ET,MIN,3.87
C,Jacob Stallings (10675438),Jacob Stallings,10675438,C,2400,SF@PIT 05/12/2018 07:05PM ET,PIT,0
SS,Orlando Calixte (10675439),Orlando Calixte,10675439,SS,2400,SF@PIT 05/12/2018 07:05PM ET,SF,0
2B/3B,Josh Rutledge (10675440),Josh Rutledge,10675440,2B/3B,2400,SF@PIT 05/12/2018 07:05PM ET,SF,0
2B/SS,Christian Colon (10675442),Christian Colon,10675442,2B/SS,2400,ATL@MIA 05/12/2018 07:10PM ET,ATL,0
OF,Magneuris Sierra (10675444),Magneuris Sierra,10675444,OF,2400,ATL@MIA 05/12/2018 07:10PM ET,MIA,0
2B/SS,JT Riddle (10675445),JT Riddle,10675445,2B/SS,2400,ATL@MIA 05/12/2018 07:10PM ET,MIA,0
C,Chad Wallach (10675447),Chad Wallach,10675447,C,2400,ATL@MIA 05/12/2018 07:10PM ET,MIA,2.67
C,Bryan Holaday (10675448),Bryan Holaday,10675448,C,2400,ATL@MIA 05/12/2018 07:10PM ET,MIA,3.25
1B/OF,Scott Van Slyke (10675449),Scott Van Slyke,10675449,1B/OF,2400,ATL@MIA 05/12/2018 07:10PM ET,MIA,0
3B/SS,Phillip Evans (10675451),Phillip Evans,10675451,3B/SS,2400,NYM@PHI 05/12/2018 07:05PM ET,NYM,0
SS,Andres Gimenez (10675453),Andres Gimenez,10675453,SS,2400,NYM@PHI 05/12/2018 07:05PM ET,NYM,0
C,Jose Lobaton (10675454),Jose Lobaton,10675454,C,2400,NYM@PHI 05/12/2018 07:05PM ET,NYM,3.18
C,Tim Federowicz (10675455),Tim Federowicz,10675455,C,2300,TEX@HOU 05/12/2018 07:10PM ET,HOU,0
OF,Jahmai Jones (10675456),Jahmai Jones,10675456,OF,2300,MIN@LAA 05/12/2018 09:07PM ET,LAA,0
OF,Eric Young Jr. (10675457),Eric Young Jr.,10675457,OF,2300,MIN@LAA 05/12/2018 09:07PM ET,LAA,0
C,Juan Graterol (10675458),Juan Graterol,10675458,C,2300,MIN@LAA 05/12/2018 09:07PM ET,LAA,3
OF,Jo Adell (10675459),Jo Adell,10675459,OF,2300,MIN@LAA 05/12/2018 09:07PM ET,LAA,0
C,Jason Castro (10675460),Jason Castro,10675460,C,2300,MIN@LAA 05/12/2018 09:07PM ET,MIN,3.90
SS,Royce Lewis (10675461),Royce Lewis,10675461,SS,2300,MIN@LAA 05/12/2018 09:07PM ET,MIN,0
C,Hector Sanchez (10675462),Hector Sanchez,10675462,C,2300,SF@PIT 05/12/2018 07:05PM ET,SF,0
1B/OF,Michael Morse (10675463),Michael Morse,10675463,1B/OF,2300,SF@PIT 05/12/2018 07:05PM ET,SF,0
3B,Wander Franco (10675465),Wander Franco,10675465,3B,2300,SF@PIT 05/12/2018 07:05PM ET,SF,0
OF,Ezequiel Carrera (10675466),Ezequiel Carrera,10675466,OF,2300,ATL@MIA 05/12/2018 07:10PM ET,ATL,0
2B/3B,Phil Gosselin (10675467),Phil Gosselin,10675467,2B/3B,2300,ATL@MIA 05/12/2018 07:10PM ET,ATL,1.9
OF,Shane Peterson (10675469),Shane Peterson,10675469,OF,2200,STL@SD 05/12/2018 08:40PM ET,SD,0
C,Rocky Gale (10675470),Rocky Gale,10675470,C,2200,CIN@LAD 05/12/2018 09:10PM ET,LAD,0
C,Keibert Ruiz (10675471),Keibert Ruiz,10675471,C,2200,CIN@LAD 05/12/2018 09:10PM ET,LAD,0
OF,Alex Kirilloff (10675472),Alex Kirilloff,10675472,OF,2200,MIN@LAA 05/12/2018 09:07PM ET,MIN,0
SS,Wander Javier (10675473),Wander Javier,10675473,SS,2200,MIN@LAA 05/12/2018 09:07PM ET,MIN,0
3B,Miguel Gomez (10675474),Miguel Gomez,10675474,3B,2200,SF@PIT 05/12/2018 07:05PM ET,SF,0
2B/SS,Andres Blanco (10675475),Andres Blanco,10675475,2B/SS,2200,SF@PIT 05/12/2018 07:05PM ET,SF,0
OF,Peter Bourjos (10675477),Peter Bourjos,10675477,OF,2200,ATL@MIA 05/12/2018 07:10PM ET,ATL,1.5
OF,Braxton Lee (10675478),Braxton Lee,10675478,OF,2200,ATL@MIA 05/12/2018 07:10PM ET,MIA,1.88
2B/3B,Ty Kelly (10675479),Ty Kelly,10675479,2B/3B,2200,NYM@PHI 05/12/2018 07:05PM ET,NYM,0
OF,Daniel Nava (10675481),Daniel Nava,10675481,OF,2100,SF@PIT 05/12/2018 07:05PM ET,PIT,0
3B,Will Middlebrooks (10675482),Will Middlebrooks,10675482,3B,2100,NYM@PHI 05/12/2018 07:05PM ET,PHI,0
2B/3B,Adam Rosales (10675483),Adam Rosales,10675483,2B/3B,2100,NYM@PHI 05/12/2018 07:05PM ET,PHI,0
OF,Carlos Tocci (10675485),Carlos Tocci,10675485,OF,2000,TEX@HOU 05/12/2018 07:10PM ET,TEX,0.91
2B/SS,Darwin Barney (10675486),Darwin Barney,10675486,2B/SS,2000,TEX@HOU 05/12/2018 07:10PM ET,TEX,0
OF,Leody Taveras (10675488),Leody Taveras,10675488,OF,2000,TEX@HOU 05/12/2018 07:10PM ET,TEX,0
OF,Bubba Thompson (10675489),Bubba Thompson,10675489,OF,2000,TEX@HOU 05/12/2018 07:10PM ET,TEX,0
SS,Delvin Perez (10675490),Delvin Perez,10675490,SS,2000,STL@SD 05/12/2018 08:40PM ET,STL,0
3B/OF,Patrick Kivlehan (10675491),Patrick Kivlehan,10675491,3B/OF,2000,CIN@LAD 05/12/2018 09:10PM ET,CIN,0
1B,Chris Carter (10675493),Chris Carter,10675493,1B,2000,MIN@LAA 05/12/2018 09:07PM ET,LAA,0
OF,Rymer Liriano (10675494),Rymer Liriano,10675494,OF,2000,MIN@LAA 05/12/2018 09:07PM ET,LAA,0
OF,Chris Heisey (10675495),Chris Heisey,10675495,OF,2000,MIN@LAA 05/12/2018 09:07PM ET,MIN,0
1B/C,Ryan Lavarnway (10675496),Ryan Lavarnway,10675496,C/1B,2000,SF@PIT 05/12/2018 07:05PM ET,PIT,0
OF,Heliot Ramos (10675498),Heliot Ramos,10675498,OF,2000,SF@PIT 05/12/2018 07:05PM ET,SF,0
SS,Kevin Maitan (10675499),Kevin Maitan,10675499,SS,2000,ATL@MIA 05/12/2018 07:10PM ET,ATL,0
OF,Monte Harrison (10675500),Monte Harrison,10675500,OF,2000,ATL@MIA 05/12/2018 07:10PM ET,MIA,0
2B,Johnny Giavotella (10675501),Johnny Giavotella,10675501,2B,2000,ATL@MIA 05/12/2018 07:10PM ET,MIA,0
2B/SS,Cristhian Adames (10675502),Cristhian Adames,10675502,2B/SS,2000,ATL@MIA 05/12/2018 07:10PM ET,MIA,0
2B/SS,Grant Green (10675504),Grant Green,10675504,2B/SS,2000,ATL@MIA 05/12/2018 07:10PM ET,MIA,0
2B/SS,Yadiel Rivera (10675506),Yadiel Rivera,10675506,2B/SS,2000,ATL@MIA 05/12/2018 07:10PM ET,MIA,0.90
2B/SS,Jesmuel Valentin (10675508),Jesmuel Valentin,10675508,2B/SS,2000,NYM@PHI 05/12/2018 07:05PM ET,PHI,0.43
OF,Adam Haseley (10675510),Adam Haseley,10675510,OF,2000,NYM@PHI 05/12/2018 07:05PM ET,PHI,0
OF,Mickey Moniak (10675511),Mickey Moniak,10675511,OF,2000,NYM@PHI 05/12/2018 07:05PM ET,PHI,0
