F,F,M,M,D,D,GK,UTIL,,Instructions,,,,,,,,
10646150,10646161,10646057,10646132,10645875,10645893,10645854,10646144,,1. Locate the player you want to select in the list below ,,,,,,,,
10646138,10646135,10646059,10646028,10645875,10645927,10645859,10645992,,2. Copy the ID of your player (you can use the Name + ID column or the ID column) ,,,,,,,,
10646138,10646135,10646059,10646028,10645893,10645907,10645854,10645992,,3. Paste the ID into the roster position desired ,,,,,,,,
10646138,10646161,10646096,10646132,10645887,10645893,10645854,10646144,,4. You must include an ID for each player; you cannot use just the player's name ,,,,,,,,
10646150,10645998,10646135,10645992,10645927,10645945,10645859,10646028,,5. You can create up to 500 lineups per file ,,,,,,,,
10646150,10645998,10646023,10646135,10645875,10645927,10645859,10646028,,,,,,,,,,
10646138,10646135,10646023,10646028,10645915,10645927,10645859,10645992,,Position,Name + ID,Name,ID,Roster Position,Salary,Game Info,TeamAbbrev,AvgPointsPerGame
10646150,10645998,10646023,10646135,10645893,10645907,10645854,10646028,,M/F,Mohamed Salah (10646132),Mohamed Salah,10646132,M/F/UTIL,10100,CHE vs LIV 11:30AM ET,LIV,19.13
10646138,10646161,10646057,10646132,10645893,10645901,10645854,10646144,,M/F,Kevin De Bruyne (10645989),Kevin De Bruyne,10645989,M/F/UTIL,10000,MCI vs HUD 08:30AM ET,MCI,15.41
10646150,10645998,10645992,10646144,10645893,10645945,10645854,10646028,,M/F,Raheem Sterling (10646135),Raheem Sterling,10646135,M/F/UTIL,9500,MCI vs HUD 08:30AM ET,MCI,14.13
10646150,10645998,10646059,10646135,10645875,10645893,10645854,10646028,,F,Gabriel Jesus (10646138),Gabriel Jesus,10646138,F/UTIL,9000,MCI vs HUD 08:30AM ET,MCI,8.62
10646138,10646135,10646035,10646028,10645887,10645927,10645859,10645992,,M/F,Leroy Sane (10645992),Leroy Sane,10645992,M/F/UTIL,8800,MCI vs HUD 08:30AM ET,MCI,11.41
10646150,10645998,10646023,10646144,10645875,10645893,10645854,10646028,,F,Pierre-Emerick Aubameyang (10646140),Pierre-Emerick Aubameyang,10646140,F/UTIL,8600,ARS vs BUR 11:30AM ET,ARS,12.82
10646150,10646161,10646096,10646132,10645893,10645907,10645854,10646144,,M/F, Willian (10645995), Willian,10645995,M/F/UTIL,8200,CHE vs LIV 11:30AM ET,CHE,8.92
10646150,10646161,10646015,10646132,10645893,10645909,10645854,10646144,,M/F,Eden Hazard (10645998),Eden Hazard,10645998,M/F/UTIL,8100,CHE vs LIV 11:30AM ET,CHE,11.52
10646161,10646028,10646015,10646132,10645875,10645893,10645854,10646144,,M,Henrikh Mkhitaryan (10646001),Henrikh Mkhitaryan,10646001,M/UTIL,8000,ARS vs BUR 11:30AM ET,ARS,9.63
10646138,10646135,10646061,10646028,10645875,10645915,10645859,10645992,,F,Alexandre Lacazette (10646142),Alexandre Lacazette,10646142,F/UTIL,8000,ARS vs BUR 11:30AM ET,ARS,9.34
10646138,10646135,10646023,10646061,10645875,10645927,10645859,10645992,,M,David Silva (10646003),David Silva,10646003,M/UTIL,7800,MCI vs HUD 08:30AM ET,MCI,11.79
10646138,10646135,10646047,10646028,10645879,10645927,10645859,10645992,,M,Aaron Ramsey (10646005),Aaron Ramsey,10646005,M/UTIL,7600,ARS vs BUR 11:30AM ET,ARS,11.61
10646138,10646161,10646057,10646132,10645887,10645907,10645854,10646144,,M,Mesut Ozil (10646007),Mesut Ozil,10646007,M/UTIL,7400,ARS vs BUR 11:30AM ET,ARS,9.33
10646150,10646161,10646096,10646132,10645875,10645879,10645854,10646144,,M/F,Johann Berg Gudmundsson (10646009),Johann Berg Gudmundsson,10646009,M/F/UTIL,7300,ARS vs BUR 11:30AM ET,BUR,10.48
10646138,10646150,10646096,10646132,10645893,10645951,10645854,10646144,,M/F,Roberto Firmino (10646144),Roberto Firmino,10646144,M/F/UTIL,7300,CHE vs LIV 11:30AM ET,LIV,10.91
10646150,10645998,10646135,10646144,10645907,10645945,10645854,10646028,,M/F,Sadio Mane (10646147),Sadio Mane,10646147,M/F/UTIL,7200,CHE vs LIV 11:30AM ET,LIV,11.11
10646138,10646135,10646059,10645998,10645927,10645945,10645859,10645992,,F,Olivier Giroud (10646150),Olivier Giroud,10646150,F/UTIL,7100,CHE vs LIV 11:30AM ET,CHE,4.77
10646150,10645998,10646135,10645992,10645915,10645951,10645859,10646028,,M/F,Bernardo Silva (10646012),Bernardo Silva,10646012,M/F/UTIL,7100,MCI vs HUD 08:30AM ET,MCI,5.7
10646138,10646135,10646023,10646028,10645887,10645945,10645859,10645992,,F,Alvaro Morata (10646152),Alvaro Morata,10646152,F/UTIL,7000,CHE vs LIV 11:30AM ET,CHE,10.01
10646138,10646135,10646023,10646059,10645875,10645915,10645859,10645992,,F,Danny Welbeck (10646154),Danny Welbeck,10646154,F/UTIL,6300,ARS vs BUR 11:30AM ET,ARS,4.93
10646150,10645998,10646023,10645992,10645875,10645887,10645859,10646028,,M,James Milner (10646015),James Milner,10646015,M/UTIL,6000,CHE vs LIV 11:30AM ET,LIV,6.56
10646161,10645998,10646096,10646132,10645875,10645893,10645854,10646144,,GK,Ederson Ederson (10645854),Ederson Ederson,10645854,GK,6000,MCI vs HUD 08:30AM ET,MCI,8.31
10646140,10646161,10646057,10646132,10645893,10645907,10645854,10646144,,M/F, Pedro (10646156), Pedro,10646156,M/F/UTIL,5900,CHE vs LIV 11:30AM ET,CHE,6.69
10646150,10645998,10646035,10645992,10645875,10645893,10645854,10646028,,GK,Claudio Bravo (10645855),Claudio Bravo,10645855,GK,5900,MCI vs HUD 08:30AM ET,MCI,0
10646150,10645998,10646035,10646135,10645875,10645887,10645859,10646028,,M,Granit Xhaka (10646017),Granit Xhaka,10646017,M/UTIL,5700,ARS vs BUR 11:30AM ET,ARS,7.51
10646150,10645998,10646135,10646144,10645893,10645963,10645854,10646028,,M,Marcos Alonso (10646019),Marcos Alonso,10646019,M/UTIL,5600,CHE vs LIV 11:30AM ET,CHE,10.11
10646150,10645998,10646023,10645992,10645879,10645893,10645854,10646028,,GK,David Ospina (10645856),David Ospina,10645856,GK,5500,ARS vs BUR 11:30AM ET,ARS,5.75
10646150,10645998,10646003,10646144,10645893,10645907,10645854,10646028,,D,Benjamin Mendy (10645875),Benjamin Mendy,10645875,D/UTIL,5500,MCI vs HUD 08:30AM ET,MCI,8.3
10646150,10645998,10646023,10646135,10645879,10645887,10645859,10646028,,GK,Petr Cech (10645857),Petr Cech,10645857,GK,5400,ARS vs BUR 11:30AM ET,ARS,6.63
10646138,10646161,10646057,10646132,10645875,10645909,10645854,10646144,,GK,Matt Macey (10645858),Matt Macey,10645858,GK,5400,ARS vs BUR 11:30AM ET,ARS,0
10646150,10646161,10646015,10646132,10645875,10645951,10645854,10646144,,M,Ilkay Gundogan (10646021),Ilkay Gundogan,10646021,M/UTIL,5400,MCI vs HUD 08:30AM ET,MCI,4.32
10646138,10646135,10646059,10646061,10645875,10645893,10645854,10645992,,F,Ashley Barnes (10646159),Ashley Barnes,10646159,F/UTIL,5300,ARS vs BUR 11:30AM ET,BUR,6.53
10646150,10645998,10646035,10646135,10645879,10645893,10645854,10646028,,D,Nacho Monreal (10645877),Nacho Monreal,10645877,D/UTIL,5200,ARS vs BUR 11:30AM ET,ARS,7.84
,,,,,,,,,M,Cesc Fabregas (10646023),Cesc Fabregas,10646023,M/UTIL,5100,CHE vs LIV 11:30AM ET,CHE,7.99
,,,,,,,,,F,Danny Ings (10646161),Danny Ings,10646161,F/UTIL,5100,CHE vs LIV 11:30AM ET,LIV,4.07
,,,,,,,,,D, Danilo (10645879), Danilo,10645879,D/UTIL,5100,MCI vs HUD 08:30AM ET,MCI,5.61
,,,,,,,,,M/F,Alex Iwobi (10646025),Alex Iwobi,10646025,M/F/UTIL,5000,ARS vs BUR 11:30AM ET,ARS,6.16
,,,,,,,,,D, Emerson (10645881), Emerson,10645881,D/UTIL,5000,CHE vs LIV 11:30AM ET,CHE,6.25
,,,,,,,,,F,Dominic Solanke (10646163),Dominic Solanke,10646163,F/UTIL,5000,CHE vs LIV 11:30AM ET,LIV,1.83
,,,,,,,,,D,Sead Kolasinac (10645885),Sead Kolasinac,10645885,D/UTIL,4900,ARS vs BUR 11:30AM ET,ARS,5.48
,,,,,,,,,GK,Thibaut Courtois (10645859),Thibaut Courtois,10645859,GK,4900,CHE vs LIV 11:30AM ET,CHE,7.2
,,,,,,,,,D,Davide Zappacosta (10645883),Davide Zappacosta,10645883,D/UTIL,4900,CHE vs LIV 11:30AM ET,CHE,7.3
,,,,,,,,,M/F,Victor Moses (10646028),Victor Moses,10646028,M/F/UTIL,4900,CHE vs LIV 11:30AM ET,CHE,7.54
,,,,,,,,,D,Hector Bellerin (10645887),Hector Bellerin,10645887,D/UTIL,4800,ARS vs BUR 11:30AM ET,ARS,5.35
,,,,,,,,,GK,Willy Caballero (10645860),Willy Caballero,10645860,GK,4800,CHE vs LIV 11:30AM ET,CHE,8
,,,,,,,,,GK, Eduardo (10645861), Eduardo,10645861,GK,4800,CHE vs LIV 11:30AM ET,CHE,0
,,,,,,,,,D,Kyle Walker (10645889),Kyle Walker,10645889,D/UTIL,4700,MCI vs HUD 08:30AM ET,MCI,5.72
,,,,,,,,,M,Alex Pritchard (10646031),Alex Pritchard,10646031,M/UTIL,4700,MCI vs HUD 08:30AM ET,HUD,7.82
,,,,,,,,,F,Chris Wood (10646165),Chris Wood,10646165,F/UTIL,4600,ARS vs BUR 11:30AM ET,BUR,7.4
,,,,,,,,,D,Trent Alexander-Arnold (10645891),Trent Alexander-Arnold,10645891,D/UTIL,4600,CHE vs LIV 11:30AM ET,LIV,8.5
,,,,,,,,,D,Alberto Moreno (10645893),Alberto Moreno,10645893,D/UTIL,4600,CHE vs LIV 11:30AM ET,LIV,7.67
,,,,,,,,,M,Ross Barkley (10646033),Ross Barkley,10646033,M/UTIL,4600,CHE vs LIV 11:30AM ET,CHE,2
,,,,,,,,,M,Yaya Toure (10646035),Yaya Toure,10646035,M/UTIL,4600,MCI vs HUD 08:30AM ET,MCI,1.89
,,,,,,,,,M,Georges-Kevin Nkoudou (10646037),Georges-Kevin Nkoudou,10646037,M/UTIL,4500,ARS vs BUR 11:30AM ET,BUR,2.97
,,,,,,,,,GK,Loris Karius (10645862),Loris Karius,10645862,GK,4500,CHE vs LIV 11:30AM ET,LIV,7.38
,,,,,,,,,D,Nicolas Otamendi (10645895),Nicolas Otamendi,10645895,D/UTIL,4500,MCI vs HUD 08:30AM ET,MCI,5.56
,,,,,,,,,D,Oleksandr Zinchenko (10645897),Oleksandr Zinchenko,10645897,D/UTIL,4500,MCI vs HUD 08:30AM ET,MCI,3.57
,,,,,,,,,M,Aaron Mooy (10646039),Aaron Mooy,10646039,M/UTIL,4500,MCI vs HUD 08:30AM ET,HUD,8.74
,,,,,,,,,M,Jack Wilshere (10646041),Jack Wilshere,10646041,M/UTIL,4400,ARS vs BUR 11:30AM ET,ARS,4.04
,,,,,,,,,GK,Simon Mignolet (10645863),Simon Mignolet,10645863,GK,4400,CHE vs LIV 11:30AM ET,LIV,5.76
,,,,,,,,,D,Fabian Delph (10645899),Fabian Delph,10645899,D/UTIL,4400,MCI vs HUD 08:30AM ET,MCI,4.84
,,,,,,,,,M, Fernandinho (10646043), Fernandinho,10646043,M/UTIL,4400,MCI vs HUD 08:30AM ET,MCI,5.54
,,,,,,,,,D,Cesar Azpilicueta (10645901),Cesar Azpilicueta,10645901,D/UTIL,4300,CHE vs LIV 11:30AM ET,CHE,7.22
,,,,,,,,,M,Adam Lallana (10646045),Adam Lallana,10646045,M/UTIL,4300,CHE vs LIV 11:30AM ET,LIV,1.7
,,,,,,,,,D,Andrew Robertson (10645903),Andrew Robertson,10645903,D/UTIL,4200,CHE vs LIV 11:30AM ET,LIV,7.31
,,,,,,,,,D,Shkodran Mustafi (10645905),Shkodran Mustafi,10645905,D/UTIL,4100,ARS vs BUR 11:30AM ET,ARS,6
,,,,,,,,,F,Sam Vokes (10646167),Sam Vokes,10646167,F/UTIL,4100,ARS vs BUR 11:30AM ET,BUR,3.17
,,,,,,,,,GK,Nick Pope (10645864),Nick Pope,10645864,GK,4000,ARS vs BUR 11:30AM ET,BUR,8.33
,,,,,,,,,D,Nathaniel Clyne (10645907),Nathaniel Clyne,10645907,D/UTIL,4000,CHE vs LIV 11:30AM ET,LIV,5.88
,,,,,,,,,F,Steve Mounie (10646169),Steve Mounie,10646169,F/UTIL,4000,MCI vs HUD 08:30AM ET,HUD,5.96
,,,,,,,,,GK,Tom Heaton (10645865),Tom Heaton,10645865,GK,3900,ARS vs BUR 11:30AM ET,BUR,3.25
,,,,,,,,,GK,Anders Lindegaard (10645866),Anders Lindegaard,10645866,GK,3900,ARS vs BUR 11:30AM ET,BUR,0
,,,,,,,,,D,Calum Chambers (10645911),Calum Chambers,10645911,D/UTIL,3900,ARS vs BUR 11:30AM ET,ARS,3.25
,,,,,,,,,F,Reiss Nelson (10646171),Reiss Nelson,10646171,F/UTIL,3900,ARS vs BUR 11:30AM ET,ARS,3.08
,,,,,,,,,M,Rajiv van La Parra (10646047),Rajiv van La Parra,10646047,M/UTIL,3900,MCI vs HUD 08:30AM ET,HUD,6.97
,,,,,,,,,D,Stephen Ward (10645909),Stephen Ward,10645909,D/UTIL,3800,ARS vs BUR 11:30AM ET,BUR,6.77
,,,,,,,,,M/F,Jonathan Walters (10646173),Jonathan Walters,10646173,M/F/UTIL,3800,ARS vs BUR 11:30AM ET,BUR,0.92
,,,,,,,,,D,Vincent Kompany (10645913),Vincent Kompany,10645913,D/UTIL,3800,MCI vs HUD 08:30AM ET,MCI,2.94
,,,,,,,,,M,Tom Ince (10646049),Tom Ince,10646049,M/UTIL,3800,MCI vs HUD 08:30AM ET,HUD,6.4
,,,,,,,,,D,Florent Hadergjonaj (10645915),Florent Hadergjonaj,10645915,D/UTIL,3700,MCI vs HUD 08:30AM ET,HUD,5.41
,,,,,,,,,D,John Stones (10645917),John Stones,10645917,D/UTIL,3700,MCI vs HUD 08:30AM ET,MCI,3.09
,,,,,,,,,F,Laurent Depoitre (10646176),Laurent Depoitre,10646176,F/UTIL,3700,MCI vs HUD 08:30AM ET,HUD,3.3
,,,,,,,,,M,Aaron Lennon (10646051),Aaron Lennon,10646051,M/UTIL,3600,ARS vs BUR 11:30AM ET,BUR,3.35
,,,,,,,,,F,Nahki Wells (10646178),Nahki Wells,10646178,F/UTIL,3600,ARS vs BUR 11:30AM ET,BUR,0.54
,,,,,,,,,D,Joseph Gomez (10645919),Joseph Gomez,10645919,D/UTIL,3600,CHE vs LIV 11:30AM ET,LIV,5.99
,,,,,,,,,GK,Jonas Lossl (10645867),Jonas Lossl,10645867,GK,3600,MCI vs HUD 08:30AM ET,HUD,5.26
,,,,,,,,,D,Scott Malone (10645921),Scott Malone,10645921,D/UTIL,3600,MCI vs HUD 08:30AM ET,HUD,4.6
,,,,,,,,,GK,Adam Legzdins (10645868),Adam Legzdins,10645868,GK,3500,ARS vs BUR 11:30AM ET,BUR,0
,,,,,,,,,GK,Dejan Iliev (10645869),Dejan Iliev,10645869,GK,3500,ARS vs BUR 11:30AM ET,ARS,0
,,,,,,,,,D,Matthew Lowton (10645923),Matthew Lowton,10645923,D/UTIL,3500,ARS vs BUR 11:30AM ET,BUR,6.03
,,,,,,,,,D,Laurent Koscielny (10645925),Laurent Koscielny,10645925,D/UTIL,3500,ARS vs BUR 11:30AM ET,ARS,4.79
,,,,,,,,,M,Scott Arfield (10646053),Scott Arfield,10646053,M/UTIL,3500,ARS vs BUR 11:30AM ET,BUR,4.89
,,,,,,,,,F,Josh Da Silva (10646180),Josh Da Silva,10646180,F/UTIL,3500,ARS vs BUR 11:30AM ET,ARS,0
,,,,,,,,,F,Eddie Nketiah (10646182),Eddie Nketiah,10646182,F/UTIL,3500,ARS vs BUR 11:30AM ET,ARS,1.5
,,,,,,,,,GK,Adam Bogdan (10645870),Adam Bogdan,10645870,GK,3500,CHE vs LIV 11:30AM ET,LIV,0
,,,,,,,,,GK,Danny Ward (10645871),Danny Ward,10645871,GK,3500,CHE vs LIV 11:30AM ET,LIV,0
,,,,,,,,,M/F,Alex Oxlade-Chamberlain (10646091),Alex Oxlade-Chamberlain,10646091,M/F/UTIL,3500,CHE vs LIV 11:30AM ET,LIV,6.36
,,,,,,,,,F,Rhian Brewster (10646184),Rhian Brewster,10646184,F/UTIL,3500,CHE vs LIV 11:30AM ET,LIV,0
,,,,,,,,,GK,Joel Coleman (10645872),Joel Coleman,10645872,GK,3500,MCI vs HUD 08:30AM ET,HUD,0
,,,,,,,,,GK,Robert Green (10645873),Robert Green,10645873,GK,3500,MCI vs HUD 08:30AM ET,HUD,0
,,,,,,,,,GK,Daniel Grimshaw (10645874),Daniel Grimshaw,10645874,GK,3500,MCI vs HUD 08:30AM ET,MCI,0
,,,,,,,,,D,Terence Kongolo (10645927),Terence Kongolo,10645927,D/UTIL,3500,MCI vs HUD 08:30AM ET,HUD,5.15
,,,,,,,,,D,Aymeric Laporte (10645929),Aymeric Laporte,10645929,D/UTIL,3500,MCI vs HUD 08:30AM ET,MCI,2.68
,,,,,,,,,F,Elias Kachunga (10646186),Elias Kachunga,10646186,F/UTIL,3500,MCI vs HUD 08:30AM ET,HUD,5.18
,,,,,,,,,F,Collin Quaner (10646188),Collin Quaner,10646188,F/UTIL,3500,MCI vs HUD 08:30AM ET,HUD,3.62
,,,,,,,,,F,Sergio Aguero (10646190),Sergio Aguero,10646190,F/UTIL,3500,MCI vs HUD 08:30AM ET,MCI,16.48
,,,,,,,,,F,Lukas Nmecha (10646192),Lukas Nmecha,10646192,F/UTIL,3500,MCI vs HUD 08:30AM ET,MCI,0
,,,,,,,,,D,David Luiz (10645931),David Luiz,10645931,D/UTIL,3400,CHE vs LIV 11:30AM ET,CHE,5.78
,,,,,,,,,D,Chris Lowe (10645933),Chris Lowe,10645933,D/UTIL,3400,MCI vs HUD 08:30AM ET,HUD,5.51
,,,,,,,,,M,Phil Foden (10646055),Phil Foden,10646055,M/UTIL,3400,MCI vs HUD 08:30AM ET,MCI,2.94
,,,,,,,,,D,Kevin Long (10645935),Kevin Long,10645935,D/UTIL,3300,ARS vs BUR 11:30AM ET,BUR,6.18
,,,,,,,,,D,Per Mertesacker (10645937),Per Mertesacker,10645937,D/UTIL,3300,ARS vs BUR 11:30AM ET,ARS,4.3
,,,,,,,,,D,Virgil van Dijk (10645939),Virgil van Dijk,10645939,D/UTIL,3300,CHE vs LIV 11:30AM ET,LIV,3.97
,,,,,,,,,D,Rob Holding (10645941),Rob Holding,10645941,D/UTIL,3200,ARS vs BUR 11:30AM ET,ARS,2.39
,,,,,,,,,M,Georginio Wijnaldum (10646057),Georginio Wijnaldum,10646057,M/UTIL,3200,CHE vs LIV 11:30AM ET,LIV,3.41
,,,,,,,,,M,Tiemoue Bakayoko (10646059),Tiemoue Bakayoko,10646059,M/UTIL,3200,CHE vs LIV 11:30AM ET,CHE,4.81
,,,,,,,,,D,Konstantinos Mavropanos (10645943),Konstantinos Mavropanos,10645943,D/UTIL,3100,ARS vs BUR 11:30AM ET,ARS,2.5
,,,,,,,,,M,N'Golo Kante (10646061),N'Golo Kante,10646061,M/UTIL,3100,CHE vs LIV 11:30AM ET,CHE,4.9
,,,,,,,,,M,Robbie Brady (10646063),Robbie Brady,10646063,M/UTIL,3000,ARS vs BUR 11:30AM ET,BUR,11.02
,,,,,,,,,M,Aiden O'Neill (10646065),Aiden O'Neill,10646065,M/UTIL,3000,ARS vs BUR 11:30AM ET,BUR,0
,,,,,,,,,M,Steven Defour (10646067),Steven Defour,10646067,M/UTIL,3000,ARS vs BUR 11:30AM ET,BUR,4.36
,,,,,,,,,M,Jack Cork (10646069),Jack Cork,10646069,M/UTIL,3000,ARS vs BUR 11:30AM ET,BUR,4.21
,,,,,,,,,M,Ashley Westwood (10646071),Ashley Westwood,10646071,M/UTIL,3000,ARS vs BUR 11:30AM ET,BUR,2.07
,,,,,,,,,M,Jeff Hendrick (10646073),Jeff Hendrick,10646073,M/UTIL,3000,ARS vs BUR 11:30AM ET,BUR,2.86
,,,,,,,,,M,Dean Marney (10646075),Dean Marney,10646075,M/UTIL,3000,ARS vs BUR 11:30AM ET,BUR,0
,,,,,,,,,M,Brad Jackson (10646077),Brad Jackson,10646077,M/UTIL,3000,ARS vs BUR 11:30AM ET,BUR,0
,,,,,,,,,M,Mohamed Elneny (10646079),Mohamed Elneny,10646079,M/UTIL,3000,ARS vs BUR 11:30AM ET,ARS,1.62
,,,,,,,,,M,Ainsley Maitland-Niles (10646081),Ainsley Maitland-Niles,10646081,M/UTIL,3000,ARS vs BUR 11:30AM ET,ARS,2.62
,,,,,,,,,M,Joe Willock (10646083),Joe Willock,10646083,M/UTIL,3000,ARS vs BUR 11:30AM ET,ARS,1
,,,,,,,,,M,Santiago Cazorla (10646085),Santiago Cazorla,10646085,M/UTIL,3000,ARS vs BUR 11:30AM ET,ARS,0
,,,,,,,,,M,Charlie Gilmour (10646087),Charlie Gilmour,10646087,M/UTIL,3000,ARS vs BUR 11:30AM ET,ARS,0
,,,,,,,,,M,Vlad Dragomir (10646089),Vlad Dragomir,10646089,M/UTIL,3000,ARS vs BUR 11:30AM ET,ARS,0
,,,,,,,,,D,Antonio Rudiger (10645945),Antonio Rudiger,10645945,D/UTIL,3000,CHE vs LIV 11:30AM ET,CHE,4.2
,,,,,,,,,M,Emre Can (10646094),Emre Can,10646094,M/UTIL,3000,CHE vs LIV 11:30AM ET,LIV,6.41
,,,,,,,,,M,Jordan Henderson (10646096),Jordan Henderson,10646096,M/UTIL,3000,CHE vs LIV 11:30AM ET,LIV,3.83
,,,,,,,,,M,Ben Woodburn (10646098),Ben Woodburn,10646098,M/UTIL,3000,CHE vs LIV 11:30AM ET,LIV,0
,,,,,,,,,M,Curtis Jones (10646100),Curtis Jones,10646100,M/UTIL,3000,CHE vs LIV 11:30AM ET,LIV,0
,,,,,,,,,M, Paulinho (10646102), Paulinho,10646102,M/UTIL,3000,CHE vs LIV 11:30AM ET,LIV,0
,,,,,,,,,M,Rafael Camacho (10646104),Rafael Camacho,10646104,M/UTIL,3000,CHE vs LIV 11:30AM ET,LIV,0
,,,,,,,,,M,Daniel Drinkwater (10646106),Daniel Drinkwater,10646106,M/UTIL,3000,CHE vs LIV 11:30AM ET,CHE,2.71
,,,,,,,,,M,Kyle Scott (10646108),Kyle Scott,10646108,M/UTIL,3000,CHE vs LIV 11:30AM ET,CHE,0
,,,,,,,,,M,Dujon Sterling (10646110),Dujon Sterling,10646110,M/UTIL,3000,CHE vs LIV 11:30AM ET,CHE,0
,,,,,,,,,M,Callum Hudson-Odoi (10646112),Callum Hudson-Odoi,10646112,M/UTIL,3000,CHE vs LIV 11:30AM ET,CHE,2.25
,,,,,,,,,D,Tommy Smith (10645947),Tommy Smith,10645947,D/UTIL,3000,MCI vs HUD 08:30AM ET,HUD,5.08
,,,,,,,,,M,Sean Scannell (10646114),Sean Scannell,10646114,M/UTIL,3000,MCI vs HUD 08:30AM ET,HUD,0
,,,,,,,,,M,Abdelhamid Sabiri (10646116),Abdelhamid Sabiri,10646116,M/UTIL,3000,MCI vs HUD 08:30AM ET,HUD,3.35
,,,,,,,,,M,Danny Williams (10646118),Danny Williams,10646118,M/UTIL,3000,MCI vs HUD 08:30AM ET,HUD,2.58
,,,,,,,,,M,Jonathan Hogg (10646120),Jonathan Hogg,10646120,M/UTIL,3000,MCI vs HUD 08:30AM ET,HUD,3.46
,,,,,,,,,M,Philip Billing (10646122),Philip Billing,10646122,M/UTIL,3000,MCI vs HUD 08:30AM ET,HUD,2.29
,,,,,,,,,M,Dean Whitehead (10646124),Dean Whitehead,10646124,M/UTIL,3000,MCI vs HUD 08:30AM ET,HUD,0.17
,,,,,,,,,M,Lewis O'Brien (10646126),Lewis O'Brien,10646126,M/UTIL,3000,MCI vs HUD 08:30AM ET,HUD,0
,,,,,,,,,M,Tom Dele-Bashiru (10646128),Tom Dele-Bashiru,10646128,M/UTIL,3000,MCI vs HUD 08:30AM ET,MCI,0
,,,,,,,,,M,Brahim Diaz (10646130),Brahim Diaz,10646130,M/UTIL,3000,MCI vs HUD 08:30AM ET,MCI,2.08
,,,,,,,,,D,Ethan Ampadu (10645949),Ethan Ampadu,10645949,D/UTIL,2900,CHE vs LIV 11:30AM ET,CHE,1
,,,,,,,,,D,Gary Cahill (10645951),Gary Cahill,10645951,D/UTIL,2800,CHE vs LIV 11:30AM ET,CHE,2.82
,,,,,,,,,D,Dejan Lovren (10645953),Dejan Lovren,10645953,D/UTIL,2700,CHE vs LIV 11:30AM ET,LIV,3.34
,,,,,,,,,D,Andreas Christensen (10645955),Andreas Christensen,10645955,D/UTIL,2700,CHE vs LIV 11:30AM ET,CHE,2.8
,,,,,,,,,D,Phil Bardsley (10645957),Phil Bardsley,10645957,D/UTIL,2600,ARS vs BUR 11:30AM ET,BUR,4.44
,,,,,,,,,D,Ragnar Klavan (10645959),Ragnar Klavan,10645959,D/UTIL,2600,CHE vs LIV 11:30AM ET,LIV,3.33
,,,,,,,,,D,Charlie Taylor (10645961),Charlie Taylor,10645961,D/UTIL,2500,ARS vs BUR 11:30AM ET,BUR,3.73
,,,,,,,,,D,James Tarkowski (10645963),James Tarkowski,10645963,D/UTIL,2500,ARS vs BUR 11:30AM ET,BUR,3.64
,,,,,,,,,D,Ben Mee (10645965),Ben Mee,10645965,D/UTIL,2500,ARS vs BUR 11:30AM ET,BUR,3.9
,,,,,,,,,D,Jordi Osei-Tutu (10645967),Jordi Osei-Tutu,10645967,D/UTIL,2500,ARS vs BUR 11:30AM ET,ARS,0
,,,,,,,,,D,Joel Matip (10645969),Joel Matip,10645969,D/UTIL,2500,CHE vs LIV 11:30AM ET,LIV,3.5
,,,,,,,,,D,Conor Masterson (10645971),Conor Masterson,10645971,D/UTIL,2500,CHE vs LIV 11:30AM ET,LIV,0
,,,,,,,,,D,Trevoh Chalobah (10645973),Trevoh Chalobah,10645973,D/UTIL,2500,CHE vs LIV 11:30AM ET,CHE,0
,,,,,,,,,D,Christopher Schindler (10645975),Christopher Schindler,10645975,D/UTIL,2500,MCI vs HUD 08:30AM ET,HUD,3.79
,,,,,,,,,D,Jordan Williams (10645977),Jordan Williams,10645977,D/UTIL,2500,MCI vs HUD 08:30AM ET,HUD,0
,,,,,,,,,D, Zanka (10645979), Zanka,10645979,D/UTIL,2500,MCI vs HUD 08:30AM ET,HUD,2.93
,,,,,,,,,D,Jon Gorenc Stankovic (10645981),Jon Gorenc Stankovic,10645981,D/UTIL,2500,MCI vs HUD 08:30AM ET,HUD,0
,,,,,,,,,D,Michael Hefele (10645983),Michael Hefele,10645983,D/UTIL,2500,MCI vs HUD 08:30AM ET,HUD,-1
,,,,,,,,,D,Tosin Adarabioyo (10645985),Tosin Adarabioyo,10645985,D/UTIL,2500,MCI vs HUD 08:30AM ET,MCI,0
,,,,,,,,,D,Demeaco Duhaney (10645987),Demeaco Duhaney,10645987,D/UTIL,2500,MCI vs HUD 08:30AM ET,MCI,0
